HD027778
HD030470 
HD030492 
HD037903
HD038023
HD046149
HD046202 take R03
HD046223 take R03
HD047382 BAD ?
HD054439 
HD062542
HD070614 
HD091824
HD092044
HD093205
HD093222 take R04 still bad
HD096675 
HD101008 take R04
HD108927 
HD110336
HD110715 
HD110946 
HD112607 
HD112954 
HD122879 take R03
HD129557 
HD146284 take R04
HD146285 take R04
HD147196 take R03
HD148379 take R04
HD148579 
HD148594
HD152235 take R03
HD152245 
HD152249 take R04
HD156247 
HD164402
HD167264
HD167771 take R04
HD168076 BAD
HD170634 take R04
HD170740
HD180968 BAD
HD185418 take R03
HD287150
HD294304 take R04
HD303308 take R03
HD315021
HD315023 take R04
HD315024
HD315032 
