  abuc    abusi    avsi   avgr    apah     qmrn  rlec      rlesi     r_pmin_aC r_pmin_Si r_pmax    r_Darkmax 
  28.497  15.000   7.445   9.609  10.647   2.381 2.013e-05 2.219e-05 1.200e-05 8.000e-06 1.500e-04 2.198e-04 4.590e+00 2.000e+00
   2.0274   0.0000   0.4034   1.2824   1.9312   0.0833  0.0000e+00  0.0000e+00  0.0000e+00  0.0000e+00
  -0.0000  -0.0000
   redchi2, redchi2p   0.3904 999.0000
   Mean Rad aC, Si, , aCalig, Sia  8.83e-06  9.67e-06  1.62e-05  1.50e-05  1.10e-04
