  abuc    abusi    avsi   avgr    apah     qmrn  rlec      rlesi     r_pmin_aC r_pmin_Si r_pmax    r_Darkmax 
  48.044  15.000   5.872   7.112  11.567   2.369 2.013e-05 2.219e-05 1.200e-05 8.000e-06 1.500e-04 1.417e-04 4.575e+00 1.819e+00
   5.0914   0.0000   0.2819   1.5132   7.5806   0.0570  0.0000e+00  0.0000e+00  0.0000e+00  0.0000e+00
  -0.0000   1.1357
   redchi2, redchi2p   0.5632 999.0000
   Mean Rad aC, Si, , aCalig, Sia  8.89e-06  9.74e-06  1.62e-05  1.50e-05  7.67e-05
