 # Optical depth:  wel [cm]  N*sig* [cm^2/cm^2/g dust ISM] 
 # wel(cm) sa_aC    ss_aC    sa_Si    ss_Si    sa_vgr   ss_vgr   sa_vsi   ss_vsi   s_pahS+B sa_Dark  ss_Dark sigt 
 # ------------------------------------------------------------------------------------------------------------- 
1.000E+00 1.17E-07 4.51E-17 2.40E-07 3.48E-17 5.86E-09 5.27E-23 9.41E-08 1.51E-22 3.66E-12 0.00E+00 0.00E+00 4.571E-07
9.000E-01 1.37E-07 6.87E-17 2.83E-07 5.30E-17 7.47E-09 8.03E-23 1.12E-07 2.30E-22 4.51E-12 0.00E+00 0.00E+00 5.399E-07
8.000E-01 1.64E-07 1.10E-16 3.41E-07 8.50E-17 9.75E-09 1.29E-22 1.36E-07 3.69E-22 5.71E-12 0.00E+00 0.00E+00 6.512E-07
7.000E-01 2.01E-07 1.88E-16 4.21E-07 1.45E-16 1.31E-08 2.19E-22 1.68E-07 6.29E-22 7.46E-12 0.00E+00 0.00E+00 8.032E-07
6.000E-01 2.55E-07 3.47E-16 5.38E-07 2.69E-16 1.82E-08 4.06E-22 2.16E-07 1.16E-21 1.02E-11 0.00E+00 0.00E+00 1.027E-06
5.500E-01 2.91E-07 4.92E-16 6.18E-07 3.80E-16 2.17E-08 5.75E-22 2.48E-07 1.65E-21 1.21E-11 0.00E+00 0.00E+00 1.180E-06
5.000E-01 3.37E-07 7.20E-16 7.20E-07 5.57E-16 2.64E-08 8.42E-22 2.88E-07 2.41E-21 1.46E-11 0.00E+00 0.00E+00 1.372E-06
4.500E-01 3.97E-07 1.10E-15 8.53E-07 8.49E-16 3.24E-08 1.28E-21 3.43E-07 3.68E-21 1.81E-11 0.00E+00 0.00E+00 1.626E-06
4.000E-01 4.77E-07 1.76E-15 1.03E-06 1.36E-15 4.07E-08 2.06E-21 4.13E-07 5.89E-21 2.29E-11 0.00E+00 0.00E+00 1.961E-06
3.500E-01 5.89E-07 3.00E-15 1.28E-06 2.32E-15 5.21E-08 3.51E-21 5.17E-07 1.00E-20 2.98E-11 0.00E+00 0.00E+00 2.435E-06
3.000E-01 7.52E-07 5.55E-15 1.64E-06 4.30E-15 6.86E-08 6.50E-21 6.56E-07 1.86E-20 4.06E-11 0.00E+00 0.00E+00 3.115E-06
2.500E-01 1.01E-06 1.15E-14 2.20E-06 8.91E-15 9.36E-08 1.35E-20 8.80E-07 3.85E-20 5.85E-11 0.00E+00 0.00E+00 4.184E-06
2.098E-01 1.34E-06 2.32E-14 2.93E-06 1.80E-14 1.24E-07 2.72E-20 1.17E-06 7.76E-20 8.31E-11 0.00E+00 0.00E+00 5.562E-06
1.500E-01 2.33E-06 8.86E-14 5.07E-06 6.88E-14 2.37E-07 1.04E-19 2.00E-06 2.97E-19 1.63E-10 0.00E+00 0.00E+00 9.637E-06
1.382E-01 2.67E-06 1.23E-13 5.79E-06 9.54E-14 2.80E-07 1.44E-19 2.30E-06 4.12E-19 1.91E-10 0.00E+00 0.00E+00 1.104E-05
1.320E-01 2.89E-06 1.48E-13 6.25E-06 1.15E-13 3.06E-07 1.73E-19 2.47E-06 4.95E-19 2.10E-10 0.00E+00 0.00E+00 1.191E-05
1.150E-01 3.65E-06 2.56E-13 7.84E-06 1.99E-13 4.02E-07 3.01E-19 3.09E-06 8.58E-19 2.77E-10 0.00E+00 0.00E+00 1.498E-05
1.000E-01 4.64E-06 4.48E-13 9.86E-06 3.48E-13 5.27E-07 5.26E-19 3.86E-06 1.50E-18 3.66E-10 0.00E+00 0.00E+00 1.888E-05
9.970E-02 4.66E-06 4.53E-13 9.91E-06 3.52E-13 5.31E-07 5.33E-19 3.88E-06 1.52E-18 3.68E-10 0.00E+00 0.00E+00 1.898E-05
8.670E-02 5.87E-06 7.92E-13 1.25E-05 6.16E-13 7.02E-07 9.31E-19 4.87E-06 2.65E-18 4.87E-10 0.00E+00 0.00E+00 2.394E-05
8.500E-02 6.08E-06 8.58E-13 1.29E-05 6.67E-13 7.29E-07 1.01E-18 5.03E-06 2.87E-18 5.06E-10 0.00E+00 0.00E+00 2.475E-05
7.500E-02 7.72E-06 1.42E-12 1.59E-05 1.10E-12 9.27E-07 1.66E-18 6.13E-06 4.74E-18 6.50E-10 0.00E+00 0.00E+00 3.066E-05
6.000E-02 1.14E-05 3.45E-12 2.29E-05 2.70E-12 1.42E-06 4.06E-18 8.90E-06 1.16E-17 1.02E-09 0.00E+00 0.00E+00 4.460E-05
5.500E-02 1.32E-05 4.89E-12 2.57E-05 3.84E-12 1.68E-06 5.75E-18 1.04E-05 1.64E-17 1.21E-09 0.00E+00 0.00E+00 5.089E-05
5.000E-02 1.57E-05 7.17E-12 3.18E-05 5.67E-12 2.00E-06 8.42E-18 1.24E-05 2.40E-17 1.46E-09 0.00E+00 0.00E+00 6.181E-05
4.500E-02 1.93E-05 1.09E-11 4.21E-05 8.70E-12 2.45E-06 1.28E-17 1.51E-05 3.66E-17 1.81E-09 0.00E+00 0.00E+00 7.896E-05
4.000E-02 2.48E-05 1.75E-11 5.62E-05 1.41E-11 3.05E-06 2.05E-17 1.91E-05 5.87E-17 2.29E-09 0.00E+00 0.00E+00 1.032E-04
3.500E-02 3.11E-05 2.99E-11 8.55E-05 2.42E-11 3.91E-06 3.50E-17 2.53E-05 1.00E-16 2.99E-09 0.00E+00 0.00E+00 1.458E-04
3.000E-02 4.38E-05 5.57E-11 1.33E-04 4.51E-11 5.21E-06 6.49E-17 3.55E-05 1.86E-16 4.07E-09 0.00E+00 0.00E+00 2.179E-04
2.750E-02 5.23E-05 7.89E-11 1.68E-04 6.39E-11 6.14E-06 9.20E-17 4.33E-05 2.64E-16 4.85E-09 0.00E+00 0.00E+00 2.697E-04
2.500E-02 6.30E-05 1.16E-10 2.14E-04 9.35E-11 7.33E-06 1.35E-16 5.43E-05 3.86E-16 5.87E-09 0.00E+00 0.00E+00 3.384E-04
2.400E-02 6.92E-05 1.37E-10 2.37E-04 1.10E-10 7.93E-06 1.59E-16 5.92E-05 4.55E-16 6.37E-09 0.00E+00 0.00E+00 3.730E-04
2.000E-02 1.01E-04 2.85E-10 3.69E-04 2.24E-10 1.12E-05 3.29E-16 8.58E-05 9.43E-16 9.18E-09 0.00E+00 0.00E+00 5.667E-04
1.800E-02 1.26E-04 4.38E-10 4.57E-04 3.36E-10 1.38E-05 5.03E-16 1.07E-04 1.44E-15 1.13E-08 0.00E+00 0.00E+00 7.037E-04
1.600E-02 1.67E-04 7.06E-10 5.69E-04 5.28E-10 1.75E-05 8.07E-16 1.36E-04 2.30E-15 1.44E-08 0.00E+00 0.00E+00 8.896E-04
1.500E-02 1.99E-04 9.18E-10 6.38E-04 6.76E-10 1.99E-05 1.05E-15 1.54E-04 2.98E-15 1.64E-08 0.00E+00 0.00E+00 1.011E-03
1.400E-02 2.27E-04 1.21E-09 7.16E-04 8.78E-10 2.30E-05 1.38E-15 1.78E-04 3.93E-15 1.88E-08 0.00E+00 0.00E+00 1.144E-03
1.200E-02 3.46E-04 2.27E-09 9.12E-04 1.57E-09 3.19E-05 2.57E-15 2.44E-04 7.30E-15 2.57E-08 0.00E+00 0.00E+00 1.535E-03
1.000E-02 5.26E-04 4.77E-09 1.20E-03 3.12E-09 4.83E-05 5.36E-15 3.57E-04 1.52E-14 3.72E-08 0.00E+00 0.00E+00 2.135E-03
9.000E-03 7.00E-04 7.35E-09 1.37E-03 4.63E-09 6.21E-05 8.22E-15 4.45E-04 2.31E-14 4.61E-08 0.00E+00 0.00E+00 2.580E-03
8.000E-03 9.29E-04 1.16E-08 1.59E-03 7.30E-09 8.30E-05 1.33E-14 5.71E-04 3.71E-14 5.86E-08 0.00E+00 0.00E+00 3.177E-03
7.500E-03 1.09E-03 1.52E-08 1.76E-03 9.43E-09 9.80E-05 1.73E-14 6.55E-04 4.80E-14 6.70E-08 0.00E+00 0.00E+00 3.603E-03
7.000E-03 1.31E-03 1.99E-08 1.98E-03 1.23E-08 1.18E-04 2.29E-14 7.59E-04 6.33E-14 7.72E-08 0.00E+00 0.00E+00 4.167E-03
6.000E-03 1.88E-03 3.61E-08 2.54E-03 2.25E-08 1.81E-04 4.31E-14 1.06E-03 1.17E-13 1.07E-07 0.00E+00 0.00E+00 5.658E-03
5.000E-03 2.69E-03 7.05E-08 3.61E-03 4.58E-08 3.17E-04 9.15E-14 1.56E-03 2.42E-13 1.57E-07 0.00E+00 0.00E+00 8.165E-03
4.500E-03 3.31E-03 1.02E-07 4.41E-03 6.83E-08 4.49E-04 1.41E-13 1.94E-03 3.66E-13 1.98E-07 0.00E+00 0.00E+00 1.011E-02
4.000E-03 3.94E-03 1.52E-07 5.50E-03 1.02E-07 6.57E-04 2.25E-13 2.48E-03 5.81E-13 2.59E-07 0.00E+00 0.00E+00 1.258E-02
3.500E-03 4.76E-03 2.41E-07 6.78E-03 1.62E-07 9.13E-04 3.60E-13 3.24E-03 9.78E-13 3.56E-07 0.00E+00 0.00E+00 1.569E-02
3.000E-03 5.87E-03 3.98E-07 8.35E-03 2.60E-07 9.64E-04 5.62E-13 4.42E-03 1.79E-12 5.42E-07 0.00E+00 0.00E+00 1.960E-02
2.750E-03 6.43E-03 5.21E-07 9.14E-03 3.35E-07 8.31E-04 7.24E-13 5.31E-03 2.49E-12 7.33E-07 0.00E+00 0.00E+00 2.172E-02
2.500E-03 6.94E-03 6.96E-07 1.00E-02 4.38E-07 6.55E-04 9.96E-13 6.53E-03 3.59E-12 1.22E-06 0.00E+00 0.00E+00 2.413E-02
2.400E-03 7.20E-03 7.94E-07 1.04E-02 4.92E-07 5.87E-04 1.16E-12 7.11E-03 4.16E-12 1.71E-06 0.00E+00 0.00E+00 2.525E-02
2.350E-03 7.35E-03 8.49E-07 1.06E-02 5.22E-07 5.55E-04 1.25E-12 7.44E-03 4.50E-12 2.02E-06 0.00E+00 0.00E+00 2.591E-02
2.320E-03 7.44E-03 8.83E-07 1.07E-02 5.41E-07 5.37E-04 1.32E-12 7.65E-03 4.71E-12 2.17E-06 0.00E+00 0.00E+00 2.630E-02
2.310E-03 7.47E-03 8.95E-07 1.07E-02 5.48E-07 5.31E-04 1.34E-12 7.71E-03 4.78E-12 2.21E-06 0.00E+00 0.00E+00 2.644E-02
2.300E-03 7.50E-03 9.07E-07 1.08E-02 5.55E-07 5.25E-04 1.36E-12 7.78E-03 4.86E-12 2.24E-06 0.00E+00 0.00E+00 2.657E-02
2.250E-03 7.62E-03 9.69E-07 1.10E-02 5.91E-07 4.96E-04 1.48E-12 8.18E-03 5.28E-12 2.34E-06 0.00E+00 0.00E+00 2.731E-02
2.200E-03 7.75E-03 1.04E-06 1.13E-02 6.30E-07 4.70E-04 1.62E-12 8.63E-03 5.71E-12 2.45E-06 0.00E+00 0.00E+00 2.812E-02
2.150E-03 7.90E-03 1.12E-06 1.16E-02 6.69E-07 4.45E-04 1.77E-12 9.06E-03 6.17E-12 2.68E-06 0.00E+00 0.00E+00 2.899E-02
2.120E-03 8.00E-03 1.16E-06 1.17E-02 6.92E-07 4.32E-04 1.87E-12 9.35E-03 6.48E-12 2.80E-06 0.00E+00 0.00E+00 2.953E-02
2.110E-03 8.03E-03 1.18E-06 1.18E-02 7.00E-07 4.27E-04 1.91E-12 9.45E-03 6.58E-12 2.81E-06 0.00E+00 0.00E+00 2.971E-02
2.100E-03 8.06E-03 1.20E-06 1.19E-02 7.07E-07 4.23E-04 1.95E-12 9.55E-03 6.69E-12 2.82E-06 0.00E+00 0.00E+00 2.990E-02
2.080E-03 8.09E-03 1.23E-06 1.19E-02 7.21E-07 4.15E-04 2.02E-12 9.76E-03 6.90E-12 2.80E-06 0.00E+00 0.00E+00 3.022E-02
2.000E-03 8.21E-03 1.38E-06 1.23E-02 7.80E-07 3.84E-04 2.37E-12 1.07E-02 7.84E-12 2.66E-06 0.00E+00 0.00E+00 3.163E-02
1.950E-03 8.34E-03 1.50E-06 1.25E-02 8.08E-07 3.68E-04 2.63E-12 1.13E-02 8.30E-12 2.87E-06 0.00E+00 0.00E+00 3.253E-02
1.900E-03 8.51E-03 1.64E-06 1.26E-02 8.29E-07 3.53E-04 2.92E-12 1.18E-02 8.69E-12 3.47E-06 0.00E+00 0.00E+00 3.323E-02
1.850E-03 8.68E-03 1.79E-06 1.25E-02 8.39E-07 3.40E-04 3.25E-12 1.21E-02 8.92E-12 4.47E-06 0.00E+00 0.00E+00 3.357E-02
1.830E-03 8.77E-03 1.86E-06 1.24E-02 8.40E-07 3.35E-04 3.40E-12 1.21E-02 8.96E-12 4.82E-06 0.00E+00 0.00E+00 3.362E-02
1.820E-03 8.80E-03 1.89E-06 1.24E-02 8.39E-07 3.33E-04 3.48E-12 1.21E-02 8.98E-12 4.94E-06 0.00E+00 0.00E+00 3.360E-02
1.810E-03 8.83E-03 1.92E-06 1.23E-02 8.37E-07 3.31E-04 3.56E-12 1.21E-02 9.00E-12 5.01E-06 0.00E+00 0.00E+00 3.353E-02
1.800E-03 8.87E-03 1.96E-06 1.22E-02 8.36E-07 3.29E-04 3.64E-12 1.20E-02 9.02E-12 5.05E-06 0.00E+00 0.00E+00 3.347E-02
1.750E-03 9.07E-03 2.14E-06 1.17E-02 8.15E-07 3.19E-04 4.08E-12 1.17E-02 9.07E-12 5.17E-06 0.00E+00 0.00E+00 3.283E-02
1.700E-03 9.18E-03 2.34E-06 1.08E-02 7.81E-07 3.12E-04 4.60E-12 1.12E-02 9.13E-12 6.32E-06 0.00E+00 0.00E+00 3.151E-02
1.670E-03 9.32E-03 2.50E-06 1.02E-02 7.59E-07 3.08E-04 4.94E-12 1.07E-02 9.24E-12 7.45E-06 0.00E+00 0.00E+00 3.054E-02
1.650E-03 9.44E-03 2.60E-06 9.63E-03 7.47E-07 3.06E-04 5.19E-12 1.04E-02 9.35E-12 7.85E-06 0.00E+00 0.00E+00 2.981E-02
1.640E-03 9.49E-03 2.66E-06 9.35E-03 7.42E-07 3.05E-04 5.32E-12 1.03E-02 9.40E-12 7.83E-06 0.00E+00 0.00E+00 2.941E-02
1.630E-03 9.55E-03 2.71E-06 9.05E-03 7.38E-07 3.04E-04 5.46E-12 1.01E-02 9.47E-12 7.68E-06 0.00E+00 0.00E+00 2.900E-02
1.610E-03 9.64E-03 2.82E-06 8.42E-03 7.36E-07 3.02E-04 5.74E-12 9.74E-03 9.72E-12 7.18E-06 0.00E+00 0.00E+00 2.812E-02
1.600E-03 9.69E-03 2.87E-06 8.09E-03 7.38E-07 3.02E-04 5.88E-12 9.57E-03 9.85E-12 6.95E-06 0.00E+00 0.00E+00 2.766E-02
1.590E-03 9.74E-03 2.93E-06 7.76E-03 7.44E-07 3.01E-04 6.04E-12 9.39E-03 9.99E-12 6.77E-06 0.00E+00 0.00E+00 2.721E-02
1.580E-03 9.79E-03 2.99E-06 7.43E-03 7.54E-07 3.01E-04 6.19E-12 9.22E-03 1.02E-11 6.66E-06 0.00E+00 0.00E+00 2.675E-02
1.570E-03 9.82E-03 3.05E-06 7.09E-03 7.68E-07 3.00E-04 6.36E-12 9.05E-03 1.04E-11 6.55E-06 0.00E+00 0.00E+00 2.628E-02
1.560E-03 9.88E-03 3.12E-06 6.78E-03 7.88E-07 3.00E-04 6.52E-12 8.88E-03 1.06E-11 6.42E-06 0.00E+00 0.00E+00 2.585E-02
1.540E-03 1.00E-02 3.25E-06 6.22E-03 8.46E-07 2.99E-04 6.88E-12 8.56E-03 1.11E-11 6.27E-06 0.00E+00 0.00E+00 2.511E-02
1.520E-03 1.01E-02 3.38E-06 5.78E-03 9.28E-07 2.99E-04 7.25E-12 8.24E-03 1.17E-11 6.61E-06 0.00E+00 0.00E+00 2.444E-02
1.510E-03 1.01E-02 3.44E-06 5.62E-03 9.77E-07 2.99E-04 7.45E-12 8.09E-03 1.20E-11 6.82E-06 0.00E+00 0.00E+00 2.416E-02
1.500E-03 1.02E-02 3.50E-06 5.49E-03 1.03E-06 2.99E-04 7.66E-12 7.95E-03 1.24E-11 6.87E-06 0.00E+00 0.00E+00 2.392E-02
1.450E-03 1.03E-02 3.92E-06 5.23E-03 1.34E-06 3.01E-04 8.79E-12 7.32E-03 1.50E-11 8.73E-06 0.00E+00 0.00E+00 2.320E-02
1.440E-03 1.04E-02 4.00E-06 5.23E-03 1.40E-06 3.01E-04 9.04E-12 7.22E-03 1.57E-11 9.66E-06 0.00E+00 0.00E+00 2.315E-02
1.430E-03 1.04E-02 4.10E-06 5.23E-03 1.47E-06 3.02E-04 9.30E-12 7.19E-03 1.65E-11 1.05E-05 0.00E+00 0.00E+00 2.317E-02
1.420E-03 1.05E-02 4.19E-06 5.22E-03 1.54E-06 3.03E-04 9.57E-12 7.16E-03 1.73E-11 1.09E-05 0.00E+00 0.00E+00 2.318E-02
1.400E-03 1.06E-02 4.40E-06 5.23E-03 1.69E-06 3.04E-04 1.01E-11 7.22E-03 1.93E-11 1.19E-05 0.00E+00 0.00E+00 2.335E-02
1.380E-03 1.07E-02 4.60E-06 5.23E-03 1.85E-06 3.06E-04 1.07E-11 7.42E-03 2.16E-11 1.50E-05 0.00E+00 0.00E+00 2.368E-02
1.370E-03 1.07E-02 4.71E-06 5.24E-03 1.94E-06 3.08E-04 1.11E-11 7.62E-03 2.28E-11 1.79E-05 0.00E+00 0.00E+00 2.393E-02
1.360E-03 1.08E-02 4.83E-06 5.25E-03 2.03E-06 3.09E-04 1.14E-11 7.85E-03 2.41E-11 2.08E-05 0.00E+00 0.00E+00 2.424E-02
1.350E-03 1.09E-02 4.96E-06 5.26E-03 2.13E-06 3.10E-04 1.17E-11 8.08E-03 2.54E-11 2.22E-05 0.00E+00 0.00E+00 2.456E-02
1.340E-03 1.10E-02 5.08E-06 5.28E-03 2.23E-06 3.12E-04 1.21E-11 8.35E-03 2.67E-11 2.41E-05 0.00E+00 0.00E+00 2.494E-02
1.330E-03 1.10E-02 5.20E-06 5.31E-03 2.34E-06 3.13E-04 1.25E-11 8.65E-03 2.81E-11 2.79E-05 0.00E+00 0.00E+00 2.533E-02
1.320E-03 1.11E-02 5.32E-06 5.35E-03 2.45E-06 3.15E-04 1.29E-11 8.94E-03 2.95E-11 3.45E-05 0.00E+00 0.00E+00 2.574E-02
1.310E-03 1.12E-02 5.44E-06 5.40E-03 2.58E-06 3.17E-04 1.33E-11 9.27E-03 3.10E-11 4.53E-05 0.00E+00 0.00E+00 2.619E-02
1.290E-03 1.12E-02 5.68E-06 5.52E-03 2.85E-06 3.21E-04 1.41E-11 9.94E-03 3.42E-11 9.34E-05 0.00E+00 0.00E+00 2.710E-02
1.280E-03 1.12E-02 5.82E-06 5.60E-03 3.00E-06 3.23E-04 1.46E-11 1.04E-02 3.59E-11 1.37E-04 0.00E+00 0.00E+00 2.765E-02
1.270E-03 1.13E-02 5.98E-06 5.64E-03 3.16E-06 3.25E-04 1.50E-11 1.08E-02 3.77E-11 1.66E-04 0.00E+00 0.00E+00 2.820E-02
1.260E-03 1.13E-02 6.13E-06 5.71E-03 3.34E-06 3.27E-04 1.55E-11 1.12E-02 3.94E-11 1.43E-04 0.00E+00 0.00E+00 2.874E-02
1.250E-03 1.14E-02 6.29E-06 5.83E-03 3.55E-06 3.29E-04 1.60E-11 1.17E-02 4.13E-11 1.05E-04 0.00E+00 0.00E+00 2.931E-02
1.220E-03 1.16E-02 6.85E-06 6.62E-03 4.39E-06 3.36E-04 1.77E-11 1.31E-02 4.73E-11 8.23E-05 0.00E+00 0.00E+00 3.175E-02
1.210E-03 1.17E-02 7.02E-06 7.23E-03 4.72E-06 3.39E-04 1.83E-11 1.37E-02 4.95E-11 9.47E-05 0.00E+00 0.00E+00 3.298E-02
1.200E-03 1.17E-02 7.21E-06 7.98E-03 5.05E-06 3.41E-04 1.89E-11 1.43E-02 5.18E-11 1.05E-04 0.00E+00 0.00E+00 3.437E-02
1.190E-03 1.18E-02 7.44E-06 8.81E-03 5.34E-06 3.44E-04 1.96E-11 1.49E-02 5.42E-11 1.05E-04 0.00E+00 0.00E+00 3.591E-02
1.180E-03 1.19E-02 7.63E-06 9.63E-03 5.59E-06 3.46E-04 2.03E-11 1.55E-02 5.65E-11 1.04E-04 0.00E+00 0.00E+00 3.747E-02
1.170E-03 1.19E-02 7.84E-06 1.04E-02 5.80E-06 3.49E-04 2.10E-11 1.62E-02 5.89E-11 1.16E-04 0.00E+00 0.00E+00 3.899E-02
1.160E-03 1.20E-02 8.06E-06 1.11E-02 5.97E-06 3.54E-04 2.19E-11 1.68E-02 6.13E-11 1.49E-04 0.00E+00 0.00E+00 4.042E-02
1.150E-03 1.21E-02 8.25E-06 1.17E-02 6.12E-06 4.97E-04 2.16E-11 1.74E-02 6.38E-11 2.17E-04 0.00E+00 0.00E+00 4.191E-02
1.140E-03 1.21E-02 8.46E-06 1.22E-02 6.27E-06 3.69E-04 2.31E-11 1.81E-02 6.66E-11 3.27E-04 0.00E+00 0.00E+00 4.315E-02
1.130E-03 1.22E-02 8.70E-06 1.27E-02 6.40E-06 3.68E-04 2.40E-11 1.88E-02 6.96E-11 3.99E-04 0.00E+00 0.00E+00 4.445E-02
1.120E-03 1.22E-02 8.94E-06 1.31E-02 6.55E-06 3.71E-04 2.49E-11 1.96E-02 7.26E-11 3.22E-04 0.00E+00 0.00E+00 4.564E-02
1.110E-03 1.22E-02 9.19E-06 1.35E-02 6.70E-06 3.74E-04 2.58E-11 2.05E-02 7.58E-11 2.04E-04 0.00E+00 0.00E+00 4.682E-02
1.090E-03 1.23E-02 9.76E-06 1.44E-02 7.00E-06 3.81E-04 2.78E-11 2.22E-02 8.24E-11 8.48E-05 0.00E+00 0.00E+00 4.935E-02
1.050E-03 1.26E-02 1.11E-05 1.58E-02 7.54E-06 3.99E-04 3.23E-11 2.68E-02 9.79E-11 2.80E-05 0.00E+00 0.00E+00 5.570E-02
1.000E-03 1.30E-02 1.31E-05 1.73E-02 7.99E-06 4.26E-04 3.93E-11 3.10E-02 1.05E-10 1.41E-05 0.00E+00 0.00E+00 6.188E-02
9.800E-04 1.33E-02 1.41E-05 1.76E-02 7.96E-06 4.38E-04 4.27E-11 3.26E-02 1.08E-10 1.22E-05 0.00E+00 0.00E+00 6.395E-02
9.600E-04 1.34E-02 1.51E-05 1.76E-02 7.77E-06 4.51E-04 4.63E-11 3.41E-02 1.09E-10 1.13E-05 0.00E+00 0.00E+00 6.557E-02
9.500E-04 1.36E-02 1.56E-05 1.74E-02 7.63E-06 4.57E-04 4.83E-11 3.44E-02 1.06E-10 1.11E-05 0.00E+00 0.00E+00 6.589E-02
9.400E-04 1.37E-02 1.61E-05 1.70E-02 7.47E-06 4.65E-04 5.04E-11 3.43E-02 1.02E-10 1.11E-05 0.00E+00 0.00E+00 6.555E-02
9.200E-04 1.39E-02 1.72E-05 1.62E-02 7.16E-06 4.80E-04 5.50E-11 3.20E-02 8.47E-11 1.19E-05 0.00E+00 0.00E+00 6.258E-02
8.900E-04 1.42E-02 1.92E-05 1.44E-02 6.70E-06 5.04E-04 6.28E-11 2.53E-02 5.43E-11 1.74E-05 0.00E+00 0.00E+00 5.441E-02
8.700E-04 1.43E-02 2.05E-05 1.30E-02 6.58E-06 5.22E-04 6.87E-11 2.10E-02 4.03E-11 3.90E-05 0.00E+00 0.00E+00 4.895E-02
8.600E-04 1.45E-02 2.14E-05 1.23E-02 6.58E-06 5.32E-04 7.20E-11 1.93E-02 3.56E-11 5.89E-05 0.00E+00 0.00E+00 4.675E-02
8.500E-04 1.46E-02 2.21E-05 1.16E-02 6.57E-06 5.42E-04 7.54E-11 1.78E-02 3.17E-11 4.20E-05 0.00E+00 0.00E+00 4.461E-02
8.400E-04 1.47E-02 2.31E-05 1.09E-02 6.57E-06 5.52E-04 7.91E-11 1.62E-02 2.77E-11 3.01E-05 0.00E+00 0.00E+00 4.241E-02
8.200E-04 1.48E-02 2.46E-05 9.04E-03 6.74E-06 5.73E-04 8.71E-11 1.25E-02 1.99E-11 3.06E-05 0.00E+00 0.00E+00 3.706E-02
8.000E-04 1.50E-02 2.67E-05 7.30E-03 7.45E-06 5.96E-04 9.61E-11 8.57E-03 1.54E-11 4.49E-05 0.00E+00 0.00E+00 3.158E-02
7.900E-04 1.52E-02 2.79E-05 6.63E-03 8.00E-06 6.08E-04 1.01E-10 7.20E-03 1.65E-11 5.60E-05 0.00E+00 0.00E+00 2.972E-02
7.800E-04 1.53E-02 2.88E-05 6.08E-03 8.65E-06 6.20E-04 1.06E-10 5.86E-03 1.87E-11 6.70E-05 0.00E+00 0.00E+00 2.792E-02
7.700E-04 1.53E-02 2.99E-05 5.61E-03 9.37E-06 6.33E-04 1.12E-10 4.82E-03 2.23E-11 7.20E-05 0.00E+00 0.00E+00 2.646E-02
7.600E-04 1.53E-02 3.11E-05 5.20E-03 1.02E-05 6.46E-04 1.18E-10 4.09E-03 2.72E-11 6.69E-05 0.00E+00 0.00E+00 2.538E-02
7.500E-04 1.54E-02 3.24E-05 4.85E-03 1.10E-05 6.59E-04 1.24E-10 3.43E-03 3.31E-11 5.53E-05 0.00E+00 0.00E+00 2.439E-02
7.300E-04 1.55E-02 3.56E-05 4.29E-03 1.30E-05 6.88E-04 1.38E-10 2.88E-03 4.72E-11 3.42E-05 0.00E+00 0.00E+00 2.348E-02
7.200E-04 1.56E-02 3.70E-05 4.12E-03 1.42E-05 7.03E-04 1.46E-10 2.78E-03 5.46E-11 2.84E-05 0.00E+00 0.00E+00 2.328E-02
7.100E-04 1.56E-02 3.87E-05 4.00E-03 1.54E-05 7.19E-04 1.55E-10 2.70E-03 6.28E-11 2.78E-05 0.00E+00 0.00E+00 2.312E-02
7.000E-04 1.58E-02 4.06E-05 3.90E-03 1.65E-05 7.36E-04 1.64E-10 2.67E-03 7.11E-11 3.88E-05 0.00E+00 0.00E+00 2.318E-02
6.900E-04 1.58E-02 4.22E-05 3.74E-03 1.78E-05 7.53E-04 1.73E-10 2.66E-03 8.01E-11 2.25E-05 0.00E+00 0.00E+00 2.308E-02
6.800E-04 1.56E-02 4.38E-05 3.55E-03 1.91E-05 7.71E-04 1.83E-10 2.66E-03 8.92E-11 1.74E-05 0.00E+00 0.00E+00 2.267E-02
6.600E-04 1.57E-02 4.93E-05 3.19E-03 2.22E-05 8.09E-04 2.07E-10 2.66E-03 1.10E-10 1.65E-05 0.00E+00 0.00E+00 2.245E-02
6.400E-04 1.61E-02 5.57E-05 2.77E-03 2.59E-05 8.49E-04 2.33E-10 2.65E-03 1.33E-10 2.54E-05 0.00E+00 0.00E+00 2.251E-02
6.300E-04 1.65E-02 5.88E-05 2.58E-03 2.81E-05 8.59E-04 2.49E-10 2.64E-03 1.46E-10 4.01E-05 0.00E+00 0.00E+00 2.269E-02
6.200E-04 1.66E-02 6.16E-05 2.54E-03 3.06E-05 8.96E-04 2.65E-10 2.63E-03 1.60E-10 5.48E-05 0.00E+00 0.00E+00 2.278E-02
6.100E-04 1.67E-02 6.52E-05 2.53E-03 3.30E-05 9.20E-04 2.83E-10 2.61E-03 1.75E-10 3.95E-05 0.00E+00 0.00E+00 2.292E-02
5.900E-04 1.74E-02 7.33E-05 2.07E-03 3.84E-05 9.71E-04 3.22E-10 2.58E-03 2.09E-10 1.72E-05 0.00E+00 0.00E+00 2.315E-02
5.500E-04 1.68E-02 8.81E-05 1.54E-03 5.41E-05 1.09E-03 4.26E-10 2.54E-03 3.00E-10 1.42E-05 0.00E+00 0.00E+00 2.212E-02
5.300E-04 1.69E-02 1.01E-04 1.37E-03 6.43E-05 1.16E-03 4.93E-10 2.55E-03 3.59E-10 2.30E-05 0.00E+00 0.00E+00 2.221E-02
5.200E-04 1.70E-02 1.09E-04 1.29E-03 7.02E-05 1.19E-03 5.32E-10 2.55E-03 3.94E-10 3.70E-05 0.00E+00 0.00E+00 2.222E-02
5.100E-04 1.71E-02 1.17E-04 1.21E-03 7.67E-05 1.23E-03 5.74E-10 2.56E-03 4.32E-10 5.16E-05 0.00E+00 0.00E+00 2.237E-02
5.000E-04 1.73E-02 1.26E-04 1.12E-03 8.52E-05 1.27E-03 6.21E-10 2.58E-03 4.74E-10 3.68E-05 0.00E+00 0.00E+00 2.252E-02
4.800E-04 1.75E-02 1.45E-04 9.89E-04 1.02E-04 1.35E-03 7.30E-10 2.62E-03 5.72E-10 1.64E-05 0.00E+00 0.00E+00 2.277E-02
4.500E-04 1.81E-02 1.82E-04 8.30E-04 1.36E-04 1.50E-03 9.41E-10 2.71E-03 7.65E-10 1.21E-05 0.00E+00 0.00E+00 2.351E-02
4.000E-04 1.88E-02 2.78E-04 6.14E-04 2.27E-04 1.81E-03 1.50E-09 2.92E-03 1.28E-09 1.33E-05 0.00E+00 0.00E+00 2.469E-02
3.800E-04 1.92E-02 3.36E-04 5.41E-04 2.82E-04 1.96E-03 1.83E-09 3.01E-03 1.59E-09 1.50E-05 0.00E+00 0.00E+00 2.539E-02
3.600E-04 1.97E-02 4.10E-04 4.75E-04 3.55E-04 2.13E-03 2.27E-09 3.11E-03 2.00E-09 1.84E-05 0.00E+00 0.00E+00 2.618E-02
3.400E-04 2.06E-02 5.04E-04 4.18E-04 4.51E-04 2.33E-03 2.84E-09 3.22E-03 2.54E-09 3.98E-05 0.00E+00 0.00E+00 2.760E-02
3.300E-04 2.06E-02 5.56E-04 3.91E-04 5.11E-04 2.45E-03 3.20E-09 3.28E-03 2.88E-09 1.08E-04 0.00E+00 0.00E+00 2.789E-02
3.200E-04 2.07E-02 6.25E-04 3.64E-04 5.81E-04 2.57E-03 3.61E-09 3.33E-03 3.27E-09 4.07E-05 0.00E+00 0.00E+00 2.819E-02
3.150E-04 2.09E-02 6.65E-04 3.53E-04 6.20E-04 2.63E-03 3.84E-09 3.36E-03 3.49E-09 3.04E-05 0.00E+00 0.00E+00 2.852E-02
3.100E-04 2.11E-02 7.05E-04 3.41E-04 6.63E-04 2.70E-03 4.09E-09 3.39E-03 3.73E-09 2.63E-05 0.00E+00 0.00E+00 2.890E-02
3.080E-04 2.11E-02 7.22E-04 3.36E-04 6.81E-04 2.73E-03 4.19E-09 3.40E-03 3.83E-09 2.55E-05 0.00E+00 0.00E+00 2.903E-02
3.050E-04 2.12E-02 7.48E-04 3.29E-04 7.09E-04 2.77E-03 4.36E-09 3.42E-03 3.99E-09 2.47E-05 0.00E+00 0.00E+00 2.921E-02
3.000E-04 2.14E-02 7.96E-04 3.18E-04 7.59E-04 2.84E-03 4.65E-09 3.45E-03 4.27E-09 2.40E-05 0.00E+00 0.00E+00 2.955E-02
2.900E-04 2.18E-02 9.02E-04 2.96E-04 8.73E-04 3.00E-03 5.31E-09 3.53E-03 4.91E-09 2.42E-05 0.00E+00 0.00E+00 3.041E-02
2.800E-04 2.19E-02 1.02E-03 2.77E-04 1.01E-03 3.17E-03 6.10E-09 3.61E-03 5.67E-09 2.53E-05 0.00E+00 0.00E+00 3.104E-02
2.600E-04 2.25E-02 1.36E-03 2.39E-04 1.37E-03 3.55E-03 8.16E-09 3.79E-03 7.67E-09 2.88E-05 0.00E+00 0.00E+00 3.288E-02
2.500E-04 2.30E-02 1.58E-03 2.23E-04 1.61E-03 3.77E-03 9.51E-09 3.89E-03 9.00E-09 3.12E-05 0.00E+00 0.00E+00 3.413E-02
2.200E-04 2.52E-02 2.59E-03 1.79E-04 2.70E-03 4.59E-03 1.57E-08 4.26E-03 1.51E-08 4.13E-05 0.00E+00 0.00E+00 3.952E-02
2.159E-04 2.54E-02 2.77E-03 1.74E-04 2.91E-03 4.72E-03 1.69E-08 4.31E-03 1.63E-08 4.31E-05 0.00E+00 0.00E+00 4.038E-02
2.000E-04 2.70E-02 3.73E-03 1.56E-04 3.96E-03 5.31E-03 2.28E-08 4.57E-03 2.22E-08 5.18E-05 0.00E+00 0.00E+00 4.476E-02
1.662E-04 3.12E-02 7.50E-03 1.25E-04 8.27E-03 7.06E-03 4.71E-08 5.29E-03 4.68E-08 8.30E-05 0.00E+00 0.00E+00 5.954E-02
1.650E-04 3.14E-02 7.70E-03 1.23E-04 8.51E-03 7.14E-03 4.85E-08 5.33E-03 4.82E-08 8.46E-05 0.00E+00 0.00E+00 6.028E-02
1.250E-04 4.16E-02 2.11E-02 1.13E-04 2.44E-02 1.10E-02 1.44E-07 6.76E-03 1.47E-07 1.81E-04 0.00E+00 0.00E+00 1.051E-01
1.235E-04 4.22E-02 2.19E-02 1.12E-04 2.55E-02 1.12E-02 1.51E-07 6.83E-03 1.54E-07 1.87E-04 0.00E+00 0.00E+00 1.079E-01
1.130E-04 4.71E-02 2.93E-02 1.17E-04 3.49E-02 1.29E-02 2.13E-07 7.42E-03 2.20E-07 2.39E-04 0.00E+00 0.00E+00 1.320E-01
1.000E-04 5.62E-02 4.27E-02 1.31E-04 5.25E-02 1.57E-02 3.43E-07 8.32E-03 3.58E-07 3.31E-04 0.00E+00 0.00E+00 1.759E-01
9.500E-05 6.10E-02 4.94E-02 1.32E-04 6.19E-02 1.70E-02 4.19E-07 8.74E-03 4.40E-07 3.79E-04 0.00E+00 0.00E+00 1.986E-01
9.300E-05 6.31E-02 5.24E-02 1.35E-04 6.62E-02 1.76E-02 4.56E-07 8.91E-03 4.79E-07 4.01E-04 0.00E+00 0.00E+00 2.088E-01
9.200E-05 6.42E-02 5.40E-02 1.37E-04 6.85E-02 1.79E-02 4.75E-07 9.01E-03 5.00E-07 4.12E-04 0.00E+00 0.00E+00 2.142E-01
9.100E-05 6.53E-02 5.56E-02 1.40E-04 7.10E-02 1.83E-02 4.96E-07 9.10E-03 5.22E-07 4.24E-04 0.00E+00 0.00E+00 2.197E-01
9.000E-05 6.64E-02 5.73E-02 1.42E-04 7.35E-02 1.86E-02 5.18E-07 9.20E-03 5.46E-07 4.36E-04 0.00E+00 0.00E+00 2.254E-01
8.900E-05 6.75E-02 5.90E-02 1.44E-04 7.61E-02 1.89E-02 5.40E-07 9.29E-03 5.71E-07 4.49E-04 0.00E+00 0.00E+00 2.314E-01
8.800E-05 6.86E-02 6.08E-02 1.47E-04 7.89E-02 1.93E-02 5.65E-07 9.39E-03 5.97E-07 4.62E-04 0.00E+00 0.00E+00 2.375E-01
8.700E-05 6.97E-02 6.26E-02 1.50E-04 8.17E-02 1.96E-02 5.90E-07 9.50E-03 6.25E-07 4.76E-04 0.00E+00 0.00E+00 2.439E-01
8.600E-05 7.09E-02 6.45E-02 1.52E-04 8.48E-02 2.00E-02 6.17E-07 9.60E-03 6.55E-07 4.90E-04 0.00E+00 0.00E+00 2.505E-01
8.500E-05 7.21E-02 6.65E-02 1.55E-04 8.79E-02 2.04E-02 6.46E-07 9.71E-03 6.86E-07 5.05E-04 0.00E+00 0.00E+00 2.573E-01
8.400E-05 7.33E-02 6.86E-02 1.57E-04 9.13E-02 2.07E-02 6.76E-07 9.82E-03 7.20E-07 5.20E-04 0.00E+00 0.00E+00 2.645E-01
8.330E-05 7.42E-02 7.01E-02 1.59E-04 9.37E-02 2.10E-02 6.98E-07 9.89E-03 7.44E-07 5.31E-04 0.00E+00 0.00E+00 2.697E-01
8.200E-05 7.60E-02 7.30E-02 1.62E-04 9.84E-02 2.15E-02 7.42E-07 1.00E-02 7.93E-07 5.52E-04 0.00E+00 0.00E+00 2.797E-01
8.100E-05 7.74E-02 7.53E-02 1.66E-04 1.02E-01 2.20E-02 7.78E-07 1.02E-02 8.32E-07 5.69E-04 0.00E+00 0.00E+00 2.878E-01
8.000E-05 7.89E-02 7.77E-02 1.68E-04 1.06E-01 2.24E-02 8.17E-07 1.03E-02 8.75E-07 5.87E-04 0.00E+00 0.00E+00 2.963E-01
7.900E-05 8.04E-02 8.01E-02 1.72E-04 1.11E-01 2.28E-02 8.57E-07 1.04E-02 9.20E-07 6.06E-04 0.00E+00 0.00E+00 3.052E-01
7.800E-05 8.21E-02 8.26E-02 1.77E-04 1.15E-01 2.33E-02 9.01E-07 1.05E-02 9.69E-07 6.25E-04 0.00E+00 0.00E+00 3.143E-01
7.700E-05 8.38E-02 8.51E-02 1.81E-04 1.20E-01 2.38E-02 9.47E-07 1.07E-02 1.02E-06 6.45E-04 0.00E+00 0.00E+00 3.239E-01
7.600E-05 8.56E-02 8.77E-02 1.88E-04 1.25E-01 2.42E-02 9.96E-07 1.08E-02 1.08E-06 6.66E-04 0.00E+00 0.00E+00 3.338E-01
7.500E-05 8.75E-02 9.02E-02 1.94E-04 1.30E-01 2.47E-02 1.05E-06 1.09E-02 1.13E-06 6.88E-04 0.00E+00 0.00E+00 3.441E-01
7.400E-05 8.94E-02 9.28E-02 2.03E-04 1.35E-01 2.52E-02 1.10E-06 1.11E-02 1.20E-06 7.11E-04 0.00E+00 0.00E+00 3.547E-01
7.300E-05 9.14E-02 9.55E-02 2.12E-04 1.41E-01 2.58E-02 1.16E-06 1.12E-02 1.26E-06 7.35E-04 0.00E+00 0.00E+00 3.657E-01
7.140E-05 9.47E-02 9.97E-02 2.18E-04 1.51E-01 2.66E-02 1.27E-06 1.14E-02 1.38E-06 7.76E-04 0.00E+00 0.00E+00 3.841E-01
7.100E-05 9.56E-02 1.01E-01 2.18E-04 1.53E-01 2.69E-02 1.30E-06 1.15E-02 1.41E-06 7.86E-04 0.00E+00 0.00E+00 3.889E-01
7.000E-05 9.77E-02 1.03E-01 2.26E-04 1.60E-01 2.74E-02 1.37E-06 1.16E-02 1.50E-06 8.14E-04 0.00E+00 0.00E+00 4.010E-01
6.900E-05 9.99E-02 1.06E-01 2.37E-04 1.67E-01 2.80E-02 1.45E-06 1.18E-02 1.58E-06 8.42E-04 0.00E+00 0.00E+00 4.136E-01
6.800E-05 1.02E-01 1.09E-01 2.45E-04 1.74E-01 2.86E-02 1.53E-06 1.20E-02 1.68E-06 8.72E-04 0.00E+00 0.00E+00 4.266E-01
6.700E-05 1.04E-01 1.12E-01 2.54E-04 1.81E-01 2.93E-02 1.62E-06 1.21E-02 1.78E-06 9.04E-04 0.00E+00 0.00E+00 4.401E-01
6.600E-05 1.07E-01 1.14E-01 2.68E-04 1.89E-01 2.99E-02 1.72E-06 1.23E-02 1.89E-06 9.37E-04 0.00E+00 0.00E+00 4.539E-01
6.500E-05 1.09E-01 1.17E-01 2.73E-04 1.98E-01 3.06E-02 1.83E-06 1.25E-02 2.01E-06 9.72E-04 0.00E+00 0.00E+00 4.684E-01
6.400E-05 1.12E-01 1.20E-01 2.79E-04 2.06E-01 3.14E-02 1.94E-06 1.27E-02 2.15E-06 1.01E-03 0.00E+00 0.00E+00 4.833E-01
6.300E-05 1.15E-01 1.23E-01 2.89E-04 2.15E-01 3.21E-02 2.06E-06 1.29E-02 2.29E-06 1.05E-03 0.00E+00 0.00E+00 4.988E-01
6.250E-05 1.16E-01 1.24E-01 2.92E-04 2.20E-01 3.25E-02 2.13E-06 1.30E-02 2.36E-06 1.07E-03 0.00E+00 0.00E+00 5.067E-01
6.200E-05 1.17E-01 1.26E-01 3.00E-04 2.25E-01 3.29E-02 2.20E-06 1.31E-02 2.44E-06 1.09E-03 0.00E+00 0.00E+00 5.147E-01
6.100E-05 1.20E-01 1.28E-01 3.16E-04 2.34E-01 3.37E-02 2.34E-06 1.33E-02 2.60E-06 1.13E-03 0.00E+00 0.00E+00 5.312E-01
6.000E-05 1.23E-01 1.31E-01 3.29E-04 2.45E-01 3.45E-02 2.50E-06 1.35E-02 2.78E-06 1.18E-03 0.00E+00 0.00E+00 5.482E-01
5.900E-05 1.26E-01 1.34E-01 3.43E-04 2.55E-01 3.54E-02 2.67E-06 1.37E-02 2.98E-06 1.22E-03 0.00E+00 0.00E+00 5.657E-01
5.800E-05 1.30E-01 1.36E-01 3.58E-04 2.66E-01 3.63E-02 2.85E-06 1.39E-02 3.19E-06 1.28E-03 0.00E+00 0.00E+00 5.837E-01
5.700E-05 1.33E-01 1.38E-01 3.77E-04 2.78E-01 3.72E-02 3.06E-06 1.42E-02 3.42E-06 1.33E-03 0.00E+00 0.00E+00 6.022E-01
5.600E-05 1.37E-01 1.40E-01 3.95E-04 2.89E-01 3.81E-02 3.28E-06 1.44E-02 3.68E-06 1.39E-03 0.00E+00 0.00E+00 6.211E-01
5.500E-05 1.41E-01 1.43E-01 4.14E-04 3.02E-01 3.91E-02 3.52E-06 1.46E-02 3.95E-06 1.45E-03 0.00E+00 0.00E+00 6.405E-01
5.477E-05 1.41E-01 1.43E-01 4.17E-04 3.05E-01 3.94E-02 3.58E-06 1.47E-02 4.02E-06 2.05E-03 0.00E+00 0.00E+00 6.456E-01
5.400E-05 1.44E-01 1.44E-01 4.31E-04 3.15E-01 4.03E-02 3.79E-06 1.49E-02 4.26E-06 2.13E-03 0.00E+00 0.00E+00 6.610E-01
5.300E-05 1.48E-01 1.46E-01 4.51E-04 3.28E-01 4.15E-02 4.08E-06 1.52E-02 4.60E-06 2.24E-03 0.00E+00 0.00E+00 6.816E-01
5.200E-05 1.52E-01 1.48E-01 4.79E-04 3.42E-01 4.28E-02 4.41E-06 1.54E-02 4.97E-06 2.36E-03 0.00E+00 0.00E+00 7.026E-01
5.100E-05 1.56E-01 1.49E-01 5.07E-04 3.56E-01 4.41E-02 4.77E-06 1.57E-02 5.37E-06 2.50E-03 0.00E+00 0.00E+00 7.242E-01
5.000E-05 1.60E-01 1.50E-01 5.35E-04 3.72E-01 4.54E-02 5.17E-06 1.60E-02 5.82E-06 2.64E-03 0.00E+00 0.00E+00 7.463E-01
4.900E-05 1.64E-01 1.51E-01 5.64E-04 3.87E-01 4.69E-02 5.60E-06 1.63E-02 6.32E-06 2.80E-03 0.00E+00 0.00E+00 7.691E-01
4.880E-05 1.65E-01 1.52E-01 5.70E-04 3.91E-01 4.72E-02 5.70E-06 1.64E-02 6.43E-06 2.84E-03 0.00E+00 0.00E+00 7.737E-01
4.800E-05 1.68E-01 1.52E-01 5.96E-04 4.04E-01 4.86E-02 6.10E-06 1.66E-02 6.88E-06 2.98E-03 0.00E+00 0.00E+00 7.927E-01
4.760E-05 1.69E-01 1.53E-01 6.12E-04 4.11E-01 4.93E-02 6.31E-06 1.68E-02 7.12E-06 3.06E-03 0.00E+00 0.00E+00 8.024E-01
4.700E-05 1.71E-01 1.53E-01 6.34E-04 4.22E-01 5.05E-02 6.64E-06 1.70E-02 7.49E-06 3.18E-03 0.00E+00 0.00E+00 8.171E-01
4.650E-05 1.73E-01 1.53E-01 6.51E-04 4.30E-01 5.15E-02 6.94E-06 1.72E-02 7.83E-06 3.29E-03 0.00E+00 0.00E+00 8.296E-01
4.600E-05 1.75E-01 1.54E-01 6.77E-04 4.40E-01 5.25E-02 7.26E-06 1.73E-02 8.18E-06 3.40E-03 0.00E+00 0.00E+00 8.423E-01
4.550E-05 1.77E-01 1.54E-01 7.07E-04 4.49E-01 5.35E-02 7.59E-06 1.75E-02 8.56E-06 3.52E-03 0.00E+00 0.00E+00 8.552E-01
4.500E-05 1.79E-01 1.54E-01 7.36E-04 4.59E-01 5.46E-02 7.94E-06 1.77E-02 8.95E-06 3.64E-03 0.00E+00 0.00E+00 8.682E-01
4.440E-05 1.81E-01 1.54E-01 7.80E-04 4.70E-01 5.59E-02 8.39E-06 1.79E-02 9.45E-06 3.80E-03 0.00E+00 0.00E+00 8.841E-01
4.350E-05 1.84E-01 1.55E-01 8.52E-04 4.88E-01 5.80E-02 9.13E-06 1.83E-02 1.03E-05 4.07E-03 0.00E+00 0.00E+00 9.083E-01
4.170E-05 1.90E-01 1.55E-01 1.04E-03 5.25E-01 6.29E-02 1.09E-05 1.90E-02 1.22E-05 4.69E-03 0.00E+00 0.00E+00 9.586E-01
4.000E-05 1.96E-01 1.55E-01 1.37E-03 5.62E-01 6.81E-02 1.29E-05 1.97E-02 1.45E-05 5.45E-03 0.00E+00 0.00E+00 1.008E+00
3.850E-05 2.01E-01 1.55E-01 1.82E-03 5.96E-01 7.29E-02 1.51E-05 2.04E-02 1.70E-05 6.29E-03 0.00E+00 0.00E+00 1.053E+00
3.656E-05 2.06E-01 1.55E-01 2.67E-03 6.41E-01 7.98E-02 1.89E-05 2.14E-02 2.11E-05 7.76E-03 0.00E+00 0.00E+00 1.114E+00
3.570E-05 2.09E-01 1.55E-01 3.12E-03 6.61E-01 8.31E-02 2.09E-05 2.18E-02 2.33E-05 8.59E-03 0.00E+00 0.00E+00 1.141E+00
3.330E-05 2.15E-01 1.54E-01 4.68E-03 7.18E-01 9.45E-02 2.86E-05 2.32E-02 3.12E-05 1.19E-02 0.00E+00 0.00E+00 1.221E+00
3.130E-05 2.19E-01 1.53E-01 6.21E-03 7.63E-01 1.09E-01 3.86E-05 2.44E-02 4.06E-05 1.67E-02 0.00E+00 0.00E+00 1.291E+00
3.000E-05 2.21E-01 1.53E-01 7.44E-03 7.90E-01 1.21E-01 4.78E-05 2.53E-02 4.88E-05 2.18E-02 0.00E+00 0.00E+00 1.340E+00
2.940E-05 2.22E-01 1.52E-01 8.06E-03 8.02E-01 1.28E-01 5.30E-05 2.57E-02 5.32E-05 2.50E-02 0.00E+00 0.00E+00 1.363E+00
2.780E-05 2.24E-01 1.51E-01 9.89E-03 8.29E-01 1.49E-01 7.28E-05 2.68E-02 6.79E-05 3.86E-02 0.00E+00 0.00E+00 1.430E+00
2.630E-05 2.25E-01 1.51E-01 1.17E-02 8.49E-01 1.83E-01 1.03E-04 2.78E-02 8.69E-05 6.55E-02 0.00E+00 0.00E+00 1.513E+00
2.500E-05 2.26E-01 1.50E-01 1.39E-02 8.59E-01 2.28E-01 1.51E-04 2.87E-02 1.09E-04 1.18E-01 0.00E+00 0.00E+00 1.624E+00
2.380E-05 2.27E-01 1.50E-01 1.66E-02 8.62E-01 3.14E-01 2.30E-04 2.88E-02 1.37E-04 2.19E-01 0.00E+00 0.00E+00 1.818E+00
2.270E-05 2.27E-01 1.49E-01 2.02E-02 8.59E-01 4.54E-01 3.37E-04 3.00E-02 1.72E-04 3.02E-01 0.00E+00 0.00E+00 2.041E+00
2.170E-05 2.26E-01 1.49E-01 2.53E-02 8.53E-01 6.14E-01 4.38E-04 3.37E-02 2.15E-04 2.26E-01 0.00E+00 0.00E+00 2.127E+00
2.080E-05 2.26E-01 1.49E-01 3.45E-02 8.47E-01 6.36E-01 4.06E-04 4.21E-02 2.67E-04 1.34E-01 0.00E+00 0.00E+00 2.069E+00
2.000E-05 2.25E-01 1.48E-01 1.23E-01 7.67E-01 5.51E-01 3.18E-04 5.36E-02 3.28E-04 8.37E-02 0.00E+00 0.00E+00 1.953E+00
1.920E-05 2.24E-01 1.49E-01 2.31E-01 6.70E-01 4.28E-01 2.19E-04 7.36E-02 4.07E-04 5.54E-02 0.00E+00 0.00E+00 1.832E+00
1.850E-05 2.25E-01 1.51E-01 2.96E-01 6.15E-01 3.35E-01 1.55E-04 9.86E-02 4.99E-04 4.06E-02 0.00E+00 0.00E+00 1.761E+00
1.790E-05 2.25E-01 1.52E-01 3.68E-01 5.43E-01 2.72E-01 1.18E-04 1.26E-01 5.98E-04 3.24E-02 0.00E+00 0.00E+00 1.719E+00
1.720E-05 2.25E-01 1.53E-01 4.16E-01 4.94E-01 2.19E-01 9.39E-05 1.75E-01 7.49E-04 2.59E-02 0.00E+00 0.00E+00 1.708E+00
1.670E-05 2.25E-01 1.54E-01 4.36E-01 4.73E-01 1.87E-01 8.55E-05 2.20E-01 8.85E-04 2.27E-02 0.00E+00 0.00E+00 1.719E+00
1.610E-05 2.26E-01 1.55E-01 4.52E-01 4.54E-01 1.58E-01 8.69E-05 3.00E-01 1.09E-03 2.01E-02 0.00E+00 0.00E+00 1.767E+00
1.560E-05 2.26E-01 1.56E-01 4.61E-01 4.43E-01 1.39E-01 9.81E-05 3.92E-01 1.31E-03 1.86E-02 0.00E+00 0.00E+00 1.837E+00
1.520E-05 2.26E-01 1.57E-01 4.66E-01 4.36E-01 1.26E-01 1.14E-04 4.90E-01 1.50E-03 1.79E-02 0.00E+00 0.00E+00 1.921E+00
1.470E-05 2.27E-01 1.57E-01 4.70E-01 4.28E-01 1.12E-01 1.44E-04 6.31E-01 1.78E-03 1.75E-02 0.00E+00 0.00E+00 2.045E+00
1.430E-05 2.26E-01 1.58E-01 4.72E-01 4.23E-01 1.05E-01 1.80E-04 7.51E-01 1.99E-03 1.76E-02 0.00E+00 0.00E+00 2.155E+00
1.390E-05 2.26E-01 1.58E-01 4.72E-01 4.18E-01 1.02E-01 2.29E-04 8.46E-01 2.21E-03 1.81E-02 0.00E+00 0.00E+00 2.243E+00
1.350E-05 2.25E-01 1.58E-01 4.72E-01 4.13E-01 1.02E-01 2.93E-04 9.34E-01 2.47E-03 1.91E-02 0.00E+00 0.00E+00 2.327E+00
1.320E-05 2.25E-01 1.58E-01 4.72E-01 4.10E-01 1.04E-01 3.56E-04 1.00E+00 2.71E-03 2.01E-02 0.00E+00 0.00E+00 2.395E+00
1.280E-05 2.24E-01 1.58E-01 4.70E-01 4.05E-01 1.11E-01 4.67E-04 1.10E+00 3.08E-03 2.21E-02 0.00E+00 0.00E+00 2.499E+00
1.250E-05 2.24E-01 1.59E-01 4.69E-01 4.04E-01 1.20E-01 5.76E-04 1.19E+00 3.41E-03 2.41E-02 0.00E+00 0.00E+00 2.590E+00
1.220E-05 2.23E-01 1.59E-01 4.68E-01 4.04E-01 1.34E-01 7.14E-04 1.28E+00 3.81E-03 2.68E-02 0.00E+00 0.00E+00 2.696E+00
1.190E-05 2.22E-01 1.59E-01 4.68E-01 4.07E-01 1.53E-01 8.85E-04 1.38E+00 4.26E-03 3.02E-02 0.00E+00 0.00E+00 2.822E+00
1.160E-05 2.21E-01 1.59E-01 4.68E-01 4.09E-01 1.74E-01 1.10E-03 1.49E+00 4.81E-03 3.47E-02 0.00E+00 0.00E+00 2.963E+00
1.140E-05 2.20E-01 1.59E-01 4.67E-01 4.10E-01 1.92E-01 1.30E-03 1.58E+00 5.23E-03 3.85E-02 0.00E+00 0.00E+00 3.068E+00
1.110E-05 2.19E-01 1.58E-01 4.67E-01 4.11E-01 2.20E-01 1.70E-03 1.72E+00 5.97E-03 4.57E-02 0.00E+00 0.00E+00 3.242E+00
1.080E-05 2.17E-01 1.58E-01 4.66E-01 4.11E-01 2.96E-01 2.26E-03 1.88E+00 6.88E-03 5.55E-02 0.00E+00 0.00E+00 3.495E+00
1.050E-05 2.15E-01 1.57E-01 4.64E-01 4.13E-01 3.95E-01 2.93E-03 2.09E+00 8.05E-03 6.88E-02 0.00E+00 0.00E+00 3.814E+00
1.030E-05 2.14E-01 1.57E-01 4.63E-01 4.13E-01 4.71E-01 3.36E-03 2.28E+00 8.96E-03 8.01E-02 0.00E+00 0.00E+00 4.095E+00
1.000E-05 2.12E-01 1.56E-01 4.62E-01 4.14E-01 5.78E-01 4.10E-03 2.56E+00 1.03E-02 1.02E-01 0.00E+00 0.00E+00 4.501E+00
9.750E-06 2.10E-01 1.56E-01 4.60E-01 4.15E-01 7.02E-01 5.09E-03 2.79E+00 1.14E-02 1.23E-01 0.00E+00 0.00E+00 4.869E+00
9.500E-06 2.08E-01 1.55E-01 4.58E-01 4.17E-01 8.44E-01 6.02E-03 3.03E+00 1.27E-02 1.45E-01 0.00E+00 0.00E+00 5.272E+00
9.250E-06 2.06E-01 1.54E-01 4.56E-01 4.17E-01 9.53E-01 6.72E-03 3.27E+00 1.40E-02 1.61E-01 0.00E+00 0.00E+00 5.638E+00
9.080E-06 2.04E-01 1.54E-01 4.53E-01 4.17E-01 1.02E+00 7.22E-03 3.41E+00 1.47E-02 1.65E-01 0.00E+00 0.00E+00 5.843E+00
