 # Optical depth:  wel [cm]  N*sig* [cm^2/cm^2/g dust ISM] 
 # wel(cm) sa_aC    ss_aC    sa_Si    ss_Si    sa_vgr   ss_vgr   sa_vsi   ss_vsi   s_pahS+B sa_Dark  ss_Dark sigt 
 # ------------------------------------------------------------------------------------------------------------- 
1.000E+00 1.87E-07 6.98E-17 5.98E-07 9.76E-17 6.23E-09 5.48E-23 2.13E-07 3.35E-22 2.50E-11 5.55E-06 4.54E-13 6.557E-06
9.000E-01 2.19E-07 1.06E-16 7.06E-07 1.49E-16 7.94E-09 8.36E-23 2.53E-07 5.10E-22 3.09E-11 6.47E-06 6.92E-13 7.654E-06
8.000E-01 2.62E-07 1.70E-16 8.50E-07 2.38E-16 1.04E-08 1.34E-22 3.08E-07 8.17E-22 3.91E-11 7.68E-06 1.11E-12 9.107E-06
7.000E-01 3.20E-07 2.90E-16 1.05E-06 4.06E-16 1.39E-08 2.28E-22 3.79E-07 1.39E-21 5.10E-11 9.32E-06 1.89E-12 1.108E-05
6.000E-01 4.06E-07 5.38E-16 1.34E-06 7.53E-16 1.93E-08 4.23E-22 4.87E-07 2.58E-21 6.94E-11 1.17E-05 3.49E-12 1.394E-05
5.500E-01 4.64E-07 7.62E-16 1.54E-06 1.07E-15 2.31E-08 5.99E-22 5.62E-07 3.65E-21 8.26E-11 1.33E-05 4.94E-12 1.587E-05
5.000E-01 5.37E-07 1.11E-15 1.80E-06 1.56E-15 2.80E-08 8.77E-22 6.51E-07 5.35E-21 1.00E-10 1.53E-05 7.23E-12 1.829E-05
4.500E-01 6.33E-07 1.70E-15 2.13E-06 2.38E-15 3.45E-08 1.34E-21 7.77E-07 8.15E-21 1.23E-10 1.79E-05 1.10E-11 2.143E-05
4.000E-01 7.61E-07 2.72E-15 2.57E-06 3.81E-15 4.32E-08 2.14E-21 9.33E-07 1.30E-20 1.56E-10 2.13E-05 1.76E-11 2.558E-05
3.500E-01 9.39E-07 4.64E-15 3.19E-06 6.50E-15 5.53E-08 3.65E-21 1.17E-06 2.22E-20 2.04E-10 2.60E-05 3.00E-11 3.135E-05
3.000E-01 1.20E-06 8.59E-15 4.09E-06 1.21E-14 7.29E-08 6.77E-21 1.48E-06 4.12E-20 2.78E-10 3.28E-05 5.54E-11 3.961E-05
2.500E-01 1.61E-06 1.78E-14 5.49E-06 2.50E-14 9.94E-08 1.40E-20 1.99E-06 8.54E-20 4.00E-10 4.32E-05 1.15E-10 5.241E-05
2.098E-01 2.13E-06 3.59E-14 7.30E-06 5.04E-14 1.32E-07 2.83E-20 2.65E-06 1.72E-19 5.68E-10 5.65E-05 2.31E-10 6.875E-05
1.500E-01 3.71E-06 1.37E-13 1.26E-05 1.93E-13 2.52E-07 1.08E-19 4.53E-06 6.58E-19 1.11E-09 9.52E-05 8.79E-10 1.163E-04
1.382E-01 4.26E-06 1.90E-13 1.44E-05 2.68E-13 2.97E-07 1.50E-19 5.20E-06 9.12E-19 1.31E-09 1.08E-04 1.22E-09 1.325E-04
1.320E-01 4.60E-06 2.29E-13 1.56E-05 3.22E-13 3.26E-07 1.81E-19 5.60E-06 1.10E-18 1.43E-09 1.16E-04 1.46E-09 1.425E-04
1.150E-01 5.81E-06 3.97E-13 1.95E-05 5.58E-13 4.27E-07 3.13E-19 6.99E-06 1.90E-18 1.89E-09 1.45E-04 2.53E-09 1.777E-04
1.000E-01 7.39E-06 6.93E-13 2.46E-05 9.76E-13 5.61E-07 5.48E-19 8.73E-06 3.32E-18 2.50E-09 1.81E-04 4.42E-09 2.227E-04
9.970E-02 7.43E-06 7.02E-13 2.47E-05 9.88E-13 5.64E-07 5.55E-19 8.77E-06 3.36E-18 2.52E-09 1.82E-04 4.48E-09 2.238E-04
8.670E-02 9.36E-06 1.23E-12 3.12E-05 1.73E-12 7.46E-07 9.70E-19 1.10E-05 5.88E-18 3.33E-09 2.27E-04 7.81E-09 2.791E-04
8.500E-02 9.69E-06 1.33E-12 3.22E-05 1.87E-12 7.75E-07 1.05E-18 1.14E-05 6.36E-18 3.46E-09 2.35E-04 8.46E-09 2.886E-04
7.500E-02 1.23E-05 2.19E-12 3.96E-05 3.09E-12 9.85E-07 1.73E-18 1.39E-05 1.05E-17 4.45E-09 2.93E-04 1.39E-08 3.598E-04
6.000E-02 1.81E-05 5.35E-12 5.72E-05 7.58E-12 1.51E-06 4.23E-18 2.01E-05 2.56E-17 6.95E-09 4.17E-04 3.38E-08 5.136E-04
5.500E-02 2.10E-05 7.57E-12 6.40E-05 1.08E-11 1.79E-06 5.99E-18 2.35E-05 3.63E-17 8.27E-09 4.81E-04 4.79E-08 5.912E-04
5.000E-02 2.49E-05 1.11E-11 7.93E-05 1.59E-11 2.13E-06 8.76E-18 2.79E-05 5.32E-17 1.00E-08 5.70E-04 7.01E-08 7.044E-04
4.500E-02 3.07E-05 1.69E-11 1.05E-04 2.44E-11 2.60E-06 1.34E-17 3.42E-05 8.11E-17 1.24E-08 6.96E-04 1.07E-07 8.685E-04
4.000E-02 3.95E-05 2.72E-11 1.40E-04 3.95E-11 3.24E-06 2.14E-17 4.32E-05 1.30E-16 1.56E-08 8.74E-04 1.71E-07 1.101E-03
3.500E-02 4.95E-05 4.64E-11 2.13E-04 6.79E-11 4.15E-06 3.65E-17 5.71E-05 2.22E-16 2.04E-08 1.08E-03 2.90E-07 1.402E-03
3.000E-02 6.99E-05 8.62E-11 3.33E-04 1.26E-10 5.53E-06 6.76E-17 8.02E-05 4.13E-16 2.78E-08 1.48E-03 5.36E-07 1.966E-03
2.750E-02 8.34E-05 1.22E-10 4.19E-04 1.79E-10 6.52E-06 9.58E-17 9.80E-05 5.85E-16 3.31E-08 1.73E-03 7.57E-07 2.333E-03
2.500E-02 1.00E-04 1.80E-10 5.33E-04 2.62E-10 7.79E-06 1.40E-16 1.23E-04 8.56E-16 4.01E-08 2.06E-03 1.11E-06 2.829E-03
2.400E-02 1.10E-04 2.11E-10 5.90E-04 3.08E-10 8.43E-06 1.65E-16 1.34E-04 1.01E-15 4.35E-08 2.22E-03 1.30E-06 3.063E-03
2.000E-02 1.61E-04 4.41E-10 9.19E-04 6.29E-10 1.19E-05 3.43E-16 1.94E-04 2.09E-15 6.27E-08 3.12E-03 2.68E-06 4.407E-03
1.800E-02 2.01E-04 6.77E-10 1.14E-03 9.44E-10 1.47E-05 5.23E-16 2.41E-04 3.19E-15 7.75E-08 3.82E-03 4.09E-06 5.425E-03
1.600E-02 2.67E-04 1.09E-09 1.42E-03 1.48E-09 1.86E-05 8.40E-16 3.08E-04 5.11E-15 9.82E-08 4.82E-03 6.50E-06 6.833E-03
1.500E-02 3.18E-04 1.42E-09 1.59E-03 1.89E-09 2.11E-05 1.09E-15 3.49E-04 6.61E-15 1.12E-07 5.47E-03 8.36E-06 7.753E-03
1.400E-02 3.62E-04 1.88E-09 1.79E-03 2.46E-09 2.44E-05 1.44E-15 4.03E-04 8.72E-15 1.28E-07 6.08E-03 1.10E-05 8.669E-03
1.200E-02 5.52E-04 3.52E-09 2.28E-03 4.41E-09 3.39E-05 2.67E-15 5.53E-04 1.62E-14 1.75E-07 8.21E-03 2.00E-05 1.164E-02
1.000E-02 8.37E-04 7.38E-09 3.00E-03 8.74E-09 5.14E-05 5.59E-15 8.07E-04 3.36E-14 2.54E-07 1.12E-02 4.10E-05 1.598E-02
9.000E-03 1.11E-03 1.14E-08 3.42E-03 1.30E-08 6.60E-05 8.56E-15 1.01E-03 5.12E-14 3.14E-07 1.37E-02 6.17E-05 1.940E-02
8.000E-03 1.48E-03 1.79E-08 3.98E-03 2.05E-08 8.82E-05 1.38E-14 1.29E-03 8.21E-14 4.00E-07 1.63E-02 9.66E-05 2.327E-02
7.500E-03 1.73E-03 2.35E-08 4.40E-03 2.64E-08 1.04E-04 1.80E-14 1.48E-03 1.06E-13 4.56E-07 1.85E-02 1.25E-04 2.635E-02
7.000E-03 2.09E-03 3.08E-08 4.93E-03 3.46E-08 1.25E-04 2.38E-14 1.72E-03 1.40E-13 5.26E-07 2.09E-02 1.62E-04 2.989E-02
6.000E-03 3.00E-03 5.58E-08 6.33E-03 6.31E-08 1.93E-04 4.49E-14 2.39E-03 2.60E-13 7.24E-07 2.71E-02 2.93E-04 3.927E-02
5.000E-03 4.28E-03 1.09E-07 8.99E-03 1.28E-07 3.37E-04 9.53E-14 3.52E-03 5.36E-13 1.07E-06 3.63E-02 5.88E-04 5.400E-02
4.500E-03 5.27E-03 1.59E-07 1.10E-02 1.92E-07 4.77E-04 1.47E-13 4.40E-03 8.12E-13 1.34E-06 4.33E-02 8.74E-04 6.533E-02
4.000E-03 6.27E-03 2.36E-07 1.37E-02 2.87E-07 6.99E-04 2.34E-13 5.61E-03 1.29E-12 1.74E-06 5.21E-02 1.36E-03 7.977E-02
3.500E-03 7.58E-03 3.73E-07 1.69E-02 4.53E-07 9.70E-04 3.74E-13 7.32E-03 2.17E-12 2.39E-06 6.47E-02 2.25E-03 9.971E-02
3.000E-03 9.35E-03 6.16E-07 2.08E-02 7.28E-07 1.02E-03 5.86E-13 1.00E-02 3.96E-12 3.59E-06 8.35E-02 3.96E-03 1.286E-01
2.750E-03 1.03E-02 8.07E-07 2.28E-02 9.39E-07 8.83E-04 7.54E-13 1.20E-02 5.52E-12 4.80E-06 9.59E-02 5.39E-03 1.472E-01
2.500E-03 1.11E-02 1.08E-06 2.50E-02 1.23E-06 6.96E-04 1.04E-12 1.48E-02 7.95E-12 7.79E-06 1.11E-01 7.49E-03 1.700E-01
2.400E-03 1.15E-02 1.23E-06 2.58E-02 1.38E-06 6.24E-04 1.20E-12 1.61E-02 9.23E-12 1.07E-05 1.18E-01 8.57E-03 1.807E-01
2.350E-03 1.17E-02 1.31E-06 2.63E-02 1.46E-06 5.90E-04 1.30E-12 1.68E-02 9.96E-12 1.26E-05 1.22E-01 9.17E-03 1.867E-01
2.320E-03 1.19E-02 1.37E-06 2.66E-02 1.52E-06 5.70E-04 1.37E-12 1.73E-02 1.04E-11 1.36E-05 1.24E-01 9.55E-03 1.903E-01
2.310E-03 1.19E-02 1.39E-06 2.68E-02 1.54E-06 5.64E-04 1.39E-12 1.74E-02 1.06E-11 1.38E-05 1.25E-01 9.68E-03 1.915E-01
2.300E-03 1.19E-02 1.40E-06 2.69E-02 1.56E-06 5.58E-04 1.42E-12 1.76E-02 1.08E-11 1.40E-05 1.26E-01 9.81E-03 1.927E-01
2.250E-03 1.21E-02 1.50E-06 2.74E-02 1.66E-06 5.28E-04 1.54E-12 1.85E-02 1.17E-11 1.46E-05 1.30E-01 1.05E-02 1.994E-01
2.200E-03 1.23E-02 1.61E-06 2.81E-02 1.77E-06 4.99E-04 1.68E-12 1.95E-02 1.27E-11 1.53E-05 1.35E-01 1.12E-02 2.063E-01
2.150E-03 1.26E-02 1.73E-06 2.89E-02 1.88E-06 4.73E-04 1.85E-12 2.05E-02 1.37E-11 1.67E-05 1.39E-01 1.20E-02 2.134E-01
2.120E-03 1.27E-02 1.80E-06 2.93E-02 1.94E-06 4.59E-04 1.95E-12 2.11E-02 1.44E-11 1.74E-05 1.42E-01 1.25E-02 2.179E-01
2.110E-03 1.28E-02 1.83E-06 2.94E-02 1.96E-06 4.54E-04 1.99E-12 2.14E-02 1.46E-11 1.75E-05 1.43E-01 1.26E-02 2.194E-01
2.100E-03 1.28E-02 1.85E-06 2.96E-02 1.98E-06 4.50E-04 2.03E-12 2.16E-02 1.48E-11 1.76E-05 1.44E-01 1.28E-02 2.209E-01
2.080E-03 1.29E-02 1.90E-06 2.98E-02 2.02E-06 4.41E-04 2.11E-12 2.21E-02 1.53E-11 1.75E-05 1.45E-01 1.31E-02 2.235E-01
2.000E-03 1.31E-02 2.14E-06 3.07E-02 2.19E-06 4.08E-04 2.47E-12 2.42E-02 1.74E-11 1.67E-05 1.52E-01 1.45E-02 2.354E-01
1.950E-03 1.33E-02 2.33E-06 3.12E-02 2.27E-06 3.91E-04 2.74E-12 2.56E-02 1.84E-11 1.80E-05 1.56E-01 1.51E-02 2.421E-01
1.900E-03 1.36E-02 2.54E-06 3.13E-02 2.32E-06 3.75E-04 3.04E-12 2.67E-02 1.92E-11 2.16E-05 1.60E-01 1.58E-02 2.473E-01
1.850E-03 1.38E-02 2.78E-06 3.11E-02 2.35E-06 3.62E-04 3.39E-12 2.73E-02 1.98E-11 2.76E-05 1.61E-01 1.63E-02 2.498E-01
1.830E-03 1.40E-02 2.87E-06 3.09E-02 2.35E-06 3.56E-04 3.54E-12 2.74E-02 1.99E-11 2.98E-05 1.61E-01 1.65E-02 2.501E-01
1.820E-03 1.40E-02 2.92E-06 3.08E-02 2.35E-06 3.54E-04 3.62E-12 2.74E-02 1.99E-11 3.05E-05 1.61E-01 1.65E-02 2.500E-01
1.810E-03 1.41E-02 2.97E-06 3.07E-02 2.35E-06 3.52E-04 3.70E-12 2.73E-02 1.99E-11 3.09E-05 1.61E-01 1.66E-02 2.497E-01
1.800E-03 1.41E-02 3.03E-06 3.05E-02 2.34E-06 3.49E-04 3.79E-12 2.72E-02 2.00E-11 3.12E-05 1.60E-01 1.67E-02 2.494E-01
1.750E-03 1.45E-02 3.31E-06 2.92E-02 2.28E-06 3.39E-04 4.25E-12 2.65E-02 2.01E-11 3.19E-05 1.59E-01 1.72E-02 2.463E-01
1.700E-03 1.46E-02 3.63E-06 2.70E-02 2.19E-06 3.31E-04 4.79E-12 2.53E-02 2.02E-11 3.89E-05 1.55E-01 1.79E-02 2.401E-01
1.670E-03 1.48E-02 3.86E-06 2.53E-02 2.13E-06 3.27E-04 5.15E-12 2.43E-02 2.05E-11 4.56E-05 1.53E-01 1.84E-02 2.364E-01
1.650E-03 1.50E-02 4.03E-06 2.40E-02 2.09E-06 3.25E-04 5.41E-12 2.36E-02 2.07E-11 4.81E-05 1.52E-01 1.89E-02 2.337E-01
1.640E-03 1.51E-02 4.11E-06 2.33E-02 2.08E-06 3.24E-04 5.54E-12 2.32E-02 2.08E-11 4.80E-05 1.51E-01 1.91E-02 2.322E-01
1.630E-03 1.52E-02 4.19E-06 2.26E-02 2.07E-06 3.23E-04 5.68E-12 2.28E-02 2.10E-11 4.71E-05 1.50E-01 1.93E-02 2.306E-01
1.610E-03 1.54E-02 4.36E-06 2.10E-02 2.06E-06 3.21E-04 5.97E-12 2.20E-02 2.15E-11 4.41E-05 1.49E-01 1.99E-02 2.275E-01
1.600E-03 1.54E-02 4.45E-06 2.02E-02 2.07E-06 3.21E-04 6.13E-12 2.16E-02 2.18E-11 4.27E-05 1.48E-01 2.02E-02 2.260E-01
1.590E-03 1.55E-02 4.54E-06 1.94E-02 2.09E-06 3.20E-04 6.29E-12 2.12E-02 2.21E-11 4.17E-05 1.48E-01 2.05E-02 2.245E-01
1.580E-03 1.56E-02 4.63E-06 1.85E-02 2.11E-06 3.19E-04 6.45E-12 2.09E-02 2.25E-11 4.11E-05 1.47E-01 2.09E-02 2.231E-01
1.570E-03 1.56E-02 4.72E-06 1.77E-02 2.15E-06 3.19E-04 6.62E-12 2.05E-02 2.30E-11 4.05E-05 1.46E-01 2.13E-02 2.216E-01
1.560E-03 1.57E-02 4.83E-06 1.69E-02 2.21E-06 3.19E-04 6.79E-12 2.01E-02 2.34E-11 3.96E-05 1.46E-01 2.17E-02 2.204E-01
1.540E-03 1.60E-02 5.04E-06 1.55E-02 2.37E-06 3.18E-04 7.16E-12 1.94E-02 2.45E-11 3.88E-05 1.45E-01 2.26E-02 2.186E-01
1.520E-03 1.61E-02 5.23E-06 1.44E-02 2.60E-06 3.18E-04 7.55E-12 1.86E-02 2.59E-11 4.09E-05 1.44E-01 2.36E-02 2.168E-01
1.510E-03 1.62E-02 5.33E-06 1.40E-02 2.74E-06 3.18E-04 7.76E-12 1.83E-02 2.66E-11 4.22E-05 1.43E-01 2.41E-02 2.161E-01
1.500E-03 1.62E-02 5.42E-06 1.37E-02 2.89E-06 3.18E-04 7.97E-12 1.80E-02 2.75E-11 4.25E-05 1.43E-01 2.47E-02 2.157E-01
1.450E-03 1.65E-02 6.06E-06 1.31E-02 3.75E-06 3.20E-04 9.15E-12 1.66E-02 3.32E-11 5.37E-05 1.42E-01 2.88E-02 2.174E-01
1.440E-03 1.65E-02 6.20E-06 1.31E-02 3.93E-06 3.20E-04 9.41E-12 1.63E-02 3.47E-11 5.93E-05 1.42E-01 2.98E-02 2.184E-01
1.430E-03 1.66E-02 6.34E-06 1.30E-02 4.12E-06 3.21E-04 9.68E-12 1.63E-02 3.65E-11 6.41E-05 1.43E-01 3.09E-02 2.205E-01
1.420E-03 1.67E-02 6.49E-06 1.30E-02 4.32E-06 3.22E-04 9.96E-12 1.62E-02 3.84E-11 6.66E-05 1.44E-01 3.21E-02 2.226E-01
1.400E-03 1.69E-02 6.80E-06 1.30E-02 4.73E-06 3.24E-04 1.06E-11 1.63E-02 4.28E-11 7.26E-05 1.47E-01 3.47E-02 2.285E-01
1.380E-03 1.70E-02 7.12E-06 1.30E-02 5.19E-06 3.26E-04 1.12E-11 1.68E-02 4.78E-11 9.15E-05 1.51E-01 3.76E-02 2.363E-01
1.370E-03 1.71E-02 7.30E-06 1.31E-02 5.43E-06 3.27E-04 1.15E-11 1.72E-02 5.05E-11 1.09E-04 1.54E-01 3.91E-02 2.412E-01
1.360E-03 1.72E-02 7.48E-06 1.31E-02 5.69E-06 3.28E-04 1.19E-11 1.78E-02 5.33E-11 1.26E-04 1.57E-01 4.06E-02 2.465E-01
1.350E-03 1.73E-02 7.67E-06 1.31E-02 5.96E-06 3.30E-04 1.22E-11 1.83E-02 5.63E-11 1.35E-04 1.61E-01 4.22E-02 2.520E-01
1.340E-03 1.75E-02 7.86E-06 1.32E-02 6.25E-06 3.31E-04 1.26E-11 1.89E-02 5.92E-11 1.46E-04 1.64E-01 4.36E-02 2.577E-01
1.330E-03 1.76E-02 8.05E-06 1.33E-02 6.56E-06 3.33E-04 1.30E-11 1.96E-02 6.22E-11 1.69E-04 1.68E-01 4.50E-02 2.634E-01
1.320E-03 1.77E-02 8.24E-06 1.33E-02 6.88E-06 3.35E-04 1.34E-11 2.02E-02 6.54E-11 2.08E-04 1.71E-01 4.64E-02 2.693E-01
1.310E-03 1.78E-02 8.42E-06 1.35E-02 7.23E-06 3.37E-04 1.38E-11 2.10E-02 6.87E-11 2.72E-04 1.75E-01 4.78E-02 2.752E-01
1.290E-03 1.79E-02 8.79E-06 1.38E-02 8.00E-06 3.41E-04 1.47E-11 2.25E-02 7.58E-11 5.60E-04 1.82E-01 5.07E-02 2.872E-01
1.280E-03 1.79E-02 9.01E-06 1.40E-02 8.40E-06 3.43E-04 1.52E-11 2.34E-02 7.95E-11 8.22E-04 1.85E-01 5.21E-02 2.940E-01
1.270E-03 1.80E-02 9.25E-06 1.41E-02 8.85E-06 3.45E-04 1.57E-11 2.44E-02 8.34E-11 9.94E-04 1.89E-01 5.35E-02 3.008E-01
1.260E-03 1.80E-02 9.49E-06 1.42E-02 9.38E-06 3.48E-04 1.62E-11 2.54E-02 8.74E-11 8.57E-04 1.93E-01 5.49E-02 3.072E-01
1.250E-03 1.81E-02 9.73E-06 1.45E-02 9.95E-06 3.50E-04 1.67E-11 2.64E-02 9.14E-11 6.32E-04 1.97E-01 5.61E-02 3.134E-01
1.220E-03 1.85E-02 1.06E-05 1.65E-02 1.23E-05 3.57E-04 1.84E-11 2.96E-02 1.05E-10 4.94E-04 2.09E-01 6.00E-02 3.347E-01
1.210E-03 1.86E-02 1.09E-05 1.80E-02 1.32E-05 3.60E-04 1.91E-11 3.09E-02 1.10E-10 5.69E-04 2.13E-01 6.11E-02 3.427E-01
1.200E-03 1.86E-02 1.12E-05 1.99E-02 1.42E-05 3.63E-04 1.97E-11 3.22E-02 1.15E-10 6.28E-04 2.17E-01 6.23E-02 3.512E-01
1.190E-03 1.88E-02 1.15E-05 2.20E-02 1.50E-05 3.65E-04 2.04E-11 3.36E-02 1.20E-10 6.28E-04 2.21E-01 6.34E-02 3.602E-01
1.180E-03 1.89E-02 1.18E-05 2.40E-02 1.57E-05 3.68E-04 2.11E-11 3.51E-02 1.25E-10 6.24E-04 2.25E-01 6.41E-02 3.682E-01
1.170E-03 1.90E-02 1.21E-05 2.60E-02 1.63E-05 3.71E-04 2.19E-11 3.66E-02 1.31E-10 6.93E-04 2.29E-01 6.49E-02 3.763E-01
1.160E-03 1.92E-02 1.25E-05 2.77E-02 1.67E-05 3.76E-04 2.28E-11 3.79E-02 1.36E-10 8.93E-04 2.32E-01 6.56E-02 3.837E-01
1.150E-03 1.93E-02 1.28E-05 2.92E-02 1.72E-05 5.28E-04 2.25E-11 3.94E-02 1.41E-10 1.30E-03 2.35E-01 6.63E-02 3.910E-01
1.140E-03 1.93E-02 1.31E-05 3.05E-02 1.76E-05 3.92E-04 2.40E-11 4.09E-02 1.48E-10 1.96E-03 2.38E-01 6.70E-02 3.983E-01
1.130E-03 1.94E-02 1.35E-05 3.17E-02 1.80E-05 3.92E-04 2.50E-11 4.26E-02 1.54E-10 2.39E-03 2.42E-01 6.77E-02 4.057E-01
1.120E-03 1.94E-02 1.38E-05 3.27E-02 1.84E-05 3.94E-04 2.59E-11 4.44E-02 1.61E-10 1.92E-03 2.45E-01 6.83E-02 4.120E-01
1.110E-03 1.95E-02 1.42E-05 3.38E-02 1.88E-05 3.97E-04 2.69E-11 4.63E-02 1.68E-10 1.22E-03 2.48E-01 6.88E-02 4.179E-01
1.090E-03 1.96E-02 1.51E-05 3.58E-02 1.96E-05 4.05E-04 2.90E-11 5.02E-02 1.83E-10 5.10E-04 2.54E-01 6.96E-02 4.301E-01
1.050E-03 2.00E-02 1.72E-05 3.95E-02 2.11E-05 4.24E-04 3.37E-11 6.07E-02 2.17E-10 1.70E-04 2.66E-01 6.96E-02 4.566E-01
1.000E-03 2.08E-02 2.03E-05 4.32E-02 2.24E-05 4.52E-04 4.10E-11 7.02E-02 2.32E-10 8.71E-05 2.67E-01 6.49E-02 4.669E-01
9.800E-04 2.11E-02 2.18E-05 4.40E-02 2.23E-05 4.65E-04 4.44E-11 7.37E-02 2.39E-10 7.61E-05 2.67E-01 6.31E-02 4.697E-01
9.600E-04 2.14E-02 2.33E-05 4.38E-02 2.18E-05 4.79E-04 4.83E-11 7.71E-02 2.41E-10 7.07E-05 2.65E-01 6.03E-02 4.686E-01
9.500E-04 2.17E-02 2.42E-05 4.33E-02 2.14E-05 4.86E-04 5.03E-11 7.78E-02 2.36E-10 6.97E-05 2.63E-01 5.81E-02 4.646E-01
9.400E-04 2.18E-02 2.49E-05 4.25E-02 2.09E-05 4.94E-04 5.25E-11 7.76E-02 2.26E-10 6.99E-05 2.59E-01 5.55E-02 4.569E-01
9.200E-04 2.21E-02 2.66E-05 4.04E-02 2.01E-05 5.10E-04 5.72E-11 7.23E-02 1.88E-10 7.47E-05 2.46E-01 4.95E-02 4.306E-01
8.900E-04 2.27E-02 2.98E-05 3.59E-02 1.88E-05 5.36E-04 6.54E-11 5.71E-02 1.20E-10 1.08E-04 2.20E-01 4.22E-02 3.782E-01
8.700E-04 2.28E-02 3.18E-05 3.24E-02 1.85E-05 5.55E-04 7.16E-11 4.76E-02 8.93E-11 2.37E-04 2.04E-01 3.98E-02 3.470E-01
8.600E-04 2.31E-02 3.31E-05 3.08E-02 1.84E-05 5.65E-04 7.50E-11 4.37E-02 7.88E-11 3.56E-04 1.97E-01 3.94E-02 3.353E-01
8.500E-04 2.32E-02 3.43E-05 2.90E-02 1.84E-05 5.76E-04 7.85E-11 4.03E-02 7.02E-11 2.56E-04 1.91E-01 3.90E-02 3.239E-01
8.400E-04 2.34E-02 3.57E-05 2.71E-02 1.84E-05 5.87E-04 8.24E-11 3.67E-02 6.15E-11 1.84E-04 1.85E-01 3.86E-02 3.122E-01
8.200E-04 2.37E-02 3.81E-05 2.26E-02 1.89E-05 6.09E-04 9.07E-11 2.83E-02 4.41E-11 1.88E-04 1.70E-01 3.80E-02 2.831E-01
8.000E-04 2.39E-02 4.14E-05 1.82E-02 2.09E-05 6.34E-04 1.00E-10 1.94E-02 3.41E-11 2.73E-04 1.53E-01 3.98E-02 2.556E-01
7.900E-04 2.42E-02 4.31E-05 1.65E-02 2.24E-05 6.46E-04 1.05E-10 1.63E-02 3.67E-11 3.40E-04 1.49E-01 4.25E-02 2.492E-01
7.800E-04 2.43E-02 4.46E-05 1.52E-02 2.43E-05 6.59E-04 1.11E-10 1.33E-02 4.15E-11 4.06E-04 1.43E-01 4.55E-02 2.427E-01
7.700E-04 2.44E-02 4.64E-05 1.40E-02 2.63E-05 6.73E-04 1.16E-10 1.09E-02 4.94E-11 4.36E-04 1.39E-01 4.93E-02 2.392E-01
7.600E-04 2.44E-02 4.82E-05 1.30E-02 2.85E-05 6.86E-04 1.23E-10 9.26E-03 6.03E-11 4.05E-04 1.37E-01 5.36E-02 2.387E-01
7.500E-04 2.45E-02 5.02E-05 1.21E-02 3.09E-05 7.01E-04 1.29E-10 7.77E-03 7.33E-11 3.36E-04 1.35E-01 5.84E-02 2.392E-01
7.300E-04 2.47E-02 5.50E-05 1.07E-02 3.66E-05 7.31E-04 1.44E-10 6.52E-03 1.05E-10 2.10E-04 1.36E-01 6.87E-02 2.479E-01
7.200E-04 2.48E-02 5.73E-05 1.03E-02 3.97E-05 7.48E-04 1.52E-10 6.30E-03 1.21E-10 1.76E-04 1.37E-01 7.33E-02 2.528E-01
7.100E-04 2.49E-02 5.99E-05 9.99E-03 4.30E-05 7.64E-04 1.61E-10 6.11E-03 1.39E-10 1.72E-04 1.38E-01 7.85E-02 2.585E-01
7.000E-04 2.51E-02 6.29E-05 9.72E-03 4.64E-05 7.82E-04 1.70E-10 6.05E-03 1.58E-10 2.38E-04 1.40E-01 8.33E-02 2.652E-01
6.900E-04 2.52E-02 6.53E-05 9.34E-03 4.98E-05 8.00E-04 1.80E-10 6.01E-03 1.78E-10 1.41E-04 1.41E-01 8.77E-02 2.702E-01
6.800E-04 2.49E-02 6.78E-05 8.85E-03 5.36E-05 8.19E-04 1.91E-10 6.01E-03 1.98E-10 1.11E-04 1.40E-01 9.28E-02 2.741E-01
6.600E-04 2.50E-02 7.64E-05 7.97E-03 6.23E-05 8.60E-04 2.15E-10 6.01E-03 2.43E-10 1.06E-04 1.44E-01 1.04E-01 2.881E-01
6.400E-04 2.57E-02 8.63E-05 6.91E-03 7.26E-05 9.03E-04 2.43E-10 6.00E-03 2.94E-10 1.60E-04 1.48E-01 1.15E-01 3.033E-01
6.300E-04 2.62E-02 9.10E-05 6.44E-03 7.89E-05 9.13E-04 2.59E-10 5.98E-03 3.23E-10 2.48E-04 1.51E-01 1.20E-01 3.103E-01
6.200E-04 2.64E-02 9.54E-05 6.34E-03 8.58E-05 9.53E-04 2.76E-10 5.95E-03 3.54E-10 3.36E-04 1.52E-01 1.25E-01 3.165E-01
6.100E-04 2.66E-02 1.01E-04 6.30E-03 9.24E-05 9.78E-04 2.94E-10 5.91E-03 3.87E-10 2.44E-04 1.53E-01 1.30E-01 3.237E-01
5.900E-04 2.77E-02 1.13E-04 5.18E-03 1.08E-04 1.03E-03 3.36E-10 5.83E-03 4.64E-10 1.12E-04 1.58E-01 1.41E-01 3.386E-01
5.500E-04 2.68E-02 1.36E-04 3.84E-03 1.52E-04 1.16E-03 4.44E-10 5.74E-03 6.65E-10 9.50E-05 1.57E-01 1.67E-01 3.616E-01
5.300E-04 2.70E-02 1.57E-04 3.43E-03 1.80E-04 1.23E-03 5.14E-10 5.76E-03 7.96E-10 1.49E-04 1.60E-01 1.83E-01 3.807E-01
5.200E-04 2.70E-02 1.68E-04 3.22E-03 1.97E-04 1.27E-03 5.54E-10 5.77E-03 8.73E-10 2.33E-04 1.61E-01 1.91E-01 3.901E-01
5.100E-04 2.73E-02 1.81E-04 3.01E-03 2.15E-04 1.31E-03 5.98E-10 5.79E-03 9.57E-10 3.20E-04 1.63E-01 1.99E-01 4.005E-01
5.000E-04 2.76E-02 1.95E-04 2.79E-03 2.39E-04 1.35E-03 6.47E-10 5.83E-03 1.05E-09 2.32E-04 1.65E-01 2.07E-01 4.106E-01
4.800E-04 2.79E-02 2.25E-04 2.47E-03 2.87E-04 1.44E-03 7.60E-10 5.93E-03 1.27E-09 1.12E-04 1.69E-01 2.24E-01 4.306E-01
4.500E-04 2.89E-02 2.81E-04 2.07E-03 3.82E-04 1.60E-03 9.80E-10 6.13E-03 1.70E-09 8.80E-05 1.74E-01 2.48E-01 4.623E-01
4.000E-04 3.00E-02 4.30E-04 1.53E-03 6.36E-04 1.92E-03 1.56E-09 6.60E-03 2.83E-09 9.93E-05 1.84E-01 2.97E-01 5.223E-01
3.800E-04 3.06E-02 5.19E-04 1.35E-03 7.91E-04 2.08E-03 1.91E-09 6.81E-03 3.53E-09 1.11E-04 1.88E-01 3.17E-01 5.475E-01
3.600E-04 3.13E-02 6.35E-04 1.19E-03 9.94E-04 2.27E-03 2.36E-09 7.04E-03 4.43E-09 1.34E-04 1.92E-01 3.38E-01 5.732E-01
3.400E-04 3.28E-02 7.80E-04 1.05E-03 1.26E-03 2.48E-03 2.96E-09 7.29E-03 5.63E-09 2.65E-04 1.98E-01 3.54E-01 5.985E-01
3.300E-04 3.28E-02 8.61E-04 9.79E-04 1.43E-03 2.60E-03 3.33E-09 7.41E-03 6.38E-09 6.75E-04 1.99E-01 3.65E-01 6.109E-01
3.200E-04 3.29E-02 9.68E-04 9.11E-04 1.63E-03 2.73E-03 3.76E-09 7.54E-03 7.24E-09 2.74E-04 2.00E-01 3.76E-01 6.236E-01
3.150E-04 3.32E-02 1.03E-03 8.83E-04 1.74E-03 2.80E-03 4.00E-09 7.60E-03 7.73E-09 2.14E-04 2.02E-01 3.81E-01 6.299E-01
3.100E-04 3.35E-02 1.09E-03 8.53E-04 1.86E-03 2.87E-03 4.26E-09 7.66E-03 8.26E-09 1.90E-04 2.03E-01 3.85E-01 6.359E-01
3.080E-04 3.36E-02 1.12E-03 8.41E-04 1.91E-03 2.90E-03 4.37E-09 7.69E-03 8.48E-09 1.86E-04 2.04E-01 3.86E-01 6.382E-01
3.050E-04 3.38E-02 1.16E-03 8.23E-04 1.99E-03 2.94E-03 4.54E-09 7.73E-03 8.83E-09 1.81E-04 2.04E-01 3.89E-01 6.417E-01
3.000E-04 3.40E-02 1.23E-03 7.96E-04 2.13E-03 3.02E-03 4.84E-09 7.81E-03 9.46E-09 1.79E-04 2.05E-01 3.93E-01 6.478E-01
2.900E-04 3.47E-02 1.40E-03 7.42E-04 2.45E-03 3.19E-03 5.53E-09 7.98E-03 1.09E-08 1.82E-04 2.08E-01 4.01E-01 6.596E-01
2.800E-04 3.49E-02 1.58E-03 6.93E-04 2.83E-03 3.37E-03 6.35E-09 8.16E-03 1.26E-08 1.91E-04 2.10E-01 4.10E-01 6.711E-01
2.600E-04 3.59E-02 2.10E-03 6.00E-04 3.83E-03 3.78E-03 8.50E-09 8.56E-03 1.70E-08 2.19E-04 2.14E-01 4.23E-01 6.923E-01
2.500E-04 3.66E-02 2.45E-03 5.58E-04 4.50E-03 4.01E-03 9.91E-09 8.79E-03 1.99E-08 2.37E-04 2.17E-01 4.28E-01 7.024E-01
2.200E-04 4.00E-02 4.01E-03 4.50E-04 7.55E-03 4.88E-03 1.64E-08 9.62E-03 3.35E-08 3.13E-04 2.27E-01 4.36E-01 7.294E-01
2.159E-04 4.04E-02 4.30E-03 4.36E-04 8.15E-03 5.02E-03 1.76E-08 9.76E-03 3.62E-08 3.26E-04 2.28E-01 4.36E-01 7.330E-01
2.000E-04 4.28E-02 5.78E-03 3.93E-04 1.11E-02 5.64E-03 2.38E-08 1.03E-02 4.93E-08 3.89E-04 2.34E-01 4.37E-01 7.478E-01
1.662E-04 4.95E-02 1.16E-02 3.14E-04 2.30E-02 7.50E-03 4.90E-08 1.20E-02 1.04E-07 6.12E-04 2.45E-01 4.43E-01 7.932E-01
1.650E-04 4.98E-02 1.19E-02 3.11E-04 2.37E-02 7.59E-03 5.05E-08 1.20E-02 1.07E-07 6.24E-04 2.46E-01 4.44E-01 7.954E-01
1.250E-04 6.59E-02 3.26E-02 2.86E-04 6.70E-02 1.17E-02 1.50E-07 1.53E-02 3.25E-07 1.29E-03 2.62E-01 4.52E-01 9.084E-01
1.235E-04 6.68E-02 3.40E-02 2.83E-04 6.99E-02 1.19E-02 1.57E-07 1.55E-02 3.41E-07 1.33E-03 2.63E-01 4.52E-01 9.145E-01
1.130E-04 7.46E-02 4.55E-02 2.95E-04 9.49E-02 1.37E-02 2.22E-07 1.68E-02 4.87E-07 1.68E-03 2.68E-01 4.48E-01 9.640E-01
1.000E-04 8.90E-02 6.63E-02 3.32E-04 1.42E-01 1.67E-02 3.58E-07 1.88E-02 7.94E-07 2.31E-03 2.76E-01 4.41E-01 1.053E+00
9.500E-05 9.65E-02 7.68E-02 3.36E-04 1.67E-01 1.81E-02 4.37E-07 1.98E-02 9.75E-07 2.64E-03 2.80E-01 4.38E-01 1.098E+00
9.300E-05 9.98E-02 8.14E-02 3.44E-04 1.78E-01 1.87E-02 4.74E-07 2.02E-02 1.06E-06 2.78E-03 2.81E-01 4.36E-01 1.119E+00
9.200E-05 1.02E-01 8.39E-02 3.49E-04 1.84E-01 1.91E-02 4.95E-07 2.04E-02 1.11E-06 2.86E-03 2.82E-01 4.36E-01 1.130E+00
9.100E-05 1.03E-01 8.64E-02 3.56E-04 1.91E-01 1.94E-02 5.16E-07 2.06E-02 1.16E-06 2.94E-03 2.83E-01 4.35E-01 1.141E+00
9.000E-05 1.05E-01 8.90E-02 3.61E-04 1.97E-01 1.98E-02 5.39E-07 2.08E-02 1.21E-06 3.02E-03 2.83E-01 4.34E-01 1.153E+00
8.900E-05 1.07E-01 9.17E-02 3.70E-04 2.05E-01 2.01E-02 5.63E-07 2.10E-02 1.27E-06 3.11E-03 2.84E-01 4.33E-01 1.164E+00
8.800E-05 1.09E-01 9.44E-02 3.72E-04 2.12E-01 2.05E-02 5.88E-07 2.12E-02 1.32E-06 3.20E-03 2.84E-01 4.32E-01 1.177E+00
8.700E-05 1.10E-01 9.73E-02 3.82E-04 2.20E-01 2.09E-02 6.15E-07 2.15E-02 1.39E-06 3.29E-03 2.85E-01 4.32E-01 1.190E+00
8.600E-05 1.12E-01 1.00E-01 3.87E-04 2.28E-01 2.12E-02 6.43E-07 2.17E-02 1.45E-06 3.39E-03 2.85E-01 4.31E-01 1.203E+00
8.500E-05 1.14E-01 1.03E-01 3.96E-04 2.36E-01 2.16E-02 6.73E-07 2.20E-02 1.52E-06 3.49E-03 2.86E-01 4.30E-01 1.217E+00
8.400E-05 1.16E-01 1.07E-01 4.01E-04 2.45E-01 2.20E-02 7.04E-07 2.22E-02 1.59E-06 3.59E-03 2.86E-01 4.29E-01 1.231E+00
8.330E-05 1.17E-01 1.09E-01 4.07E-04 2.52E-01 2.23E-02 7.27E-07 2.24E-02 1.65E-06 3.66E-03 2.87E-01 4.28E-01 1.242E+00
8.200E-05 1.20E-01 1.14E-01 4.14E-04 2.64E-01 2.29E-02 7.73E-07 2.27E-02 1.76E-06 3.81E-03 2.88E-01 4.27E-01 1.262E+00
8.100E-05 1.22E-01 1.17E-01 4.23E-04 2.74E-01 2.33E-02 8.11E-07 2.30E-02 1.84E-06 3.93E-03 2.88E-01 4.26E-01 1.278E+00
8.000E-05 1.25E-01 1.21E-01 4.30E-04 2.85E-01 2.38E-02 8.51E-07 2.32E-02 1.94E-06 4.05E-03 2.89E-01 4.24E-01 1.295E+00
7.900E-05 1.27E-01 1.25E-01 4.39E-04 2.96E-01 2.43E-02 8.93E-07 2.35E-02 2.04E-06 4.17E-03 2.90E-01 4.23E-01 1.313E+00
7.800E-05 1.30E-01 1.29E-01 4.53E-04 3.08E-01 2.47E-02 9.38E-07 2.38E-02 2.15E-06 4.30E-03 2.90E-01 4.21E-01 1.331E+00
7.700E-05 1.33E-01 1.32E-01 4.62E-04 3.20E-01 2.52E-02 9.86E-07 2.41E-02 2.26E-06 4.44E-03 2.91E-01 4.20E-01 1.351E+00
7.600E-05 1.35E-01 1.36E-01 4.82E-04 3.33E-01 2.58E-02 1.04E-06 2.44E-02 2.38E-06 4.58E-03 2.92E-01 4.18E-01 1.370E+00
7.500E-05 1.38E-01 1.41E-01 4.94E-04 3.47E-01 2.63E-02 1.09E-06 2.47E-02 2.51E-06 4.73E-03 2.93E-01 4.17E-01 1.391E+00
7.400E-05 1.41E-01 1.45E-01 5.15E-04 3.61E-01 2.68E-02 1.15E-06 2.50E-02 2.65E-06 4.89E-03 2.93E-01 4.15E-01 1.413E+00
7.300E-05 1.45E-01 1.49E-01 5.38E-04 3.76E-01 2.74E-02 1.21E-06 2.53E-02 2.80E-06 5.05E-03 2.94E-01 4.13E-01 1.435E+00
7.140E-05 1.50E-01 1.55E-01 5.57E-04 4.01E-01 2.83E-02 1.32E-06 2.59E-02 3.06E-06 5.33E-03 2.96E-01 4.10E-01 1.472E+00
7.100E-05 1.51E-01 1.57E-01 5.56E-04 4.07E-01 2.86E-02 1.35E-06 2.60E-02 3.13E-06 5.40E-03 2.96E-01 4.09E-01 1.481E+00
7.000E-05 1.55E-01 1.61E-01 5.77E-04 4.24E-01 2.92E-02 1.43E-06 2.63E-02 3.31E-06 5.58E-03 2.97E-01 4.08E-01 1.506E+00
6.900E-05 1.58E-01 1.65E-01 5.98E-04 4.41E-01 2.98E-02 1.51E-06 2.67E-02 3.51E-06 5.78E-03 2.98E-01 4.06E-01 1.531E+00
6.800E-05 1.62E-01 1.70E-01 6.23E-04 4.60E-01 3.04E-02 1.60E-06 2.71E-02 3.72E-06 5.98E-03 2.98E-01 4.04E-01 1.558E+00
6.700E-05 1.66E-01 1.74E-01 6.48E-04 4.79E-01 3.11E-02 1.69E-06 2.75E-02 3.95E-06 6.20E-03 2.99E-01 4.02E-01 1.585E+00
6.600E-05 1.69E-01 1.78E-01 6.77E-04 4.99E-01 3.18E-02 1.79E-06 2.78E-02 4.20E-06 6.42E-03 3.00E-01 4.00E-01 1.613E+00
6.500E-05 1.73E-01 1.83E-01 6.93E-04 5.20E-01 3.26E-02 1.90E-06 2.82E-02 4.47E-06 6.66E-03 3.01E-01 3.98E-01 1.643E+00
6.400E-05 1.77E-01 1.87E-01 7.09E-04 5.41E-01 3.33E-02 2.02E-06 2.87E-02 4.75E-06 6.91E-03 3.02E-01 3.96E-01 1.673E+00
6.300E-05 1.82E-01 1.92E-01 7.33E-04 5.64E-01 3.41E-02 2.15E-06 2.91E-02 5.07E-06 7.17E-03 3.02E-01 3.94E-01 1.704E+00
6.250E-05 1.84E-01 1.94E-01 7.38E-04 5.75E-01 3.45E-02 2.22E-06 2.93E-02 5.23E-06 7.31E-03 3.03E-01 3.92E-01 1.720E+00
6.200E-05 1.86E-01 1.96E-01 7.58E-04 5.87E-01 3.50E-02 2.29E-06 2.95E-02 5.40E-06 7.45E-03 3.03E-01 3.91E-01 1.736E+00
6.100E-05 1.91E-01 2.01E-01 7.96E-04 6.11E-01 3.58E-02 2.44E-06 3.00E-02 5.77E-06 7.74E-03 3.04E-01 3.89E-01 1.769E+00
6.000E-05 1.96E-01 2.05E-01 8.30E-04 6.36E-01 3.67E-02 2.60E-06 3.05E-02 6.17E-06 8.05E-03 3.05E-01 3.86E-01 1.803E+00
5.900E-05 2.01E-01 2.09E-01 8.65E-04 6.62E-01 3.76E-02 2.78E-06 3.10E-02 6.60E-06 8.38E-03 3.05E-01 3.84E-01 1.839E+00
5.800E-05 2.06E-01 2.13E-01 9.05E-04 6.89E-01 3.85E-02 2.97E-06 3.15E-02 7.07E-06 8.73E-03 3.06E-01 3.81E-01 1.875E+00
5.700E-05 2.12E-01 2.17E-01 9.51E-04 7.17E-01 3.95E-02 3.18E-06 3.20E-02 7.58E-06 9.10E-03 3.07E-01 3.78E-01 1.912E+00
5.600E-05 2.18E-01 2.20E-01 9.99E-04 7.46E-01 4.05E-02 3.41E-06 3.26E-02 8.15E-06 9.49E-03 3.08E-01 3.76E-01 1.950E+00
5.500E-05 2.24E-01 2.23E-01 1.04E-03 7.76E-01 4.16E-02 3.66E-06 3.31E-02 8.76E-06 9.91E-03 3.08E-01 3.73E-01 1.990E+00
5.477E-05 2.25E-01 2.24E-01 1.05E-03 7.83E-01 4.18E-02 3.73E-06 3.32E-02 8.91E-06 1.47E-02 3.09E-01 3.72E-01 2.004E+00
5.400E-05 2.30E-01 2.27E-01 1.08E-03 8.07E-01 4.28E-02 3.94E-06 3.37E-02 9.44E-06 1.53E-02 3.09E-01 3.70E-01 2.035E+00
5.300E-05 2.36E-01 2.29E-01 1.13E-03 8.40E-01 4.41E-02 4.25E-06 3.43E-02 1.02E-05 1.61E-02 3.10E-01 3.67E-01 2.078E+00
5.200E-05 2.42E-01 2.32E-01 1.21E-03 8.74E-01 4.54E-02 4.59E-06 3.49E-02 1.10E-05 1.70E-02 3.10E-01 3.64E-01 2.121E+00
5.100E-05 2.49E-01 2.34E-01 1.28E-03 9.10E-01 4.68E-02 4.97E-06 3.56E-02 1.19E-05 1.79E-02 3.11E-01 3.61E-01 2.166E+00
5.000E-05 2.55E-01 2.36E-01 1.35E-03 9.47E-01 4.83E-02 5.38E-06 3.62E-02 1.29E-05 1.89E-02 3.11E-01 3.58E-01 2.213E+00
4.900E-05 2.61E-01 2.38E-01 1.42E-03 9.86E-01 4.98E-02 5.84E-06 3.69E-02 1.40E-05 2.00E-02 3.11E-01 3.56E-01 2.261E+00
4.880E-05 2.62E-01 2.38E-01 1.44E-03 9.94E-01 5.01E-02 5.93E-06 3.71E-02 1.42E-05 2.03E-02 3.12E-01 3.55E-01 2.271E+00
4.800E-05 2.67E-01 2.40E-01 1.50E-03 1.03E+00 5.16E-02 6.35E-06 3.77E-02 1.52E-05 2.12E-02 3.12E-01 3.53E-01 2.311E+00
4.760E-05 2.70E-01 2.40E-01 1.54E-03 1.04E+00 5.24E-02 6.57E-06 3.80E-02 1.58E-05 2.18E-02 3.12E-01 3.52E-01 2.331E+00
4.700E-05 2.74E-01 2.41E-01 1.60E-03 1.07E+00 5.36E-02 6.92E-06 3.84E-02 1.66E-05 2.26E-02 3.12E-01 3.50E-01 2.363E+00
4.650E-05 2.77E-01 2.42E-01 1.64E-03 1.09E+00 5.47E-02 7.23E-06 3.88E-02 1.73E-05 2.33E-02 3.12E-01 3.49E-01 2.389E+00
4.600E-05 2.80E-01 2.42E-01 1.70E-03 1.11E+00 5.58E-02 7.56E-06 3.92E-02 1.81E-05 2.41E-02 3.12E-01 3.48E-01 2.415E+00
4.550E-05 2.83E-01 2.43E-01 1.78E-03 1.14E+00 5.69E-02 7.90E-06 3.96E-02 1.90E-05 2.49E-02 3.12E-01 3.47E-01 2.443E+00
4.500E-05 2.86E-01 2.43E-01 1.86E-03 1.16E+00 5.80E-02 8.27E-06 4.00E-02 1.98E-05 2.58E-02 3.12E-01 3.45E-01 2.470E+00
4.440E-05 2.90E-01 2.44E-01 1.96E-03 1.19E+00 5.94E-02 8.74E-06 4.05E-02 2.09E-05 2.68E-02 3.12E-01 3.44E-01 2.503E+00
4.350E-05 2.95E-01 2.44E-01 2.14E-03 1.23E+00 6.16E-02 9.51E-06 4.13E-02 2.28E-05 2.86E-02 3.12E-01 3.42E-01 2.554E+00
4.170E-05 3.05E-01 2.45E-01 2.60E-03 1.31E+00 6.69E-02 1.13E-05 4.29E-02 2.71E-05 3.28E-02 3.11E-01 3.38E-01 2.659E+00
4.000E-05 3.15E-01 2.46E-01 3.45E-03 1.40E+00 7.23E-02 1.34E-05 4.46E-02 3.22E-05 3.78E-02 3.10E-01 3.34E-01 2.764E+00
3.850E-05 3.23E-01 2.46E-01 4.57E-03 1.48E+00 7.74E-02 1.58E-05 4.62E-02 3.77E-05 4.32E-02 3.10E-01 3.31E-01 2.860E+00
3.656E-05 3.32E-01 2.46E-01 6.72E-03 1.58E+00 8.48E-02 1.96E-05 4.84E-02 4.69E-05 5.25E-02 3.08E-01 3.28E-01 2.989E+00
3.570E-05 3.37E-01 2.45E-01 7.84E-03 1.63E+00 8.83E-02 2.17E-05 4.94E-02 5.17E-05 5.77E-02 3.08E-01 3.26E-01 3.048E+00
3.330E-05 3.47E-01 2.45E-01 1.17E-02 1.76E+00 1.00E-01 2.98E-05 5.24E-02 6.92E-05 7.77E-02 3.05E-01 3.23E-01 3.217E+00
3.130E-05 3.54E-01 2.44E-01 1.56E-02 1.85E+00 1.15E-01 4.02E-05 5.52E-02 9.01E-05 1.05E-01 3.03E-01 3.20E-01 3.366E+00
3.000E-05 3.59E-01 2.43E-01 1.86E-02 1.91E+00 1.29E-01 4.98E-05 5.71E-02 1.08E-04 1.32E-01 3.02E-01 3.19E-01 3.470E+00
2.940E-05 3.60E-01 2.43E-01 2.02E-02 1.94E+00 1.36E-01 5.52E-05 5.80E-02 1.18E-04 1.48E-01 3.01E-01 3.19E-01 3.520E+00
2.780E-05 3.64E-01 2.41E-01 2.47E-02 1.99E+00 1.59E-01 7.58E-05 6.05E-02 1.51E-04 2.12E-01 2.99E-01 3.17E-01 3.670E+00
2.630E-05 3.67E-01 2.40E-01 2.93E-02 2.03E+00 1.94E-01 1.08E-04 6.29E-02 1.93E-04 3.19E-01 2.97E-01 3.16E-01 3.856E+00
2.500E-05 3.68E-01 2.40E-01 3.47E-02 2.05E+00 2.42E-01 1.57E-04 6.50E-02 2.42E-04 4.94E-01 2.95E-01 3.16E-01 4.105E+00
2.380E-05 3.70E-01 2.39E-01 4.13E-02 2.05E+00 3.34E-01 2.40E-04 6.52E-02 3.04E-04 7.86E-01 2.93E-01 3.15E-01 4.499E+00
2.270E-05 3.70E-01 2.38E-01 5.05E-02 2.05E+00 4.82E-01 3.51E-04 6.77E-02 3.81E-04 1.18E+00 2.91E-01 3.15E-01 5.049E+00
2.170E-05 3.70E-01 2.38E-01 6.27E-02 2.04E+00 6.52E-01 4.56E-04 7.62E-02 4.77E-04 1.41E+00 2.90E-01 3.15E-01 5.454E+00
2.080E-05 3.69E-01 2.38E-01 8.55E-02 2.04E+00 6.76E-01 4.23E-04 9.52E-02 5.92E-04 1.21E+00 2.88E-01 3.15E-01 5.320E+00
2.000E-05 3.68E-01 2.37E-01 3.01E-01 1.86E+00 5.86E-01 3.31E-04 1.21E-01 7.27E-04 8.77E-01 2.86E-01 3.16E-01 4.954E+00
1.920E-05 3.67E-01 2.38E-01 5.66E-01 1.63E+00 4.55E-01 2.28E-04 1.66E-01 9.03E-04 6.01E-01 2.84E-01 3.16E-01 4.623E+00
1.850E-05 3.68E-01 2.41E-01 7.20E-01 1.50E+00 3.56E-01 1.61E-04 2.23E-01 1.11E-03 4.34E-01 2.82E-01 3.17E-01 4.440E+00
1.790E-05 3.68E-01 2.43E-01 8.96E-01 1.32E+00 2.90E-01 1.23E-04 2.85E-01 1.32E-03 3.36E-01 2.80E-01 3.18E-01 4.340E+00
1.720E-05 3.69E-01 2.45E-01 1.01E+00 1.21E+00 2.33E-01 9.78E-05 3.95E-01 1.66E-03 2.57E-01 2.78E-01 3.19E-01 4.315E+00
1.670E-05 3.70E-01 2.47E-01 1.06E+00 1.16E+00 1.99E-01 8.90E-05 4.98E-01 1.96E-03 2.18E-01 2.76E-01 3.19E-01 4.347E+00
1.610E-05 3.71E-01 2.49E-01 1.11E+00 1.11E+00 1.68E-01 9.05E-05 6.78E-01 2.42E-03 1.83E-01 2.74E-01 3.20E-01 4.463E+00
1.560E-05 3.72E-01 2.51E-01 1.13E+00 1.09E+00 1.47E-01 1.02E-04 8.86E-01 2.90E-03 1.63E-01 2.72E-01 3.21E-01 4.630E+00
1.520E-05 3.72E-01 2.52E-01 1.14E+00 1.07E+00 1.34E-01 1.19E-04 1.11E+00 3.33E-03 1.51E-01 2.70E-01 3.22E-01 4.824E+00
1.470E-05 3.73E-01 2.53E-01 1.16E+00 1.05E+00 1.19E-01 1.50E-04 1.43E+00 3.95E-03 1.41E-01 2.68E-01 3.23E-01 5.111E+00
1.430E-05 3.73E-01 2.54E-01 1.16E+00 1.04E+00 1.11E-01 1.87E-04 1.70E+00 4.42E-03 1.37E-01 2.67E-01 3.23E-01 5.365E+00
1.390E-05 3.72E-01 2.54E-01 1.16E+00 1.02E+00 1.08E-01 2.38E-04 1.91E+00 4.89E-03 1.36E-01 2.66E-01 3.22E-01 5.563E+00
1.350E-05 3.71E-01 2.54E-01 1.16E+00 1.01E+00 1.08E-01 3.05E-04 2.11E+00 5.47E-03 1.38E-01 2.65E-01 3.22E-01 5.752E+00
1.320E-05 3.71E-01 2.54E-01 1.16E+00 1.00E+00 1.10E-01 3.71E-04 2.27E+00 6.00E-03 1.42E-01 2.65E-01 3.22E-01 5.905E+00
1.280E-05 3.70E-01 2.55E-01 1.16E+00 9.92E-01 1.17E-01 4.87E-04 2.50E+00 6.83E-03 1.51E-01 2.64E-01 3.22E-01 6.135E+00
1.250E-05 3.69E-01 2.55E-01 1.16E+00 9.89E-01 1.28E-01 6.00E-04 2.68E+00 7.57E-03 1.61E-01 2.63E-01 3.22E-01 6.335E+00
1.220E-05 3.68E-01 2.56E-01 1.15E+00 9.89E-01 1.42E-01 7.43E-04 2.89E+00 8.43E-03 1.75E-01 2.62E-01 3.22E-01 6.567E+00
1.190E-05 3.67E-01 2.56E-01 1.16E+00 9.96E-01 1.62E-01 9.22E-04 3.12E+00 9.45E-03 1.94E-01 2.61E-01 3.22E-01 6.841E+00
1.160E-05 3.65E-01 2.56E-01 1.16E+00 1.00E+00 1.85E-01 1.15E-03 3.37E+00 1.07E-02 2.20E-01 2.60E-01 3.22E-01 7.150E+00
1.140E-05 3.64E-01 2.55E-01 1.16E+00 1.00E+00 2.04E-01 1.35E-03 3.56E+00 1.16E-02 2.42E-01 2.60E-01 3.23E-01 7.380E+00
1.110E-05 3.61E-01 2.55E-01 1.15E+00 1.01E+00 2.33E-01 1.77E-03 3.88E+00 1.32E-02 2.84E-01 2.59E-01 3.23E-01 7.768E+00
1.080E-05 3.59E-01 2.54E-01 1.15E+00 1.01E+00 3.15E-01 2.35E-03 4.26E+00 1.52E-02 3.42E-01 2.58E-01 3.23E-01 8.284E+00
1.050E-05 3.56E-01 2.54E-01 1.15E+00 1.01E+00 4.20E-01 3.05E-03 4.72E+00 1.78E-02 4.20E-01 2.56E-01 3.24E-01 8.935E+00
1.030E-05 3.53E-01 2.53E-01 1.15E+00 1.01E+00 5.01E-01 3.50E-03 5.16E+00 1.99E-02 4.87E-01 2.55E-01 3.24E-01 9.522E+00
1.000E-05 3.50E-01 2.52E-01 1.14E+00 1.02E+00 6.14E-01 4.27E-03 5.79E+00 2.28E-02 6.15E-01 2.54E-01 3.24E-01 1.039E+01
9.750E-06 3.47E-01 2.51E-01 1.14E+00 1.02E+00 7.45E-01 5.30E-03 6.30E+00 2.54E-02 7.43E-01 2.53E-01 3.24E-01 1.115E+01
9.500E-06 3.43E-01 2.50E-01 1.14E+00 1.02E+00 8.97E-01 6.27E-03 6.84E+00 2.82E-02 8.74E-01 2.52E-01 3.24E-01 1.197E+01
9.250E-06 3.40E-01 2.49E-01 1.13E+00 1.02E+00 1.01E+00 7.00E-03 7.39E+00 3.10E-02 9.70E-01 2.52E-01 3.24E-01 1.273E+01
9.080E-06 3.38E-01 2.48E-01 1.12E+00 1.02E+00 1.08E+00 7.52E-03 7.71E+00 3.25E-02 9.92E-01 2.52E-01 3.23E-01 1.313E+01
