 # wel [cm]    sig* [cm^2/g dust ISM]
 # wel         sigp_aC     sigp_Si      sigp_dark    sigt
 #----------------------------------------------------------------------------------------
   1.000E+00   2.883E-04   4.285E-04   0.000E+00   2.324E-06
   9.000E-01   3.377E-04   5.059E-04   0.000E+00   2.720E-06
   8.000E-01   4.034E-04   6.094E-04   0.000E+00   3.247E-06
   7.000E-01   4.940E-04   7.529E-04   0.000E+00   3.963E-06
   6.000E-01   6.252E-04   9.621E-04   0.000E+00   5.002E-06
   5.500E-01   7.147E-04   1.105E-03   0.000E+00   5.708E-06
   5.000E-01   8.281E-04   1.287E-03   0.000E+00   6.592E-06
   4.500E-01   9.752E-04   1.524E-03   0.000E+00   7.747E-06
   4.000E-01   1.172E-03   1.841E-03   0.000E+00   9.267E-06
   3.500E-01   1.446E-03   2.283E-03   0.000E+00   1.139E-05
   3.000E-01   1.847E-03   2.928E-03   0.000E+00   1.443E-05
   2.500E-01   2.473E-03   3.935E-03   0.000E+00   1.917E-05
   2.098E-01   3.286E-03   5.231E-03   0.000E+00   2.522E-05
   1.500E-01   5.713E-03   9.053E-03   0.000E+00   4.288E-05
   1.382E-01   6.552E-03   1.035E-02   0.000E+00   4.892E-05
   1.320E-01   7.078E-03   1.116E-02   0.000E+00   5.266E-05
   1.150E-01   8.939E-03   1.401E-02   0.000E+00   6.577E-05
   1.000E-01   1.137E-02   1.761E-02   0.000E+00   8.249E-05
   9.970E-02   1.143E-02   1.770E-02   0.000E+00   8.291E-05
   8.670E-02   1.439E-02   2.233E-02   0.000E+00   1.036E-04
   8.500E-02   1.491E-02   2.308E-02   0.000E+00   1.072E-04
   7.500E-02   1.891E-02   2.840E-02   0.000E+00   1.332E-04
   6.000E-02   2.782E-02   4.108E-02   0.000E+00   1.910E-04
   5.500E-02   3.223E-02   4.610E-02   0.000E+00   2.195E-04
   5.000E-02   3.837E-02   5.730E-02   0.000E+00   2.625E-04
   4.500E-02   4.728E-02   7.613E-02   0.000E+00   3.261E-04
   4.000E-02   6.076E-02   1.021E-01   0.000E+00   4.160E-04
   3.500E-02   7.618E-02   1.559E-01   0.000E+00   5.441E-04
   3.000E-02   1.076E-01   2.435E-01   0.000E+00   7.752E-04
   2.750E-02   1.285E-01   3.063E-01   0.000E+00   9.311E-04
   2.500E-02   1.548E-01   3.896E-01   0.000E+00   1.141E-03
   2.400E-02   1.700E-01   4.310E-01   0.000E+00   1.241E-03
   2.000E-02   2.492E-01   6.643E-01   0.000E+00   1.813E-03
   1.800E-02   3.109E-01   8.169E-01   0.000E+00   2.236E-03
   1.600E-02   4.141E-01   1.004E+00   0.000E+00   2.818E-03
   1.500E-02   4.943E-01   1.119E+00   0.000E+00   3.197E-03
   1.400E-02   5.625E-01   1.246E+00   0.000E+00   3.588E-03
   1.200E-02   8.618E-01   1.558E+00   0.000E+00   4.810E-03
   1.000E-02   1.312E+00   2.004E+00   0.000E+00   6.626E-03
   9.000E-03   1.751E+00   2.252E+00   0.000E+00   8.023E-03
   8.000E-03   2.310E+00   2.593E+00   0.000E+00   9.703E-03
   7.500E-03   2.707E+00   2.858E+00   0.000E+00   1.098E-02
   7.000E-03   3.259E+00   3.186E+00   0.000E+00   1.252E-02
   6.000E-03   4.627E+00   4.032E+00   0.000E+00   1.659E-02
   5.000E-03   6.426E+00   5.592E+00   0.000E+00   2.310E-02
   4.500E-03   7.730E+00   6.678E+00   0.000E+00   2.809E-02
   4.000E-03   8.899E+00   7.893E+00   0.000E+00   3.442E-02
   3.500E-03   1.037E+01   9.134E+00   0.000E+00   4.280E-02
   3.000E-03   1.207E+01   1.008E+01   0.000E+00   5.440E-02
   2.750E-03   1.274E+01   1.032E+01   0.000E+00   6.155E-02
   2.500E-03   1.316E+01   1.043E+01   0.000E+00   7.017E-02
   2.400E-03   1.343E+01   1.044E+01   0.000E+00   7.424E-02
   2.350E-03   1.360E+01   1.045E+01   0.000E+00   7.656E-02
   2.320E-03   1.367E+01   1.046E+01   0.000E+00   7.796E-02
   2.310E-03   1.370E+01   1.047E+01   0.000E+00   7.843E-02
   2.300E-03   1.373E+01   1.047E+01   0.000E+00   7.891E-02
   2.250E-03   1.380E+01   1.050E+01   0.000E+00   8.152E-02
   2.200E-03   1.388E+01   1.052E+01   0.000E+00   8.437E-02
   2.150E-03   1.402E+01   1.051E+01   0.000E+00   8.727E-02
   2.120E-03   1.410E+01   1.046E+01   0.000E+00   8.913E-02
   2.110E-03   1.411E+01   1.045E+01   0.000E+00   8.977E-02
   2.100E-03   1.412E+01   1.042E+01   0.000E+00   9.040E-02
   2.080E-03   1.410E+01   1.035E+01   0.000E+00   9.156E-02
   2.000E-03   1.409E+01   1.003E+01   0.000E+00   9.666E-02
   1.950E-03   1.418E+01   9.681E+00   0.000E+00   9.985E-02
   1.900E-03   1.436E+01   9.212E+00   0.000E+00   1.023E-01
   1.850E-03   1.453E+01   8.615E+00   0.000E+00   1.036E-01
   1.830E-03   1.461E+01   8.341E+00   0.000E+00   1.038E-01
   1.820E-03   1.461E+01   8.196E+00   0.000E+00   1.038E-01
   1.810E-03   1.464E+01   8.044E+00   0.000E+00   1.036E-01
   1.800E-03   1.467E+01   7.897E+00   0.000E+00   1.034E-01
   1.750E-03   1.483E+01   7.052E+00   0.000E+00   1.017E-01
   1.700E-03   1.485E+01   6.150E+00   0.000E+00   9.804E-02
   1.670E-03   1.501E+01   5.607E+00   0.000E+00   9.554E-02
   1.650E-03   1.516E+01   5.250E+00   0.000E+00   9.367E-02
   1.640E-03   1.521E+01   5.077E+00   0.000E+00   9.265E-02
   1.630E-03   1.525E+01   4.903E+00   0.000E+00   9.161E-02
   1.610E-03   1.532E+01   4.569E+00   0.000E+00   8.942E-02
   1.600E-03   1.536E+01   4.408E+00   0.000E+00   8.830E-02
   1.590E-03   1.540E+01   4.253E+00   0.000E+00   8.719E-02
   1.580E-03   1.544E+01   4.108E+00   0.000E+00   8.609E-02
   1.570E-03   1.544E+01   3.970E+00   0.000E+00   8.493E-02
   1.560E-03   1.550E+01   3.850E+00   0.000E+00   8.391E-02
   1.540E-03   1.563E+01   3.655E+00   0.000E+00   8.208E-02
   1.520E-03   1.564E+01   3.535E+00   0.000E+00   8.032E-02
   1.510E-03   1.564E+01   3.505E+00   0.000E+00   7.955E-02
   1.500E-03   1.562E+01   3.492E+00   0.000E+00   7.885E-02
   1.450E-03   1.571E+01   3.613E+00   0.000E+00   7.664E-02
   1.440E-03   1.574E+01   3.659E+00   0.000E+00   7.647E-02
   1.430E-03   1.578E+01   3.697E+00   0.000E+00   7.662E-02
   1.420E-03   1.580E+01   3.734E+00   0.000E+00   7.676E-02
   1.400E-03   1.590E+01   3.819E+00   0.000E+00   7.773E-02
   1.380E-03   1.597E+01   3.898E+00   0.000E+00   7.940E-02
   1.370E-03   1.600E+01   3.943E+00   0.000E+00   8.070E-02
   1.360E-03   1.606E+01   3.987E+00   0.000E+00   8.220E-02
   1.350E-03   1.613E+01   4.043E+00   0.000E+00   8.375E-02
   1.340E-03   1.620E+01   4.097E+00   0.000E+00   8.554E-02
   1.330E-03   1.623E+01   4.166E+00   0.000E+00   8.740E-02
   1.320E-03   1.629E+01   4.237E+00   0.000E+00   8.932E-02
   1.310E-03   1.629E+01   4.319E+00   0.000E+00   9.135E-02
   1.290E-03   1.623E+01   4.518E+00   0.000E+00   9.555E-02
   1.280E-03   1.622E+01   4.623E+00   0.000E+00   9.809E-02
   1.270E-03   1.626E+01   4.711E+00   0.000E+00   1.007E-01
   1.260E-03   1.629E+01   4.842E+00   0.000E+00   1.032E-01
   1.250E-03   1.629E+01   5.014E+00   0.000E+00   1.057E-01
   1.220E-03   1.653E+01   6.039E+00   0.000E+00   1.151E-01
   1.210E-03   1.654E+01   6.708E+00   0.000E+00   1.191E-01
   1.200E-03   1.654E+01   7.493E+00   0.000E+00   1.235E-01
   1.190E-03   1.665E+01   8.310E+00   0.000E+00   1.282E-01
   1.180E-03   1.671E+01   9.077E+00   0.000E+00   1.329E-01
   1.170E-03   1.675E+01   9.736E+00   0.000E+00   1.375E-01
   1.160E-03   1.680E+01   1.027E+01   0.000E+00   1.419E-01
   1.150E-03   1.679E+01   1.069E+01   0.000E+00   1.463E-01
   1.140E-03   1.676E+01   1.102E+01   0.000E+00   1.506E-01
   1.130E-03   1.675E+01   1.129E+01   0.000E+00   1.550E-01
   1.120E-03   1.675E+01   1.151E+01   0.000E+00   1.592E-01
   1.110E-03   1.673E+01   1.172E+01   0.000E+00   1.633E-01
   1.090E-03   1.677E+01   1.208E+01   0.000E+00   1.720E-01
   1.050E-03   1.699E+01   1.243E+01   0.000E+00   1.934E-01
   1.000E-03   1.737E+01   1.211E+01   0.000E+00   2.102E-01
   9.800E-04   1.755E+01   1.157E+01   0.000E+00   2.160E-01
   9.600E-04   1.770E+01   1.073E+01   0.000E+00   2.203E-01
   9.500E-04   1.783E+01   1.023E+01   0.000E+00   2.206E-01
   9.400E-04   1.783E+01   9.703E+00   0.000E+00   2.187E-01
   9.200E-04   1.791E+01   8.670E+00   0.000E+00   2.068E-01
   8.900E-04   1.816E+01   7.129E+00   0.000E+00   1.773E-01
   8.700E-04   1.808E+01   6.277E+00   0.000E+00   1.584E-01
   8.600E-04   1.820E+01   5.903E+00   0.000E+00   1.510E-01
   8.500E-04   1.819E+01   5.513E+00   0.000E+00   1.439E-01
   8.400E-04   1.833E+01   5.100E+00   0.000E+00   1.367E-01
   8.200E-04   1.822E+01   4.255E+00   0.000E+00   1.189E-01
   8.000E-04   1.831E+01   3.553E+00   0.000E+00   1.006E-01
   7.900E-04   1.841E+01   3.301E+00   0.000E+00   9.478E-02
   7.800E-04   1.835E+01   3.096E+00   0.000E+00   8.890E-02
   7.700E-04   1.828E+01   2.919E+00   0.000E+00   8.441E-02
   7.600E-04   1.823E+01   2.764E+00   0.000E+00   8.137E-02
   7.500E-04   1.818E+01   2.624E+00   0.000E+00   7.870E-02
   7.300E-04   1.829E+01   2.412E+00   0.000E+00   7.741E-02
   7.200E-04   1.822E+01   2.354E+00   0.000E+00   7.753E-02
   7.100E-04   1.819E+01   2.323E+00   0.000E+00   7.784E-02
   7.000E-04   1.831E+01   2.286E+00   0.000E+00   7.883E-02
   6.900E-04   1.820E+01   2.217E+00   0.000E+00   7.932E-02
   6.800E-04   1.784E+01   2.121E+00   0.000E+00   7.905E-02
   6.600E-04   1.804E+01   1.949E+00   0.000E+00   8.076E-02
   6.400E-04   1.857E+01   1.725E+00   0.000E+00   8.349E-02
   6.300E-04   1.883E+01   1.631E+00   0.000E+00   8.511E-02
   6.200E-04   1.879E+01   1.623E+00   0.000E+00   8.624E-02
   6.100E-04   1.891E+01   1.625E+00   0.000E+00   8.767E-02
   5.900E-04   1.947E+01   1.360E+00   0.000E+00   9.102E-02
   5.500E-04   1.817E+01   1.064E+00   0.000E+00   9.310E-02
   5.300E-04   1.838E+01   9.769E-01   0.000E+00   9.704E-02
   5.200E-04   1.839E+01   9.330E-01   0.000E+00   9.900E-02
   5.100E-04   1.857E+01   8.879E-01   0.000E+00   1.016E-01
   5.000E-04   1.875E+01   8.453E-01   0.000E+00   1.042E-01
   4.800E-04   1.892E+01   7.813E-01   0.000E+00   1.096E-01
   4.500E-04   1.937E+01   7.113E-01   0.000E+00   1.197E-01
   4.000E-04   2.004E+01   6.548E-01   0.000E+00   1.404E-01
   3.800E-04   2.050E+01   6.593E-01   0.000E+00   1.507E-01
   3.600E-04   2.103E+01   6.857E-01   0.000E+00   1.622E-01
   3.400E-04   2.197E+01   7.421E-01   0.000E+00   1.757E-01
   3.300E-04   2.189E+01   7.840E-01   0.000E+00   1.819E-01
   3.200E-04   2.211E+01   8.362E-01   0.000E+00   1.892E-01
   3.150E-04   2.238E+01   8.685E-01   0.000E+00   1.935E-01
   3.100E-04   2.265E+01   9.040E-01   0.000E+00   1.978E-01
   3.080E-04   2.272E+01   9.193E-01   0.000E+00   1.995E-01
   3.050E-04   2.283E+01   9.433E-01   0.000E+00   2.020E-01
   3.000E-04   2.304E+01   9.881E-01   0.000E+00   2.065E-01
   2.900E-04   2.361E+01   1.093E+00   0.000E+00   2.161E-01
   2.800E-04   2.390E+01   1.223E+00   0.000E+00   2.255E-01
   2.600E-04   2.514E+01   1.585E+00   0.000E+00   2.471E-01
   2.500E-04   2.606E+01   1.836E+00   0.000E+00   2.593E-01
   2.200E-04   3.009E+01   3.061E+00   0.000E+00   3.018E-01
   2.159E-04   3.067E+01   3.310E+00   0.000E+00   3.078E-01
   2.000E-04   3.402E+01   4.570E+00   0.000E+00   3.334E-01
   1.662E-04   4.496E+01   1.012E+01   0.000E+00   3.948E-01
   1.650E-04   4.550E+01   1.044E+01   0.000E+00   3.971E-01
   1.250E-04   7.682E+01   3.268E+01   0.000E+00   4.932E-01
   1.235E-04   7.859E+01   3.419E+01   0.000E+00   4.980E-01
   1.130E-04   9.205E+01   4.692E+01   0.000E+00   5.360E-01
   1.000E-04   1.111E+02   6.842E+01   0.000E+00   6.021E-01
   9.500E-05   1.182E+02   7.855E+01   0.000E+00   6.358E-01
   9.300E-05   1.209E+02   8.293E+01   0.000E+00   6.508E-01
   9.200E-05   1.222E+02   8.519E+01   0.000E+00   6.587E-01
   9.100E-05   1.234E+02   8.750E+01   0.000E+00   6.668E-01
   9.000E-05   1.246E+02   8.987E+01   0.000E+00   6.752E-01
   8.900E-05   1.258E+02   9.229E+01   0.000E+00   6.839E-01
   8.800E-05   1.270E+02   9.478E+01   0.000E+00   6.929E-01
   8.700E-05   1.281E+02   9.732E+01   0.000E+00   7.023E-01
   8.600E-05   1.292E+02   9.992E+01   0.000E+00   7.119E-01
   8.500E-05   1.303E+02   1.026E+02   0.000E+00   7.219E-01
   8.400E-05   1.314E+02   1.053E+02   0.000E+00   7.323E-01
   8.330E-05   1.322E+02   1.073E+02   0.000E+00   7.398E-01
   8.200E-05   1.336E+02   1.110E+02   0.000E+00   7.544E-01
   8.100E-05   1.346E+02   1.139E+02   0.000E+00   7.660E-01
   8.000E-05   1.357E+02   1.170E+02   0.000E+00   7.781E-01
   7.900E-05   1.366E+02   1.201E+02   0.000E+00   7.907E-01
   7.800E-05   1.375E+02   1.232E+02   0.000E+00   8.037E-01
   7.700E-05   1.384E+02   1.264E+02   0.000E+00   8.171E-01
   7.600E-05   1.392E+02   1.298E+02   0.000E+00   8.311E-01
   7.500E-05   1.399E+02   1.332E+02   0.000E+00   8.455E-01
   7.400E-05   1.405E+02   1.366E+02   0.000E+00   8.603E-01
   7.300E-05   1.410E+02   1.401E+02   0.000E+00   8.756E-01
   7.140E-05   1.416E+02   1.459E+02   0.000E+00   9.012E-01
   7.100E-05   1.417E+02   1.474E+02   0.000E+00   9.078E-01
   7.000E-05   1.419E+02   1.512E+02   0.000E+00   9.246E-01
   6.900E-05   1.420E+02   1.550E+02   0.000E+00   9.420E-01
   6.800E-05   1.420E+02   1.590E+02   0.000E+00   9.600E-01
   6.700E-05   1.418E+02   1.630E+02   0.000E+00   9.786E-01
   6.600E-05   1.415E+02   1.670E+02   0.000E+00   9.977E-01
   6.500E-05   1.411E+02   1.712E+02   0.000E+00   1.018E+00
   6.400E-05   1.405E+02   1.753E+02   0.000E+00   1.038E+00
   6.300E-05   1.397E+02   1.794E+02   0.000E+00   1.059E+00
   6.250E-05   1.393E+02   1.815E+02   0.000E+00   1.070E+00
   6.200E-05   1.388E+02   1.835E+02   0.000E+00   1.081E+00
   6.100E-05   1.377E+02   1.876E+02   0.000E+00   1.104E+00
   6.000E-05   1.364E+02   1.915E+02   0.000E+00   1.127E+00
   5.900E-05   1.349E+02   1.953E+02   0.000E+00   1.151E+00
   5.800E-05   1.332E+02   1.991E+02   0.000E+00   1.176E+00
   5.700E-05   1.312E+02   2.027E+02   0.000E+00   1.202E+00
   5.600E-05   1.290E+02   2.065E+02   0.000E+00   1.228E+00
   5.500E-05   1.266E+02   2.103E+02   0.000E+00   1.255E+00
   5.477E-05   1.260E+02   2.112E+02   0.000E+00   1.267E+00
   5.400E-05   1.240E+02   2.142E+02   0.000E+00   1.288E+00
   5.300E-05   1.211E+02   2.183E+02   0.000E+00   1.318E+00
   5.200E-05   1.181E+02   2.225E+02   0.000E+00   1.348E+00
   5.100E-05   1.149E+02   2.267E+02   0.000E+00   1.379E+00
   5.000E-05   1.116E+02   2.309E+02   0.000E+00   1.411E+00
   4.900E-05   1.081E+02   2.350E+02   0.000E+00   1.444E+00
   4.880E-05   1.074E+02   2.358E+02   0.000E+00   1.450E+00
   4.800E-05   1.044E+02   2.390E+02   0.000E+00   1.478E+00
   4.760E-05   1.029E+02   2.406E+02   0.000E+00   1.492E+00
   4.700E-05   1.007E+02   2.430E+02   0.000E+00   1.514E+00
   4.650E-05   9.872E+01   2.450E+02   0.000E+00   1.532E+00
   4.600E-05   9.677E+01   2.471E+02   0.000E+00   1.550E+00
   4.550E-05   9.477E+01   2.491E+02   0.000E+00   1.569E+00
   4.500E-05   9.275E+01   2.512E+02   0.000E+00   1.588E+00
   4.440E-05   9.029E+01   2.535E+02   0.000E+00   1.611E+00
   4.350E-05   8.654E+01   2.566E+02   0.000E+00   1.647E+00
   4.170E-05   7.882E+01   2.608E+02   0.000E+00   1.721E+00
   4.000E-05   7.127E+01   2.632E+02   0.000E+00   1.795E+00
   3.850E-05   6.446E+01   2.660E+02   0.000E+00   1.864E+00
   3.656E-05   5.564E+01   2.684E+02   0.000E+00   1.957E+00
   3.570E-05   5.179E+01   2.684E+02   0.000E+00   2.000E+00
   3.330E-05   4.138E+01   2.662E+02   0.000E+00   2.126E+00
   3.130E-05   3.318E+01   2.592E+02   0.000E+00   2.240E+00
   3.000E-05   2.811E+01   2.543E+02   0.000E+00   2.320E+00
   2.940E-05   2.585E+01   2.515E+02   0.000E+00   2.358E+00
   2.780E-05   1.985E+01   2.385E+02   0.000E+00   2.467E+00
   2.630E-05   1.491E+01   2.254E+02   0.000E+00   2.586E+00
   2.500E-05   1.115E+01   2.115E+02   0.000E+00   2.711E+00
   2.380E-05   7.864E+00   1.963E+02   0.000E+00   2.869E+00
   2.270E-05   5.524E+00   1.784E+02   0.000E+00   3.067E+00
   2.170E-05   4.302E+00   1.625E+02   0.000E+00   3.271E+00
   2.080E-05   3.603E+00   1.561E+02   0.000E+00   3.334E+00
   2.000E-05   3.316E+00   1.361E+02   0.000E+00   3.285E+00
   1.920E-05   3.204E+00   1.160E+02   0.000E+00   3.209E+00
   1.850E-05   3.203E+00   1.013E+02   0.000E+00   3.176E+00
   1.790E-05   3.441E+00   8.945E+01   0.000E+00   3.170E+00
   1.720E-05   3.900E+00   7.985E+01   0.000E+00   3.224E+00
   1.670E-05   4.414E+00   7.257E+01   0.000E+00   3.298E+00
   1.610E-05   5.414E+00   6.292E+01   0.000E+00   3.459E+00
   1.560E-05   6.359E+00   5.375E+01   0.000E+00   3.663E+00
   1.520E-05   7.156E+00   4.511E+01   0.000E+00   3.888E+00
   1.470E-05   8.234E+00   3.348E+01   0.000E+00   4.214E+00
   1.430E-05   9.149E+00   2.379E+01   0.000E+00   4.498E+00
   1.390E-05   1.002E+01   1.721E+01   0.000E+00   4.718E+00
   1.350E-05   1.074E+01   1.282E+01   0.000E+00   4.927E+00
   1.320E-05   1.121E+01   1.106E+01   0.000E+00   5.093E+00
   1.280E-05   1.182E+01   1.027E+01   0.000E+00   5.341E+00
   1.250E-05   1.234E+01   9.878E+00   0.000E+00   5.552E+00
   1.220E-05   1.287E+01   9.635E+00   0.000E+00   5.793E+00
   1.190E-05   1.341E+01   1.005E+01   0.000E+00   6.076E+00
   1.160E-05   1.388E+01   1.103E+01   0.000E+00   6.393E+00
   1.140E-05   1.416E+01   1.249E+01   0.000E+00   6.628E+00
   1.110E-05   1.452E+01   1.560E+01   0.000E+00   7.019E+00
   1.080E-05   1.479E+01   1.969E+01   0.000E+00   7.534E+00
   1.050E-05   1.498E+01   2.367E+01   0.000E+00   8.178E+00
   1.030E-05   1.506E+01   2.638E+01   0.000E+00   8.763E+00
   1.000E-05   1.509E+01   3.031E+01   0.000E+00   9.611E+00
   9.750E-06   1.507E+01   3.368E+01   0.000E+00   1.034E+01
   9.500E-06   1.498E+01   3.693E+01   0.000E+00   1.113E+01
   9.250E-06   1.484E+01   4.006E+01   0.000E+00   1.188E+01
   9.080E-06   1.471E+01   3.927E+01   0.000E+00   1.229E+01
