 # Optical depth:  wel [cm]  N*sig* [cm^2/cm^2/g dust ISM] 
 # wel(cm) sa_aC    ss_aC    sa_Si    ss_Si    sa_vgr   ss_vgr   sa_vsi   ss_vsi   s_pahS+B sa_Dark  ss_Dark sigt 
 # ------------------------------------------------------------------------------------------------------------- 
1.000E+00 2.90E-07 9.48E-17 3.49E-07 5.77E-17 7.68E-09 6.82E-23 1.59E-07 2.52E-22 3.77E-11 8.85E-06 1.13E-12 9.652E-06
9.000E-01 3.40E-07 1.44E-16 4.12E-07 8.80E-17 9.79E-09 1.04E-22 1.89E-07 3.85E-22 4.65E-11 1.03E-05 1.72E-12 1.125E-05
8.000E-01 4.06E-07 2.31E-16 4.96E-07 1.41E-16 1.28E-08 1.67E-22 2.30E-07 6.16E-22 5.89E-11 1.22E-05 2.76E-12 1.337E-05
7.000E-01 4.97E-07 3.95E-16 6.13E-07 2.41E-16 1.71E-08 2.84E-22 2.83E-07 1.05E-21 7.69E-11 1.48E-05 4.70E-12 1.626E-05
6.000E-01 6.29E-07 7.31E-16 7.83E-07 4.46E-16 2.38E-08 5.27E-22 3.64E-07 1.95E-21 1.05E-10 1.86E-05 8.70E-12 2.041E-05
5.500E-01 7.19E-07 1.03E-15 9.00E-07 6.31E-16 2.85E-08 7.46E-22 4.20E-07 2.75E-21 1.25E-10 2.12E-05 1.23E-11 2.322E-05
5.000E-01 8.33E-07 1.51E-15 1.05E-06 9.24E-16 3.45E-08 1.09E-21 4.86E-07 4.03E-21 1.51E-10 2.43E-05 1.80E-11 2.674E-05
4.500E-01 9.81E-07 2.31E-15 1.24E-06 1.41E-15 4.25E-08 1.66E-21 5.80E-07 6.14E-21 1.86E-10 2.85E-05 2.74E-11 3.130E-05
4.000E-01 1.18E-06 3.69E-15 1.50E-06 2.26E-15 5.33E-08 2.67E-21 6.97E-07 9.84E-21 2.36E-10 3.39E-05 4.38E-11 3.733E-05
3.500E-01 1.46E-06 6.30E-15 1.86E-06 3.85E-15 6.82E-08 4.55E-21 8.73E-07 1.68E-20 3.08E-10 4.14E-05 7.47E-11 4.568E-05
3.000E-01 1.86E-06 1.17E-14 2.38E-06 7.13E-15 8.98E-08 8.43E-21 1.11E-06 3.11E-20 4.19E-10 5.22E-05 1.38E-10 5.765E-05
2.500E-01 2.49E-06 2.42E-14 3.20E-06 1.48E-14 1.23E-07 1.75E-20 1.49E-06 6.44E-20 6.03E-10 6.89E-05 2.86E-10 7.617E-05
2.098E-01 3.31E-06 4.87E-14 4.26E-06 2.98E-14 1.63E-07 3.52E-20 1.98E-06 1.30E-19 8.57E-10 9.01E-05 5.75E-10 9.978E-05
1.500E-01 5.76E-06 1.86E-13 7.37E-06 1.14E-13 3.11E-07 1.35E-19 3.39E-06 4.96E-19 1.68E-09 1.52E-04 2.19E-09 1.684E-04
1.382E-01 6.60E-06 2.58E-13 8.43E-06 1.58E-13 3.66E-07 1.87E-19 3.88E-06 6.88E-19 1.97E-09 1.73E-04 3.04E-09 1.918E-04
1.320E-01 7.13E-06 3.10E-13 9.09E-06 1.90E-13 4.01E-07 2.25E-19 4.18E-06 8.26E-19 2.16E-09 1.85E-04 3.65E-09 2.063E-04
1.150E-01 9.01E-06 5.39E-13 1.14E-05 3.30E-13 5.26E-07 3.90E-19 5.22E-06 1.43E-18 2.85E-09 2.31E-04 6.32E-09 2.571E-04
1.000E-01 1.15E-05 9.42E-13 1.43E-05 5.78E-13 6.91E-07 6.82E-19 6.52E-06 2.51E-18 3.77E-09 2.89E-04 1.10E-08 3.222E-04
9.970E-02 1.15E-05 9.53E-13 1.44E-05 5.85E-13 6.95E-07 6.90E-19 6.55E-06 2.54E-18 3.79E-09 2.91E-04 1.12E-08 3.238E-04
8.670E-02 1.45E-05 1.67E-12 1.82E-05 1.02E-12 9.19E-07 1.21E-18 8.22E-06 4.43E-18 5.02E-09 3.61E-04 1.95E-08 4.033E-04
8.500E-02 1.50E-05 1.80E-12 1.88E-05 1.11E-12 9.55E-07 1.31E-18 8.49E-06 4.80E-18 5.22E-09 3.74E-04 2.11E-08 4.172E-04
7.500E-02 1.91E-05 2.98E-12 2.31E-05 1.83E-12 1.21E-06 2.16E-18 1.04E-05 7.92E-18 6.70E-09 4.67E-04 3.47E-08 5.209E-04
6.000E-02 2.81E-05 7.26E-12 3.34E-05 4.49E-12 1.87E-06 5.26E-18 1.50E-05 1.93E-17 1.05E-08 6.64E-04 8.43E-08 7.429E-04
5.500E-02 3.25E-05 1.03E-11 3.74E-05 6.38E-12 2.20E-06 7.45E-18 1.75E-05 2.74E-17 1.25E-08 7.67E-04 1.19E-07 8.568E-04
5.000E-02 3.87E-05 1.51E-11 4.63E-05 9.41E-12 2.62E-06 1.09E-17 2.09E-05 4.01E-17 1.51E-08 9.09E-04 1.75E-07 1.018E-03
4.500E-02 4.77E-05 2.30E-11 6.13E-05 1.44E-11 3.20E-06 1.66E-17 2.55E-05 6.12E-17 1.86E-08 1.11E-03 2.66E-07 1.248E-03
4.000E-02 6.12E-05 3.69E-11 8.19E-05 2.34E-11 3.99E-06 2.66E-17 3.23E-05 9.81E-17 2.36E-08 1.40E-03 4.25E-07 1.576E-03
3.500E-02 7.68E-05 6.30E-11 1.24E-04 4.02E-11 5.12E-06 4.54E-17 4.27E-05 1.68E-16 3.08E-08 1.72E-03 7.24E-07 1.971E-03
3.000E-02 1.08E-04 1.17E-10 1.94E-04 7.48E-11 6.82E-06 8.42E-17 5.99E-05 3.11E-16 4.19E-08 2.36E-03 1.34E-06 2.731E-03
2.750E-02 1.29E-04 1.66E-10 2.44E-04 1.06E-10 8.04E-06 1.19E-16 7.32E-05 4.41E-16 4.99E-08 2.76E-03 1.89E-06 3.216E-03
2.500E-02 1.56E-04 2.44E-10 3.11E-04 1.55E-10 9.60E-06 1.75E-16 9.17E-05 6.46E-16 6.04E-08 3.30E-03 2.76E-06 3.872E-03
2.400E-02 1.71E-04 2.87E-10 3.44E-04 1.82E-10 1.04E-05 2.06E-16 1.00E-04 7.60E-16 6.56E-08 3.55E-03 3.24E-06 4.179E-03
2.000E-02 2.50E-04 5.99E-10 5.36E-04 3.72E-10 1.47E-05 4.27E-16 1.45E-04 1.58E-15 9.45E-08 4.99E-03 6.69E-06 5.948E-03
1.800E-02 3.11E-04 9.20E-10 6.65E-04 5.58E-10 1.81E-05 6.51E-16 1.80E-04 2.40E-15 1.17E-07 6.13E-03 1.02E-05 7.315E-03
1.600E-02 4.13E-04 1.49E-09 8.28E-04 8.76E-10 2.29E-05 1.05E-15 2.30E-04 3.85E-15 1.48E-07 7.73E-03 1.62E-05 9.236E-03
1.500E-02 4.93E-04 1.93E-09 9.28E-04 1.12E-09 2.60E-05 1.35E-15 2.61E-04 4.99E-15 1.68E-07 8.77E-03 2.09E-05 1.050E-02
1.400E-02 5.60E-04 2.55E-09 1.04E-03 1.46E-09 3.01E-05 1.79E-15 3.01E-04 6.57E-15 1.93E-07 9.77E-03 2.75E-05 1.173E-02
1.200E-02 8.56E-04 4.78E-09 1.33E-03 2.61E-09 4.18E-05 3.33E-15 4.13E-04 1.22E-14 2.63E-07 1.32E-02 5.00E-05 1.589E-02
1.000E-02 1.30E-03 1.00E-08 1.75E-03 5.17E-09 6.33E-05 6.95E-15 6.02E-04 2.53E-14 3.80E-07 1.81E-02 1.03E-04 2.194E-02
9.000E-03 1.73E-03 1.55E-08 2.00E-03 7.68E-09 8.13E-05 1.07E-14 7.52E-04 3.86E-14 4.71E-07 2.22E-02 1.55E-04 2.687E-02
8.000E-03 2.30E-03 2.44E-08 2.32E-03 1.21E-08 1.09E-04 1.72E-14 9.64E-04 6.19E-14 5.98E-07 2.64E-02 2.42E-04 3.236E-02
7.500E-03 2.68E-03 3.19E-08 2.57E-03 1.56E-08 1.28E-04 2.24E-14 1.11E-03 8.02E-14 6.81E-07 3.00E-02 3.13E-04 3.678E-02
7.000E-03 3.24E-03 4.18E-08 2.88E-03 2.05E-08 1.54E-04 2.97E-14 1.28E-03 1.06E-13 7.84E-07 3.38E-02 4.07E-04 4.179E-02
6.000E-03 4.65E-03 7.58E-08 3.69E-03 3.73E-08 2.37E-04 5.59E-14 1.78E-03 1.96E-13 1.08E-06 4.40E-02 7.37E-04 5.514E-02
5.000E-03 6.64E-03 1.48E-07 5.25E-03 7.60E-08 4.16E-04 1.19E-13 2.63E-03 4.04E-13 1.57E-06 5.93E-02 1.49E-03 7.575E-02
4.500E-03 8.17E-03 2.15E-07 6.41E-03 1.13E-07 5.88E-04 1.83E-13 3.28E-03 6.12E-13 1.96E-06 7.11E-02 2.21E-03 9.173E-02
4.000E-03 9.72E-03 3.20E-07 8.00E-03 1.70E-07 8.61E-04 2.91E-13 4.19E-03 9.71E-13 2.53E-06 8.58E-02 3.45E-03 1.120E-01
3.500E-03 1.17E-02 5.06E-07 9.87E-03 2.68E-07 1.20E-03 4.66E-13 5.47E-03 1.63E-12 3.41E-06 1.07E-01 5.70E-03 1.409E-01
3.000E-03 1.45E-02 8.37E-07 1.21E-02 4.31E-07 1.26E-03 7.29E-13 7.47E-03 2.98E-12 4.96E-06 1.38E-01 1.00E-02 1.839E-01
2.750E-03 1.59E-02 1.10E-06 1.33E-02 5.56E-07 1.09E-03 9.39E-13 8.98E-03 4.16E-12 6.40E-06 1.59E-01 1.36E-02 2.120E-01
2.500E-03 1.71E-02 1.46E-06 1.46E-02 7.27E-07 8.57E-04 1.29E-12 1.10E-02 6.00E-12 9.63E-06 1.84E-01 1.87E-02 2.463E-01
2.400E-03 1.78E-02 1.67E-06 1.51E-02 8.16E-07 7.69E-04 1.50E-12 1.20E-02 6.96E-12 1.26E-05 1.95E-01 2.12E-02 2.624E-01
2.350E-03 1.82E-02 1.79E-06 1.54E-02 8.66E-07 7.27E-04 1.62E-12 1.26E-02 7.51E-12 1.45E-05 2.02E-01 2.27E-02 2.713E-01
2.320E-03 1.84E-02 1.86E-06 1.55E-02 8.98E-07 7.03E-04 1.70E-12 1.29E-02 7.87E-12 1.55E-05 2.06E-01 2.35E-02 2.766E-01
2.310E-03 1.84E-02 1.88E-06 1.56E-02 9.10E-07 6.95E-04 1.73E-12 1.30E-02 7.99E-12 1.57E-05 2.07E-01 2.38E-02 2.783E-01
2.300E-03 1.85E-02 1.91E-06 1.57E-02 9.20E-07 6.87E-04 1.76E-12 1.31E-02 8.12E-12 1.59E-05 2.08E-01 2.41E-02 2.801E-01
2.250E-03 1.88E-02 2.04E-06 1.60E-02 9.81E-07 6.50E-04 1.92E-12 1.38E-02 8.82E-12 1.66E-05 2.15E-01 2.58E-02 2.898E-01
2.200E-03 1.91E-02 2.18E-06 1.64E-02 1.04E-06 6.16E-04 2.10E-12 1.46E-02 9.54E-12 1.74E-05 2.22E-01 2.74E-02 2.997E-01
2.150E-03 1.95E-02 2.35E-06 1.69E-02 1.11E-06 5.83E-04 2.30E-12 1.53E-02 1.03E-11 1.89E-05 2.28E-01 2.91E-02 3.096E-01
2.120E-03 1.98E-02 2.45E-06 1.71E-02 1.15E-06 5.66E-04 2.43E-12 1.58E-02 1.08E-11 1.96E-05 2.33E-01 3.01E-02 3.159E-01
2.110E-03 1.98E-02 2.48E-06 1.72E-02 1.16E-06 5.60E-04 2.48E-12 1.60E-02 1.10E-11 1.98E-05 2.34E-01 3.04E-02 3.179E-01
2.100E-03 1.99E-02 2.51E-06 1.73E-02 1.17E-06 5.54E-04 2.52E-12 1.61E-02 1.12E-11 1.99E-05 2.35E-01 3.08E-02 3.199E-01
2.080E-03 2.00E-02 2.58E-06 1.74E-02 1.20E-06 5.43E-04 2.62E-12 1.65E-02 1.15E-11 1.98E-05 2.38E-01 3.14E-02 3.236E-01
2.000E-03 2.03E-02 2.91E-06 1.79E-02 1.29E-06 5.03E-04 3.07E-12 1.81E-02 1.31E-11 1.94E-05 2.48E-01 3.44E-02 3.397E-01
1.950E-03 2.06E-02 3.16E-06 1.82E-02 1.34E-06 4.82E-04 3.40E-12 1.91E-02 1.39E-11 2.07E-05 2.54E-01 3.57E-02 3.482E-01
1.900E-03 2.10E-02 3.45E-06 1.83E-02 1.38E-06 4.63E-04 3.78E-12 1.99E-02 1.45E-11 2.44E-05 2.58E-01 3.69E-02 3.549E-01
1.850E-03 2.14E-02 3.77E-06 1.82E-02 1.39E-06 4.46E-04 4.22E-12 2.04E-02 1.49E-11 3.03E-05 2.60E-01 3.78E-02 3.580E-01
1.830E-03 2.17E-02 3.90E-06 1.81E-02 1.39E-06 4.39E-04 4.41E-12 2.04E-02 1.50E-11 3.24E-05 2.60E-01 3.81E-02 3.584E-01
1.820E-03 2.17E-02 3.97E-06 1.80E-02 1.39E-06 4.36E-04 4.51E-12 2.04E-02 1.50E-11 3.32E-05 2.59E-01 3.82E-02 3.582E-01
1.810E-03 2.18E-02 4.04E-06 1.79E-02 1.39E-06 4.33E-04 4.61E-12 2.04E-02 1.50E-11 3.36E-05 2.59E-01 3.84E-02 3.579E-01
1.800E-03 2.19E-02 4.11E-06 1.78E-02 1.39E-06 4.31E-04 4.72E-12 2.03E-02 1.51E-11 3.39E-05 2.59E-01 3.86E-02 3.576E-01
1.750E-03 2.24E-02 4.50E-06 1.70E-02 1.35E-06 4.18E-04 5.29E-12 1.98E-02 1.52E-11 3.49E-05 2.55E-01 3.94E-02 3.544E-01
1.700E-03 2.27E-02 4.93E-06 1.58E-02 1.30E-06 4.08E-04 5.96E-12 1.89E-02 1.53E-11 4.17E-05 2.50E-01 4.07E-02 3.480E-01
1.670E-03 2.30E-02 5.25E-06 1.48E-02 1.26E-06 4.03E-04 6.41E-12 1.81E-02 1.54E-11 4.84E-05 2.47E-01 4.19E-02 3.449E-01
1.650E-03 2.33E-02 5.48E-06 1.40E-02 1.24E-06 4.01E-04 6.73E-12 1.76E-02 1.56E-11 5.08E-05 2.45E-01 4.28E-02 3.429E-01
1.640E-03 2.34E-02 5.58E-06 1.36E-02 1.23E-06 3.99E-04 6.90E-12 1.73E-02 1.57E-11 5.08E-05 2.44E-01 4.32E-02 3.416E-01
1.630E-03 2.36E-02 5.70E-06 1.32E-02 1.22E-06 3.98E-04 7.07E-12 1.70E-02 1.58E-11 5.00E-05 2.42E-01 4.37E-02 3.403E-01
1.610E-03 2.38E-02 5.92E-06 1.23E-02 1.22E-06 3.96E-04 7.44E-12 1.64E-02 1.62E-11 4.73E-05 2.40E-01 4.49E-02 3.381E-01
1.600E-03 2.39E-02 6.04E-06 1.18E-02 1.22E-06 3.95E-04 7.63E-12 1.62E-02 1.65E-11 4.61E-05 2.39E-01 4.55E-02 3.371E-01
1.590E-03 2.41E-02 6.17E-06 1.13E-02 1.23E-06 3.94E-04 7.83E-12 1.59E-02 1.67E-11 4.52E-05 2.38E-01 4.62E-02 3.361E-01
1.580E-03 2.42E-02 6.29E-06 1.08E-02 1.25E-06 3.94E-04 8.03E-12 1.56E-02 1.70E-11 4.46E-05 2.37E-01 4.70E-02 3.354E-01
1.570E-03 2.43E-02 6.41E-06 1.03E-02 1.27E-06 3.93E-04 8.24E-12 1.53E-02 1.73E-11 4.41E-05 2.36E-01 4.78E-02 3.344E-01
1.560E-03 2.44E-02 6.56E-06 9.87E-03 1.31E-06 3.93E-04 8.46E-12 1.50E-02 1.77E-11 4.34E-05 2.36E-01 4.87E-02 3.340E-01
1.540E-03 2.47E-02 6.84E-06 9.05E-03 1.40E-06 3.92E-04 8.91E-12 1.45E-02 1.85E-11 4.27E-05 2.34E-01 5.06E-02 3.337E-01
1.520E-03 2.49E-02 7.10E-06 8.42E-03 1.54E-06 3.92E-04 9.40E-12 1.39E-02 1.95E-11 4.49E-05 2.33E-01 5.27E-02 3.334E-01
1.510E-03 2.50E-02 7.23E-06 8.18E-03 1.62E-06 3.91E-04 9.66E-12 1.37E-02 2.01E-11 4.62E-05 2.32E-01 5.38E-02 3.335E-01
1.500E-03 2.51E-02 7.37E-06 7.99E-03 1.71E-06 3.92E-04 9.92E-12 1.34E-02 2.07E-11 4.65E-05 2.32E-01 5.51E-02 3.337E-01
1.450E-03 2.55E-02 8.23E-06 7.62E-03 2.22E-06 3.94E-04 1.14E-11 1.24E-02 2.51E-11 5.76E-05 2.32E-01 6.36E-02 3.413E-01
1.440E-03 2.56E-02 8.42E-06 7.62E-03 2.33E-06 3.95E-04 1.17E-11 1.22E-02 2.62E-11 6.30E-05 2.32E-01 6.56E-02 3.439E-01
1.430E-03 2.58E-02 8.61E-06 7.61E-03 2.44E-06 3.96E-04 1.21E-11 1.21E-02 2.75E-11 6.77E-05 2.34E-01 6.79E-02 3.480E-01
1.420E-03 2.59E-02 8.81E-06 7.60E-03 2.56E-06 3.97E-04 1.24E-11 1.21E-02 2.90E-11 7.01E-05 2.36E-01 7.04E-02 3.521E-01
1.400E-03 2.61E-02 9.24E-06 7.61E-03 2.80E-06 3.99E-04 1.31E-11 1.22E-02 3.22E-11 7.61E-05 2.41E-01 7.56E-02 3.628E-01
1.380E-03 2.64E-02 9.67E-06 7.61E-03 3.07E-06 4.01E-04 1.39E-11 1.25E-02 3.60E-11 9.43E-05 2.48E-01 8.13E-02 3.759E-01
1.370E-03 2.65E-02 9.91E-06 7.63E-03 3.21E-06 4.03E-04 1.43E-11 1.29E-02 3.81E-11 1.11E-04 2.52E-01 8.41E-02 3.836E-01
1.360E-03 2.67E-02 1.02E-05 7.64E-03 3.36E-06 4.05E-04 1.48E-11 1.33E-02 4.02E-11 1.27E-04 2.57E-01 8.69E-02 3.919E-01
1.350E-03 2.69E-02 1.04E-05 7.66E-03 3.53E-06 4.07E-04 1.52E-11 1.36E-02 4.24E-11 1.35E-04 2.62E-01 8.98E-02 4.003E-01
1.340E-03 2.71E-02 1.07E-05 7.69E-03 3.70E-06 4.09E-04 1.57E-11 1.41E-02 4.47E-11 1.46E-04 2.67E-01 9.23E-02 4.086E-01
1.330E-03 2.72E-02 1.09E-05 7.74E-03 3.88E-06 4.11E-04 1.62E-11 1.46E-02 4.69E-11 1.68E-04 2.72E-01 9.48E-02 4.168E-01
1.320E-03 2.74E-02 1.12E-05 7.79E-03 4.07E-06 4.13E-04 1.67E-11 1.51E-02 4.93E-11 2.06E-04 2.77E-01 9.73E-02 4.252E-01
1.310E-03 2.75E-02 1.14E-05 7.86E-03 4.28E-06 4.15E-04 1.72E-11 1.57E-02 5.18E-11 2.67E-04 2.82E-01 9.96E-02 4.333E-01
1.290E-03 2.77E-02 1.19E-05 8.04E-03 4.73E-06 4.20E-04 1.83E-11 1.68E-02 5.71E-11 5.40E-04 2.92E-01 1.04E-01 4.497E-01
1.280E-03 2.77E-02 1.22E-05 8.15E-03 4.97E-06 4.23E-04 1.89E-11 1.75E-02 5.99E-11 7.89E-04 2.97E-01 1.07E-01 4.585E-01
1.270E-03 2.78E-02 1.26E-05 8.20E-03 5.24E-06 4.25E-04 1.95E-11 1.82E-02 6.29E-11 9.52E-04 3.03E-01 1.09E-01 4.674E-01
1.260E-03 2.80E-02 1.29E-05 8.31E-03 5.55E-06 4.28E-04 2.01E-11 1.90E-02 6.59E-11 8.22E-04 3.08E-01 1.11E-01 4.756E-01
1.250E-03 2.81E-02 1.32E-05 8.49E-03 5.89E-06 4.31E-04 2.08E-11 1.97E-02 6.89E-11 6.09E-04 3.13E-01 1.13E-01 4.833E-01
1.220E-03 2.86E-02 1.44E-05 9.64E-03 7.28E-06 4.41E-04 2.29E-11 2.21E-02 7.90E-11 4.79E-04 3.29E-01 1.19E-01 5.088E-01
1.210E-03 2.88E-02 1.48E-05 1.05E-02 7.84E-06 4.44E-04 2.37E-11 2.31E-02 8.27E-11 5.49E-04 3.34E-01 1.20E-01 5.173E-01
1.200E-03 2.88E-02 1.52E-05 1.16E-02 8.38E-06 4.47E-04 2.45E-11 2.41E-02 8.66E-11 6.06E-04 3.39E-01 1.21E-01 5.261E-01
1.190E-03 2.91E-02 1.56E-05 1.28E-02 8.86E-06 4.50E-04 2.54E-11 2.51E-02 9.06E-11 6.07E-04 3.45E-01 1.23E-01 5.355E-01
1.180E-03 2.93E-02 1.60E-05 1.40E-02 9.27E-06 4.54E-04 2.63E-11 2.62E-02 9.44E-11 6.03E-04 3.49E-01 1.24E-01 5.433E-01
1.170E-03 2.95E-02 1.65E-05 1.52E-02 9.62E-06 4.57E-04 2.73E-11 2.73E-02 9.84E-11 6.69E-04 3.54E-01 1.24E-01 5.512E-01
1.160E-03 2.97E-02 1.69E-05 1.62E-02 9.91E-06 4.64E-04 2.84E-11 2.83E-02 1.02E-10 8.59E-04 3.58E-01 1.25E-01 5.584E-01
1.150E-03 2.98E-02 1.73E-05 1.70E-02 1.02E-05 6.51E-04 2.81E-11 2.94E-02 1.07E-10 1.25E-03 3.61E-01 1.26E-01 5.654E-01
1.140E-03 2.99E-02 1.78E-05 1.78E-02 1.04E-05 4.83E-04 2.99E-11 3.06E-02 1.11E-10 1.87E-03 3.65E-01 1.26E-01 5.726E-01
1.130E-03 3.00E-02 1.83E-05 1.85E-02 1.06E-05 4.82E-04 3.11E-11 3.18E-02 1.16E-10 2.28E-03 3.70E-01 1.27E-01 5.798E-01
1.120E-03 3.01E-02 1.88E-05 1.91E-02 1.09E-05 4.86E-04 3.23E-11 3.31E-02 1.21E-10 1.84E-03 3.73E-01 1.28E-01 5.859E-01
1.110E-03 3.02E-02 1.93E-05 1.97E-02 1.11E-05 4.90E-04 3.35E-11 3.46E-02 1.27E-10 1.17E-03 3.77E-01 1.28E-01 5.915E-01
1.090E-03 3.04E-02 2.05E-05 2.09E-02 1.16E-05 5.00E-04 3.60E-11 3.75E-02 1.38E-10 4.96E-04 3.84E-01 1.29E-01 6.028E-01
1.050E-03 3.10E-02 2.34E-05 2.31E-02 1.25E-05 5.23E-04 4.19E-11 4.53E-02 1.64E-10 1.74E-04 3.99E-01 1.27E-01 6.258E-01
1.000E-03 3.22E-02 2.76E-05 2.52E-02 1.33E-05 5.58E-04 5.10E-11 5.24E-02 1.75E-10 9.67E-05 3.99E-01 1.17E-01 6.262E-01
9.800E-04 3.27E-02 2.95E-05 2.57E-02 1.32E-05 5.73E-04 5.53E-11 5.50E-02 1.80E-10 8.68E-05 3.98E-01 1.14E-01 6.255E-01
9.600E-04 3.32E-02 3.17E-05 2.56E-02 1.29E-05 5.90E-04 6.01E-11 5.75E-02 1.82E-10 8.23E-05 3.95E-01 1.08E-01 6.199E-01
9.500E-04 3.36E-02 3.28E-05 2.53E-02 1.27E-05 5.99E-04 6.26E-11 5.81E-02 1.78E-10 8.17E-05 3.91E-01 1.05E-01 6.131E-01
9.400E-04 3.38E-02 3.38E-05 2.48E-02 1.24E-05 6.09E-04 6.53E-11 5.80E-02 1.70E-10 8.22E-05 3.85E-01 9.99E-02 6.020E-01
9.200E-04 3.43E-02 3.61E-05 2.36E-02 1.19E-05 6.28E-04 7.12E-11 5.40E-02 1.42E-10 8.74E-05 3.66E-01 8.98E-02 5.683E-01
8.900E-04 3.51E-02 4.04E-05 2.09E-02 1.11E-05 6.61E-04 8.14E-11 4.26E-02 9.07E-11 1.20E-04 3.30E-01 7.74E-02 5.070E-01
8.700E-04 3.54E-02 4.32E-05 1.89E-02 1.09E-05 6.84E-04 8.91E-11 3.55E-02 6.73E-11 2.44E-04 3.08E-01 7.35E-02 4.722E-01
8.600E-04 3.57E-02 4.49E-05 1.80E-02 1.09E-05 6.97E-04 9.33E-11 3.26E-02 5.94E-11 3.57E-04 2.99E-01 7.29E-02 4.597E-01
8.500E-04 3.59E-02 4.65E-05 1.69E-02 1.09E-05 7.10E-04 9.78E-11 3.01E-02 5.30E-11 2.62E-04 2.91E-01 7.23E-02 4.475E-01
8.400E-04 3.63E-02 4.85E-05 1.58E-02 1.09E-05 7.23E-04 1.02E-10 2.74E-02 4.64E-11 1.95E-04 2.83E-01 7.18E-02 4.351E-01
8.200E-04 3.66E-02 5.18E-05 1.32E-02 1.12E-05 7.51E-04 1.13E-10 2.12E-02 3.33E-11 1.99E-04 2.61E-01 7.11E-02 4.038E-01
8.000E-04 3.71E-02 5.61E-05 1.06E-02 1.23E-05 7.81E-04 1.25E-10 1.45E-02 2.57E-11 2.81E-04 2.38E-01 7.51E-02 3.761E-01
7.900E-04 3.75E-02 5.85E-05 9.65E-03 1.33E-05 7.97E-04 1.31E-10 1.22E-02 2.77E-11 3.45E-04 2.31E-01 8.05E-02 3.723E-01
7.800E-04 3.76E-02 6.06E-05 8.85E-03 1.44E-05 8.13E-04 1.38E-10 9.90E-03 3.13E-11 4.09E-04 2.24E-01 8.64E-02 3.680E-01
7.700E-04 3.77E-02 6.29E-05 8.17E-03 1.55E-05 8.29E-04 1.45E-10 8.14E-03 3.73E-11 4.37E-04 2.19E-01 9.36E-02 3.676E-01
7.600E-04 3.78E-02 6.55E-05 7.58E-03 1.69E-05 8.46E-04 1.53E-10 6.91E-03 4.55E-11 4.09E-04 2.16E-01 1.02E-01 3.711E-01
7.500E-04 3.79E-02 6.82E-05 7.05E-03 1.83E-05 8.63E-04 1.61E-10 5.80E-03 5.53E-11 3.44E-04 2.13E-01 1.11E-01 3.759E-01
7.300E-04 3.83E-02 7.47E-05 6.24E-03 2.16E-05 9.01E-04 1.79E-10 4.87E-03 7.89E-11 2.26E-04 2.15E-01 1.29E-01 3.948E-01
7.200E-04 3.85E-02 7.77E-05 5.99E-03 2.35E-05 9.21E-04 1.89E-10 4.70E-03 9.13E-11 1.94E-04 2.16E-01 1.38E-01 4.039E-01
7.100E-04 3.85E-02 8.14E-05 5.83E-03 2.55E-05 9.42E-04 2.00E-10 4.56E-03 1.05E-10 1.92E-04 2.17E-01 1.47E-01 4.143E-01
7.000E-04 3.89E-02 8.54E-05 5.67E-03 2.74E-05 9.64E-04 2.12E-10 4.52E-03 1.19E-10 2.55E-04 2.20E-01 1.55E-01 4.255E-01
6.900E-04 3.91E-02 8.86E-05 5.45E-03 2.95E-05 9.86E-04 2.24E-10 4.49E-03 1.34E-10 1.64E-04 2.22E-01 1.62E-01 4.344E-01
6.800E-04 3.85E-02 9.21E-05 5.16E-03 3.17E-05 1.01E-03 2.38E-10 4.49E-03 1.49E-10 1.35E-04 2.21E-01 1.71E-01 4.420E-01
6.600E-04 3.87E-02 1.04E-04 4.65E-03 3.69E-05 1.06E-03 2.68E-10 4.49E-03 1.83E-10 1.33E-04 2.26E-01 1.90E-01 4.660E-01
6.400E-04 3.98E-02 1.17E-04 4.03E-03 4.30E-05 1.11E-03 3.03E-10 4.48E-03 2.22E-10 1.86E-04 2.33E-01 2.08E-01 4.912E-01
6.300E-04 4.06E-02 1.24E-04 3.76E-03 4.67E-05 1.13E-03 3.23E-10 4.46E-03 2.44E-10 2.71E-04 2.37E-01 2.15E-01 5.026E-01
6.200E-04 4.08E-02 1.29E-04 3.70E-03 5.08E-05 1.17E-03 3.43E-10 4.44E-03 2.67E-10 3.55E-04 2.38E-01 2.23E-01 5.126E-01
6.100E-04 4.12E-02 1.37E-04 3.68E-03 5.47E-05 1.20E-03 3.66E-10 4.41E-03 2.92E-10 2.70E-04 2.41E-01 2.32E-01 5.239E-01
5.900E-04 4.29E-02 1.54E-04 3.02E-03 6.37E-05 1.27E-03 4.18E-10 4.35E-03 3.50E-10 1.46E-04 2.48E-01 2.48E-01 5.474E-01
5.500E-04 4.14E-02 1.85E-04 2.24E-03 8.97E-05 1.43E-03 5.52E-10 4.29E-03 5.01E-10 1.36E-04 2.45E-01 2.89E-01 5.843E-01
5.300E-04 4.18E-02 2.13E-04 2.00E-03 1.07E-04 1.52E-03 6.39E-10 4.30E-03 6.01E-10 1.91E-04 2.50E-01 3.12E-01 6.123E-01
5.200E-04 4.18E-02 2.28E-04 1.88E-03 1.16E-04 1.56E-03 6.89E-10 4.31E-03 6.58E-10 2.73E-04 2.52E-01 3.24E-01 6.260E-01
5.100E-04 4.22E-02 2.46E-04 1.76E-03 1.27E-04 1.61E-03 7.44E-10 4.33E-03 7.22E-10 3.58E-04 2.55E-01 3.36E-01 6.409E-01
5.000E-04 4.26E-02 2.64E-04 1.63E-03 1.41E-04 1.67E-03 8.05E-10 4.35E-03 7.92E-10 2.77E-04 2.57E-01 3.47E-01 6.554E-01
4.800E-04 4.32E-02 3.05E-04 1.44E-03 1.70E-04 1.77E-03 9.46E-10 4.42E-03 9.57E-10 1.67E-04 2.62E-01 3.71E-01 6.842E-01
4.500E-04 4.47E-02 3.82E-04 1.21E-03 2.26E-04 1.97E-03 1.22E-09 4.58E-03 1.28E-09 1.53E-04 2.70E-01 4.04E-01 7.270E-01
4.000E-04 4.63E-02 5.83E-04 8.95E-04 3.76E-04 2.37E-03 1.94E-09 4.93E-03 2.14E-09 1.82E-04 2.82E-01 4.64E-01 8.016E-01
3.800E-04 4.73E-02 7.05E-04 7.89E-04 4.68E-04 2.57E-03 2.38E-09 5.08E-03 2.66E-09 2.03E-04 2.88E-01 4.87E-01 8.319E-01
3.600E-04 4.84E-02 8.62E-04 6.94E-04 5.88E-04 2.79E-03 2.94E-09 5.26E-03 3.34E-09 2.36E-04 2.93E-01 5.08E-01 8.606E-01
3.400E-04 5.07E-02 1.06E-03 6.10E-04 7.48E-04 3.06E-03 3.69E-09 5.44E-03 4.25E-09 3.73E-04 3.01E-01 5.23E-01 8.866E-01
3.300E-04 5.06E-02 1.17E-03 5.72E-04 8.47E-04 3.21E-03 4.14E-09 5.54E-03 4.81E-09 7.71E-04 3.02E-01 5.34E-01 8.993E-01
3.200E-04 5.08E-02 1.31E-03 5.32E-04 9.63E-04 3.36E-03 4.68E-09 5.63E-03 5.46E-09 3.98E-04 3.04E-01 5.45E-01 9.119E-01
3.150E-04 5.12E-02 1.40E-03 5.15E-04 1.03E-03 3.45E-03 4.98E-09 5.67E-03 5.83E-09 3.45E-04 3.06E-01 5.49E-01 9.180E-01
3.100E-04 5.17E-02 1.48E-03 4.98E-04 1.10E-03 3.53E-03 5.30E-09 5.72E-03 6.23E-09 3.27E-04 3.07E-01 5.52E-01 9.236E-01
3.080E-04 5.19E-02 1.52E-03 4.91E-04 1.13E-03 3.57E-03 5.44E-09 5.74E-03 6.40E-09 3.25E-04 3.08E-01 5.53E-01 9.258E-01
3.050E-04 5.21E-02 1.57E-03 4.80E-04 1.18E-03 3.63E-03 5.65E-09 5.78E-03 6.66E-09 3.24E-04 3.09E-01 5.55E-01 9.290E-01
3.000E-04 5.24E-02 1.67E-03 4.65E-04 1.26E-03 3.72E-03 6.03E-09 5.83E-03 7.13E-09 3.26E-04 3.10E-01 5.59E-01 9.344E-01
2.900E-04 5.34E-02 1.89E-03 4.34E-04 1.45E-03 3.93E-03 6.89E-09 5.96E-03 8.20E-09 3.41E-04 3.14E-01 5.64E-01 9.448E-01
2.800E-04 5.38E-02 2.15E-03 4.05E-04 1.67E-03 4.15E-03 7.91E-09 6.09E-03 9.47E-09 3.62E-04 3.15E-01 5.71E-01 9.544E-01
2.600E-04 5.52E-02 2.85E-03 3.51E-04 2.27E-03 4.65E-03 1.06E-08 6.39E-03 1.28E-08 4.17E-04 3.20E-01 5.79E-01 9.718E-01
2.500E-04 5.64E-02 3.32E-03 3.26E-04 2.66E-03 4.94E-03 1.23E-08 6.56E-03 1.50E-08 4.52E-04 3.24E-01 5.82E-01 9.802E-01
2.200E-04 6.15E-02 5.44E-03 2.63E-04 4.47E-03 6.01E-03 2.04E-08 7.19E-03 2.53E-08 5.90E-04 3.36E-01 5.85E-01 1.006E+00
2.159E-04 6.21E-02 5.84E-03 2.55E-04 4.82E-03 6.19E-03 2.19E-08 7.29E-03 2.73E-08 6.14E-04 3.37E-01 5.86E-01 1.010E+00
2.000E-04 6.58E-02 7.86E-03 2.30E-04 6.55E-03 6.96E-03 2.96E-08 7.71E-03 3.72E-08 7.26E-04 3.43E-01 5.89E-01 1.028E+00
1.662E-04 7.58E-02 1.59E-02 1.84E-04 1.36E-02 9.25E-03 6.10E-08 8.94E-03 7.83E-08 1.10E-03 3.56E-01 6.03E-01 1.084E+00
1.650E-04 7.63E-02 1.63E-02 1.82E-04 1.40E-02 9.35E-03 6.28E-08 8.99E-03 8.06E-08 1.12E-03 3.56E-01 6.04E-01 1.086E+00
1.250E-04 1.01E-01 4.55E-02 1.67E-04 3.96E-02 1.44E-02 1.86E-07 1.14E-02 2.45E-07 2.17E-03 3.74E-01 6.03E-01 1.191E+00
1.235E-04 1.02E-01 4.74E-02 1.66E-04 4.13E-02 1.47E-02 1.95E-07 1.15E-02 2.57E-07 2.23E-03 3.74E-01 6.03E-01 1.196E+00
1.130E-04 1.14E-01 6.41E-02 1.73E-04 5.61E-02 1.68E-02 2.76E-07 1.25E-02 3.67E-07 2.76E-03 3.80E-01 5.99E-01 1.245E+00
1.000E-04 1.36E-01 9.46E-02 1.94E-04 8.37E-02 2.05E-02 4.45E-07 1.41E-02 5.99E-07 3.71E-03 3.89E-01 5.91E-01 1.333E+00
9.500E-05 1.47E-01 1.10E-01 1.97E-04 9.85E-02 2.23E-02 5.44E-07 1.48E-02 7.35E-07 4.20E-03 3.93E-01 5.86E-01 1.376E+00
9.300E-05 1.52E-01 1.17E-01 2.01E-04 1.05E-01 2.31E-02 5.90E-07 1.51E-02 8.00E-07 4.42E-03 3.95E-01 5.83E-01 1.395E+00
9.200E-05 1.55E-01 1.21E-01 2.04E-04 1.09E-01 2.35E-02 6.16E-07 1.52E-02 8.36E-07 4.53E-03 3.95E-01 5.82E-01 1.405E+00
9.100E-05 1.57E-01 1.24E-01 2.08E-04 1.13E-01 2.39E-02 6.43E-07 1.54E-02 8.73E-07 4.65E-03 3.96E-01 5.81E-01 1.416E+00
9.000E-05 1.60E-01 1.28E-01 2.12E-04 1.17E-01 2.43E-02 6.71E-07 1.55E-02 9.12E-07 4.78E-03 3.97E-01 5.80E-01 1.426E+00
8.900E-05 1.63E-01 1.32E-01 2.16E-04 1.21E-01 2.48E-02 7.00E-07 1.57E-02 9.54E-07 4.90E-03 3.97E-01 5.79E-01 1.437E+00
8.800E-05 1.66E-01 1.36E-01 2.18E-04 1.25E-01 2.52E-02 7.32E-07 1.59E-02 9.98E-07 5.04E-03 3.98E-01 5.77E-01 1.449E+00
8.700E-05 1.68E-01 1.41E-01 2.24E-04 1.30E-01 2.57E-02 7.65E-07 1.60E-02 1.05E-06 5.18E-03 3.99E-01 5.76E-01 1.461E+00
8.600E-05 1.71E-01 1.45E-01 2.27E-04 1.35E-01 2.62E-02 8.00E-07 1.62E-02 1.09E-06 5.32E-03 3.99E-01 5.75E-01 1.473E+00
8.500E-05 1.74E-01 1.50E-01 2.32E-04 1.40E-01 2.67E-02 8.37E-07 1.64E-02 1.15E-06 5.47E-03 4.00E-01 5.74E-01 1.486E+00
8.400E-05 1.77E-01 1.55E-01 2.35E-04 1.45E-01 2.72E-02 8.76E-07 1.66E-02 1.20E-06 5.63E-03 4.00E-01 5.73E-01 1.499E+00
8.330E-05 1.80E-01 1.58E-01 2.38E-04 1.49E-01 2.75E-02 9.05E-07 1.67E-02 1.24E-06 5.74E-03 4.01E-01 5.72E-01 1.509E+00
8.200E-05 1.84E-01 1.65E-01 2.42E-04 1.56E-01 2.82E-02 9.62E-07 1.70E-02 1.32E-06 5.96E-03 4.02E-01 5.70E-01 1.528E+00
8.100E-05 1.87E-01 1.71E-01 2.48E-04 1.62E-01 2.88E-02 1.01E-06 1.72E-02 1.39E-06 6.14E-03 4.02E-01 5.69E-01 1.543E+00
8.000E-05 1.91E-01 1.77E-01 2.52E-04 1.68E-01 2.93E-02 1.06E-06 1.74E-02 1.46E-06 6.32E-03 4.03E-01 5.67E-01 1.559E+00
7.900E-05 1.95E-01 1.82E-01 2.57E-04 1.75E-01 2.99E-02 1.11E-06 1.76E-02 1.54E-06 6.51E-03 4.04E-01 5.66E-01 1.576E+00
7.800E-05 1.99E-01 1.89E-01 2.66E-04 1.82E-01 3.05E-02 1.17E-06 1.78E-02 1.62E-06 6.71E-03 4.04E-01 5.64E-01 1.593E+00
7.700E-05 2.04E-01 1.95E-01 2.71E-04 1.89E-01 3.11E-02 1.23E-06 1.80E-02 1.70E-06 6.92E-03 4.05E-01 5.62E-01 1.611E+00
7.600E-05 2.08E-01 2.01E-01 2.82E-04 1.97E-01 3.17E-02 1.29E-06 1.82E-02 1.80E-06 7.13E-03 4.06E-01 5.60E-01 1.630E+00
7.500E-05 2.13E-01 2.07E-01 2.90E-04 2.05E-01 3.24E-02 1.36E-06 1.84E-02 1.89E-06 7.36E-03 4.07E-01 5.58E-01 1.649E+00
7.400E-05 2.18E-01 2.14E-01 3.02E-04 2.13E-01 3.31E-02 1.43E-06 1.87E-02 2.00E-06 7.60E-03 4.08E-01 5.56E-01 1.668E+00
7.300E-05 2.23E-01 2.21E-01 3.15E-04 2.22E-01 3.38E-02 1.51E-06 1.89E-02 2.11E-06 7.85E-03 4.09E-01 5.54E-01 1.689E+00
7.140E-05 2.31E-01 2.31E-01 3.26E-04 2.37E-01 3.49E-02 1.64E-06 1.93E-02 2.31E-06 8.27E-03 4.10E-01 5.50E-01 1.722E+00
7.100E-05 2.34E-01 2.34E-01 3.26E-04 2.40E-01 3.52E-02 1.68E-06 1.94E-02 2.36E-06 8.38E-03 4.10E-01 5.49E-01 1.731E+00
7.000E-05 2.39E-01 2.41E-01 3.38E-04 2.50E-01 3.59E-02 1.77E-06 1.97E-02 2.50E-06 8.67E-03 4.11E-01 5.47E-01 1.753E+00
6.900E-05 2.45E-01 2.48E-01 3.50E-04 2.61E-01 3.67E-02 1.88E-06 1.99E-02 2.65E-06 8.97E-03 4.12E-01 5.45E-01 1.776E+00
6.800E-05 2.51E-01 2.55E-01 3.65E-04 2.72E-01 3.75E-02 1.99E-06 2.02E-02 2.81E-06 9.28E-03 4.13E-01 5.42E-01 1.800E+00
6.700E-05 2.57E-01 2.62E-01 3.80E-04 2.83E-01 3.84E-02 2.10E-06 2.05E-02 2.98E-06 9.61E-03 4.14E-01 5.40E-01 1.824E+00
6.600E-05 2.63E-01 2.69E-01 3.97E-04 2.95E-01 3.92E-02 2.23E-06 2.08E-02 3.17E-06 9.96E-03 4.15E-01 5.37E-01 1.849E+00
6.500E-05 2.69E-01 2.76E-01 4.06E-04 3.07E-01 4.01E-02 2.37E-06 2.11E-02 3.37E-06 1.03E-02 4.16E-01 5.35E-01 1.875E+00
6.400E-05 2.76E-01 2.84E-01 4.16E-04 3.19E-01 4.11E-02 2.51E-06 2.14E-02 3.58E-06 1.07E-02 4.16E-01 5.32E-01 1.901E+00
6.300E-05 2.83E-01 2.91E-01 4.30E-04 3.33E-01 4.21E-02 2.67E-06 2.17E-02 3.82E-06 1.11E-02 4.17E-01 5.30E-01 1.928E+00
6.250E-05 2.86E-01 2.95E-01 4.33E-04 3.39E-01 4.26E-02 2.76E-06 2.19E-02 3.94E-06 1.13E-02 4.18E-01 5.28E-01 1.942E+00
6.200E-05 2.90E-01 2.98E-01 4.44E-04 3.46E-01 4.31E-02 2.85E-06 2.21E-02 4.07E-06 1.16E-02 4.18E-01 5.27E-01 1.957E+00
6.100E-05 2.97E-01 3.06E-01 4.67E-04 3.61E-01 4.41E-02 3.04E-06 2.24E-02 4.35E-06 1.20E-02 4.19E-01 5.24E-01 1.986E+00
6.000E-05 3.05E-01 3.13E-01 4.87E-04 3.75E-01 4.52E-02 3.24E-06 2.28E-02 4.65E-06 1.25E-02 4.20E-01 5.21E-01 2.015E+00
5.900E-05 3.14E-01 3.20E-01 5.07E-04 3.91E-01 4.63E-02 3.46E-06 2.31E-02 4.98E-06 1.30E-02 4.20E-01 5.18E-01 2.045E+00
5.800E-05 3.22E-01 3.27E-01 5.30E-04 4.06E-01 4.75E-02 3.70E-06 2.35E-02 5.33E-06 1.36E-02 4.21E-01 5.15E-01 2.076E+00
5.700E-05 3.31E-01 3.33E-01 5.57E-04 4.23E-01 4.87E-02 3.96E-06 2.39E-02 5.72E-06 1.42E-02 4.22E-01 5.12E-01 2.108E+00
5.600E-05 3.41E-01 3.39E-01 5.86E-04 4.40E-01 4.99E-02 4.25E-06 2.43E-02 6.14E-06 1.48E-02 4.23E-01 5.08E-01 2.140E+00
5.500E-05 3.50E-01 3.45E-01 6.12E-04 4.58E-01 5.12E-02 4.56E-06 2.47E-02 6.61E-06 1.55E-02 4.23E-01 5.05E-01 2.173E+00
5.477E-05 3.53E-01 3.46E-01 6.16E-04 4.62E-01 5.16E-02 4.64E-06 2.48E-02 6.72E-06 2.62E-02 4.23E-01 5.04E-01 2.191E+00
5.400E-05 3.60E-01 3.50E-01 6.36E-04 4.76E-01 5.28E-02 4.91E-06 2.52E-02 7.12E-06 2.72E-02 4.24E-01 5.01E-01 2.218E+00
5.300E-05 3.70E-01 3.55E-01 6.65E-04 4.95E-01 5.44E-02 5.29E-06 2.56E-02 7.68E-06 2.86E-02 4.25E-01 4.98E-01 2.253E+00
5.200E-05 3.81E-01 3.60E-01 7.09E-04 5.16E-01 5.60E-02 5.72E-06 2.61E-02 8.30E-06 3.01E-02 4.25E-01 4.95E-01 2.289E+00
5.100E-05 3.91E-01 3.64E-01 7.49E-04 5.36E-01 5.77E-02 6.18E-06 2.66E-02 8.98E-06 3.17E-02 4.25E-01 4.91E-01 2.325E+00
5.000E-05 4.01E-01 3.68E-01 7.93E-04 5.58E-01 5.95E-02 6.70E-06 2.71E-02 9.73E-06 3.35E-02 4.26E-01 4.88E-01 2.362E+00
4.900E-05 4.12E-01 3.71E-01 8.35E-04 5.81E-01 6.14E-02 7.26E-06 2.76E-02 1.06E-05 3.54E-02 4.26E-01 4.85E-01 2.401E+00
4.880E-05 4.14E-01 3.72E-01 8.42E-04 5.86E-01 6.18E-02 7.38E-06 2.77E-02 1.07E-05 3.58E-02 4.26E-01 4.84E-01 2.408E+00
4.800E-05 4.22E-01 3.75E-01 8.81E-04 6.05E-01 6.36E-02 7.90E-06 2.81E-02 1.15E-05 3.75E-02 4.26E-01 4.82E-01 2.440E+00
4.760E-05 4.26E-01 3.76E-01 9.04E-04 6.15E-01 6.46E-02 8.18E-06 2.83E-02 1.19E-05 3.84E-02 4.26E-01 4.80E-01 2.456E+00
4.700E-05 4.32E-01 3.77E-01 9.37E-04 6.30E-01 6.61E-02 8.61E-06 2.87E-02 1.25E-05 3.98E-02 4.26E-01 4.78E-01 2.480E+00
4.650E-05 4.37E-01 3.79E-01 9.62E-04 6.43E-01 6.74E-02 9.00E-06 2.90E-02 1.31E-05 4.11E-02 4.26E-01 4.77E-01 2.500E+00
4.600E-05 4.43E-01 3.80E-01 9.99E-04 6.55E-01 6.87E-02 9.41E-06 2.93E-02 1.37E-05 4.24E-02 4.26E-01 4.75E-01 2.521E+00
4.550E-05 4.48E-01 3.81E-01 1.04E-03 6.69E-01 7.01E-02 9.84E-06 2.96E-02 1.43E-05 4.38E-02 4.26E-01 4.74E-01 2.542E+00
4.500E-05 4.53E-01 3.82E-01 1.09E-03 6.82E-01 7.15E-02 1.03E-05 2.99E-02 1.50E-05 4.52E-02 4.26E-01 4.72E-01 2.562E+00
4.440E-05 4.59E-01 3.83E-01 1.15E-03 6.98E-01 7.32E-02 1.09E-05 3.03E-02 1.58E-05 4.70E-02 4.26E-01 4.71E-01 2.588E+00
4.350E-05 4.67E-01 3.85E-01 1.26E-03 7.23E-01 7.59E-02 1.18E-05 3.08E-02 1.72E-05 5.00E-02 4.26E-01 4.68E-01 2.626E+00
4.170E-05 4.85E-01 3.87E-01 1.53E-03 7.73E-01 8.24E-02 1.41E-05 3.21E-02 2.04E-05 5.70E-02 4.25E-01 4.63E-01 2.706E+00
4.000E-05 5.00E-01 3.88E-01 2.02E-03 8.24E-01 8.92E-02 1.67E-05 3.33E-02 2.43E-05 6.51E-02 4.24E-01 4.59E-01 2.784E+00
3.850E-05 5.14E-01 3.89E-01 2.68E-03 8.70E-01 9.54E-02 1.96E-05 3.45E-02 2.84E-05 7.40E-02 4.22E-01 4.55E-01 2.856E+00
3.656E-05 5.30E-01 3.89E-01 3.94E-03 9.30E-01 1.04E-01 2.44E-05 3.61E-02 3.53E-05 8.85E-02 4.20E-01 4.51E-01 2.954E+00
3.570E-05 5.36E-01 3.89E-01 4.59E-03 9.57E-01 1.09E-01 2.71E-05 3.69E-02 3.90E-05 9.65E-02 4.19E-01 4.50E-01 2.998E+00
3.330E-05 5.54E-01 3.88E-01 6.87E-03 1.03E+00 1.24E-01 3.71E-05 3.91E-02 5.22E-05 1.26E-01 4.16E-01 4.46E-01 3.129E+00
3.130E-05 5.66E-01 3.87E-01 9.13E-03 1.09E+00 1.42E-01 5.00E-05 4.12E-02 6.79E-05 1.62E-01 4.14E-01 4.43E-01 3.250E+00
3.000E-05 5.73E-01 3.86E-01 1.09E-02 1.12E+00 1.59E-01 6.20E-05 4.26E-02 8.15E-05 1.95E-01 4.12E-01 4.41E-01 3.339E+00
2.940E-05 5.76E-01 3.85E-01 1.18E-02 1.13E+00 1.67E-01 6.88E-05 4.33E-02 8.89E-05 2.14E-01 4.11E-01 4.41E-01 3.382E+00
2.780E-05 5.83E-01 3.83E-01 1.44E-02 1.16E+00 1.96E-01 9.43E-05 4.52E-02 1.14E-04 2.77E-01 4.08E-01 4.39E-01 3.511E+00
2.630E-05 5.86E-01 3.81E-01 1.71E-02 1.19E+00 2.39E-01 1.34E-04 4.70E-02 1.45E-04 3.61E-01 4.06E-01 4.38E-01 3.661E+00
2.500E-05 5.89E-01 3.80E-01 2.03E-02 1.20E+00 2.98E-01 1.95E-04 4.85E-02 1.82E-04 4.56E-01 4.03E-01 4.37E-01 3.829E+00
2.380E-05 5.91E-01 3.80E-01 2.42E-02 1.20E+00 4.11E-01 2.99E-04 4.87E-02 2.29E-04 5.54E-01 4.01E-01 4.36E-01 4.044E+00
2.270E-05 5.92E-01 3.78E-01 2.95E-02 1.19E+00 5.94E-01 4.37E-04 5.06E-02 2.87E-04 6.31E-01 3.99E-01 4.36E-01 4.303E+00
2.170E-05 5.91E-01 3.78E-01 3.67E-02 1.19E+00 8.04E-01 5.68E-04 5.69E-02 3.59E-04 6.61E-01 3.96E-01 4.36E-01 4.547E+00
2.080E-05 5.91E-01 3.78E-01 5.00E-02 1.18E+00 8.33E-01 5.27E-04 7.11E-02 4.47E-04 6.38E-01 3.94E-01 4.37E-01 4.576E+00
2.000E-05 5.89E-01 3.76E-01 1.76E-01 1.08E+00 7.22E-01 4.12E-04 9.04E-02 5.48E-04 5.81E-01 3.92E-01 4.37E-01 4.440E+00
1.920E-05 5.87E-01 3.78E-01 3.29E-01 9.40E-01 5.60E-01 2.83E-04 1.24E-01 6.81E-04 5.04E-01 3.89E-01 4.38E-01 4.251E+00
1.850E-05 5.88E-01 3.83E-01 4.19E-01 8.63E-01 4.39E-01 2.00E-04 1.67E-01 8.33E-04 4.34E-01 3.87E-01 4.39E-01 4.118E+00
1.790E-05 5.89E-01 3.86E-01 5.19E-01 7.62E-01 3.57E-01 1.53E-04 2.13E-01 9.98E-04 3.77E-01 3.84E-01 4.40E-01 4.028E+00
1.720E-05 5.90E-01 3.89E-01 5.85E-01 6.95E-01 2.87E-01 1.22E-04 2.95E-01 1.25E-03 3.19E-01 3.81E-01 4.41E-01 3.983E+00
1.670E-05 5.91E-01 3.92E-01 6.13E-01 6.66E-01 2.45E-01 1.11E-04 3.72E-01 1.48E-03 2.83E-01 3.79E-01 4.42E-01 3.985E+00
1.610E-05 5.93E-01 3.96E-01 6.36E-01 6.41E-01 2.07E-01 1.13E-04 5.06E-01 1.83E-03 2.48E-01 3.75E-01 4.43E-01 4.048E+00
1.560E-05 5.94E-01 3.99E-01 6.49E-01 6.26E-01 1.82E-01 1.27E-04 6.62E-01 2.19E-03 2.24E-01 3.72E-01 4.45E-01 4.155E+00
1.520E-05 5.95E-01 4.01E-01 6.57E-01 6.16E-01 1.65E-01 1.48E-04 8.27E-01 2.51E-03 2.08E-01 3.70E-01 4.46E-01 4.287E+00
1.470E-05 5.96E-01 4.03E-01 6.63E-01 6.05E-01 1.47E-01 1.87E-04 1.07E+00 2.98E-03 1.93E-01 3.68E-01 4.47E-01 4.489E+00
1.430E-05 5.96E-01 4.04E-01 6.65E-01 5.98E-01 1.37E-01 2.33E-04 1.27E+00 3.33E-03 1.84E-01 3.66E-01 4.47E-01 4.670E+00
1.390E-05 5.95E-01 4.04E-01 6.66E-01 5.91E-01 1.34E-01 2.96E-04 1.43E+00 3.69E-03 1.78E-01 3.66E-01 4.46E-01 4.812E+00
1.350E-05 5.94E-01 4.04E-01 6.66E-01 5.84E-01 1.33E-01 3.80E-04 1.58E+00 4.13E-03 1.76E-01 3.65E-01 4.46E-01 4.950E+00
1.320E-05 5.93E-01 4.04E-01 6.66E-01 5.79E-01 1.36E-01 4.62E-04 1.70E+00 4.52E-03 1.76E-01 3.64E-01 4.46E-01 5.063E+00
1.280E-05 5.91E-01 4.05E-01 6.64E-01 5.73E-01 1.45E-01 6.06E-04 1.86E+00 5.15E-03 1.81E-01 3.63E-01 4.46E-01 5.238E+00
1.250E-05 5.90E-01 4.06E-01 6.62E-01 5.71E-01 1.57E-01 7.47E-04 2.00E+00 5.71E-03 1.88E-01 3.62E-01 4.46E-01 5.392E+00
1.220E-05 5.88E-01 4.07E-01 6.61E-01 5.71E-01 1.75E-01 9.25E-04 2.16E+00 6.36E-03 1.99E-01 3.60E-01 4.46E-01 5.572E+00
1.190E-05 5.86E-01 4.07E-01 6.61E-01 5.75E-01 2.00E-01 1.15E-03 2.33E+00 7.13E-03 2.15E-01 3.59E-01 4.46E-01 5.785E+00
1.160E-05 5.83E-01 4.06E-01 6.61E-01 5.79E-01 2.28E-01 1.43E-03 2.52E+00 8.03E-03 2.37E-01 3.58E-01 4.46E-01 6.026E+00
1.140E-05 5.81E-01 4.06E-01 6.60E-01 5.79E-01 2.51E-01 1.68E-03 2.66E+00 8.74E-03 2.56E-01 3.57E-01 4.46E-01 6.209E+00
1.110E-05 5.77E-01 4.05E-01 6.59E-01 5.81E-01 2.88E-01 2.20E-03 2.90E+00 9.97E-03 2.94E-01 3.56E-01 4.47E-01 6.515E+00
1.080E-05 5.73E-01 4.04E-01 6.58E-01 5.82E-01 3.88E-01 2.93E-03 3.18E+00 1.15E-02 3.47E-01 3.54E-01 4.47E-01 6.947E+00
1.050E-05 5.68E-01 4.03E-01 6.57E-01 5.84E-01 5.17E-01 3.80E-03 3.53E+00 1.35E-02 4.20E-01 3.52E-01 4.48E-01 7.494E+00
1.030E-05 5.64E-01 4.02E-01 6.55E-01 5.84E-01 6.17E-01 4.35E-03 3.86E+00 1.50E-02 4.83E-01 3.51E-01 4.49E-01 7.983E+00
1.000E-05 5.59E-01 4.00E-01 6.53E-01 5.86E-01 7.57E-01 5.31E-03 4.33E+00 1.72E-02 6.02E-01 3.49E-01 4.49E-01 8.706E+00
9.750E-06 5.54E-01 3.99E-01 6.51E-01 5.87E-01 9.19E-01 6.59E-03 4.71E+00 1.91E-02 7.22E-01 3.48E-01 4.49E-01 9.361E+00
9.500E-06 5.48E-01 3.97E-01 6.48E-01 5.89E-01 1.11E+00 7.80E-03 5.11E+00 2.13E-02 8.46E-01 3.48E-01 4.49E-01 1.007E+01
9.250E-06 5.43E-01 3.95E-01 6.45E-01 5.91E-01 1.25E+00 8.71E-03 5.52E+00 2.34E-02 9.36E-01 3.47E-01 4.48E-01 1.071E+01
9.080E-06 5.39E-01 3.93E-01 6.40E-01 5.90E-01 1.33E+00 9.36E-03 5.76E+00 2.45E-02 9.56E-01 3.47E-01 4.47E-01 1.104E+01
