 # wel [cm]    sig* [cm^2/g dust ISM]
 # wel         sigp_aC     sigp_Si      sigp_dark    sigt
 #----------------------------------------------------------------------------------------
   1.000E+00   5.024E-04   5.836E-04   0.000E+00   3.725E-06
   9.000E-01   5.885E-04   6.890E-04   0.000E+00   4.346E-06
   8.000E-01   7.030E-04   8.300E-04   0.000E+00   5.168E-06
   7.000E-01   8.609E-04   1.025E-03   0.000E+00   6.288E-06
   6.000E-01   1.089E-03   1.310E-03   0.000E+00   7.901E-06
   5.500E-01   1.245E-03   1.505E-03   0.000E+00   8.994E-06
   5.000E-01   1.443E-03   1.753E-03   0.000E+00   1.036E-05
   4.500E-01   1.699E-03   2.075E-03   0.000E+00   1.214E-05
   4.000E-01   2.043E-03   2.507E-03   0.000E+00   1.448E-05
   3.500E-01   2.520E-03   3.109E-03   0.000E+00   1.774E-05
   3.000E-01   3.218E-03   3.988E-03   0.000E+00   2.240E-05
   2.500E-01   4.310E-03   5.359E-03   0.000E+00   2.963E-05
   2.098E-01   5.725E-03   7.125E-03   0.000E+00   3.884E-05
   1.500E-01   9.954E-03   1.233E-02   0.000E+00   6.566E-05
   1.382E-01   1.142E-02   1.410E-02   0.000E+00   7.479E-05
   1.320E-01   1.233E-02   1.520E-02   0.000E+00   8.045E-05
   1.150E-01   1.558E-02   1.908E-02   0.000E+00   1.003E-04
   1.000E-01   1.981E-02   2.399E-02   0.000E+00   1.257E-04
   9.970E-02   1.992E-02   2.411E-02   0.000E+00   1.263E-04
   8.670E-02   2.508E-02   3.042E-02   0.000E+00   1.575E-04
   8.500E-02   2.597E-02   3.144E-02   0.000E+00   1.629E-04
   7.500E-02   3.296E-02   3.868E-02   0.000E+00   2.032E-04
   6.000E-02   4.847E-02   5.595E-02   0.000E+00   2.899E-04
   5.500E-02   5.616E-02   6.278E-02   0.000E+00   3.339E-04
   5.000E-02   6.685E-02   7.804E-02   0.000E+00   3.972E-04
   4.500E-02   8.239E-02   1.037E-01   0.000E+00   4.886E-04
   4.000E-02   1.059E-01   1.391E-01   0.000E+00   6.180E-04
   3.500E-02   1.327E-01   2.123E-01   0.000E+00   7.811E-04
   3.000E-02   1.875E-01   3.316E-01   0.000E+00   1.089E-03
   2.750E-02   2.239E-01   4.171E-01   0.000E+00   1.288E-03
   2.500E-02   2.697E-01   5.306E-01   0.000E+00   1.556E-03
   2.400E-02   2.963E-01   5.869E-01   0.000E+00   1.682E-03
   2.000E-02   4.342E-01   9.048E-01   0.000E+00   2.407E-03
   1.800E-02   5.418E-01   1.113E+00   0.000E+00   2.959E-03
   1.600E-02   7.215E-01   1.368E+00   0.000E+00   3.727E-03
   1.500E-02   8.613E-01   1.524E+00   0.000E+00   4.230E-03
   1.400E-02   9.801E-01   1.697E+00   0.000E+00   4.724E-03
   1.200E-02   1.502E+00   2.122E+00   0.000E+00   6.354E-03
   1.000E-02   2.285E+00   2.730E+00   0.000E+00   8.718E-03
   9.000E-03   3.051E+00   3.068E+00   0.000E+00   1.060E-02
   8.000E-03   4.025E+00   3.532E+00   0.000E+00   1.271E-02
   7.500E-03   4.717E+00   3.894E+00   0.000E+00   1.439E-02
   7.000E-03   5.678E+00   4.340E+00   0.000E+00   1.631E-02
   6.000E-03   8.062E+00   5.493E+00   0.000E+00   2.137E-02
   5.000E-03   1.120E+01   7.618E+00   0.000E+00   2.918E-02
   4.500E-03   1.347E+01   9.098E+00   0.000E+00   3.517E-02
   4.000E-03   1.550E+01   1.075E+01   0.000E+00   4.268E-02
   3.500E-03   1.806E+01   1.245E+01   0.000E+00   5.299E-02
   3.000E-03   2.103E+01   1.373E+01   0.000E+00   6.763E-02
   2.750E-03   2.219E+01   1.406E+01   0.000E+00   7.685E-02
   2.500E-03   2.292E+01   1.421E+01   0.000E+00   8.801E-02
   2.400E-03   2.341E+01   1.423E+01   0.000E+00   9.333E-02
   2.350E-03   2.369E+01   1.425E+01   0.000E+00   9.635E-02
   2.320E-03   2.382E+01   1.426E+01   0.000E+00   9.814E-02
   2.310E-03   2.386E+01   1.427E+01   0.000E+00   9.874E-02
   2.300E-03   2.391E+01   1.427E+01   0.000E+00   9.935E-02
   2.250E-03   2.405E+01   1.431E+01   0.000E+00   1.027E-01
   2.200E-03   2.419E+01   1.434E+01   0.000E+00   1.062E-01
   2.150E-03   2.443E+01   1.433E+01   0.000E+00   1.098E-01
   2.120E-03   2.456E+01   1.426E+01   0.000E+00   1.121E-01
   2.110E-03   2.459E+01   1.424E+01   0.000E+00   1.128E-01
   2.100E-03   2.459E+01   1.421E+01   0.000E+00   1.136E-01
   2.080E-03   2.456E+01   1.411E+01   0.000E+00   1.150E-01
   2.000E-03   2.455E+01   1.368E+01   0.000E+00   1.210E-01
   1.950E-03   2.470E+01   1.320E+01   0.000E+00   1.246E-01
   1.900E-03   2.501E+01   1.256E+01   0.000E+00   1.275E-01
   1.850E-03   2.531E+01   1.174E+01   0.000E+00   1.290E-01
   1.830E-03   2.544E+01   1.137E+01   0.000E+00   1.292E-01
   1.820E-03   2.546E+01   1.117E+01   0.000E+00   1.292E-01
   1.810E-03   2.550E+01   1.096E+01   0.000E+00   1.291E-01
   1.800E-03   2.556E+01   1.076E+01   0.000E+00   1.289E-01
   1.750E-03   2.584E+01   9.612E+00   0.000E+00   1.275E-01
   1.700E-03   2.588E+01   8.383E+00   0.000E+00   1.244E-01
   1.670E-03   2.615E+01   7.642E+00   0.000E+00   1.225E-01
   1.650E-03   2.641E+01   7.156E+00   0.000E+00   1.211E-01
   1.640E-03   2.649E+01   6.920E+00   0.000E+00   1.204E-01
   1.630E-03   2.657E+01   6.684E+00   0.000E+00   1.196E-01
   1.610E-03   2.668E+01   6.229E+00   0.000E+00   1.180E-01
   1.600E-03   2.675E+01   6.009E+00   0.000E+00   1.172E-01
   1.590E-03   2.683E+01   5.799E+00   0.000E+00   1.164E-01
   1.580E-03   2.689E+01   5.601E+00   0.000E+00   1.157E-01
   1.570E-03   2.689E+01   5.413E+00   0.000E+00   1.148E-01
   1.560E-03   2.701E+01   5.250E+00   0.000E+00   1.142E-01
   1.540E-03   2.723E+01   4.985E+00   0.000E+00   1.132E-01
   1.520E-03   2.724E+01   4.821E+00   0.000E+00   1.121E-01
   1.510E-03   2.724E+01   4.781E+00   0.000E+00   1.116E-01
   1.500E-03   2.720E+01   4.764E+00   0.000E+00   1.112E-01
   1.450E-03   2.736E+01   4.929E+00   0.000E+00   1.111E-01
   1.440E-03   2.743E+01   4.993E+00   0.000E+00   1.114E-01
   1.430E-03   2.748E+01   5.045E+00   0.000E+00   1.122E-01
   1.420E-03   2.753E+01   5.096E+00   0.000E+00   1.130E-01
   1.400E-03   2.770E+01   5.212E+00   0.000E+00   1.155E-01
   1.380E-03   2.782E+01   5.321E+00   0.000E+00   1.191E-01
   1.370E-03   2.788E+01   5.382E+00   0.000E+00   1.214E-01
   1.360E-03   2.798E+01   5.444E+00   0.000E+00   1.241E-01
   1.350E-03   2.810E+01   5.520E+00   0.000E+00   1.268E-01
   1.340E-03   2.821E+01   5.595E+00   0.000E+00   1.297E-01
   1.330E-03   2.827E+01   5.688E+00   0.000E+00   1.327E-01
   1.320E-03   2.837E+01   5.786E+00   0.000E+00   1.358E-01
   1.310E-03   2.837E+01   5.899E+00   0.000E+00   1.389E-01
   1.290E-03   2.827E+01   6.171E+00   0.000E+00   1.453E-01
   1.280E-03   2.826E+01   6.315E+00   0.000E+00   1.490E-01
   1.270E-03   2.832E+01   6.436E+00   0.000E+00   1.528E-01
   1.260E-03   2.837E+01   6.616E+00   0.000E+00   1.565E-01
   1.250E-03   2.837E+01   6.851E+00   0.000E+00   1.602E-01
   1.220E-03   2.880E+01   8.254E+00   0.000E+00   1.728E-01
   1.210E-03   2.881E+01   9.170E+00   0.000E+00   1.775E-01
   1.200E-03   2.881E+01   1.024E+01   0.000E+00   1.824E-01
   1.190E-03   2.901E+01   1.136E+01   0.000E+00   1.877E-01
   1.180E-03   2.910E+01   1.241E+01   0.000E+00   1.926E-01
   1.170E-03   2.917E+01   1.331E+01   0.000E+00   1.975E-01
   1.160E-03   2.926E+01   1.404E+01   0.000E+00   2.020E-01
   1.150E-03   2.924E+01   1.461E+01   0.000E+00   2.065E-01
   1.140E-03   2.918E+01   1.507E+01   0.000E+00   2.107E-01
   1.130E-03   2.917E+01   1.543E+01   0.000E+00   2.152E-01
   1.120E-03   2.917E+01   1.573E+01   0.000E+00   2.194E-01
   1.110E-03   2.914E+01   1.602E+01   0.000E+00   2.236E-01
   1.090E-03   2.920E+01   1.651E+01   0.000E+00   2.318E-01
   1.050E-03   2.960E+01   1.698E+01   0.000E+00   2.492E-01
   1.000E-03   3.026E+01   1.654E+01   0.000E+00   2.563E-01
   9.800E-04   3.056E+01   1.580E+01   0.000E+00   2.583E-01
   9.600E-04   3.082E+01   1.466E+01   0.000E+00   2.580E-01
   9.500E-04   3.105E+01   1.397E+01   0.000E+00   2.560E-01
   9.400E-04   3.105E+01   1.325E+01   0.000E+00   2.518E-01
   9.200E-04   3.118E+01   1.184E+01   0.000E+00   2.373E-01
   8.900E-04   3.162E+01   9.737E+00   0.000E+00   2.086E-01
   8.700E-04   3.148E+01   8.576E+00   0.000E+00   1.913E-01
   8.600E-04   3.168E+01   8.066E+00   0.000E+00   1.849E-01
   8.500E-04   3.167E+01   7.534E+00   0.000E+00   1.786E-01
   8.400E-04   3.191E+01   6.971E+00   0.000E+00   1.723E-01
   8.200E-04   3.172E+01   5.818E+00   0.000E+00   1.563E-01
   8.000E-04   3.187E+01   4.862E+00   0.000E+00   1.407E-01
   7.900E-04   3.206E+01   4.518E+00   0.000E+00   1.369E-01
   7.800E-04   3.194E+01   4.240E+00   0.000E+00   1.328E-01
   7.700E-04   3.183E+01   3.999E+00   0.000E+00   1.303E-01
   7.600E-04   3.174E+01   3.789E+00   0.000E+00   1.294E-01
   7.500E-04   3.164E+01   3.599E+00   0.000E+00   1.290E-01
   7.300E-04   3.183E+01   3.311E+00   0.000E+00   1.329E-01
   7.200E-04   3.172E+01   3.234E+00   0.000E+00   1.352E-01
   7.100E-04   3.167E+01   3.193E+00   0.000E+00   1.379E-01
   7.000E-04   3.187E+01   3.144E+00   0.000E+00   1.414E-01
   6.900E-04   3.168E+01   3.051E+00   0.000E+00   1.440E-01
   6.800E-04   3.105E+01   2.921E+00   0.000E+00   1.457E-01
   6.600E-04   3.139E+01   2.690E+00   0.000E+00   1.532E-01
   6.400E-04   3.231E+01   2.386E+00   0.000E+00   1.622E-01
   6.300E-04   3.277E+01   2.259E+00   0.000E+00   1.666E-01
   6.200E-04   3.270E+01   2.252E+00   0.000E+00   1.702E-01
   6.100E-04   3.290E+01   2.258E+00   0.000E+00   1.746E-01
   5.900E-04   3.388E+01   1.898E+00   0.000E+00   1.843E-01
   5.500E-04   3.160E+01   1.507E+00   0.000E+00   1.976E-01
   5.300E-04   3.196E+01   1.398E+00   0.000E+00   2.095E-01
   5.200E-04   3.197E+01   1.343E+00   0.000E+00   2.153E-01
   5.100E-04   3.229E+01   1.287E+00   0.000E+00   2.221E-01
   5.000E-04   3.260E+01   1.237E+00   0.000E+00   2.288E-01
   4.800E-04   3.289E+01   1.165E+00   0.000E+00   2.423E-01
   4.500E-04   3.366E+01   1.101E+00   0.000E+00   2.647E-01
   4.000E-04   3.479E+01   1.111E+00   0.000E+00   3.103E-01
   3.800E-04   3.557E+01   1.172E+00   0.000E+00   3.314E-01
   3.600E-04   3.648E+01   1.281E+00   0.000E+00   3.535E-01
   3.400E-04   3.809E+01   1.457E+00   0.000E+00   3.761E-01
   3.300E-04   3.794E+01   1.577E+00   0.000E+00   3.873E-01
   3.200E-04   3.830E+01   1.723E+00   0.000E+00   4.004E-01
   3.150E-04   3.877E+01   1.809E+00   0.000E+00   4.073E-01
   3.100E-04   3.921E+01   1.904E+00   0.000E+00   4.139E-01
   3.080E-04   3.935E+01   1.944E+00   0.000E+00   4.165E-01
   3.050E-04   3.952E+01   2.008E+00   0.000E+00   4.205E-01
   3.000E-04   3.987E+01   2.124E+00   0.000E+00   4.272E-01
   2.900E-04   4.084E+01   2.394E+00   0.000E+00   4.403E-01
   2.800E-04   4.132E+01   2.725E+00   0.000E+00   4.532E-01
   2.600E-04   4.339E+01   3.636E+00   0.000E+00   4.804E-01
   2.500E-04   4.494E+01   4.262E+00   0.000E+00   4.943E-01
   2.200E-04   5.174E+01   7.288E+00   0.000E+00   5.303E-01
   2.159E-04   5.271E+01   7.898E+00   0.000E+00   5.348E-01
   2.000E-04   5.837E+01   1.097E+01   0.000E+00   5.503E-01
   1.662E-04   7.688E+01   2.405E+01   0.000E+00   5.751E-01
   1.650E-04   7.779E+01   2.478E+01   0.000E+00   5.760E-01
   1.250E-04   1.324E+02   6.844E+01   0.000E+00   6.287E-01
   1.235E-04   1.356E+02   7.098E+01   0.000E+00   6.325E-01
   1.130E-04   1.600E+02   9.084E+01   0.000E+00   6.648E-01
   1.000E-04   1.953E+02   1.207E+02   0.000E+00   7.216E-01
   9.500E-05   2.084E+02   1.341E+02   0.000E+00   7.496E-01
   9.300E-05   2.134E+02   1.398E+02   0.000E+00   7.619E-01
   9.200E-05   2.157E+02   1.428E+02   0.000E+00   7.684E-01
   9.100E-05   2.180E+02   1.458E+02   0.000E+00   7.751E-01
   9.000E-05   2.203E+02   1.488E+02   0.000E+00   7.820E-01
   8.900E-05   2.225E+02   1.520E+02   0.000E+00   7.891E-01
   8.800E-05   2.246E+02   1.551E+02   0.000E+00   7.965E-01
   8.700E-05   2.267E+02   1.583E+02   0.000E+00   8.042E-01
   8.600E-05   2.288E+02   1.616E+02   0.000E+00   8.121E-01
   8.500E-05   2.309E+02   1.649E+02   0.000E+00   8.203E-01
   8.400E-05   2.329E+02   1.682E+02   0.000E+00   8.289E-01
   8.330E-05   2.343E+02   1.706E+02   0.000E+00   8.352E-01
   8.200E-05   2.368E+02   1.751E+02   0.000E+00   8.472E-01
   8.100E-05   2.387E+02   1.786E+02   0.000E+00   8.568E-01
   8.000E-05   2.405E+02   1.822E+02   0.000E+00   8.669E-01
   7.900E-05   2.422E+02   1.858E+02   0.000E+00   8.775E-01
   7.800E-05   2.438E+02   1.895E+02   0.000E+00   8.884E-01
   7.700E-05   2.452E+02   1.932E+02   0.000E+00   8.996E-01
   7.600E-05   2.465E+02   1.969E+02   0.000E+00   9.113E-01
   7.500E-05   2.476E+02   2.007E+02   0.000E+00   9.234E-01
   7.400E-05   2.486E+02   2.044E+02   0.000E+00   9.357E-01
   7.300E-05   2.494E+02   2.081E+02   0.000E+00   9.484E-01
   7.140E-05   2.502E+02   2.139E+02   0.000E+00   9.695E-01
   7.100E-05   2.504E+02   2.153E+02   0.000E+00   9.749E-01
   7.000E-05   2.507E+02   2.187E+02   0.000E+00   9.885E-01
   6.900E-05   2.508E+02   2.220E+02   0.000E+00   1.002E+00
   6.800E-05   2.508E+02   2.251E+02   0.000E+00   1.017E+00
   6.700E-05   2.506E+02   2.281E+02   0.000E+00   1.031E+00
   6.600E-05   2.502E+02   2.311E+02   0.000E+00   1.046E+00
   6.500E-05   2.496E+02   2.340E+02   0.000E+00   1.062E+00
   6.400E-05   2.487E+02   2.371E+02   0.000E+00   1.077E+00
   6.300E-05   2.476E+02   2.402E+02   0.000E+00   1.093E+00
   6.250E-05   2.469E+02   2.418E+02   0.000E+00   1.102E+00
   6.200E-05   2.461E+02   2.434E+02   0.000E+00   1.110E+00
   6.100E-05   2.443E+02   2.468E+02   0.000E+00   1.127E+00
   6.000E-05   2.422E+02   2.503E+02   0.000E+00   1.144E+00
   5.900E-05   2.396E+02   2.539E+02   0.000E+00   1.162E+00
   5.800E-05   2.366E+02   2.574E+02   0.000E+00   1.181E+00
   5.700E-05   2.331E+02   2.608E+02   0.000E+00   1.199E+00
   5.600E-05   2.292E+02   2.641E+02   0.000E+00   1.219E+00
   5.500E-05   2.250E+02   2.674E+02   0.000E+00   1.238E+00
   5.477E-05   2.239E+02   2.681E+02   0.000E+00   1.244E+00
   5.400E-05   2.203E+02   2.707E+02   0.000E+00   1.259E+00
   5.300E-05   2.153E+02   2.741E+02   0.000E+00   1.280E+00
   5.200E-05   2.099E+02   2.776E+02   0.000E+00   1.300E+00
   5.100E-05   2.042E+02   2.809E+02   0.000E+00   1.321E+00
   5.000E-05   1.982E+02   2.837E+02   0.000E+00   1.342E+00
   4.900E-05   1.920E+02   2.856E+02   0.000E+00   1.363E+00
   4.880E-05   1.908E+02   2.858E+02   0.000E+00   1.367E+00
   4.800E-05   1.856E+02   2.866E+02   0.000E+00   1.384E+00
   4.760E-05   1.829E+02   2.869E+02   0.000E+00   1.393E+00
   4.700E-05   1.789E+02   2.871E+02   0.000E+00   1.406E+00
   4.650E-05   1.755E+02   2.874E+02   0.000E+00   1.417E+00
   4.600E-05   1.720E+02   2.877E+02   0.000E+00   1.428E+00
   4.550E-05   1.684E+02   2.883E+02   0.000E+00   1.439E+00
   4.500E-05   1.648E+02   2.890E+02   0.000E+00   1.450E+00
   4.440E-05   1.604E+02   2.899E+02   0.000E+00   1.464E+00
   4.350E-05   1.537E+02   2.912E+02   0.000E+00   1.484E+00
   4.170E-05   1.398E+02   2.919E+02   0.000E+00   1.525E+00
   4.000E-05   1.264E+02   2.908E+02   0.000E+00   1.563E+00
   3.850E-05   1.143E+02   2.883E+02   0.000E+00   1.596E+00
   3.656E-05   9.868E+01   2.806E+02   0.000E+00   1.637E+00
   3.570E-05   9.182E+01   2.773E+02   0.000E+00   1.655E+00
   3.330E-05   7.332E+01   2.674E+02   0.000E+00   1.702E+00
   3.130E-05   5.878E+01   2.501E+02   0.000E+00   1.741E+00
   3.000E-05   4.979E+01   2.407E+02   0.000E+00   1.768E+00
   2.940E-05   4.580E+01   2.340E+02   0.000E+00   1.781E+00
   2.780E-05   3.517E+01   2.181E+02   0.000E+00   1.824E+00
   2.630E-05   2.641E+01   2.006E+02   0.000E+00   1.891E+00
   2.500E-05   1.975E+01   1.897E+02   0.000E+00   2.004E+00
   2.380E-05   1.378E+01   1.745E+02   0.000E+00   2.220E+00
   2.270E-05   9.292E+00   1.584E+02   0.000E+00   2.478E+00
   2.170E-05   7.079E+00   1.461E+02   0.000E+00   2.602E+00
   2.080E-05   5.903E+00   1.469E+02   0.000E+00   2.537E+00
   2.000E-05   5.489E+00   1.276E+02   0.000E+00   2.379E+00
   1.920E-05   5.359E+00   1.061E+02   0.000E+00   2.199E+00
   1.850E-05   5.428E+00   9.428E+01   0.000E+00   2.079E+00
   1.790E-05   5.938E+00   8.466E+01   0.000E+00   2.004E+00
   1.720E-05   6.831E+00   7.557E+01   0.000E+00   1.961E+00
   1.670E-05   7.775E+00   6.833E+01   0.000E+00   1.949E+00
   1.610E-05   9.549E+00   5.849E+01   0.000E+00   1.968E+00
   1.560E-05   1.122E+01   4.900E+01   0.000E+00   2.012E+00
   1.520E-05   1.263E+01   4.007E+01   0.000E+00   2.069E+00
   1.470E-05   1.453E+01   2.818E+01   0.000E+00   2.159E+00
   1.430E-05   1.615E+01   1.928E+01   0.000E+00   2.242E+00
   1.390E-05   1.769E+01   1.470E+01   0.000E+00   2.309E+00
   1.350E-05   1.896E+01   1.249E+01   0.000E+00   2.375E+00
   1.320E-05   1.979E+01   1.217E+01   0.000E+00   2.430E+00
   1.280E-05   2.088E+01   1.269E+01   0.000E+00   2.516E+00
   1.250E-05   2.178E+01   1.236E+01   0.000E+00   2.593E+00
   1.220E-05   2.273E+01   1.230E+01   0.000E+00   2.685E+00
   1.190E-05   2.367E+01   1.329E+01   0.000E+00   2.793E+00
   1.160E-05   2.451E+01   1.478E+01   0.000E+00   2.914E+00
   1.140E-05   2.501E+01   1.660E+01   0.000E+00   3.007E+00
   1.110E-05   2.563E+01   1.992E+01   0.000E+00   3.161E+00
   1.080E-05   2.611E+01   2.391E+01   0.000E+00   3.402E+00
   1.050E-05   2.645E+01   2.779E+01   0.000E+00   3.707E+00
   1.030E-05   2.659E+01   3.042E+01   0.000E+00   3.972E+00
   1.000E-05   2.666E+01   3.422E+01   0.000E+00   4.354E+00
   9.750E-06   2.661E+01   3.747E+01   0.000E+00   4.715E+00
   9.500E-06   2.646E+01   4.059E+01   0.000E+00   5.112E+00
   9.250E-06   2.621E+01   4.357E+01   0.000E+00   5.461E+00
   9.080E-06   2.598E+01   3.812E+01   0.000E+00   5.651E+00
