  abuc    abusi    avsi   avgr    apah     qmrn  rlec      rlesi     r_pmin_aC r_pmin_Si r_pmax    r_Darkmax 
  17.485  15.000   7.050  10.331   5.800   2.194 2.113e-05 2.219e-05 1.200e-05 8.000e-06 1.500e-04 1.562e-04 4.549e+00 8.121e-01
   1.9371   0.0000   0.3424   1.3940   1.2375   0.1053  0.0000e+00  0.0000e+00  0.0000e+00  0.0000e+00
  -0.0000   0.1619
   redchi2, redchi2p   0.6878 999.0000
   Mean Rad aC, Si, , aCalig, Sia  1.02e-05  1.07e-05  1.68e-05  1.52e-05  8.68e-05
