 # Optical depth:  wel [cm]  N*sig* [cm^2/cm^2/g dust ISM] 
 # wel(cm) sa_aC    ss_aC    sa_Si    ss_Si    sa_vgr   ss_vgr   sa_vsi   ss_vsi   s_pahS+B sa_Dark  ss_Dark sigt 
 # ------------------------------------------------------------------------------------------------------------- 
1.000E+00 1.79E-08 7.05E-18 2.80E-07 6.46E-17 6.26E-09 6.33E-23 4.10E-08 7.40E-23 7.29E-12 5.32E-06 9.40E-13 5.665E-06
9.000E-01 2.10E-08 1.07E-17 3.30E-07 9.84E-17 7.99E-09 9.65E-23 4.87E-08 1.13E-22 9.00E-12 6.20E-06 1.43E-12 6.605E-06
8.000E-01 2.50E-08 1.72E-17 3.98E-07 1.58E-16 1.04E-08 1.55E-22 5.93E-08 1.80E-22 1.14E-11 7.35E-06 2.29E-12 7.847E-06
7.000E-01 3.07E-08 2.93E-17 4.91E-07 2.69E-16 1.40E-08 2.64E-22 7.30E-08 3.08E-22 1.49E-11 8.93E-06 3.90E-12 9.539E-06
6.000E-01 3.88E-08 5.43E-17 6.28E-07 4.98E-16 1.94E-08 4.89E-22 9.38E-08 5.70E-22 2.03E-11 1.12E-05 7.22E-12 1.197E-05
5.500E-01 4.44E-08 7.69E-17 7.21E-07 7.06E-16 2.32E-08 6.92E-22 1.08E-07 8.07E-22 2.41E-11 1.27E-05 1.02E-11 1.362E-05
5.000E-01 5.14E-08 1.13E-16 8.40E-07 1.03E-15 2.82E-08 1.01E-21 1.25E-07 1.18E-21 2.92E-11 1.46E-05 1.49E-11 1.568E-05
4.500E-01 6.06E-08 1.72E-16 9.95E-07 1.57E-15 3.47E-08 1.54E-21 1.49E-07 1.80E-21 3.60E-11 1.71E-05 2.28E-11 1.836E-05
4.000E-01 7.28E-08 2.75E-16 1.20E-06 2.52E-15 4.34E-08 2.47E-21 1.80E-07 2.88E-21 4.56E-11 2.04E-05 3.64E-11 2.189E-05
3.500E-01 8.98E-08 4.68E-16 1.49E-06 4.30E-15 5.56E-08 4.22E-21 2.25E-07 4.92E-21 5.95E-11 2.49E-05 6.20E-11 2.677E-05
3.000E-01 1.15E-07 8.67E-16 1.91E-06 7.97E-15 7.33E-08 7.82E-21 2.85E-07 9.10E-21 8.10E-11 3.14E-05 1.15E-10 3.378E-05
2.500E-01 1.54E-07 1.80E-15 2.57E-06 1.65E-14 1.00E-07 1.62E-20 3.83E-07 1.89E-20 1.17E-10 4.14E-05 2.37E-10 4.462E-05
2.098E-01 2.04E-07 3.62E-15 3.41E-06 3.33E-14 1.33E-07 3.27E-20 5.10E-07 3.80E-20 1.66E-10 5.42E-05 4.77E-10 5.844E-05
1.500E-01 3.55E-07 1.38E-14 5.91E-06 1.28E-13 2.54E-07 1.25E-19 8.73E-07 1.45E-19 3.24E-10 9.12E-05 1.82E-09 9.860E-05
1.382E-01 4.07E-07 1.92E-14 6.76E-06 1.77E-13 2.99E-07 1.74E-19 1.00E-06 2.02E-19 3.82E-10 1.04E-04 2.52E-09 1.123E-04
1.320E-01 4.40E-07 2.31E-14 7.29E-06 2.13E-13 3.27E-07 2.09E-19 1.08E-06 2.42E-19 4.19E-10 1.12E-04 3.03E-09 1.207E-04
1.150E-01 5.56E-07 4.00E-14 9.14E-06 3.69E-13 4.29E-07 3.62E-19 1.34E-06 4.20E-19 5.52E-10 1.39E-04 5.24E-09 1.504E-04
1.000E-01 7.07E-07 7.00E-14 1.15E-05 6.46E-13 5.64E-07 6.33E-19 1.68E-06 7.35E-19 7.29E-10 1.74E-04 9.15E-09 1.884E-04
9.970E-02 7.11E-07 7.09E-14 1.16E-05 6.54E-13 5.67E-07 6.41E-19 1.69E-06 7.43E-19 7.34E-10 1.75E-04 9.26E-09 1.894E-04
8.670E-02 8.95E-07 1.24E-13 1.46E-05 1.14E-12 7.50E-07 1.12E-18 2.12E-06 1.30E-18 9.70E-10 2.18E-04 1.62E-08 2.359E-04
8.500E-02 9.28E-07 1.34E-13 1.51E-05 1.24E-12 7.79E-07 1.21E-18 2.19E-06 1.41E-18 1.01E-09 2.25E-04 1.75E-08 2.440E-04
7.500E-02 1.18E-06 2.21E-13 1.85E-05 2.04E-12 9.91E-07 2.00E-18 2.67E-06 2.32E-18 1.30E-09 2.81E-04 2.88E-08 3.045E-04
6.000E-02 1.73E-06 5.40E-13 2.67E-05 5.02E-12 1.52E-06 4.88E-18 3.87E-06 5.66E-18 2.03E-09 4.00E-04 7.00E-08 4.340E-04
5.500E-02 2.01E-06 7.65E-13 2.99E-05 7.13E-12 1.79E-06 6.91E-18 4.52E-06 8.03E-18 2.41E-09 4.62E-04 9.91E-08 5.003E-04
5.000E-02 2.39E-06 1.12E-12 3.71E-05 1.05E-11 2.14E-06 1.01E-17 5.38E-06 1.18E-17 2.92E-09 5.48E-04 1.45E-07 5.949E-04
4.500E-02 2.94E-06 1.71E-12 4.91E-05 1.61E-11 2.61E-06 1.54E-17 6.58E-06 1.79E-17 3.60E-09 6.69E-04 2.21E-07 7.305E-04
4.000E-02 3.78E-06 2.74E-12 6.56E-05 2.61E-11 3.26E-06 2.47E-17 8.31E-06 2.88E-17 4.56E-09 8.41E-04 3.53E-07 9.226E-04
3.500E-02 4.74E-06 4.68E-12 9.98E-05 4.49E-11 4.18E-06 4.21E-17 1.10E-05 4.91E-17 5.96E-09 1.04E-03 6.01E-07 1.158E-03
3.000E-02 6.69E-06 8.71E-12 1.56E-04 8.37E-11 5.56E-06 7.81E-17 1.54E-05 9.12E-17 8.12E-09 1.42E-03 1.11E-06 1.609E-03
2.750E-02 7.98E-06 1.23E-11 1.96E-04 1.19E-10 6.56E-06 1.11E-16 1.89E-05 1.29E-16 9.66E-09 1.67E-03 1.57E-06 1.897E-03
2.500E-02 9.60E-06 1.81E-11 2.49E-04 1.73E-10 7.83E-06 1.62E-16 2.36E-05 1.89E-16 1.17E-08 1.99E-03 2.29E-06 2.287E-03
2.400E-02 1.05E-05 2.13E-11 2.76E-04 2.04E-10 8.47E-06 1.91E-16 2.58E-05 2.23E-16 1.27E-08 2.15E-03 2.69E-06 2.469E-03
2.000E-02 1.54E-05 4.46E-11 4.30E-04 4.16E-10 1.20E-05 3.96E-16 3.74E-05 4.62E-16 1.83E-08 3.02E-03 5.56E-06 3.522E-03
1.800E-02 1.92E-05 6.84E-11 5.33E-04 6.24E-10 1.47E-05 6.04E-16 4.64E-05 7.04E-16 2.26E-08 3.71E-03 8.47E-06 4.334E-03
1.600E-02 2.55E-05 1.10E-10 6.63E-04 9.80E-10 1.87E-05 9.70E-16 5.92E-05 1.13E-15 2.87E-08 4.68E-03 1.35E-05 5.462E-03
1.500E-02 3.04E-05 1.44E-10 7.44E-04 1.25E-09 2.12E-05 1.26E-15 6.71E-05 1.46E-15 3.26E-08 5.32E-03 1.74E-05 6.199E-03
1.400E-02 3.46E-05 1.89E-10 8.35E-04 1.63E-09 2.45E-05 1.66E-15 7.75E-05 1.93E-15 3.75E-08 5.93E-03 2.28E-05 6.925E-03
1.200E-02 5.28E-05 3.55E-10 1.06E-03 2.92E-09 3.41E-05 3.09E-15 1.06E-04 3.57E-15 5.12E-08 8.02E-03 4.16E-05 9.318E-03
1.000E-02 8.01E-05 7.45E-10 1.41E-03 5.78E-09 5.16E-05 6.45E-15 1.55E-04 7.42E-15 7.41E-08 1.10E-02 8.53E-05 1.282E-02
9.000E-03 1.07E-04 1.15E-09 1.60E-03 8.58E-09 6.63E-05 9.88E-15 1.94E-04 1.13E-14 9.19E-08 1.35E-02 1.29E-04 1.561E-02
8.000E-03 1.42E-04 1.81E-09 1.86E-03 1.36E-08 8.87E-05 1.60E-14 2.48E-04 1.81E-14 1.17E-07 1.62E-02 2.02E-04 1.869E-02
7.500E-03 1.66E-04 2.37E-09 2.06E-03 1.75E-08 1.05E-04 2.08E-14 2.85E-04 2.35E-14 1.34E-07 1.83E-02 2.61E-04 2.122E-02
7.000E-03 2.00E-04 3.11E-09 2.31E-03 2.29E-08 1.26E-04 2.75E-14 3.30E-04 3.10E-14 1.54E-07 2.07E-02 3.40E-04 2.402E-02
6.000E-03 2.87E-04 5.64E-09 2.96E-03 4.18E-08 1.94E-04 5.18E-14 4.60E-04 5.74E-14 2.13E-07 2.71E-02 6.16E-04 3.159E-02
5.000E-03 4.10E-04 1.10E-08 4.21E-03 8.50E-08 3.39E-04 1.10E-13 6.77E-04 1.18E-13 3.14E-07 3.67E-02 1.24E-03 4.354E-02
4.500E-03 5.04E-04 1.60E-08 5.14E-03 1.27E-07 4.80E-04 1.70E-13 8.46E-04 1.79E-13 3.95E-07 4.40E-02 1.85E-03 5.286E-02
4.000E-03 6.00E-04 2.38E-08 6.42E-03 1.90E-07 7.03E-04 2.70E-13 1.08E-03 2.84E-13 5.15E-07 5.34E-02 2.89E-03 6.505E-02
3.500E-03 7.25E-04 3.76E-08 7.91E-03 3.00E-07 9.76E-04 4.32E-13 1.41E-03 4.79E-13 7.10E-07 6.68E-02 4.78E-03 8.261E-02
3.000E-03 8.95E-04 6.22E-08 9.74E-03 4.82E-07 1.03E-03 6.76E-13 1.93E-03 8.75E-13 1.08E-06 8.68E-02 8.38E-03 1.087E-01
2.750E-03 9.81E-04 8.15E-08 1.07E-02 6.21E-07 8.88E-04 8.71E-13 2.31E-03 1.22E-12 1.46E-06 9.98E-02 1.13E-02 1.259E-01
2.500E-03 1.06E-03 1.09E-07 1.17E-02 8.13E-07 6.99E-04 1.20E-12 2.84E-03 1.76E-12 2.42E-06 1.15E-01 1.55E-02 1.469E-01
2.400E-03 1.10E-03 1.24E-07 1.21E-02 9.13E-07 6.27E-04 1.39E-12 3.10E-03 2.04E-12 3.39E-06 1.22E-01 1.75E-02 1.566E-01
2.350E-03 1.12E-03 1.33E-07 1.23E-02 9.69E-07 5.93E-04 1.51E-12 3.24E-03 2.20E-12 4.01E-06 1.26E-01 1.86E-02 1.619E-01
2.320E-03 1.13E-03 1.38E-07 1.25E-02 1.00E-06 5.74E-04 1.58E-12 3.33E-03 2.31E-12 4.32E-06 1.28E-01 1.93E-02 1.651E-01
2.310E-03 1.14E-03 1.40E-07 1.25E-02 1.02E-06 5.67E-04 1.61E-12 3.36E-03 2.34E-12 4.40E-06 1.29E-01 1.96E-02 1.661E-01
2.300E-03 1.14E-03 1.42E-07 1.26E-02 1.03E-06 5.61E-04 1.63E-12 3.39E-03 2.38E-12 4.46E-06 1.30E-01 1.98E-02 1.672E-01
2.250E-03 1.16E-03 1.51E-07 1.28E-02 1.10E-06 5.30E-04 1.78E-12 3.56E-03 2.59E-12 4.65E-06 1.34E-01 2.11E-02 1.729E-01
2.200E-03 1.18E-03 1.62E-07 1.32E-02 1.17E-06 5.02E-04 1.95E-12 3.76E-03 2.80E-12 4.88E-06 1.38E-01 2.23E-02 1.787E-01
2.150E-03 1.20E-03 1.74E-07 1.35E-02 1.24E-06 4.76E-04 2.13E-12 3.94E-03 3.02E-12 5.33E-06 1.42E-01 2.36E-02 1.844E-01
2.120E-03 1.22E-03 1.82E-07 1.37E-02 1.28E-06 4.61E-04 2.25E-12 4.07E-03 3.17E-12 5.56E-06 1.44E-01 2.44E-02 1.880E-01
2.110E-03 1.22E-03 1.85E-07 1.38E-02 1.30E-06 4.57E-04 2.30E-12 4.11E-03 3.22E-12 5.59E-06 1.45E-01 2.47E-02 1.891E-01
2.100E-03 1.23E-03 1.87E-07 1.38E-02 1.31E-06 4.52E-04 2.34E-12 4.16E-03 3.28E-12 5.60E-06 1.46E-01 2.49E-02 1.903E-01
2.080E-03 1.23E-03 1.92E-07 1.39E-02 1.34E-06 4.43E-04 2.43E-12 4.25E-03 3.38E-12 5.56E-06 1.47E-01 2.54E-02 1.923E-01
2.000E-03 1.25E-03 2.17E-07 1.44E-02 1.45E-06 4.11E-04 2.85E-12 4.66E-03 3.84E-12 5.29E-06 1.53E-01 2.76E-02 2.014E-01
1.950E-03 1.27E-03 2.35E-07 1.46E-02 1.50E-06 3.93E-04 3.16E-12 4.93E-03 4.06E-12 5.70E-06 1.56E-01 2.86E-02 2.057E-01
1.900E-03 1.30E-03 2.56E-07 1.47E-02 1.54E-06 3.78E-04 3.51E-12 5.14E-03 4.25E-12 6.89E-06 1.58E-01 2.94E-02 2.089E-01
1.850E-03 1.32E-03 2.80E-07 1.46E-02 1.56E-06 3.64E-04 3.91E-12 5.25E-03 4.37E-12 8.88E-06 1.59E-01 3.00E-02 2.101E-01
1.830E-03 1.34E-03 2.90E-07 1.45E-02 1.56E-06 3.58E-04 4.09E-12 5.27E-03 4.39E-12 9.58E-06 1.58E-01 3.01E-02 2.100E-01
1.820E-03 1.34E-03 2.95E-07 1.44E-02 1.56E-06 3.56E-04 4.18E-12 5.27E-03 4.40E-12 9.81E-06 1.58E-01 3.02E-02 2.097E-01
1.810E-03 1.35E-03 3.00E-07 1.43E-02 1.55E-06 3.54E-04 4.28E-12 5.26E-03 4.41E-12 9.96E-06 1.58E-01 3.03E-02 2.095E-01
1.800E-03 1.35E-03 3.06E-07 1.43E-02 1.55E-06 3.51E-04 4.38E-12 5.24E-03 4.42E-12 1.00E-05 1.58E-01 3.05E-02 2.092E-01
1.750E-03 1.38E-03 3.35E-07 1.36E-02 1.51E-06 3.41E-04 4.91E-12 5.11E-03 4.44E-12 1.03E-05 1.55E-01 3.11E-02 2.069E-01
1.700E-03 1.40E-03 3.66E-07 1.26E-02 1.45E-06 3.33E-04 5.53E-12 4.86E-03 4.47E-12 1.25E-05 1.52E-01 3.20E-02 2.032E-01
1.670E-03 1.42E-03 3.90E-07 1.18E-02 1.41E-06 3.29E-04 5.94E-12 4.68E-03 4.52E-12 1.48E-05 1.50E-01 3.28E-02 2.014E-01
1.650E-03 1.44E-03 4.07E-07 1.12E-02 1.38E-06 3.27E-04 6.24E-12 4.53E-03 4.58E-12 1.56E-05 1.49E-01 3.35E-02 2.002E-01
1.640E-03 1.45E-03 4.15E-07 1.09E-02 1.38E-06 3.26E-04 6.40E-12 4.46E-03 4.61E-12 1.56E-05 1.49E-01 3.38E-02 1.995E-01
1.630E-03 1.46E-03 4.24E-07 1.06E-02 1.37E-06 3.25E-04 6.56E-12 4.39E-03 4.64E-12 1.53E-05 1.48E-01 3.41E-02 1.988E-01
1.610E-03 1.47E-03 4.40E-07 9.83E-03 1.36E-06 3.23E-04 6.90E-12 4.24E-03 4.76E-12 1.43E-05 1.47E-01 3.50E-02 1.976E-01
1.600E-03 1.48E-03 4.49E-07 9.44E-03 1.37E-06 3.22E-04 7.08E-12 4.16E-03 4.82E-12 1.38E-05 1.46E-01 3.55E-02 1.971E-01
1.590E-03 1.49E-03 4.59E-07 9.06E-03 1.38E-06 3.22E-04 7.26E-12 4.09E-03 4.89E-12 1.35E-05 1.46E-01 3.60E-02 1.966E-01
1.580E-03 1.49E-03 4.68E-07 8.67E-03 1.40E-06 3.21E-04 7.45E-12 4.01E-03 4.98E-12 1.32E-05 1.45E-01 3.66E-02 1.963E-01
1.570E-03 1.50E-03 4.77E-07 8.28E-03 1.42E-06 3.21E-04 7.64E-12 3.94E-03 5.07E-12 1.30E-05 1.45E-01 3.72E-02 1.958E-01
1.560E-03 1.51E-03 4.88E-07 7.91E-03 1.46E-06 3.20E-04 7.85E-12 3.87E-03 5.17E-12 1.27E-05 1.44E-01 3.79E-02 1.957E-01
1.540E-03 1.53E-03 5.08E-07 7.26E-03 1.57E-06 3.20E-04 8.27E-12 3.72E-03 5.42E-12 1.25E-05 1.44E-01 3.93E-02 1.958E-01
1.520E-03 1.54E-03 5.28E-07 6.75E-03 1.72E-06 3.19E-04 8.72E-12 3.59E-03 5.72E-12 1.31E-05 1.43E-01 4.09E-02 1.961E-01
1.510E-03 1.55E-03 5.38E-07 6.56E-03 1.81E-06 3.19E-04 8.96E-12 3.52E-03 5.88E-12 1.36E-05 1.43E-01 4.17E-02 1.963E-01
1.500E-03 1.55E-03 5.48E-07 6.41E-03 1.91E-06 3.19E-04 9.21E-12 3.46E-03 6.07E-12 1.37E-05 1.42E-01 4.26E-02 1.968E-01
1.450E-03 1.58E-03 6.12E-07 6.11E-03 2.48E-06 3.21E-04 1.06E-11 3.19E-03 7.34E-12 1.73E-05 1.43E-01 4.90E-02 2.033E-01
1.440E-03 1.58E-03 6.26E-07 6.11E-03 2.60E-06 3.22E-04 1.09E-11 3.14E-03 7.67E-12 1.92E-05 1.44E-01 5.05E-02 2.053E-01
1.430E-03 1.59E-03 6.40E-07 6.10E-03 2.73E-06 3.23E-04 1.12E-11 3.13E-03 8.07E-12 2.08E-05 1.45E-01 5.22E-02 2.081E-01
1.420E-03 1.60E-03 6.55E-07 6.10E-03 2.86E-06 3.24E-04 1.15E-11 3.12E-03 8.49E-12 2.16E-05 1.46E-01 5.40E-02 2.110E-01
1.400E-03 1.61E-03 6.87E-07 6.10E-03 3.13E-06 3.25E-04 1.22E-11 3.14E-03 9.45E-12 2.36E-05 1.49E-01 5.78E-02 2.181E-01
1.380E-03 1.63E-03 7.19E-07 6.11E-03 3.43E-06 3.28E-04 1.29E-11 3.23E-03 1.06E-11 2.99E-05 1.53E-01 6.19E-02 2.264E-01
1.370E-03 1.64E-03 7.37E-07 6.12E-03 3.59E-06 3.29E-04 1.33E-11 3.32E-03 1.12E-11 3.55E-05 1.56E-01 6.38E-02 2.311E-01
1.360E-03 1.65E-03 7.56E-07 6.12E-03 3.76E-06 3.30E-04 1.37E-11 3.42E-03 1.18E-11 4.12E-05 1.59E-01 6.58E-02 2.361E-01
1.350E-03 1.66E-03 7.75E-07 6.15E-03 3.94E-06 3.32E-04 1.41E-11 3.51E-03 1.24E-11 4.41E-05 1.62E-01 6.78E-02 2.410E-01
1.340E-03 1.67E-03 7.94E-07 6.17E-03 4.13E-06 3.33E-04 1.46E-11 3.64E-03 1.31E-11 4.78E-05 1.64E-01 6.95E-02 2.457E-01
1.330E-03 1.68E-03 8.12E-07 6.21E-03 4.34E-06 3.35E-04 1.50E-11 3.76E-03 1.38E-11 5.55E-05 1.67E-01 7.11E-02 2.503E-01
1.320E-03 1.69E-03 8.32E-07 6.25E-03 4.55E-06 3.37E-04 1.55E-11 3.89E-03 1.45E-11 6.85E-05 1.70E-01 7.28E-02 2.550E-01
1.310E-03 1.70E-03 8.50E-07 6.30E-03 4.78E-06 3.39E-04 1.60E-11 4.03E-03 1.52E-11 8.98E-05 1.73E-01 7.43E-02 2.594E-01
1.290E-03 1.71E-03 8.88E-07 6.45E-03 5.29E-06 3.43E-04 1.70E-11 4.33E-03 1.67E-11 1.85E-04 1.78E-01 7.74E-02 2.682E-01
1.280E-03 1.71E-03 9.10E-07 6.54E-03 5.56E-06 3.45E-04 1.75E-11 4.51E-03 1.76E-11 2.72E-04 1.81E-01 7.88E-02 2.728E-01
1.270E-03 1.72E-03 9.34E-07 6.58E-03 5.86E-06 3.47E-04 1.81E-11 4.69E-03 1.84E-11 3.29E-04 1.84E-01 8.02E-02 2.774E-01
1.260E-03 1.73E-03 9.58E-07 6.67E-03 6.21E-06 3.49E-04 1.87E-11 4.88E-03 1.93E-11 2.84E-04 1.86E-01 8.14E-02 2.815E-01
1.250E-03 1.73E-03 9.83E-07 6.81E-03 6.58E-06 3.52E-04 1.93E-11 5.08E-03 2.02E-11 2.09E-04 1.89E-01 8.25E-02 2.854E-01
1.220E-03 1.77E-03 1.07E-06 7.74E-03 8.15E-06 3.59E-04 2.13E-11 5.70E-03 2.31E-11 1.63E-04 1.96E-01 8.57E-02 2.979E-01
1.210E-03 1.78E-03 1.10E-06 8.45E-03 8.77E-06 3.62E-04 2.20E-11 5.94E-03 2.42E-11 1.88E-04 1.99E-01 8.65E-02 3.020E-01
1.200E-03 1.78E-03 1.13E-06 9.32E-03 9.37E-06 3.65E-04 2.28E-11 6.20E-03 2.54E-11 2.08E-04 2.01E-01 8.72E-02 3.063E-01
1.190E-03 1.80E-03 1.16E-06 1.03E-02 9.91E-06 3.67E-04 2.36E-11 6.47E-03 2.66E-11 2.08E-04 2.04E-01 8.80E-02 3.108E-01
1.180E-03 1.81E-03 1.19E-06 1.13E-02 1.04E-05 3.70E-04 2.44E-11 6.75E-03 2.77E-11 2.07E-04 2.06E-01 8.82E-02 3.144E-01
1.170E-03 1.82E-03 1.23E-06 1.22E-02 1.08E-05 3.73E-04 2.53E-11 7.03E-03 2.88E-11 2.29E-04 2.08E-01 8.85E-02 3.180E-01
1.160E-03 1.84E-03 1.26E-06 1.30E-02 1.11E-05 3.78E-04 2.63E-11 7.30E-03 3.00E-11 2.96E-04 2.10E-01 8.88E-02 3.211E-01
1.150E-03 1.84E-03 1.29E-06 1.37E-02 1.14E-05 5.31E-04 2.60E-11 7.57E-03 3.13E-11 4.31E-04 2.11E-01 8.90E-02 3.242E-01
1.140E-03 1.85E-03 1.32E-06 1.43E-02 1.16E-05 3.94E-04 2.77E-11 7.87E-03 3.26E-11 6.49E-04 2.13E-01 8.93E-02 3.271E-01
1.130E-03 1.85E-03 1.36E-06 1.48E-02 1.19E-05 3.94E-04 2.88E-11 8.19E-03 3.41E-11 7.92E-04 2.15E-01 8.96E-02 3.302E-01
1.120E-03 1.86E-03 1.40E-06 1.53E-02 1.22E-05 3.96E-04 2.99E-11 8.54E-03 3.56E-11 6.38E-04 2.16E-01 8.97E-02 3.326E-01
1.110E-03 1.87E-03 1.44E-06 1.58E-02 1.24E-05 4.00E-04 3.10E-11 8.90E-03 3.71E-11 4.05E-04 2.18E-01 8.97E-02 3.348E-01
1.090E-03 1.88E-03 1.52E-06 1.68E-02 1.30E-05 4.08E-04 3.34E-11 9.66E-03 4.04E-11 1.68E-04 2.21E-01 8.95E-02 3.391E-01
1.050E-03 1.92E-03 1.74E-06 1.85E-02 1.40E-05 4.27E-04 3.89E-11 1.17E-02 4.79E-11 5.56E-05 2.26E-01 8.75E-02 3.461E-01
1.000E-03 1.99E-03 2.05E-06 2.03E-02 1.48E-05 4.55E-04 4.73E-11 1.35E-02 5.13E-11 2.79E-05 2.24E-01 8.05E-02 3.404E-01
9.800E-04 2.02E-03 2.20E-06 2.06E-02 1.48E-05 4.68E-04 5.13E-11 1.42E-02 5.28E-11 2.42E-05 2.23E-01 7.80E-02 3.378E-01
9.600E-04 2.05E-03 2.36E-06 2.05E-02 1.44E-05 4.82E-04 5.57E-11 1.48E-02 5.32E-11 2.24E-05 2.20E-01 7.43E-02 3.322E-01
9.500E-04 2.08E-03 2.44E-06 2.03E-02 1.41E-05 4.89E-04 5.81E-11 1.50E-02 5.21E-11 2.20E-05 2.18E-01 7.17E-02 3.273E-01
9.400E-04 2.09E-03 2.52E-06 1.99E-02 1.39E-05 4.96E-04 6.06E-11 1.49E-02 4.99E-11 2.21E-05 2.14E-01 6.86E-02 3.204E-01
9.200E-04 2.12E-03 2.69E-06 1.89E-02 1.33E-05 5.12E-04 6.61E-11 1.39E-02 4.15E-11 2.36E-05 2.04E-01 6.18E-02 3.017E-01
8.900E-04 2.17E-03 3.00E-06 1.68E-02 1.24E-05 5.39E-04 7.55E-11 1.10E-02 2.66E-11 3.45E-05 1.86E-01 5.38E-02 2.704E-01
8.700E-04 2.19E-03 3.21E-06 1.52E-02 1.22E-05 5.58E-04 8.27E-11 9.15E-03 1.97E-11 7.74E-05 1.75E-01 5.13E-02 2.535E-01
8.600E-04 2.21E-03 3.34E-06 1.44E-02 1.22E-05 5.68E-04 8.66E-11 8.40E-03 1.74E-11 1.17E-04 1.71E-01 5.09E-02 2.475E-01
8.500E-04 2.22E-03 3.46E-06 1.36E-02 1.22E-05 5.79E-04 9.07E-11 7.75E-03 1.55E-11 8.34E-05 1.67E-01 5.06E-02 2.415E-01
8.400E-04 2.24E-03 3.61E-06 1.27E-02 1.22E-05 5.90E-04 9.51E-11 7.07E-03 1.36E-11 5.98E-05 1.62E-01 5.03E-02 2.353E-01
8.200E-04 2.27E-03 3.85E-06 1.06E-02 1.25E-05 6.13E-04 1.05E-10 5.45E-03 9.76E-12 6.08E-05 1.51E-01 5.00E-02 2.200E-01
8.000E-04 2.29E-03 4.18E-06 8.53E-03 1.38E-05 6.37E-04 1.16E-10 3.73E-03 7.53E-12 8.91E-05 1.39E-01 5.32E-02 2.076E-01
7.900E-04 2.32E-03 4.35E-06 7.75E-03 1.48E-05 6.50E-04 1.21E-10 3.14E-03 8.10E-12 1.11E-04 1.36E-01 5.70E-02 2.070E-01
7.800E-04 2.33E-03 4.51E-06 7.10E-03 1.60E-05 6.63E-04 1.28E-10 2.55E-03 9.17E-12 1.33E-04 1.32E-01 6.13E-02 2.064E-01
7.700E-04 2.33E-03 4.68E-06 6.56E-03 1.74E-05 6.76E-04 1.35E-10 2.10E-03 1.09E-11 1.43E-04 1.30E-01 6.64E-02 2.079E-01
7.600E-04 2.34E-03 4.87E-06 6.08E-03 1.88E-05 6.90E-04 1.42E-10 1.78E-03 1.33E-11 1.33E-04 1.28E-01 7.22E-02 2.115E-01
7.500E-04 2.34E-03 5.07E-06 5.67E-03 2.05E-05 7.04E-04 1.49E-10 1.49E-03 1.62E-11 1.10E-04 1.27E-01 7.85E-02 2.159E-01
7.300E-04 2.37E-03 5.56E-06 5.02E-03 2.42E-05 7.35E-04 1.66E-10 1.25E-03 2.31E-11 6.79E-05 1.28E-01 9.12E-02 2.291E-01
7.200E-04 2.38E-03 5.78E-06 4.81E-03 2.63E-05 7.52E-04 1.76E-10 1.21E-03 2.67E-11 5.65E-05 1.29E-01 9.67E-02 2.352E-01
7.100E-04 2.38E-03 6.05E-06 4.68E-03 2.85E-05 7.69E-04 1.86E-10 1.18E-03 3.08E-11 5.53E-05 1.30E-01 1.03E-01 2.422E-01
7.000E-04 2.41E-03 6.35E-06 4.56E-03 3.07E-05 7.86E-04 1.97E-10 1.16E-03 3.48E-11 7.70E-05 1.32E-01 1.08E-01 2.492E-01
6.900E-04 2.42E-03 6.59E-06 4.38E-03 3.30E-05 8.05E-04 2.08E-10 1.16E-03 3.92E-11 4.48E-05 1.33E-01 1.13E-01 2.549E-01
6.800E-04 2.38E-03 6.85E-06 4.15E-03 3.54E-05 8.24E-04 2.21E-10 1.16E-03 4.37E-11 3.45E-05 1.33E-01 1.19E-01 2.605E-01
6.600E-04 2.40E-03 7.71E-06 3.74E-03 4.12E-05 8.65E-04 2.48E-10 1.16E-03 5.37E-11 3.29E-05 1.36E-01 1.32E-01 2.757E-01
6.400E-04 2.46E-03 8.71E-06 3.24E-03 4.80E-05 9.07E-04 2.81E-10 1.15E-03 6.50E-11 5.05E-05 1.40E-01 1.43E-01 2.903E-01
6.300E-04 2.52E-03 9.19E-06 3.02E-03 5.22E-05 9.18E-04 2.99E-10 1.15E-03 7.14E-11 7.97E-05 1.42E-01 1.47E-01 2.965E-01
6.200E-04 2.53E-03 9.63E-06 2.97E-03 5.67E-05 9.58E-04 3.19E-10 1.15E-03 7.83E-11 1.09E-04 1.42E-01 1.52E-01 3.025E-01
6.100E-04 2.55E-03 1.02E-05 2.96E-03 6.11E-05 9.83E-04 3.40E-10 1.14E-03 8.56E-11 7.84E-05 1.44E-01 1.58E-01 3.090E-01
5.900E-04 2.66E-03 1.15E-05 2.43E-03 7.12E-05 1.04E-03 3.88E-10 1.12E-03 1.03E-10 3.42E-05 1.47E-01 1.67E-01 3.214E-01
5.500E-04 2.57E-03 1.38E-05 1.80E-03 1.00E-04 1.16E-03 5.12E-10 1.10E-03 1.47E-10 2.82E-05 1.46E-01 1.92E-01 3.448E-01
5.300E-04 2.59E-03 1.59E-05 1.61E-03 1.19E-04 1.24E-03 5.93E-10 1.11E-03 1.76E-10 4.58E-05 1.49E-01 2.05E-01 3.608E-01
5.200E-04 2.59E-03 1.70E-05 1.51E-03 1.30E-04 1.28E-03 6.39E-10 1.11E-03 1.93E-10 7.36E-05 1.50E-01 2.12E-01 3.686E-01
5.100E-04 2.62E-03 1.83E-05 1.42E-03 1.42E-04 1.32E-03 6.90E-10 1.11E-03 2.12E-10 1.02E-04 1.51E-01 2.19E-01 3.767E-01
5.000E-04 2.64E-03 1.96E-05 1.31E-03 1.58E-04 1.36E-03 7.47E-10 1.12E-03 2.32E-10 7.31E-05 1.53E-01 2.25E-01 3.844E-01
4.800E-04 2.68E-03 2.27E-05 1.16E-03 1.90E-04 1.45E-03 8.77E-10 1.14E-03 2.80E-10 3.28E-05 1.55E-01 2.38E-01 3.992E-01
4.500E-04 2.77E-03 2.84E-05 9.77E-04 2.52E-04 1.60E-03 1.13E-09 1.18E-03 3.75E-10 2.42E-05 1.59E-01 2.54E-01 4.196E-01
4.000E-04 2.88E-03 4.34E-05 7.24E-04 4.20E-04 1.93E-03 1.80E-09 1.27E-03 6.26E-10 2.67E-05 1.65E-01 2.82E-01 4.539E-01
3.800E-04 2.94E-03 5.24E-05 6.39E-04 5.23E-04 2.09E-03 2.21E-09 1.31E-03 7.79E-10 2.99E-05 1.67E-01 2.91E-01 4.654E-01
3.600E-04 3.01E-03 6.41E-05 5.63E-04 6.57E-04 2.28E-03 2.73E-09 1.35E-03 9.79E-10 3.69E-05 1.70E-01 2.98E-01 4.754E-01
3.400E-04 3.16E-03 7.87E-05 4.96E-04 8.36E-04 2.49E-03 3.42E-09 1.40E-03 1.24E-09 7.92E-05 1.74E-01 3.00E-01 4.826E-01
3.300E-04 3.15E-03 8.69E-05 4.64E-04 9.47E-04 2.61E-03 3.85E-09 1.43E-03 1.41E-09 2.15E-04 1.74E-01 3.04E-01 4.862E-01
3.200E-04 3.16E-03 9.77E-05 4.33E-04 1.08E-03 2.74E-03 4.34E-09 1.45E-03 1.60E-09 8.12E-05 1.74E-01 3.06E-01 4.891E-01
3.150E-04 3.19E-03 1.04E-04 4.19E-04 1.15E-03 2.81E-03 4.62E-09 1.46E-03 1.71E-09 6.07E-05 1.75E-01 3.06E-01 4.901E-01
3.100E-04 3.22E-03 1.10E-04 4.06E-04 1.23E-03 2.88E-03 4.92E-09 1.47E-03 1.83E-09 5.27E-05 1.76E-01 3.06E-01 4.910E-01
3.080E-04 3.24E-03 1.13E-04 4.00E-04 1.26E-03 2.91E-03 5.04E-09 1.48E-03 1.87E-09 5.10E-05 1.76E-01 3.06E-01 4.913E-01
3.050E-04 3.25E-03 1.17E-04 3.91E-04 1.31E-03 2.96E-03 5.24E-09 1.49E-03 1.95E-09 4.94E-05 1.76E-01 3.06E-01 4.918E-01
3.000E-04 3.27E-03 1.24E-04 3.79E-04 1.41E-03 3.04E-03 5.59E-09 1.50E-03 2.09E-09 4.81E-05 1.77E-01 3.06E-01 4.926E-01
2.900E-04 3.34E-03 1.41E-04 3.54E-04 1.62E-03 3.20E-03 6.39E-09 1.54E-03 2.40E-09 4.85E-05 1.78E-01 3.05E-01 4.933E-01
2.800E-04 3.36E-03 1.60E-04 3.31E-04 1.87E-03 3.38E-03 7.34E-09 1.57E-03 2.78E-09 5.07E-05 1.79E-01 3.04E-01 4.937E-01
2.600E-04 3.45E-03 2.12E-04 2.87E-04 2.53E-03 3.80E-03 9.81E-09 1.65E-03 3.76E-09 5.78E-05 1.81E-01 3.00E-01 4.931E-01
2.500E-04 3.53E-03 2.47E-04 2.67E-04 2.97E-03 4.03E-03 1.14E-08 1.69E-03 4.41E-09 6.26E-05 1.82E-01 2.98E-01 4.922E-01
2.200E-04 3.86E-03 4.05E-04 2.17E-04 4.98E-03 4.90E-03 1.89E-08 1.85E-03 7.41E-09 8.28E-05 1.86E-01 2.88E-01 4.907E-01
2.159E-04 3.90E-03 4.34E-04 2.10E-04 5.37E-03 5.05E-03 2.03E-08 1.88E-03 7.99E-09 8.65E-05 1.86E-01 2.88E-01 4.910E-01
2.000E-04 4.14E-03 5.85E-04 1.90E-04 7.29E-03 5.68E-03 2.74E-08 1.99E-03 1.09E-08 1.04E-04 1.88E-01 2.85E-01 4.934E-01
1.662E-04 4.81E-03 1.18E-03 1.54E-04 1.51E-02 7.54E-03 5.66E-08 2.30E-03 2.29E-08 1.66E-04 1.91E-01 2.83E-01 5.053E-01
1.650E-04 4.84E-03 1.21E-03 1.52E-04 1.55E-02 7.63E-03 5.83E-08 2.32E-03 2.36E-08 1.69E-04 1.91E-01 2.83E-01 5.058E-01
1.250E-04 6.44E-03 3.36E-03 1.42E-04 4.27E-02 1.17E-02 1.73E-07 2.94E-03 7.18E-08 3.62E-04 1.94E-01 2.68E-01 5.303E-01
1.235E-04 6.54E-03 3.50E-03 1.41E-04 4.45E-02 1.20E-02 1.81E-07 2.97E-03 7.54E-08 3.74E-04 1.94E-01 2.68E-01 5.322E-01
1.130E-04 7.31E-03 4.72E-03 1.47E-04 5.97E-02 1.37E-02 2.56E-07 3.23E-03 1.08E-07 4.77E-04 1.95E-01 2.64E-01 5.486E-01
1.000E-04 8.73E-03 6.92E-03 1.67E-04 8.79E-02 1.68E-02 4.13E-07 3.62E-03 1.75E-07 6.62E-04 1.97E-01 2.57E-01 5.791E-01
9.500E-05 9.48E-03 8.02E-03 1.70E-04 1.03E-01 1.82E-02 5.04E-07 3.80E-03 2.15E-07 7.57E-04 1.98E-01 2.54E-01 5.952E-01
9.300E-05 9.81E-03 8.51E-03 1.74E-04 1.10E-01 1.89E-02 5.48E-07 3.88E-03 2.35E-07 8.00E-04 1.98E-01 2.52E-01 6.026E-01
9.200E-05 9.98E-03 8.77E-03 1.76E-04 1.14E-01 1.92E-02 5.71E-07 3.92E-03 2.45E-07 8.23E-04 1.98E-01 2.52E-01 6.066E-01
9.100E-05 1.02E-02 9.03E-03 1.81E-04 1.18E-01 1.95E-02 5.96E-07 3.96E-03 2.56E-07 8.46E-04 1.98E-01 2.51E-01 6.109E-01
9.000E-05 1.03E-02 9.31E-03 1.84E-04 1.22E-01 1.99E-02 6.22E-07 4.00E-03 2.67E-07 8.71E-04 1.98E-01 2.50E-01 6.153E-01
8.900E-05 1.05E-02 9.59E-03 1.88E-04 1.26E-01 2.02E-02 6.50E-07 4.05E-03 2.80E-07 8.96E-04 1.99E-01 2.50E-01 6.200E-01
8.800E-05 1.07E-02 9.89E-03 1.88E-04 1.31E-01 2.06E-02 6.79E-07 4.09E-03 2.93E-07 9.22E-04 1.99E-01 2.49E-01 6.248E-01
8.700E-05 1.09E-02 1.02E-02 1.95E-04 1.35E-01 2.10E-02 7.10E-07 4.13E-03 3.06E-07 9.50E-04 1.99E-01 2.49E-01 6.299E-01
8.600E-05 1.11E-02 1.05E-02 1.97E-04 1.40E-01 2.14E-02 7.42E-07 4.18E-03 3.21E-07 9.78E-04 1.99E-01 2.48E-01 6.353E-01
8.500E-05 1.13E-02 1.08E-02 2.02E-04 1.45E-01 2.18E-02 7.77E-07 4.22E-03 3.36E-07 1.01E-03 1.99E-01 2.48E-01 6.408E-01
8.400E-05 1.15E-02 1.12E-02 2.04E-04 1.51E-01 2.22E-02 8.13E-07 4.27E-03 3.52E-07 1.04E-03 1.99E-01 2.47E-01 6.466E-01
8.330E-05 1.16E-02 1.14E-02 2.08E-04 1.54E-01 2.25E-02 8.40E-07 4.31E-03 3.64E-07 1.06E-03 1.99E-01 2.47E-01 6.509E-01
8.200E-05 1.19E-02 1.19E-02 2.11E-04 1.62E-01 2.30E-02 8.93E-07 4.37E-03 3.88E-07 1.10E-03 1.99E-01 2.46E-01 6.591E-01
8.100E-05 1.21E-02 1.23E-02 2.18E-04 1.68E-01 2.35E-02 9.36E-07 4.42E-03 4.08E-07 1.14E-03 1.99E-01 2.45E-01 6.658E-01
8.000E-05 1.24E-02 1.27E-02 2.21E-04 1.74E-01 2.39E-02 9.82E-07 4.47E-03 4.28E-07 1.17E-03 1.99E-01 2.44E-01 6.727E-01
7.900E-05 1.26E-02 1.31E-02 2.25E-04 1.81E-01 2.44E-02 1.03E-06 4.53E-03 4.51E-07 1.21E-03 1.99E-01 2.44E-01 6.799E-01
7.800E-05 1.29E-02 1.35E-02 2.32E-04 1.88E-01 2.49E-02 1.08E-06 4.58E-03 4.74E-07 1.25E-03 1.99E-01 2.43E-01 6.874E-01
7.700E-05 1.32E-02 1.40E-02 2.38E-04 1.95E-01 2.54E-02 1.14E-06 4.64E-03 5.00E-07 1.29E-03 1.99E-01 2.42E-01 6.952E-01
7.600E-05 1.34E-02 1.44E-02 2.47E-04 2.02E-01 2.59E-02 1.20E-06 4.69E-03 5.26E-07 1.33E-03 1.99E-01 2.41E-01 7.033E-01
7.500E-05 1.37E-02 1.48E-02 2.54E-04 2.10E-01 2.64E-02 1.26E-06 4.75E-03 5.55E-07 1.37E-03 1.99E-01 2.41E-01 7.118E-01
7.400E-05 1.41E-02 1.53E-02 2.65E-04 2.18E-01 2.70E-02 1.33E-06 4.81E-03 5.86E-07 1.42E-03 2.00E-01 2.40E-01 7.206E-01
7.300E-05 1.44E-02 1.57E-02 2.78E-04 2.27E-01 2.75E-02 1.40E-06 4.87E-03 6.19E-07 1.47E-03 2.00E-01 2.39E-01 7.297E-01
7.140E-05 1.49E-02 1.65E-02 2.86E-04 2.41E-01 2.85E-02 1.52E-06 4.98E-03 6.77E-07 1.55E-03 2.00E-01 2.38E-01 7.450E-01
7.100E-05 1.50E-02 1.66E-02 2.87E-04 2.45E-01 2.87E-02 1.56E-06 5.00E-03 6.92E-07 1.57E-03 2.00E-01 2.37E-01 7.490E-01
7.000E-05 1.54E-02 1.71E-02 2.97E-04 2.54E-01 2.93E-02 1.65E-06 5.07E-03 7.33E-07 1.62E-03 2.00E-01 2.37E-01 7.592E-01
6.900E-05 1.57E-02 1.76E-02 3.06E-04 2.64E-01 3.00E-02 1.74E-06 5.14E-03 7.76E-07 1.68E-03 2.00E-01 2.36E-01 7.698E-01
6.800E-05 1.61E-02 1.80E-02 3.20E-04 2.74E-01 3.06E-02 1.84E-06 5.21E-03 8.23E-07 1.74E-03 2.00E-01 2.35E-01 7.808E-01
6.700E-05 1.65E-02 1.85E-02 3.33E-04 2.84E-01 3.13E-02 1.95E-06 5.28E-03 8.74E-07 1.80E-03 2.00E-01 2.34E-01 7.922E-01
6.600E-05 1.68E-02 1.90E-02 3.48E-04 2.95E-01 3.20E-02 2.07E-06 5.36E-03 9.28E-07 1.87E-03 2.00E-01 2.33E-01 8.039E-01
6.500E-05 1.72E-02 1.94E-02 3.55E-04 3.06E-01 3.27E-02 2.19E-06 5.44E-03 9.87E-07 1.94E-03 2.00E-01 2.33E-01 8.160E-01
6.400E-05 1.76E-02 1.99E-02 3.64E-04 3.18E-01 3.35E-02 2.33E-06 5.52E-03 1.05E-06 2.01E-03 2.00E-01 2.32E-01 8.285E-01
6.300E-05 1.80E-02 2.04E-02 3.75E-04 3.29E-01 3.43E-02 2.48E-06 5.60E-03 1.12E-06 2.09E-03 2.00E-01 2.31E-01 8.413E-01
6.250E-05 1.82E-02 2.06E-02 3.77E-04 3.36E-01 3.47E-02 2.56E-06 5.64E-03 1.16E-06 2.13E-03 2.00E-01 2.31E-01 8.479E-01
6.200E-05 1.84E-02 2.08E-02 3.88E-04 3.42E-01 3.52E-02 2.64E-06 5.69E-03 1.19E-06 2.17E-03 2.00E-01 2.30E-01 8.546E-01
6.100E-05 1.89E-02 2.13E-02 4.04E-04 3.54E-01 3.60E-02 2.82E-06 5.77E-03 1.28E-06 2.26E-03 2.00E-01 2.29E-01 8.683E-01
6.000E-05 1.93E-02 2.17E-02 4.24E-04 3.67E-01 3.69E-02 3.00E-06 5.87E-03 1.36E-06 2.35E-03 2.00E-01 2.28E-01 8.823E-01
5.900E-05 1.98E-02 2.21E-02 4.41E-04 3.81E-01 3.78E-02 3.21E-06 5.96E-03 1.46E-06 2.44E-03 2.00E-01 2.28E-01 8.968E-01
5.800E-05 2.03E-02 2.25E-02 4.60E-04 3.94E-01 3.88E-02 3.43E-06 6.06E-03 1.56E-06 2.55E-03 2.00E-01 2.27E-01 9.119E-01
5.700E-05 2.08E-02 2.29E-02 4.84E-04 4.09E-01 3.97E-02 3.68E-06 6.16E-03 1.68E-06 2.66E-03 2.00E-01 2.26E-01 9.273E-01
5.600E-05 2.14E-02 2.32E-02 5.10E-04 4.24E-01 4.07E-02 3.94E-06 6.26E-03 1.80E-06 2.77E-03 2.00E-01 2.25E-01 9.434E-01
5.500E-05 2.19E-02 2.36E-02 5.32E-04 4.39E-01 4.18E-02 4.23E-06 6.37E-03 1.94E-06 2.89E-03 2.00E-01 2.24E-01 9.600E-01
5.477E-05 2.20E-02 2.36E-02 5.35E-04 4.43E-01 4.21E-02 4.30E-06 6.40E-03 1.97E-06 4.10E-03 2.00E-01 2.24E-01 9.652E-01
5.400E-05 2.24E-02 2.38E-02 5.53E-04 4.55E-01 4.30E-02 4.55E-06 6.48E-03 2.09E-06 4.26E-03 2.00E-01 2.23E-01 9.786E-01
5.300E-05 2.30E-02 2.41E-02 5.79E-04 4.72E-01 4.44E-02 4.91E-06 6.60E-03 2.25E-06 4.49E-03 2.00E-01 2.22E-01 9.968E-01
5.200E-05 2.36E-02 2.43E-02 6.16E-04 4.89E-01 4.57E-02 5.30E-06 6.72E-03 2.43E-06 4.73E-03 1.99E-01 2.22E-01 1.016E+00
5.100E-05 2.41E-02 2.45E-02 6.51E-04 5.07E-01 4.71E-02 5.73E-06 6.84E-03 2.63E-06 5.00E-03 1.99E-01 2.21E-01 1.035E+00
5.000E-05 2.47E-02 2.47E-02 6.87E-04 5.25E-01 4.86E-02 6.21E-06 6.97E-03 2.85E-06 5.29E-03 1.99E-01 2.20E-01 1.055E+00
4.900E-05 2.52E-02 2.48E-02 7.22E-04 5.44E-01 5.01E-02 6.74E-06 7.11E-03 3.10E-06 5.62E-03 1.99E-01 2.19E-01 1.076E+00
4.880E-05 2.53E-02 2.48E-02 7.30E-04 5.48E-01 5.04E-02 6.85E-06 7.13E-03 3.15E-06 5.68E-03 1.99E-01 2.19E-01 1.080E+00
4.800E-05 2.57E-02 2.49E-02 7.63E-04 5.64E-01 5.19E-02 7.33E-06 7.25E-03 3.37E-06 5.97E-03 1.99E-01 2.18E-01 1.097E+00
4.760E-05 2.59E-02 2.49E-02 7.82E-04 5.72E-01 5.27E-02 7.58E-06 7.30E-03 3.48E-06 6.12E-03 1.98E-01 2.18E-01 1.106E+00
4.700E-05 2.62E-02 2.50E-02 8.11E-04 5.84E-01 5.39E-02 7.99E-06 7.39E-03 3.67E-06 6.36E-03 1.98E-01 2.18E-01 1.119E+00
4.650E-05 2.65E-02 2.50E-02 8.32E-04 5.93E-01 5.50E-02 8.35E-06 7.47E-03 3.83E-06 6.58E-03 1.98E-01 2.17E-01 1.130E+00
4.600E-05 2.67E-02 2.51E-02 8.64E-04 6.04E-01 5.61E-02 8.73E-06 7.54E-03 4.01E-06 6.80E-03 1.98E-01 2.17E-01 1.142E+00
4.550E-05 2.70E-02 2.51E-02 9.01E-04 6.14E-01 5.72E-02 9.13E-06 7.62E-03 4.19E-06 7.04E-03 1.98E-01 2.17E-01 1.153E+00
4.500E-05 2.72E-02 2.51E-02 9.40E-04 6.24E-01 5.83E-02 9.55E-06 7.70E-03 4.38E-06 7.29E-03 1.98E-01 2.16E-01 1.164E+00
4.440E-05 2.75E-02 2.51E-02 9.91E-04 6.36E-01 5.97E-02 1.01E-05 7.80E-03 4.63E-06 7.61E-03 1.97E-01 2.16E-01 1.178E+00
4.350E-05 2.79E-02 2.51E-02 1.08E-03 6.55E-01 6.20E-02 1.10E-05 7.95E-03 5.03E-06 8.14E-03 1.97E-01 2.16E-01 1.200E+00
4.170E-05 2.87E-02 2.50E-02 1.31E-03 6.93E-01 6.72E-02 1.31E-05 8.27E-03 5.99E-06 9.40E-03 1.96E-01 2.14E-01 1.244E+00
4.000E-05 2.93E-02 2.49E-02 1.74E-03 7.29E-01 7.28E-02 1.55E-05 8.59E-03 7.11E-06 1.09E-02 1.95E-01 2.14E-01 1.287E+00
3.850E-05 2.99E-02 2.48E-02 2.30E-03 7.61E-01 7.79E-02 1.82E-05 8.89E-03 8.33E-06 1.26E-02 1.95E-01 2.13E-01 1.325E+00
3.656E-05 3.04E-02 2.46E-02 3.37E-03 8.00E-01 8.53E-02 2.27E-05 9.31E-03 1.04E-05 1.55E-02 1.94E-01 2.12E-01 1.375E+00
3.570E-05 3.07E-02 2.45E-02 3.92E-03 8.17E-01 8.88E-02 2.51E-05 9.50E-03 1.14E-05 1.72E-02 1.93E-01 2.12E-01 1.396E+00
3.330E-05 3.12E-02 2.42E-02 5.86E-03 8.56E-01 1.01E-01 3.44E-05 1.01E-02 1.53E-05 2.39E-02 1.92E-01 2.11E-01 1.455E+00
3.130E-05 3.15E-02 2.40E-02 7.75E-03 8.82E-01 1.16E-01 4.64E-05 1.06E-02 1.99E-05 3.35E-02 1.90E-01 2.10E-01 1.506E+00
3.000E-05 3.16E-02 2.38E-02 9.27E-03 8.92E-01 1.30E-01 5.75E-05 1.10E-02 2.39E-05 4.36E-02 1.90E-01 2.10E-01 1.541E+00
2.940E-05 3.17E-02 2.37E-02 9.99E-03 8.94E-01 1.36E-01 6.38E-05 1.12E-02 2.61E-05 5.01E-02 1.89E-01 2.10E-01 1.556E+00
2.780E-05 3.18E-02 2.34E-02 1.22E-02 8.94E-01 1.60E-01 8.75E-05 1.17E-02 3.33E-05 7.73E-02 1.88E-01 2.09E-01 1.608E+00
2.630E-05 3.17E-02 2.32E-02 1.45E-02 8.85E-01 1.95E-01 1.24E-04 1.21E-02 4.26E-05 1.31E-01 1.87E-01 2.09E-01 1.689E+00
2.500E-05 3.16E-02 2.31E-02 1.70E-02 8.68E-01 2.44E-01 1.81E-04 1.25E-02 5.34E-05 2.35E-01 1.86E-01 2.09E-01 1.826E+00
2.380E-05 3.15E-02 2.30E-02 2.02E-02 8.46E-01 3.36E-01 2.77E-04 1.26E-02 6.71E-05 4.33E-01 1.85E-01 2.09E-01 2.097E+00
2.270E-05 3.14E-02 2.28E-02 2.46E-02 8.23E-01 4.85E-01 4.05E-04 1.30E-02 8.42E-05 5.92E-01 1.84E-01 2.08E-01 2.386E+00
2.170E-05 3.12E-02 2.27E-02 3.05E-02 8.05E-01 6.56E-01 5.27E-04 1.47E-02 1.05E-04 4.45E-01 1.84E-01 2.09E-01 2.398E+00
2.080E-05 3.11E-02 2.26E-02 4.12E-02 7.93E-01 6.79E-01 4.89E-04 1.83E-02 1.31E-04 2.65E-01 1.83E-01 2.09E-01 2.242E+00
2.000E-05 3.09E-02 2.25E-02 1.39E-01 7.00E-01 5.89E-01 3.82E-04 2.33E-02 1.61E-04 1.67E-01 1.82E-01 2.09E-01 2.063E+00
1.920E-05 3.07E-02 2.25E-02 2.47E-01 5.94E-01 4.57E-01 2.63E-04 3.21E-02 2.00E-04 1.11E-01 1.81E-01 2.09E-01 1.884E+00
1.850E-05 3.06E-02 2.27E-02 3.03E-01 5.34E-01 3.58E-01 1.86E-04 4.30E-02 2.44E-04 8.12E-02 1.80E-01 2.10E-01 1.762E+00
1.790E-05 3.06E-02 2.28E-02 3.57E-01 4.69E-01 2.91E-01 1.42E-04 5.48E-02 2.93E-04 6.47E-02 1.79E-01 2.10E-01 1.680E+00
1.720E-05 3.05E-02 2.29E-02 3.86E-01 4.31E-01 2.34E-01 1.13E-04 7.61E-02 3.67E-04 5.17E-02 1.77E-01 2.10E-01 1.620E+00
1.670E-05 3.04E-02 2.31E-02 3.94E-01 4.17E-01 2.00E-01 1.03E-04 9.59E-02 4.34E-04 4.54E-02 1.76E-01 2.11E-01 1.594E+00
1.610E-05 3.04E-02 2.32E-02 3.98E-01 4.07E-01 1.69E-01 1.05E-04 1.31E-01 5.35E-04 4.01E-02 1.75E-01 2.12E-01 1.585E+00
1.560E-05 3.03E-02 2.33E-02 3.99E-01 4.01E-01 1.48E-01 1.18E-04 1.71E-01 6.41E-04 3.72E-02 1.74E-01 2.12E-01 1.596E+00
1.520E-05 3.02E-02 2.33E-02 3.98E-01 3.97E-01 1.35E-01 1.37E-04 2.13E-01 7.36E-04 3.58E-02 1.73E-01 2.13E-01 1.619E+00
1.470E-05 3.01E-02 2.34E-02 3.97E-01 3.93E-01 1.20E-01 1.73E-04 2.75E-01 8.72E-04 3.50E-02 1.72E-01 2.13E-01 1.659E+00
1.430E-05 3.00E-02 2.34E-02 3.95E-01 3.90E-01 1.12E-01 2.16E-04 3.28E-01 9.76E-04 3.52E-02 1.71E-01 2.13E-01 1.699E+00
1.390E-05 2.99E-02 2.34E-02 3.94E-01 3.87E-01 1.09E-01 2.75E-04 3.69E-01 1.08E-03 3.61E-02 1.71E-01 2.13E-01 1.733E+00
1.350E-05 2.97E-02 2.33E-02 3.92E-01 3.84E-01 1.09E-01 3.53E-04 4.07E-01 1.21E-03 3.80E-02 1.71E-01 2.13E-01 1.768E+00
1.320E-05 2.96E-02 2.33E-02 3.91E-01 3.81E-01 1.11E-01 4.29E-04 4.38E-01 1.33E-03 4.00E-02 1.70E-01 2.13E-01 1.799E+00
1.280E-05 2.94E-02 2.33E-02 3.89E-01 3.78E-01 1.18E-01 5.62E-04 4.82E-01 1.51E-03 4.39E-02 1.70E-01 2.13E-01 1.849E+00
1.250E-05 2.93E-02 2.33E-02 3.88E-01 3.77E-01 1.29E-01 6.93E-04 5.18E-01 1.67E-03 4.79E-02 1.69E-01 2.13E-01 1.896E+00
1.220E-05 2.91E-02 2.33E-02 3.87E-01 3.76E-01 1.44E-01 8.58E-04 5.57E-01 1.86E-03 5.32E-02 1.69E-01 2.13E-01 1.954E+00
1.190E-05 2.89E-02 2.33E-02 3.85E-01 3.78E-01 1.64E-01 1.06E-03 6.01E-01 2.09E-03 6.00E-02 1.68E-01 2.13E-01 2.024E+00
1.160E-05 2.87E-02 2.33E-02 3.83E-01 3.79E-01 1.86E-01 1.33E-03 6.51E-01 2.35E-03 6.89E-02 1.68E-01 2.13E-01 2.105E+00
1.140E-05 2.86E-02 2.33E-02 3.81E-01 3.80E-01 2.06E-01 1.56E-03 6.87E-01 2.56E-03 7.64E-02 1.68E-01 2.13E-01 2.167E+00
1.110E-05 2.83E-02 2.32E-02 3.79E-01 3.80E-01 2.36E-01 2.04E-03 7.48E-01 2.92E-03 9.08E-02 1.67E-01 2.13E-01 2.271E+00
1.080E-05 2.81E-02 2.32E-02 3.77E-01 3.81E-01 3.18E-01 2.72E-03 8.21E-01 3.37E-03 1.10E-01 1.66E-01 2.14E-01 2.444E+00
1.050E-05 2.78E-02 2.31E-02 3.74E-01 3.82E-01 4.24E-01 3.53E-03 9.12E-01 3.94E-03 1.36E-01 1.66E-01 2.14E-01 2.666E+00
1.030E-05 2.77E-02 2.30E-02 3.72E-01 3.82E-01 5.06E-01 4.04E-03 9.97E-01 4.39E-03 1.59E-01 1.65E-01 2.14E-01 2.855E+00
1.000E-05 2.74E-02 2.29E-02 3.69E-01 3.83E-01 6.20E-01 4.93E-03 1.12E+00 5.04E-03 2.02E-01 1.64E-01 2.15E-01 3.131E+00
9.750E-06 2.71E-02 2.28E-02 3.67E-01 3.83E-01 7.53E-01 6.12E-03 1.22E+00 5.61E-03 2.44E-01 1.64E-01 2.14E-01 3.404E+00
9.500E-06 2.69E-02 2.27E-02 3.64E-01 3.84E-01 9.06E-01 7.24E-03 1.32E+00 6.23E-03 2.88E-01 1.64E-01 2.14E-01 3.703E+00
9.250E-06 2.66E-02 2.26E-02 3.61E-01 3.85E-01 1.02E+00 8.08E-03 1.43E+00 6.85E-03 3.20E-01 1.63E-01 2.14E-01 3.956E+00
9.080E-06 2.65E-02 2.26E-02 3.56E-01 3.83E-01 1.09E+00 8.69E-03 1.49E+00 7.18E-03 3.27E-01 1.63E-01 2.14E-01 4.087E+00
