 # Optical depth:  wel [cm]  N*sig* [cm^2/cm^2/g dust ISM] 
 # wel(cm) sa_aC    ss_aC    sa_Si    ss_Si    sa_vgr   ss_vgr   sa_vsi   ss_vsi   s_pahS+B sa_Dark  ss_Dark sigt 
 # ------------------------------------------------------------------------------------------------------------- 
1.000E+00 5.69E-08 1.76E-17 2.03E-07 4.24E-17 4.65E-09 4.40E-23 4.47E-08 7.54E-23 4.15E-12 0.00E+00 0.00E+00 3.091E-07
9.000E-01 6.67E-08 2.67E-17 2.39E-07 6.47E-17 5.93E-09 6.70E-23 5.31E-08 1.15E-22 5.12E-12 0.00E+00 0.00E+00 3.652E-07
8.000E-01 7.96E-08 4.28E-17 2.88E-07 1.04E-16 7.74E-09 1.07E-22 6.47E-08 1.84E-22 6.48E-12 0.00E+00 0.00E+00 4.405E-07
7.000E-01 9.75E-08 7.30E-17 3.56E-07 1.77E-16 1.04E-08 1.83E-22 7.96E-08 3.14E-22 8.47E-12 0.00E+00 0.00E+00 5.439E-07
6.000E-01 1.23E-07 1.35E-16 4.55E-07 3.27E-16 1.44E-08 3.39E-22 1.02E-07 5.81E-22 1.15E-11 0.00E+00 0.00E+00 6.956E-07
5.500E-01 1.41E-07 1.92E-16 5.23E-07 4.64E-16 1.73E-08 4.81E-22 1.18E-07 8.23E-22 1.37E-11 0.00E+00 0.00E+00 7.995E-07
5.000E-01 1.64E-07 2.80E-16 6.09E-07 6.79E-16 2.09E-08 7.04E-22 1.37E-07 1.20E-21 1.66E-11 0.00E+00 0.00E+00 9.305E-07
4.500E-01 1.93E-07 4.27E-16 7.21E-07 1.03E-15 2.58E-08 1.07E-21 1.63E-07 1.84E-21 2.05E-11 0.00E+00 0.00E+00 1.103E-06
4.000E-01 2.32E-07 6.84E-16 8.71E-07 1.66E-15 3.23E-08 1.72E-21 1.96E-07 2.94E-21 2.59E-11 0.00E+00 0.00E+00 1.331E-06
3.500E-01 2.86E-07 1.17E-15 1.08E-06 2.83E-15 4.13E-08 2.93E-21 2.45E-07 5.01E-21 3.39E-11 0.00E+00 0.00E+00 1.653E-06
3.000E-01 3.65E-07 2.16E-15 1.39E-06 5.24E-15 5.44E-08 5.43E-21 3.11E-07 9.28E-21 4.61E-11 0.00E+00 0.00E+00 2.116E-06
2.500E-01 4.89E-07 4.48E-15 1.86E-06 1.09E-14 7.43E-08 1.13E-20 4.18E-07 1.92E-20 6.64E-11 0.00E+00 0.00E+00 2.843E-06
2.098E-01 6.50E-07 9.02E-15 2.48E-06 2.19E-14 9.88E-08 2.27E-20 5.56E-07 3.88E-20 9.43E-11 0.00E+00 0.00E+00 3.780E-06
1.500E-01 1.13E-06 3.45E-14 4.28E-06 8.38E-14 1.88E-07 8.69E-20 9.52E-07 1.48E-19 1.84E-10 0.00E+00 0.00E+00 6.555E-06
1.382E-01 1.30E-06 4.78E-14 4.90E-06 1.16E-13 2.22E-07 1.21E-19 1.09E-06 2.06E-19 2.17E-10 0.00E+00 0.00E+00 7.509E-06
1.320E-01 1.40E-06 5.75E-14 5.28E-06 1.40E-13 2.43E-07 1.45E-19 1.17E-06 2.47E-19 2.38E-10 0.00E+00 0.00E+00 8.101E-06
1.150E-01 1.77E-06 9.97E-14 6.63E-06 2.43E-13 3.19E-07 2.51E-19 1.47E-06 4.28E-19 3.14E-10 0.00E+00 0.00E+00 1.018E-05
1.000E-01 2.25E-06 1.74E-13 8.34E-06 4.24E-13 4.19E-07 4.40E-19 1.83E-06 7.49E-19 4.15E-10 0.00E+00 0.00E+00 1.284E-05
9.970E-02 2.26E-06 1.76E-13 8.38E-06 4.29E-13 4.21E-07 4.45E-19 1.84E-06 7.58E-19 4.18E-10 0.00E+00 0.00E+00 1.290E-05
8.670E-02 2.85E-06 3.08E-13 1.06E-05 7.51E-13 5.57E-07 7.78E-19 2.31E-06 1.32E-18 5.52E-10 0.00E+00 0.00E+00 1.629E-05
8.500E-02 2.95E-06 3.34E-13 1.09E-05 8.13E-13 5.79E-07 8.42E-19 2.39E-06 1.43E-18 5.74E-10 0.00E+00 0.00E+00 1.684E-05
7.500E-02 3.74E-06 5.51E-13 1.34E-05 1.34E-12 7.36E-07 1.39E-18 2.91E-06 2.37E-18 7.38E-10 0.00E+00 0.00E+00 2.082E-05
6.000E-02 5.51E-06 1.34E-12 1.94E-05 3.29E-12 1.13E-06 3.39E-18 4.22E-06 5.78E-18 1.15E-09 0.00E+00 0.00E+00 3.025E-05
5.500E-02 6.38E-06 1.90E-12 2.17E-05 4.69E-12 1.33E-06 4.80E-18 4.93E-06 8.18E-18 1.37E-09 0.00E+00 0.00E+00 3.436E-05
5.000E-02 7.59E-06 2.79E-12 2.69E-05 6.91E-12 1.59E-06 7.03E-18 5.87E-06 1.20E-17 1.66E-09 0.00E+00 0.00E+00 4.194E-05
4.500E-02 9.36E-06 4.26E-12 3.56E-05 1.06E-11 1.94E-06 1.07E-17 7.17E-06 1.83E-17 2.05E-09 0.00E+00 0.00E+00 5.409E-05
4.000E-02 1.20E-05 6.83E-12 4.76E-05 1.72E-11 2.42E-06 1.72E-17 9.07E-06 2.93E-17 2.60E-09 0.00E+00 0.00E+00 7.109E-05
3.500E-02 1.51E-05 1.17E-11 7.24E-05 2.95E-11 3.10E-06 2.93E-17 1.20E-05 5.01E-17 3.39E-09 0.00E+00 0.00E+00 1.025E-04
3.000E-02 2.13E-05 2.17E-11 1.13E-04 5.49E-11 4.13E-06 5.42E-17 1.68E-05 9.30E-17 4.62E-09 0.00E+00 0.00E+00 1.551E-04
2.750E-02 2.54E-05 3.07E-11 1.42E-04 7.78E-11 4.87E-06 7.68E-17 2.06E-05 1.32E-16 5.50E-09 0.00E+00 0.00E+00 1.928E-04
2.500E-02 3.05E-05 4.51E-11 1.81E-04 1.14E-10 5.82E-06 1.13E-16 2.58E-05 1.93E-16 6.66E-09 0.00E+00 0.00E+00 2.430E-04
2.400E-02 3.35E-05 5.31E-11 2.00E-04 1.34E-10 6.30E-06 1.33E-16 2.81E-05 2.27E-16 7.22E-09 0.00E+00 0.00E+00 2.682E-04
2.000E-02 4.91E-05 1.11E-10 3.12E-04 2.73E-10 8.91E-06 2.75E-16 4.07E-05 4.71E-16 1.04E-08 0.00E+00 0.00E+00 4.104E-04
1.800E-02 6.11E-05 1.70E-10 3.87E-04 4.10E-10 1.10E-05 4.20E-16 5.06E-05 7.18E-16 1.29E-08 0.00E+00 0.00E+00 5.095E-04
1.600E-02 8.11E-05 2.75E-10 4.81E-04 6.44E-10 1.39E-05 6.74E-16 6.46E-05 1.15E-15 1.63E-08 0.00E+00 0.00E+00 6.407E-04
1.500E-02 9.67E-05 3.57E-10 5.40E-04 8.23E-10 1.58E-05 8.73E-16 7.32E-05 1.49E-15 1.86E-08 0.00E+00 0.00E+00 7.253E-04
1.400E-02 1.10E-04 4.72E-10 6.05E-04 1.07E-09 1.82E-05 1.15E-15 8.46E-05 1.96E-15 2.14E-08 0.00E+00 0.00E+00 8.183E-04
1.200E-02 1.68E-04 8.84E-10 7.72E-04 1.92E-09 2.54E-05 2.14E-15 1.16E-04 3.64E-15 2.92E-08 0.00E+00 0.00E+00 1.081E-03
1.000E-02 2.55E-04 1.86E-09 1.02E-03 3.80E-09 3.84E-05 4.48E-15 1.69E-04 7.57E-15 4.22E-08 0.00E+00 0.00E+00 1.481E-03
9.000E-03 3.39E-04 2.86E-09 1.16E-03 5.64E-09 4.93E-05 6.87E-15 2.11E-04 1.15E-14 5.23E-08 0.00E+00 0.00E+00 1.761E-03
8.000E-03 4.51E-04 4.51E-09 1.35E-03 8.90E-09 6.59E-05 1.11E-14 2.71E-04 1.85E-14 6.66E-08 0.00E+00 0.00E+00 2.136E-03
7.500E-03 5.27E-04 5.91E-09 1.49E-03 1.15E-08 7.78E-05 1.44E-14 3.11E-04 2.40E-14 7.61E-08 0.00E+00 0.00E+00 2.407E-03
7.000E-03 6.36E-04 7.73E-09 1.67E-03 1.50E-08 9.33E-05 1.91E-14 3.60E-04 3.16E-14 8.77E-08 0.00E+00 0.00E+00 2.763E-03
6.000E-03 9.13E-04 1.40E-08 2.15E-03 2.74E-08 1.44E-04 3.60E-14 5.01E-04 5.85E-14 1.21E-07 0.00E+00 0.00E+00 3.705E-03
5.000E-03 1.30E-03 2.75E-08 3.05E-03 5.58E-08 2.52E-04 7.65E-14 7.39E-04 1.21E-13 1.79E-07 0.00E+00 0.00E+00 5.344E-03
4.500E-03 1.60E-03 3.98E-08 3.73E-03 8.33E-08 3.57E-04 1.18E-13 9.22E-04 1.83E-13 2.25E-07 0.00E+00 0.00E+00 6.611E-03
4.000E-03 1.91E-03 5.92E-08 4.65E-03 1.25E-07 5.22E-04 1.88E-13 1.18E-03 2.90E-13 2.94E-07 0.00E+00 0.00E+00 8.262E-03
3.500E-03 2.31E-03 9.37E-08 5.74E-03 1.97E-07 7.25E-04 3.00E-13 1.54E-03 4.88E-13 4.06E-07 0.00E+00 0.00E+00 1.031E-02
3.000E-03 2.85E-03 1.55E-07 7.06E-03 3.16E-07 7.65E-04 4.70E-13 2.10E-03 8.92E-13 6.19E-07 0.00E+00 0.00E+00 1.277E-02
2.750E-03 3.12E-03 2.03E-07 7.73E-03 4.08E-07 6.60E-04 6.05E-13 2.52E-03 1.24E-12 8.37E-07 0.00E+00 0.00E+00 1.404E-02
2.500E-03 3.37E-03 2.71E-07 8.47E-03 5.34E-07 5.20E-04 8.32E-13 3.10E-03 1.79E-12 1.40E-06 0.00E+00 0.00E+00 1.545E-02
2.400E-03 3.49E-03 3.09E-07 8.76E-03 6.00E-07 4.66E-04 9.66E-13 3.38E-03 2.08E-12 1.96E-06 0.00E+00 0.00E+00 1.609E-02
2.350E-03 3.57E-03 3.30E-07 8.93E-03 6.36E-07 4.41E-04 1.05E-12 3.53E-03 2.25E-12 2.32E-06 0.00E+00 0.00E+00 1.647E-02
2.320E-03 3.61E-03 3.44E-07 9.04E-03 6.60E-07 4.26E-04 1.10E-12 3.63E-03 2.35E-12 2.50E-06 0.00E+00 0.00E+00 1.670E-02
2.310E-03 3.62E-03 3.48E-07 9.08E-03 6.68E-07 4.21E-04 1.12E-12 3.66E-03 2.39E-12 2.55E-06 0.00E+00 0.00E+00 1.678E-02
2.300E-03 3.64E-03 3.53E-07 9.11E-03 6.76E-07 4.17E-04 1.14E-12 3.69E-03 2.43E-12 2.58E-06 0.00E+00 0.00E+00 1.686E-02
2.250E-03 3.70E-03 3.77E-07 9.31E-03 7.21E-07 3.94E-04 1.24E-12 3.88E-03 2.64E-12 2.69E-06 0.00E+00 0.00E+00 1.729E-02
2.200E-03 3.76E-03 4.04E-07 9.54E-03 7.67E-07 3.73E-04 1.35E-12 4.10E-03 2.85E-12 2.83E-06 0.00E+00 0.00E+00 1.777E-02
2.150E-03 3.83E-03 4.34E-07 9.80E-03 8.16E-07 3.54E-04 1.48E-12 4.30E-03 3.08E-12 3.09E-06 0.00E+00 0.00E+00 1.828E-02
2.120E-03 3.88E-03 4.53E-07 9.94E-03 8.43E-07 3.43E-04 1.57E-12 4.44E-03 3.23E-12 3.22E-06 0.00E+00 0.00E+00 1.860E-02
2.110E-03 3.89E-03 4.59E-07 9.98E-03 8.53E-07 3.39E-04 1.60E-12 4.49E-03 3.29E-12 3.24E-06 0.00E+00 0.00E+00 1.870E-02
2.100E-03 3.91E-03 4.65E-07 1.00E-02 8.62E-07 3.36E-04 1.63E-12 4.53E-03 3.34E-12 3.25E-06 0.00E+00 0.00E+00 1.881E-02
2.080E-03 3.92E-03 4.77E-07 1.01E-02 8.79E-07 3.29E-04 1.69E-12 4.63E-03 3.44E-12 3.22E-06 0.00E+00 0.00E+00 1.900E-02
2.000E-03 3.98E-03 5.39E-07 1.04E-02 9.50E-07 3.05E-04 1.98E-12 5.08E-03 3.91E-12 3.06E-06 0.00E+00 0.00E+00 1.980E-02
1.950E-03 4.04E-03 5.84E-07 1.06E-02 9.85E-07 2.92E-04 2.19E-12 5.37E-03 4.15E-12 3.30E-06 0.00E+00 0.00E+00 2.028E-02
1.900E-03 4.12E-03 6.38E-07 1.06E-02 1.01E-06 2.80E-04 2.44E-12 5.60E-03 4.34E-12 3.99E-06 0.00E+00 0.00E+00 2.064E-02
1.850E-03 4.21E-03 6.98E-07 1.06E-02 1.02E-06 2.70E-04 2.72E-12 5.73E-03 4.45E-12 5.15E-06 0.00E+00 0.00E+00 2.077E-02
1.830E-03 4.25E-03 7.22E-07 1.05E-02 1.02E-06 2.66E-04 2.84E-12 5.74E-03 4.48E-12 5.56E-06 0.00E+00 0.00E+00 2.076E-02
1.820E-03 4.27E-03 7.34E-07 1.05E-02 1.02E-06 2.64E-04 2.91E-12 5.75E-03 4.49E-12 5.70E-06 0.00E+00 0.00E+00 2.074E-02
1.810E-03 4.28E-03 7.47E-07 1.04E-02 1.02E-06 2.63E-04 2.97E-12 5.73E-03 4.50E-12 5.78E-06 0.00E+00 0.00E+00 2.068E-02
1.800E-03 4.30E-03 7.61E-07 1.03E-02 1.02E-06 2.61E-04 3.04E-12 5.72E-03 4.51E-12 5.82E-06 0.00E+00 0.00E+00 2.063E-02
1.750E-03 4.40E-03 8.33E-07 9.90E-03 9.93E-07 2.53E-04 3.41E-12 5.57E-03 4.53E-12 5.96E-06 0.00E+00 0.00E+00 2.013E-02
1.700E-03 4.45E-03 9.12E-07 9.17E-03 9.52E-07 2.47E-04 3.84E-12 5.30E-03 4.56E-12 7.29E-06 0.00E+00 0.00E+00 1.918E-02
1.670E-03 4.52E-03 9.71E-07 8.59E-03 9.25E-07 2.44E-04 4.13E-12 5.10E-03 4.61E-12 8.60E-06 0.00E+00 0.00E+00 1.846E-02
1.650E-03 4.58E-03 1.01E-06 8.15E-03 9.10E-07 2.43E-04 4.34E-12 4.95E-03 4.67E-12 9.06E-06 0.00E+00 0.00E+00 1.792E-02
1.640E-03 4.60E-03 1.03E-06 7.91E-03 9.04E-07 2.42E-04 4.44E-12 4.87E-03 4.70E-12 9.04E-06 0.00E+00 0.00E+00 1.763E-02
1.630E-03 4.63E-03 1.05E-06 7.66E-03 8.99E-07 2.41E-04 4.56E-12 4.79E-03 4.73E-12 8.87E-06 0.00E+00 0.00E+00 1.732E-02
1.610E-03 4.67E-03 1.10E-06 7.13E-03 8.96E-07 2.40E-04 4.79E-12 4.62E-03 4.85E-12 8.29E-06 0.00E+00 0.00E+00 1.667E-02
1.600E-03 4.70E-03 1.12E-06 6.85E-03 8.99E-07 2.40E-04 4.92E-12 4.54E-03 4.92E-12 8.01E-06 0.00E+00 0.00E+00 1.633E-02
1.590E-03 4.72E-03 1.14E-06 6.57E-03 9.06E-07 2.39E-04 5.04E-12 4.46E-03 4.99E-12 7.81E-06 0.00E+00 0.00E+00 1.600E-02
1.580E-03 4.75E-03 1.16E-06 6.28E-03 9.18E-07 2.39E-04 5.17E-12 4.38E-03 5.08E-12 7.68E-06 0.00E+00 0.00E+00 1.566E-02
1.570E-03 4.76E-03 1.19E-06 6.00E-03 9.36E-07 2.38E-04 5.31E-12 4.30E-03 5.17E-12 7.56E-06 0.00E+00 0.00E+00 1.531E-02
1.560E-03 4.79E-03 1.21E-06 5.74E-03 9.60E-07 2.38E-04 5.45E-12 4.22E-03 5.28E-12 7.40E-06 0.00E+00 0.00E+00 1.499E-02
1.540E-03 4.86E-03 1.27E-06 5.26E-03 1.03E-06 2.38E-04 5.74E-12 4.06E-03 5.52E-12 7.23E-06 0.00E+00 0.00E+00 1.443E-02
1.520E-03 4.90E-03 1.31E-06 4.89E-03 1.13E-06 2.37E-04 6.06E-12 3.91E-03 5.83E-12 7.62E-06 0.00E+00 0.00E+00 1.395E-02
1.510E-03 4.92E-03 1.34E-06 4.76E-03 1.19E-06 2.37E-04 6.22E-12 3.84E-03 6.00E-12 7.87E-06 0.00E+00 0.00E+00 1.376E-02
1.500E-03 4.93E-03 1.36E-06 4.65E-03 1.25E-06 2.37E-04 6.39E-12 3.77E-03 6.19E-12 7.92E-06 0.00E+00 0.00E+00 1.359E-02
1.450E-03 5.01E-03 1.52E-06 4.43E-03 1.63E-06 2.39E-04 7.34E-12 3.47E-03 7.49E-12 1.01E-05 0.00E+00 0.00E+00 1.316E-02
1.440E-03 5.03E-03 1.56E-06 4.43E-03 1.71E-06 2.39E-04 7.55E-12 3.43E-03 7.82E-12 1.12E-05 0.00E+00 0.00E+00 1.314E-02
1.430E-03 5.06E-03 1.59E-06 4.42E-03 1.79E-06 2.40E-04 7.77E-12 3.41E-03 8.23E-12 1.21E-05 0.00E+00 0.00E+00 1.315E-02
1.420E-03 5.08E-03 1.63E-06 4.42E-03 1.88E-06 2.40E-04 7.99E-12 3.40E-03 8.66E-12 1.26E-05 0.00E+00 0.00E+00 1.315E-02
1.400E-03 5.13E-03 1.71E-06 4.43E-03 2.06E-06 2.42E-04 8.47E-12 3.43E-03 9.63E-12 1.37E-05 0.00E+00 0.00E+00 1.324E-02
1.380E-03 5.18E-03 1.79E-06 4.43E-03 2.25E-06 2.43E-04 8.98E-12 3.52E-03 1.08E-11 1.74E-05 0.00E+00 0.00E+00 1.340E-02
1.370E-03 5.21E-03 1.83E-06 4.43E-03 2.36E-06 2.44E-04 9.25E-12 3.62E-03 1.14E-11 2.07E-05 0.00E+00 0.00E+00 1.353E-02
1.360E-03 5.24E-03 1.88E-06 4.44E-03 2.47E-06 2.45E-04 9.52E-12 3.73E-03 1.20E-11 2.40E-05 0.00E+00 0.00E+00 1.368E-02
1.350E-03 5.27E-03 1.93E-06 4.46E-03 2.59E-06 2.46E-04 9.81E-12 3.83E-03 1.27E-11 2.57E-05 0.00E+00 0.00E+00 1.384E-02
1.340E-03 5.31E-03 1.98E-06 4.47E-03 2.71E-06 2.48E-04 1.01E-11 3.96E-03 1.33E-11 2.79E-05 0.00E+00 0.00E+00 1.403E-02
1.330E-03 5.34E-03 2.02E-06 4.50E-03 2.85E-06 2.49E-04 1.04E-11 4.10E-03 1.40E-11 3.23E-05 0.00E+00 0.00E+00 1.423E-02
1.320E-03 5.38E-03 2.07E-06 4.53E-03 2.99E-06 2.50E-04 1.08E-11 4.24E-03 1.47E-11 3.99E-05 0.00E+00 0.00E+00 1.445E-02
1.310E-03 5.40E-03 2.11E-06 4.57E-03 3.14E-06 2.52E-04 1.11E-11 4.40E-03 1.55E-11 5.24E-05 0.00E+00 0.00E+00 1.468E-02
1.290E-03 5.43E-03 2.21E-06 4.68E-03 3.48E-06 2.55E-04 1.18E-11 4.72E-03 1.71E-11 1.08E-04 0.00E+00 0.00E+00 1.520E-02
1.280E-03 5.44E-03 2.26E-06 4.74E-03 3.65E-06 2.56E-04 1.22E-11 4.92E-03 1.79E-11 1.59E-04 0.00E+00 0.00E+00 1.552E-02
1.270E-03 5.46E-03 2.33E-06 4.77E-03 3.85E-06 2.58E-04 1.26E-11 5.12E-03 1.88E-11 1.92E-04 0.00E+00 0.00E+00 1.581E-02
1.260E-03 5.49E-03 2.38E-06 4.84E-03 4.08E-06 2.60E-04 1.30E-11 5.33E-03 1.97E-11 1.66E-04 0.00E+00 0.00E+00 1.608E-02
1.250E-03 5.51E-03 2.45E-06 4.94E-03 4.32E-06 2.61E-04 1.34E-11 5.54E-03 2.06E-11 1.22E-04 0.00E+00 0.00E+00 1.637E-02
1.220E-03 5.62E-03 2.67E-06 5.61E-03 5.35E-06 2.67E-04 1.48E-11 6.22E-03 2.36E-11 9.53E-05 0.00E+00 0.00E+00 1.781E-02
1.210E-03 5.65E-03 2.73E-06 6.12E-03 5.76E-06 2.69E-04 1.53E-11 6.48E-03 2.47E-11 1.10E-04 0.00E+00 0.00E+00 1.863E-02
1.200E-03 5.66E-03 2.80E-06 6.76E-03 6.15E-06 2.71E-04 1.58E-11 6.76E-03 2.59E-11 1.21E-04 0.00E+00 0.00E+00 1.959E-02
1.190E-03 5.71E-03 2.89E-06 7.46E-03 6.51E-06 2.73E-04 1.64E-11 7.06E-03 2.71E-11 1.21E-04 0.00E+00 0.00E+00 2.063E-02
1.180E-03 5.75E-03 2.97E-06 8.16E-03 6.81E-06 2.75E-04 1.70E-11 7.36E-03 2.82E-11 1.21E-04 0.00E+00 0.00E+00 2.168E-02
1.170E-03 5.79E-03 3.05E-06 8.82E-03 7.06E-06 2.77E-04 1.76E-11 7.67E-03 2.94E-11 1.34E-04 0.00E+00 0.00E+00 2.270E-02
1.160E-03 5.83E-03 3.13E-06 9.40E-03 7.28E-06 2.81E-04 1.83E-11 7.96E-03 3.06E-11 1.73E-04 0.00E+00 0.00E+00 2.365E-02
1.150E-03 5.86E-03 3.21E-06 9.91E-03 7.46E-06 3.94E-04 1.81E-11 8.26E-03 3.19E-11 2.52E-04 0.00E+00 0.00E+00 2.468E-02
1.140E-03 5.87E-03 3.29E-06 1.04E-02 7.64E-06 2.93E-04 1.93E-11 8.59E-03 3.33E-11 3.79E-04 0.00E+00 0.00E+00 2.550E-02
1.130E-03 5.89E-03 3.38E-06 1.08E-02 7.81E-06 2.92E-04 2.00E-11 8.93E-03 3.48E-11 4.63E-04 0.00E+00 0.00E+00 2.634E-02
1.120E-03 5.91E-03 3.48E-06 1.11E-02 7.98E-06 2.94E-04 2.08E-11 9.31E-03 3.63E-11 3.73E-04 0.00E+00 0.00E+00 2.701E-02
1.110E-03 5.92E-03 3.57E-06 1.15E-02 8.17E-06 2.97E-04 2.16E-11 9.71E-03 3.79E-11 2.37E-04 0.00E+00 0.00E+00 2.765E-02
1.090E-03 5.97E-03 3.79E-06 1.22E-02 8.54E-06 3.03E-04 2.32E-11 1.05E-02 4.12E-11 9.82E-05 0.00E+00 0.00E+00 2.908E-02
1.050E-03 6.09E-03 4.32E-06 1.34E-02 9.19E-06 3.17E-04 2.70E-11 1.27E-02 4.89E-11 3.24E-05 0.00E+00 0.00E+00 3.261E-02
1.000E-03 6.32E-03 5.10E-06 1.47E-02 9.74E-06 3.38E-04 3.29E-11 1.47E-02 5.24E-11 1.62E-05 0.00E+00 0.00E+00 3.610E-02
9.800E-04 6.42E-03 5.46E-06 1.49E-02 9.70E-06 3.48E-04 3.56E-11 1.55E-02 5.39E-11 1.40E-05 0.00E+00 0.00E+00 3.720E-02
9.600E-04 6.51E-03 5.86E-06 1.49E-02 9.47E-06 3.58E-04 3.87E-11 1.62E-02 5.43E-11 1.29E-05 0.00E+00 0.00E+00 3.795E-02
9.500E-04 6.59E-03 6.07E-06 1.47E-02 9.29E-06 3.63E-04 4.04E-11 1.63E-02 5.31E-11 1.27E-05 0.00E+00 0.00E+00 3.802E-02
9.400E-04 6.63E-03 6.26E-06 1.44E-02 9.10E-06 3.69E-04 4.21E-11 1.63E-02 5.09E-11 1.28E-05 0.00E+00 0.00E+00 3.775E-02
9.200E-04 6.73E-03 6.68E-06 1.37E-02 8.72E-06 3.81E-04 4.59E-11 1.52E-02 4.23E-11 1.36E-05 0.00E+00 0.00E+00 3.604E-02
8.900E-04 6.90E-03 7.47E-06 1.22E-02 8.16E-06 4.00E-04 5.24E-11 1.20E-02 2.71E-11 2.00E-05 0.00E+00 0.00E+00 3.149E-02
8.700E-04 6.94E-03 7.98E-06 1.10E-02 8.01E-06 4.15E-04 5.74E-11 9.98E-03 2.01E-11 4.51E-05 0.00E+00 0.00E+00 2.840E-02
8.600E-04 7.01E-03 8.31E-06 1.04E-02 8.01E-06 4.22E-04 6.01E-11 9.17E-03 1.78E-11 6.81E-05 0.00E+00 0.00E+00 2.713E-02
8.500E-04 7.05E-03 8.61E-06 9.85E-03 8.00E-06 4.30E-04 6.30E-11 8.45E-03 1.58E-11 4.86E-05 0.00E+00 0.00E+00 2.585E-02
8.400E-04 7.12E-03 8.98E-06 9.19E-03 7.99E-06 4.38E-04 6.61E-11 7.71E-03 1.39E-11 3.47E-05 0.00E+00 0.00E+00 2.451E-02
8.200E-04 7.19E-03 9.58E-06 7.66E-03 8.21E-06 4.55E-04 7.27E-11 5.95E-03 9.95E-12 3.53E-05 0.00E+00 0.00E+00 2.130E-02
8.000E-04 7.28E-03 1.04E-05 6.18E-03 9.06E-06 4.73E-04 8.03E-11 4.07E-03 7.68E-12 5.18E-05 0.00E+00 0.00E+00 1.807E-02
7.900E-04 7.35E-03 1.08E-05 5.61E-03 9.74E-06 4.83E-04 8.44E-11 3.42E-03 8.26E-12 6.48E-05 0.00E+00 0.00E+00 1.696E-02
7.800E-04 7.39E-03 1.12E-05 5.15E-03 1.05E-05 4.92E-04 8.88E-11 2.78E-03 9.35E-12 7.75E-05 0.00E+00 0.00E+00 1.591E-02
7.700E-04 7.40E-03 1.16E-05 4.75E-03 1.14E-05 5.02E-04 9.34E-11 2.29E-03 1.11E-11 8.33E-05 0.00E+00 0.00E+00 1.505E-02
7.600E-04 7.42E-03 1.21E-05 4.41E-03 1.24E-05 5.13E-04 9.84E-11 1.94E-03 1.36E-11 7.73E-05 0.00E+00 0.00E+00 1.439E-02
7.500E-04 7.43E-03 1.26E-05 4.11E-03 1.34E-05 5.23E-04 1.04E-10 1.63E-03 1.65E-11 6.39E-05 0.00E+00 0.00E+00 1.378E-02
7.300E-04 7.52E-03 1.38E-05 3.63E-03 1.59E-05 5.46E-04 1.16E-10 1.37E-03 2.36E-11 3.95E-05 0.00E+00 0.00E+00 1.314E-02
7.200E-04 7.55E-03 1.44E-05 3.49E-03 1.73E-05 5.58E-04 1.22E-10 1.32E-03 2.73E-11 3.28E-05 0.00E+00 0.00E+00 1.298E-02
7.100E-04 7.56E-03 1.51E-05 3.39E-03 1.87E-05 5.71E-04 1.29E-10 1.28E-03 3.14E-11 3.20E-05 0.00E+00 0.00E+00 1.287E-02
7.000E-04 7.64E-03 1.58E-05 3.30E-03 2.01E-05 5.84E-04 1.37E-10 1.27E-03 3.55E-11 4.47E-05 0.00E+00 0.00E+00 1.288E-02
6.900E-04 7.67E-03 1.64E-05 3.17E-03 2.17E-05 5.98E-04 1.45E-10 1.26E-03 4.00E-11 2.59E-05 0.00E+00 0.00E+00 1.277E-02
6.800E-04 7.56E-03 1.70E-05 3.01E-03 2.33E-05 6.12E-04 1.53E-10 1.26E-03 4.46E-11 1.99E-05 0.00E+00 0.00E+00 1.250E-02
6.600E-04 7.60E-03 1.92E-05 2.71E-03 2.71E-05 6.42E-04 1.73E-10 1.26E-03 5.47E-11 1.90E-05 0.00E+00 0.00E+00 1.227E-02
6.400E-04 7.81E-03 2.17E-05 2.35E-03 3.15E-05 6.74E-04 1.95E-10 1.26E-03 6.63E-11 2.92E-05 0.00E+00 0.00E+00 1.217E-02
6.300E-04 7.97E-03 2.28E-05 2.19E-03 3.43E-05 6.82E-04 2.08E-10 1.25E-03 7.28E-11 4.63E-05 0.00E+00 0.00E+00 1.220E-02
6.200E-04 8.01E-03 2.40E-05 2.15E-03 3.73E-05 7.12E-04 2.21E-10 1.25E-03 7.98E-11 6.33E-05 0.00E+00 0.00E+00 1.225E-02
6.100E-04 8.09E-03 2.53E-05 2.14E-03 4.01E-05 7.30E-04 2.36E-10 1.24E-03 8.73E-11 4.55E-05 0.00E+00 0.00E+00 1.232E-02
5.900E-04 8.42E-03 2.85E-05 1.76E-03 4.68E-05 7.71E-04 2.69E-10 1.22E-03 1.05E-10 1.97E-05 0.00E+00 0.00E+00 1.227E-02
5.500E-04 8.13E-03 3.43E-05 1.31E-03 6.58E-05 8.64E-04 3.56E-10 1.20E-03 1.50E-10 1.61E-05 0.00E+00 0.00E+00 1.162E-02
5.300E-04 8.19E-03 3.94E-05 1.17E-03 7.83E-05 9.18E-04 4.12E-10 1.21E-03 1.79E-10 2.63E-05 0.00E+00 0.00E+00 1.163E-02
5.200E-04 8.21E-03 4.22E-05 1.10E-03 8.55E-05 9.47E-04 4.44E-10 1.21E-03 1.97E-10 4.26E-05 0.00E+00 0.00E+00 1.163E-02
5.100E-04 8.28E-03 4.54E-05 1.03E-03 9.35E-05 9.78E-04 4.80E-10 1.22E-03 2.16E-10 5.94E-05 0.00E+00 0.00E+00 1.170E-02
5.000E-04 8.37E-03 4.88E-05 9.49E-04 1.04E-04 1.01E-03 5.19E-10 1.22E-03 2.37E-10 4.23E-05 0.00E+00 0.00E+00 1.174E-02
4.800E-04 8.48E-03 5.64E-05 8.42E-04 1.25E-04 1.08E-03 6.09E-10 1.24E-03 2.86E-10 1.86E-05 0.00E+00 0.00E+00 1.184E-02
4.500E-04 8.76E-03 7.06E-05 7.07E-04 1.66E-04 1.19E-03 7.86E-10 1.29E-03 3.82E-10 1.36E-05 0.00E+00 0.00E+00 1.220E-02
4.000E-04 9.09E-03 1.08E-04 5.24E-04 2.76E-04 1.44E-03 1.25E-09 1.39E-03 6.38E-10 1.49E-05 0.00E+00 0.00E+00 1.283E-02
3.800E-04 9.28E-03 1.30E-04 4.62E-04 3.44E-04 1.56E-03 1.53E-09 1.43E-03 7.95E-10 1.67E-05 0.00E+00 0.00E+00 1.322E-02
3.600E-04 9.48E-03 1.59E-04 4.06E-04 4.32E-04 1.69E-03 1.90E-09 1.48E-03 9.99E-10 2.07E-05 0.00E+00 0.00E+00 1.367E-02
3.400E-04 9.94E-03 1.96E-04 3.58E-04 5.49E-04 1.85E-03 2.38E-09 1.53E-03 1.27E-09 4.53E-05 0.00E+00 0.00E+00 1.447E-02
3.300E-04 9.92E-03 2.16E-04 3.35E-04 6.22E-04 1.94E-03 2.67E-09 1.56E-03 1.44E-09 1.24E-04 0.00E+00 0.00E+00 1.471E-02
3.200E-04 9.95E-03 2.43E-04 3.12E-04 7.07E-04 2.04E-03 3.01E-09 1.58E-03 1.63E-09 4.64E-05 0.00E+00 0.00E+00 1.488E-02
3.150E-04 1.00E-02 2.58E-04 3.02E-04 7.55E-04 2.09E-03 3.21E-09 1.59E-03 1.74E-09 3.43E-05 0.00E+00 0.00E+00 1.507E-02
3.100E-04 1.01E-02 2.74E-04 2.92E-04 8.06E-04 2.14E-03 3.42E-09 1.61E-03 1.86E-09 2.96E-05 0.00E+00 0.00E+00 1.529E-02
3.080E-04 1.02E-02 2.80E-04 2.88E-04 8.28E-04 2.16E-03 3.50E-09 1.61E-03 1.91E-09 2.86E-05 0.00E+00 0.00E+00 1.537E-02
3.050E-04 1.02E-02 2.91E-04 2.82E-04 8.63E-04 2.20E-03 3.64E-09 1.62E-03 1.99E-09 2.76E-05 0.00E+00 0.00E+00 1.549E-02
3.000E-04 1.03E-02 3.09E-04 2.73E-04 9.24E-04 2.26E-03 3.89E-09 1.64E-03 2.13E-09 2.69E-05 0.00E+00 0.00E+00 1.570E-02
2.900E-04 1.05E-02 3.50E-04 2.55E-04 1.06E-03 2.38E-03 4.44E-09 1.67E-03 2.45E-09 2.70E-05 0.00E+00 0.00E+00 1.622E-02
2.800E-04 1.05E-02 3.98E-04 2.38E-04 1.23E-03 2.51E-03 5.10E-09 1.71E-03 2.83E-09 2.82E-05 0.00E+00 0.00E+00 1.666E-02
2.600E-04 1.08E-02 5.27E-04 2.07E-04 1.66E-03 2.82E-03 6.81E-09 1.80E-03 3.83E-09 3.21E-05 0.00E+00 0.00E+00 1.787E-02
2.500E-04 1.10E-02 6.14E-04 1.92E-04 1.95E-03 3.00E-03 7.95E-09 1.84E-03 4.50E-09 3.48E-05 0.00E+00 0.00E+00 1.868E-02
2.200E-04 1.20E-02 1.01E-03 1.56E-04 3.27E-03 3.64E-03 1.31E-08 2.02E-03 7.55E-09 4.60E-05 0.00E+00 0.00E+00 2.219E-02
2.159E-04 1.22E-02 1.08E-03 1.51E-04 3.53E-03 3.75E-03 1.41E-08 2.05E-03 8.15E-09 4.81E-05 0.00E+00 0.00E+00 2.277E-02
2.000E-04 1.29E-02 1.46E-03 1.36E-04 4.79E-03 4.22E-03 1.91E-08 2.17E-03 1.11E-08 5.78E-05 0.00E+00 0.00E+00 2.571E-02
1.662E-04 1.49E-02 2.95E-03 1.10E-04 9.91E-03 5.60E-03 3.93E-08 2.51E-03 2.34E-08 9.29E-05 0.00E+00 0.00E+00 3.604E-02
1.650E-04 1.49E-02 3.03E-03 1.09E-04 1.02E-02 5.67E-03 4.05E-08 2.53E-03 2.41E-08 9.48E-05 0.00E+00 0.00E+00 3.657E-02
1.250E-04 1.97E-02 8.58E-03 1.01E-04 2.82E-02 8.72E-03 1.20E-07 3.21E-03 7.32E-08 2.04E-04 0.00E+00 0.00E+00 6.876E-02
1.235E-04 2.00E-02 8.96E-03 9.99E-05 2.94E-02 8.88E-03 1.26E-07 3.24E-03 7.69E-08 2.11E-04 0.00E+00 0.00E+00 7.083E-02
1.130E-04 2.23E-02 1.22E-02 1.04E-04 3.95E-02 1.02E-02 1.78E-07 3.52E-03 1.10E-07 2.69E-04 0.00E+00 0.00E+00 8.820E-02
1.000E-04 2.66E-02 1.82E-02 1.18E-04 5.84E-02 1.24E-02 2.87E-07 3.95E-03 1.79E-07 3.74E-04 0.00E+00 0.00E+00 1.201E-01
9.500E-05 2.89E-02 2.13E-02 1.20E-04 6.85E-02 1.35E-02 3.50E-07 4.15E-03 2.20E-07 4.29E-04 0.00E+00 0.00E+00 1.369E-01
9.300E-05 2.98E-02 2.26E-02 1.23E-04 7.32E-02 1.40E-02 3.81E-07 4.23E-03 2.39E-07 4.53E-04 0.00E+00 0.00E+00 1.445E-01
9.200E-05 3.04E-02 2.34E-02 1.24E-04 7.57E-02 1.42E-02 3.97E-07 4.28E-03 2.50E-07 4.66E-04 0.00E+00 0.00E+00 1.485E-01
9.100E-05 3.09E-02 2.41E-02 1.28E-04 7.83E-02 1.45E-02 4.14E-07 4.32E-03 2.61E-07 4.79E-04 0.00E+00 0.00E+00 1.527E-01
9.000E-05 3.14E-02 2.49E-02 1.30E-04 8.11E-02 1.48E-02 4.32E-07 4.37E-03 2.73E-07 4.93E-04 0.00E+00 0.00E+00 1.571E-01
8.900E-05 3.19E-02 2.57E-02 1.32E-04 8.39E-02 1.50E-02 4.51E-07 4.41E-03 2.85E-07 5.08E-04 0.00E+00 0.00E+00 1.616E-01
8.800E-05 3.25E-02 2.65E-02 1.33E-04 8.69E-02 1.53E-02 4.72E-07 4.46E-03 2.98E-07 5.22E-04 0.00E+00 0.00E+00 1.663E-01
8.700E-05 3.31E-02 2.74E-02 1.38E-04 9.00E-02 1.56E-02 4.93E-07 4.51E-03 3.12E-07 5.38E-04 0.00E+00 0.00E+00 1.712E-01
8.600E-05 3.36E-02 2.83E-02 1.39E-04 9.33E-02 1.59E-02 5.16E-07 4.56E-03 3.27E-07 5.54E-04 0.00E+00 0.00E+00 1.763E-01
8.500E-05 3.42E-02 2.92E-02 1.42E-04 9.67E-02 1.62E-02 5.39E-07 4.61E-03 3.43E-07 5.71E-04 0.00E+00 0.00E+00 1.816E-01
8.400E-05 3.48E-02 3.02E-02 1.44E-04 1.00E-01 1.65E-02 5.65E-07 4.66E-03 3.59E-07 5.88E-04 0.00E+00 0.00E+00 1.872E-01
8.330E-05 3.53E-02 3.09E-02 1.47E-04 1.03E-01 1.67E-02 5.83E-07 4.70E-03 3.72E-07 6.01E-04 0.00E+00 0.00E+00 1.912E-01
8.200E-05 3.62E-02 3.23E-02 1.49E-04 1.08E-01 1.71E-02 6.20E-07 4.77E-03 3.96E-07 6.25E-04 0.00E+00 0.00E+00 1.990E-01
8.100E-05 3.69E-02 3.34E-02 1.53E-04 1.12E-01 1.74E-02 6.50E-07 4.82E-03 4.16E-07 6.44E-04 0.00E+00 0.00E+00 2.053E-01
8.000E-05 3.77E-02 3.46E-02 1.55E-04 1.16E-01 1.78E-02 6.82E-07 4.88E-03 4.37E-07 6.64E-04 0.00E+00 0.00E+00 2.119E-01
7.900E-05 3.85E-02 3.58E-02 1.58E-04 1.21E-01 1.81E-02 7.16E-07 4.94E-03 4.60E-07 6.86E-04 0.00E+00 0.00E+00 2.188E-01
7.800E-05 3.93E-02 3.70E-02 1.63E-04 1.25E-01 1.85E-02 7.52E-07 5.00E-03 4.84E-07 7.07E-04 0.00E+00 0.00E+00 2.260E-01
7.700E-05 4.02E-02 3.83E-02 1.67E-04 1.30E-01 1.89E-02 7.91E-07 5.06E-03 5.09E-07 7.30E-04 0.00E+00 0.00E+00 2.334E-01
7.600E-05 4.11E-02 3.96E-02 1.73E-04 1.35E-01 1.92E-02 8.32E-07 5.12E-03 5.37E-07 7.54E-04 0.00E+00 0.00E+00 2.411E-01
7.500E-05 4.21E-02 4.09E-02 1.78E-04 1.40E-01 1.96E-02 8.76E-07 5.18E-03 5.66E-07 7.79E-04 0.00E+00 0.00E+00 2.492E-01
7.400E-05 4.31E-02 4.23E-02 1.86E-04 1.46E-01 2.00E-02 9.22E-07 5.25E-03 5.98E-07 8.05E-04 0.00E+00 0.00E+00 2.575E-01
7.300E-05 4.42E-02 4.37E-02 1.95E-04 1.51E-01 2.05E-02 9.72E-07 5.31E-03 6.31E-07 8.32E-04 0.00E+00 0.00E+00 2.661E-01
7.140E-05 4.59E-02 4.59E-02 2.01E-04 1.61E-01 2.12E-02 1.06E-06 5.43E-03 6.90E-07 8.78E-04 0.00E+00 0.00E+00 2.805E-01
7.100E-05 4.64E-02 4.65E-02 2.02E-04 1.63E-01 2.13E-02 1.08E-06 5.46E-03 7.06E-07 8.90E-04 0.00E+00 0.00E+00 2.842E-01
7.000E-05 4.75E-02 4.79E-02 2.08E-04 1.70E-01 2.18E-02 1.14E-06 5.53E-03 7.47E-07 9.21E-04 0.00E+00 0.00E+00 2.937E-01
6.900E-05 4.87E-02 4.94E-02 2.15E-04 1.76E-01 2.23E-02 1.21E-06 5.60E-03 7.91E-07 9.53E-04 0.00E+00 0.00E+00 3.035E-01
6.800E-05 4.98E-02 5.09E-02 2.24E-04 1.83E-01 2.27E-02 1.28E-06 5.68E-03 8.39E-07 9.87E-04 0.00E+00 0.00E+00 3.137E-01
6.700E-05 5.11E-02 5.24E-02 2.33E-04 1.90E-01 2.32E-02 1.36E-06 5.76E-03 8.91E-07 1.02E-03 0.00E+00 0.00E+00 3.242E-01
6.600E-05 5.23E-02 5.39E-02 2.44E-04 1.98E-01 2.38E-02 1.44E-06 5.84E-03 9.46E-07 1.06E-03 0.00E+00 0.00E+00 3.350E-01
6.500E-05 5.36E-02 5.55E-02 2.49E-04 2.05E-01 2.43E-02 1.52E-06 5.93E-03 1.01E-06 1.10E-03 0.00E+00 0.00E+00 3.461E-01
6.400E-05 5.50E-02 5.70E-02 2.55E-04 2.13E-01 2.49E-02 1.62E-06 6.02E-03 1.07E-06 1.14E-03 0.00E+00 0.00E+00 3.576E-01
6.300E-05 5.64E-02 5.86E-02 2.63E-04 2.21E-01 2.55E-02 1.72E-06 6.11E-03 1.14E-06 1.18E-03 0.00E+00 0.00E+00 3.694E-01
6.250E-05 5.71E-02 5.94E-02 2.65E-04 2.26E-01 2.58E-02 1.78E-06 6.15E-03 1.18E-06 1.21E-03 0.00E+00 0.00E+00 3.755E-01
6.200E-05 5.78E-02 6.02E-02 2.72E-04 2.30E-01 2.61E-02 1.84E-06 6.20E-03 1.22E-06 1.23E-03 0.00E+00 0.00E+00 3.816E-01
6.100E-05 5.94E-02 6.17E-02 2.84E-04 2.38E-01 2.68E-02 1.96E-06 6.30E-03 1.30E-06 1.28E-03 0.00E+00 0.00E+00 3.942E-01
6.000E-05 6.10E-02 6.33E-02 2.97E-04 2.47E-01 2.74E-02 2.09E-06 6.40E-03 1.39E-06 1.33E-03 0.00E+00 0.00E+00 4.071E-01
5.900E-05 6.26E-02 6.48E-02 3.10E-04 2.57E-01 2.81E-02 2.23E-06 6.50E-03 1.49E-06 1.38E-03 0.00E+00 0.00E+00 4.204E-01
5.800E-05 6.44E-02 6.62E-02 3.23E-04 2.66E-01 2.88E-02 2.38E-06 6.61E-03 1.59E-06 1.44E-03 0.00E+00 0.00E+00 4.341E-01
5.700E-05 6.62E-02 6.76E-02 3.40E-04 2.76E-01 2.95E-02 2.55E-06 6.72E-03 1.71E-06 1.50E-03 0.00E+00 0.00E+00 4.482E-01
5.600E-05 6.80E-02 6.89E-02 3.58E-04 2.87E-01 3.03E-02 2.74E-06 6.83E-03 1.84E-06 1.57E-03 0.00E+00 0.00E+00 4.627E-01
5.500E-05 7.00E-02 7.02E-02 3.74E-04 2.97E-01 3.10E-02 2.94E-06 6.95E-03 1.97E-06 1.64E-03 0.00E+00 0.00E+00 4.776E-01
5.477E-05 7.04E-02 7.04E-02 3.76E-04 3.00E-01 3.13E-02 2.99E-06 6.98E-03 2.01E-06 2.29E-03 0.00E+00 0.00E+00 4.817E-01
5.400E-05 7.19E-02 7.13E-02 3.89E-04 3.09E-01 3.20E-02 3.16E-06 7.07E-03 2.13E-06 2.38E-03 0.00E+00 0.00E+00 4.937E-01
5.300E-05 7.39E-02 7.24E-02 4.07E-04 3.20E-01 3.29E-02 3.41E-06 7.20E-03 2.30E-06 2.50E-03 0.00E+00 0.00E+00 5.096E-01
5.200E-05 7.60E-02 7.34E-02 4.33E-04 3.32E-01 3.40E-02 3.68E-06 7.33E-03 2.48E-06 2.64E-03 0.00E+00 0.00E+00 5.261E-01
5.100E-05 7.80E-02 7.43E-02 4.57E-04 3.45E-01 3.50E-02 3.98E-06 7.46E-03 2.68E-06 2.79E-03 0.00E+00 0.00E+00 5.429E-01
5.000E-05 8.00E-02 7.51E-02 4.83E-04 3.58E-01 3.61E-02 4.31E-06 7.60E-03 2.91E-06 2.95E-03 0.00E+00 0.00E+00 5.602E-01
4.900E-05 8.21E-02 7.58E-02 5.08E-04 3.71E-01 3.72E-02 4.68E-06 7.75E-03 3.16E-06 3.13E-03 0.00E+00 0.00E+00 5.779E-01
4.880E-05 8.25E-02 7.60E-02 5.14E-04 3.74E-01 3.74E-02 4.76E-06 7.78E-03 3.21E-06 3.17E-03 0.00E+00 0.00E+00 5.815E-01
4.800E-05 8.41E-02 7.65E-02 5.37E-04 3.85E-01 3.86E-02 5.09E-06 7.90E-03 3.43E-06 3.33E-03 0.00E+00 0.00E+00 5.961E-01
4.760E-05 8.49E-02 7.67E-02 5.50E-04 3.91E-01 3.92E-02 5.27E-06 7.97E-03 3.55E-06 3.42E-03 0.00E+00 0.00E+00 6.036E-01
4.700E-05 8.61E-02 7.71E-02 5.71E-04 3.99E-01 4.01E-02 5.55E-06 8.06E-03 3.74E-06 3.55E-03 0.00E+00 0.00E+00 6.148E-01
4.650E-05 8.71E-02 7.73E-02 5.85E-04 4.07E-01 4.09E-02 5.80E-06 8.14E-03 3.91E-06 3.67E-03 0.00E+00 0.00E+00 6.242E-01
4.600E-05 8.81E-02 7.76E-02 6.08E-04 4.14E-01 4.17E-02 6.06E-06 8.23E-03 4.09E-06 3.80E-03 0.00E+00 0.00E+00 6.337E-01
4.550E-05 8.90E-02 7.78E-02 6.34E-04 4.21E-01 4.25E-02 6.34E-06 8.31E-03 4.27E-06 3.93E-03 0.00E+00 0.00E+00 6.433E-01
4.500E-05 9.00E-02 7.80E-02 6.62E-04 4.28E-01 4.33E-02 6.63E-06 8.40E-03 4.47E-06 4.07E-03 0.00E+00 0.00E+00 6.529E-01
4.440E-05 9.11E-02 7.83E-02 6.98E-04 4.37E-01 4.43E-02 7.01E-06 8.51E-03 4.72E-06 4.25E-03 0.00E+00 0.00E+00 6.646E-01
4.350E-05 9.28E-02 7.85E-02 7.63E-04 4.51E-01 4.60E-02 7.63E-06 8.67E-03 5.13E-06 4.54E-03 0.00E+00 0.00E+00 6.824E-01
4.170E-05 9.61E-02 7.90E-02 9.26E-04 4.79E-01 5.00E-02 9.08E-06 9.01E-03 6.11E-06 5.24E-03 0.00E+00 0.00E+00 7.193E-01
4.000E-05 9.90E-02 7.92E-02 1.22E-03 5.06E-01 5.41E-02 1.08E-05 9.37E-03 7.25E-06 6.09E-03 0.00E+00 0.00E+00 7.550E-01
3.850E-05 1.01E-01 7.92E-02 1.62E-03 5.30E-01 5.79E-02 1.26E-05 9.69E-03 8.50E-06 7.03E-03 0.00E+00 0.00E+00 7.870E-01
3.656E-05 1.04E-01 7.91E-02 2.38E-03 5.61E-01 6.33E-02 1.58E-05 1.01E-02 1.06E-05 8.66E-03 0.00E+00 0.00E+00 8.288E-01
3.570E-05 1.05E-01 7.91E-02 2.77E-03 5.74E-01 6.60E-02 1.74E-05 1.04E-02 1.16E-05 9.60E-03 0.00E+00 0.00E+00 8.471E-01
3.330E-05 1.08E-01 7.87E-02 4.15E-03 6.07E-01 7.50E-02 2.39E-05 1.10E-02 1.56E-05 1.33E-02 0.00E+00 0.00E+00 8.978E-01
3.130E-05 1.10E-01 7.82E-02 5.49E-03 6.31E-01 8.62E-02 3.22E-05 1.16E-02 2.03E-05 1.87E-02 0.00E+00 0.00E+00 9.415E-01
3.000E-05 1.11E-01 7.79E-02 6.57E-03 6.43E-01 9.63E-02 3.99E-05 1.20E-02 2.44E-05 2.44E-02 0.00E+00 0.00E+00 9.715E-01
2.940E-05 1.12E-01 7.77E-02 7.09E-03 6.47E-01 1.01E-01 4.43E-05 1.22E-02 2.66E-05 2.80E-02 0.00E+00 0.00E+00 9.853E-01
2.780E-05 1.13E-01 7.71E-02 8.68E-03 6.54E-01 1.19E-01 6.08E-05 1.27E-02 3.39E-05 4.34E-02 0.00E+00 0.00E+00 1.028E+00
2.630E-05 1.13E-01 7.66E-02 1.03E-02 6.56E-01 1.45E-01 8.64E-05 1.32E-02 4.34E-05 7.41E-02 0.00E+00 0.00E+00 1.088E+00
2.500E-05 1.13E-01 7.64E-02 1.21E-02 6.51E-01 1.81E-01 1.26E-04 1.36E-02 5.45E-05 1.35E-01 0.00E+00 0.00E+00 1.183E+00
2.380E-05 1.13E-01 7.62E-02 1.44E-02 6.43E-01 2.49E-01 1.92E-04 1.37E-02 6.84E-05 2.59E-01 0.00E+00 0.00E+00 1.369E+00
2.270E-05 1.13E-01 7.57E-02 1.76E-02 6.34E-01 3.60E-01 2.82E-04 1.42E-02 8.59E-05 3.64E-01 0.00E+00 0.00E+00 1.580E+00
2.170E-05 1.13E-01 7.55E-02 2.18E-02 6.27E-01 4.87E-01 3.66E-04 1.60E-02 1.07E-04 2.67E-01 0.00E+00 0.00E+00 1.607E+00
2.080E-05 1.13E-01 7.54E-02 2.95E-02 6.23E-01 5.05E-01 3.39E-04 2.00E-02 1.34E-04 1.54E-01 0.00E+00 0.00E+00 1.519E+00
2.000E-05 1.12E-01 7.51E-02 1.01E-01 5.58E-01 4.38E-01 2.66E-04 2.54E-02 1.64E-04 9.51E-02 0.00E+00 0.00E+00 1.405E+00
1.920E-05 1.12E-01 7.54E-02 1.84E-01 4.80E-01 3.40E-01 1.83E-04 3.49E-02 2.03E-04 6.25E-02 0.00E+00 0.00E+00 1.288E+00
1.850E-05 1.12E-01 7.63E-02 2.29E-01 4.36E-01 2.66E-01 1.29E-04 4.68E-02 2.49E-04 4.58E-02 0.00E+00 0.00E+00 1.211E+00
1.790E-05 1.12E-01 7.68E-02 2.76E-01 3.84E-01 2.16E-01 9.87E-05 5.98E-02 2.98E-04 3.64E-02 0.00E+00 0.00E+00 1.161E+00
1.720E-05 1.12E-01 7.73E-02 3.04E-01 3.51E-01 1.74E-01 7.85E-05 8.29E-02 3.74E-04 2.91E-02 0.00E+00 0.00E+00 1.130E+00
1.670E-05 1.12E-01 7.79E-02 3.14E-01 3.38E-01 1.49E-01 7.14E-05 1.05E-01 4.42E-04 2.56E-02 0.00E+00 0.00E+00 1.121E+00
1.610E-05 1.12E-01 7.85E-02 3.22E-01 3.27E-01 1.25E-01 7.26E-05 1.42E-01 5.46E-04 2.27E-02 0.00E+00 0.00E+00 1.130E+00
1.560E-05 1.12E-01 7.89E-02 3.25E-01 3.21E-01 1.10E-01 8.19E-05 1.86E-01 6.53E-04 2.11E-02 0.00E+00 0.00E+00 1.155E+00
1.520E-05 1.12E-01 7.92E-02 3.27E-01 3.17E-01 9.99E-02 9.53E-05 2.33E-01 7.51E-04 2.03E-02 0.00E+00 0.00E+00 1.188E+00
1.470E-05 1.12E-01 7.95E-02 3.27E-01 3.12E-01 8.89E-02 1.20E-04 3.00E-01 8.89E-04 1.99E-02 0.00E+00 0.00E+00 1.240E+00
1.430E-05 1.12E-01 7.96E-02 3.27E-01 3.09E-01 8.33E-02 1.50E-04 3.57E-01 9.95E-04 2.01E-02 0.00E+00 0.00E+00 1.289E+00
1.390E-05 1.11E-01 7.96E-02 3.26E-01 3.06E-01 8.10E-02 1.91E-04 4.02E-01 1.10E-03 2.07E-02 0.00E+00 0.00E+00 1.329E+00
1.350E-05 1.11E-01 7.96E-02 3.26E-01 3.03E-01 8.09E-02 2.45E-04 4.44E-01 1.23E-03 2.18E-02 0.00E+00 0.00E+00 1.368E+00
1.320E-05 1.11E-01 7.96E-02 3.25E-01 3.01E-01 8.25E-02 2.98E-04 4.77E-01 1.35E-03 2.31E-02 0.00E+00 0.00E+00 1.400E+00
1.280E-05 1.10E-01 7.97E-02 3.24E-01 2.98E-01 8.78E-02 3.90E-04 5.25E-01 1.54E-03 2.54E-02 0.00E+00 0.00E+00 1.452E+00
1.250E-05 1.10E-01 7.98E-02 3.23E-01 2.97E-01 9.54E-02 4.81E-04 5.64E-01 1.71E-03 2.77E-02 0.00E+00 0.00E+00 1.499E+00
1.220E-05 1.09E-01 7.99E-02 3.22E-01 2.97E-01 1.06E-01 5.96E-04 6.07E-01 1.90E-03 3.08E-02 0.00E+00 0.00E+00 1.555E+00
1.190E-05 1.09E-01 7.99E-02 3.21E-01 2.99E-01 1.21E-01 7.40E-04 6.55E-01 2.13E-03 3.48E-02 0.00E+00 0.00E+00 1.622E+00
1.160E-05 1.08E-01 7.98E-02 3.20E-01 3.00E-01 1.38E-01 9.22E-04 7.09E-01 2.40E-03 4.01E-02 0.00E+00 0.00E+00 1.698E+00
1.140E-05 1.08E-01 7.97E-02 3.19E-01 3.00E-01 1.53E-01 1.08E-03 7.49E-01 2.61E-03 4.45E-02 0.00E+00 0.00E+00 1.756E+00
1.110E-05 1.07E-01 7.95E-02 3.18E-01 3.01E-01 1.75E-01 1.42E-03 8.15E-01 2.98E-03 5.29E-02 0.00E+00 0.00E+00 1.852E+00
1.080E-05 1.06E-01 7.93E-02 3.17E-01 3.01E-01 2.36E-01 1.89E-03 8.94E-01 3.44E-03 6.42E-02 0.00E+00 0.00E+00 2.003E+00
1.050E-05 1.05E-01 7.91E-02 3.15E-01 3.02E-01 3.14E-01 2.45E-03 9.93E-01 4.02E-03 7.96E-02 0.00E+00 0.00E+00 2.194E+00
1.030E-05 1.04E-01 7.89E-02 3.14E-01 3.02E-01 3.75E-01 2.80E-03 1.09E+00 4.47E-03 9.27E-02 0.00E+00 0.00E+00 2.360E+00
1.000E-05 1.03E-01 7.85E-02 3.12E-01 3.03E-01 4.60E-01 3.42E-03 1.22E+00 5.14E-03 1.18E-01 0.00E+00 0.00E+00 2.601E+00
9.750E-06 1.02E-01 7.82E-02 3.11E-01 3.04E-01 5.58E-01 4.25E-03 1.32E+00 5.72E-03 1.42E-01 0.00E+00 0.00E+00 2.830E+00
9.500E-06 1.01E-01 7.78E-02 3.09E-01 3.04E-01 6.71E-01 5.03E-03 1.44E+00 6.36E-03 1.68E-01 0.00E+00 0.00E+00 3.081E+00
9.250E-06 1.00E-01 7.75E-02 3.07E-01 3.05E-01 7.57E-01 5.62E-03 1.55E+00 6.99E-03 1.87E-01 0.00E+00 0.00E+00 3.300E+00
9.080E-06 9.96E-02 7.72E-02 3.03E-01 3.04E-01 8.10E-01 6.04E-03 1.62E+00 7.32E-03 1.91E-01 0.00E+00 0.00E+00 3.418E+00
