  abuc    abusi    avsi   avgr    apah     qmrn  rlec      rlesi     r_pmin_aC r_pmin_Si r_pmax    r_Darkmax 
  15.356  15.000   5.129   5.257  12.399   2.487 2.013e-05 2.569e-05 1.200e-05 8.000e-06 1.500e-04 1.562e-04 4.662e+00 1.258e+00
   2.2761   0.0000   0.2084   0.7999   1.8005   0.0661  0.0000e+00  0.0000e+00  0.0000e+00  0.0000e+00
  -0.0000   0.1829
   redchi2, redchi2p   0.5817 999.0000
   Mean Rad aC, Si, , aCalig, Sia  8.29e-06  1.04e-05  1.62e-05  1.64e-05  8.31e-05
