 # Optical depth:  wel [cm]  N*sig* [cm^2/cm^2/g dust ISM] 
 # wel(cm) sa_aC    ss_aC    sa_Si    ss_Si    sa_vgr   ss_vgr   sa_vsi   ss_vsi   s_pahS+B sa_Dark  ss_Dark sigt 
 # ------------------------------------------------------------------------------------------------------------- 
1.000E+00 5.19E-07 7.42E-17 4.85E-07 6.28E-17 1.15E-08 9.55E-23 1.10E-07 1.63E-22 2.99E-11 6.83E-06 3.54E-14 7.960E-06
9.000E-01 6.08E-07 1.13E-16 5.73E-07 9.57E-17 1.47E-08 1.46E-22 1.31E-07 2.49E-22 3.69E-11 7.96E-06 5.40E-14 9.286E-06
8.000E-01 7.27E-07 1.81E-16 6.90E-07 1.53E-16 1.92E-08 2.33E-22 1.60E-07 3.98E-22 4.67E-11 9.45E-06 8.64E-14 1.104E-05
7.000E-01 8.90E-07 3.09E-16 8.52E-07 2.62E-16 2.57E-08 3.98E-22 1.96E-07 6.79E-22 6.10E-11 1.15E-05 1.47E-13 1.343E-05
6.000E-01 1.13E-06 5.72E-16 1.09E-06 4.85E-16 3.57E-08 7.37E-22 2.52E-07 1.26E-21 8.31E-11 1.44E-05 2.72E-13 1.688E-05
5.500E-01 1.29E-06 8.09E-16 1.25E-06 6.86E-16 4.27E-08 1.04E-21 2.91E-07 1.78E-21 9.89E-11 1.63E-05 3.85E-13 1.921E-05
5.000E-01 1.49E-06 1.18E-15 1.46E-06 1.00E-15 5.18E-08 1.53E-21 3.37E-07 2.61E-21 1.20E-10 1.88E-05 5.64E-13 2.214E-05
4.500E-01 1.76E-06 1.81E-15 1.72E-06 1.53E-15 6.38E-08 2.33E-21 4.02E-07 3.97E-21 1.48E-10 2.20E-05 8.58E-13 2.593E-05
4.000E-01 2.11E-06 2.89E-15 2.08E-06 2.45E-15 7.99E-08 3.73E-21 4.83E-07 6.36E-21 1.87E-10 2.62E-05 1.37E-12 3.094E-05
3.500E-01 2.61E-06 4.93E-15 2.58E-06 4.19E-15 1.02E-07 6.36E-21 6.05E-07 1.08E-20 2.44E-10 3.20E-05 2.34E-12 3.789E-05
3.000E-01 3.33E-06 9.13E-15 3.31E-06 7.75E-15 1.35E-07 1.18E-20 7.68E-07 2.01E-20 3.32E-10 4.03E-05 4.32E-12 4.787E-05
2.500E-01 4.46E-06 1.89E-14 4.45E-06 1.61E-14 1.84E-07 2.44E-20 1.03E-06 4.16E-20 4.79E-10 5.32E-05 8.95E-12 6.331E-05
2.098E-01 5.93E-06 3.81E-14 5.92E-06 3.24E-14 2.45E-07 4.93E-20 1.37E-06 8.38E-20 6.80E-10 6.96E-05 1.80E-11 8.302E-05
1.500E-01 1.03E-05 1.46E-13 1.02E-05 1.24E-13 4.67E-07 1.89E-19 2.35E-06 3.21E-19 1.33E-09 1.17E-04 6.86E-11 1.404E-04
1.382E-01 1.18E-05 2.02E-13 1.17E-05 1.72E-13 5.50E-07 2.62E-19 2.69E-06 4.45E-19 1.57E-09 1.33E-04 9.50E-11 1.599E-04
1.320E-01 1.28E-05 2.43E-13 1.26E-05 2.07E-13 6.02E-07 3.15E-19 2.90E-06 5.34E-19 1.72E-09 1.43E-04 1.14E-10 1.721E-04
1.150E-01 1.61E-05 4.21E-13 1.59E-05 3.59E-13 7.90E-07 5.46E-19 3.62E-06 9.27E-19 2.26E-09 1.78E-04 1.98E-10 2.146E-04
1.000E-01 2.05E-05 7.37E-13 1.99E-05 6.28E-13 1.04E-06 9.55E-19 4.52E-06 1.62E-18 2.99E-09 2.23E-04 3.45E-10 2.691E-04
9.970E-02 2.06E-05 7.46E-13 2.00E-05 6.36E-13 1.04E-06 9.66E-19 4.54E-06 1.64E-18 3.01E-09 2.24E-04 3.49E-10 2.704E-04
8.670E-02 2.60E-05 1.30E-12 2.53E-05 1.11E-12 1.38E-06 1.69E-18 5.70E-06 2.87E-18 3.98E-09 2.79E-04 6.09E-10 3.371E-04
8.500E-02 2.69E-05 1.41E-12 2.61E-05 1.20E-12 1.43E-06 1.83E-18 5.88E-06 3.10E-18 4.14E-09 2.88E-04 6.59E-10 3.486E-04
7.500E-02 3.42E-05 2.33E-12 3.21E-05 1.99E-12 1.82E-06 3.02E-18 7.18E-06 5.12E-18 5.32E-09 3.60E-04 1.09E-09 4.352E-04
6.000E-02 5.02E-05 5.68E-12 4.64E-05 4.88E-12 2.80E-06 7.36E-18 1.04E-05 1.25E-17 8.31E-09 5.12E-04 2.64E-09 6.214E-04
5.500E-02 5.82E-05 8.05E-12 5.19E-05 6.94E-12 3.30E-06 1.04E-17 1.22E-05 1.77E-17 9.89E-09 5.90E-04 3.74E-09 7.157E-04
5.000E-02 6.93E-05 1.18E-11 6.43E-05 1.02E-11 3.94E-06 1.53E-17 1.45E-05 2.59E-17 1.20E-08 6.99E-04 5.47E-09 8.511E-04
4.500E-02 8.53E-05 1.80E-11 8.52E-05 1.57E-11 4.81E-06 2.33E-17 1.77E-05 3.95E-17 1.48E-08 8.53E-04 8.32E-09 1.046E-03
4.000E-02 1.10E-04 2.89E-11 1.14E-04 2.54E-11 5.99E-06 3.73E-17 2.24E-05 6.34E-17 1.87E-08 1.07E-03 1.33E-08 1.323E-03
3.500E-02 1.37E-04 4.93E-11 1.73E-04 4.37E-11 7.68E-06 6.36E-17 2.96E-05 1.08E-16 2.44E-08 1.32E-03 2.26E-08 1.666E-03
3.000E-02 1.94E-04 9.16E-11 2.70E-04 8.14E-11 1.02E-05 1.18E-16 4.15E-05 2.01E-16 3.33E-08 1.80E-03 4.18E-08 2.319E-03
2.750E-02 2.31E-04 1.30E-10 3.40E-04 1.15E-10 1.21E-05 1.67E-16 5.07E-05 2.85E-16 3.96E-08 2.11E-03 5.90E-08 2.740E-03
2.500E-02 2.79E-04 1.91E-10 4.33E-04 1.69E-10 1.44E-05 2.44E-16 6.36E-05 4.17E-16 4.79E-08 2.51E-03 8.62E-08 3.303E-03
2.400E-02 3.06E-04 2.25E-10 4.79E-04 1.98E-10 1.56E-05 2.88E-16 6.94E-05 4.91E-16 5.20E-08 2.70E-03 1.01E-07 3.572E-03
2.000E-02 4.47E-04 4.69E-10 7.45E-04 4.05E-10 2.21E-05 5.97E-16 1.00E-04 1.02E-15 7.50E-08 3.79E-03 2.09E-07 5.102E-03
1.800E-02 5.57E-04 7.20E-10 9.25E-04 6.07E-10 2.71E-05 9.12E-16 1.25E-04 1.55E-15 9.26E-08 4.63E-03 3.17E-07 6.268E-03
1.600E-02 7.40E-04 1.16E-09 1.15E-03 9.53E-10 3.43E-05 1.46E-15 1.59E-04 2.49E-15 1.17E-07 5.82E-03 5.05E-07 7.908E-03
1.500E-02 8.82E-04 1.51E-09 1.29E-03 1.22E-09 3.91E-05 1.90E-15 1.81E-04 3.22E-15 1.34E-07 6.60E-03 6.49E-07 8.996E-03
1.400E-02 1.00E-03 1.99E-09 1.45E-03 1.58E-09 4.52E-05 2.50E-15 2.09E-04 4.25E-15 1.53E-07 7.34E-03 8.52E-07 1.004E-02
1.200E-02 1.53E-03 3.74E-09 1.85E-03 2.84E-09 6.28E-05 4.66E-15 2.86E-04 7.88E-15 2.09E-07 9.86E-03 1.55E-06 1.359E-02
1.000E-02 2.32E-03 7.84E-09 2.44E-03 5.62E-09 9.50E-05 9.73E-15 4.18E-04 1.64E-14 3.03E-07 1.34E-02 3.16E-06 1.871E-02
9.000E-03 3.10E-03 1.21E-08 2.78E-03 8.35E-09 1.22E-04 1.49E-14 5.21E-04 2.50E-14 3.74E-07 1.63E-02 4.75E-06 2.287E-02
8.000E-03 4.11E-03 1.91E-08 3.23E-03 1.32E-08 1.63E-04 2.41E-14 6.68E-04 4.00E-14 4.76E-07 1.94E-02 7.41E-06 2.754E-02
7.500E-03 4.80E-03 2.50E-08 3.57E-03 1.70E-08 1.93E-04 3.13E-14 7.67E-04 5.18E-14 5.43E-07 2.19E-02 9.55E-06 3.122E-02
7.000E-03 5.80E-03 3.27E-08 4.00E-03 2.22E-08 2.31E-04 4.15E-14 8.88E-04 6.83E-14 6.25E-07 2.46E-02 1.24E-05 3.552E-02
6.000E-03 8.33E-03 5.93E-08 5.13E-03 4.06E-08 3.56E-04 7.82E-14 1.24E-03 1.26E-13 8.59E-07 3.16E-02 2.22E-05 4.670E-02
5.000E-03 1.19E-02 1.16E-07 7.29E-03 8.27E-08 6.24E-04 1.66E-13 1.82E-03 2.61E-13 1.26E-06 4.18E-02 4.43E-05 6.350E-02
4.500E-03 1.46E-02 1.68E-07 8.91E-03 1.23E-07 8.83E-04 2.56E-13 2.28E-03 3.96E-13 1.57E-06 4.96E-02 6.54E-05 7.632E-02
4.000E-03 1.74E-02 2.50E-07 1.11E-02 1.85E-07 1.29E-03 4.08E-13 2.91E-03 6.27E-13 2.04E-06 5.89E-02 1.01E-04 9.177E-02
3.500E-03 2.10E-02 3.96E-07 1.37E-02 2.92E-07 1.79E-03 6.52E-13 3.79E-03 1.06E-12 2.76E-06 7.21E-02 1.66E-04 1.126E-01
3.000E-03 2.59E-02 6.54E-07 1.69E-02 4.69E-07 1.90E-03 1.02E-12 5.18E-03 1.93E-12 4.08E-06 9.17E-02 2.91E-04 1.419E-01
2.750E-03 2.84E-02 8.57E-07 1.85E-02 6.04E-07 1.63E-03 1.31E-12 6.22E-03 2.69E-12 5.34E-06 1.05E-01 3.96E-04 1.597E-01
2.500E-03 3.07E-02 1.14E-06 2.02E-02 7.91E-07 1.29E-03 1.81E-12 7.64E-03 3.88E-12 8.31E-06 1.20E-01 5.53E-04 1.805E-01
2.400E-03 3.18E-02 1.31E-06 2.09E-02 8.88E-07 1.15E-03 2.10E-12 8.33E-03 4.50E-12 1.12E-05 1.28E-01 6.36E-04 1.905E-01
2.350E-03 3.25E-02 1.40E-06 2.13E-02 9.42E-07 1.09E-03 2.27E-12 8.72E-03 4.86E-12 1.30E-05 1.32E-01 6.83E-04 1.962E-01
2.320E-03 3.29E-02 1.45E-06 2.16E-02 9.77E-07 1.06E-03 2.39E-12 8.95E-03 5.09E-12 1.39E-05 1.34E-01 7.13E-04 1.995E-01
2.310E-03 3.30E-02 1.47E-06 2.17E-02 9.89E-07 1.04E-03 2.43E-12 9.03E-03 5.17E-12 1.41E-05 1.35E-01 7.23E-04 2.007E-01
2.300E-03 3.31E-02 1.49E-06 2.18E-02 1.00E-06 1.03E-03 2.47E-12 9.11E-03 5.25E-12 1.43E-05 1.36E-01 7.33E-04 2.018E-01
2.250E-03 3.37E-02 1.59E-06 2.23E-02 1.07E-06 9.76E-04 2.69E-12 9.58E-03 5.70E-12 1.49E-05 1.41E-01 7.90E-04 2.079E-01
2.200E-03 3.42E-02 1.71E-06 2.28E-02 1.14E-06 9.24E-04 2.93E-12 1.01E-02 6.17E-12 1.56E-05 1.46E-01 8.49E-04 2.144E-01
2.150E-03 3.49E-02 1.83E-06 2.34E-02 1.21E-06 8.76E-04 3.21E-12 1.06E-02 6.67E-12 1.70E-05 1.50E-01 9.13E-04 2.211E-01
2.120E-03 3.54E-02 1.91E-06 2.38E-02 1.25E-06 8.49E-04 3.40E-12 1.09E-02 7.00E-12 1.77E-05 1.54E-01 9.54E-04 2.255E-01
2.110E-03 3.55E-02 1.94E-06 2.39E-02 1.26E-06 8.40E-04 3.46E-12 1.11E-02 7.11E-12 1.78E-05 1.55E-01 9.67E-04 2.269E-01
2.100E-03 3.56E-02 1.96E-06 2.40E-02 1.28E-06 8.32E-04 3.53E-12 1.12E-02 7.22E-12 1.79E-05 1.56E-01 9.81E-04 2.283E-01
2.080E-03 3.58E-02 2.02E-06 2.42E-02 1.30E-06 8.15E-04 3.67E-12 1.14E-02 7.45E-12 1.78E-05 1.58E-01 1.01E-03 2.309E-01
2.000E-03 3.63E-02 2.28E-06 2.49E-02 1.41E-06 7.56E-04 4.30E-12 1.25E-02 8.46E-12 1.72E-05 1.66E-01 1.13E-03 2.418E-01
1.950E-03 3.68E-02 2.47E-06 2.53E-02 1.46E-06 7.24E-04 4.76E-12 1.33E-02 8.96E-12 1.85E-05 1.71E-01 1.20E-03 2.488E-01
1.900E-03 3.76E-02 2.69E-06 2.54E-02 1.50E-06 6.95E-04 5.29E-12 1.38E-02 9.38E-12 2.20E-05 1.76E-01 1.27E-03 2.545E-01
1.850E-03 3.84E-02 2.95E-06 2.52E-02 1.51E-06 6.69E-04 5.90E-12 1.41E-02 9.63E-12 2.77E-05 1.78E-01 1.33E-03 2.577E-01
1.830E-03 3.87E-02 3.05E-06 2.51E-02 1.52E-06 6.59E-04 6.17E-12 1.42E-02 9.68E-12 2.97E-05 1.78E-01 1.35E-03 2.584E-01
1.820E-03 3.89E-02 3.10E-06 2.50E-02 1.51E-06 6.55E-04 6.31E-12 1.42E-02 9.70E-12 3.04E-05 1.78E-01 1.36E-03 2.584E-01
1.810E-03 3.90E-02 3.16E-06 2.49E-02 1.51E-06 6.51E-04 6.45E-12 1.41E-02 9.72E-12 3.08E-05 1.78E-01 1.37E-03 2.582E-01
1.800E-03 3.92E-02 3.21E-06 2.47E-02 1.51E-06 6.46E-04 6.60E-12 1.41E-02 9.74E-12 3.11E-05 1.78E-01 1.38E-03 2.580E-01
1.750E-03 4.01E-02 3.52E-06 2.37E-02 1.47E-06 6.28E-04 7.40E-12 1.37E-02 9.79E-12 3.19E-05 1.76E-01 1.44E-03 2.556E-01
1.700E-03 4.05E-02 3.85E-06 2.19E-02 1.41E-06 6.13E-04 8.34E-12 1.31E-02 9.86E-12 3.85E-05 1.72E-01 1.51E-03 2.493E-01
1.670E-03 4.12E-02 4.10E-06 2.05E-02 1.37E-06 6.05E-04 8.96E-12 1.26E-02 9.98E-12 4.49E-05 1.69E-01 1.56E-03 2.455E-01
1.650E-03 4.17E-02 4.28E-06 1.95E-02 1.35E-06 6.01E-04 9.42E-12 1.22E-02 1.01E-11 4.72E-05 1.67E-01 1.61E-03 2.428E-01
1.640E-03 4.19E-02 4.36E-06 1.89E-02 1.34E-06 5.99E-04 9.65E-12 1.20E-02 1.02E-11 4.72E-05 1.66E-01 1.63E-03 2.413E-01
1.630E-03 4.22E-02 4.45E-06 1.83E-02 1.33E-06 5.97E-04 9.90E-12 1.18E-02 1.02E-11 4.64E-05 1.65E-01 1.65E-03 2.397E-01
1.610E-03 4.26E-02 4.63E-06 1.70E-02 1.33E-06 5.95E-04 1.04E-11 1.14E-02 1.05E-11 4.37E-05 1.63E-01 1.70E-03 2.363E-01
1.600E-03 4.28E-02 4.72E-06 1.64E-02 1.33E-06 5.93E-04 1.07E-11 1.12E-02 1.06E-11 4.24E-05 1.62E-01 1.73E-03 2.346E-01
1.590E-03 4.30E-02 4.82E-06 1.57E-02 1.34E-06 5.92E-04 1.10E-11 1.10E-02 1.08E-11 4.15E-05 1.61E-01 1.76E-03 2.330E-01
1.580E-03 4.32E-02 4.91E-06 1.50E-02 1.36E-06 5.91E-04 1.12E-11 1.08E-02 1.10E-11 4.09E-05 1.60E-01 1.79E-03 2.313E-01
1.570E-03 4.34E-02 5.01E-06 1.44E-02 1.39E-06 5.90E-04 1.15E-11 1.06E-02 1.12E-11 4.04E-05 1.59E-01 1.83E-03 2.294E-01
1.560E-03 4.36E-02 5.13E-06 1.37E-02 1.42E-06 5.89E-04 1.18E-11 1.04E-02 1.14E-11 3.97E-05 1.58E-01 1.87E-03 2.279E-01
1.540E-03 4.42E-02 5.34E-06 1.26E-02 1.53E-06 5.88E-04 1.25E-11 1.00E-02 1.19E-11 3.89E-05 1.56E-01 1.95E-03 2.255E-01
1.520E-03 4.46E-02 5.55E-06 1.17E-02 1.67E-06 5.88E-04 1.32E-11 9.65E-03 1.26E-11 4.10E-05 1.54E-01 2.04E-03 2.226E-01
1.510E-03 4.48E-02 5.65E-06 1.14E-02 1.76E-06 5.88E-04 1.35E-11 9.47E-03 1.30E-11 4.22E-05 1.53E-01 2.09E-03 2.213E-01
1.500E-03 4.49E-02 5.76E-06 1.11E-02 1.86E-06 5.88E-04 1.39E-11 9.31E-03 1.34E-11 4.25E-05 1.52E-01 2.14E-03 2.201E-01
1.450E-03 4.56E-02 6.43E-06 1.06E-02 2.41E-06 5.91E-04 1.59E-11 8.57E-03 1.62E-11 5.31E-05 1.48E-01 2.50E-03 2.162E-01
1.440E-03 4.58E-02 6.58E-06 1.06E-02 2.53E-06 5.92E-04 1.64E-11 8.45E-03 1.69E-11 5.84E-05 1.48E-01 2.58E-03 2.161E-01
1.430E-03 4.60E-02 6.73E-06 1.06E-02 2.65E-06 5.94E-04 1.69E-11 8.42E-03 1.78E-11 6.29E-05 1.48E-01 2.69E-03 2.166E-01
1.420E-03 4.62E-02 6.88E-06 1.06E-02 2.78E-06 5.95E-04 1.74E-11 8.38E-03 1.87E-11 6.53E-05 1.49E-01 2.80E-03 2.172E-01
1.400E-03 4.67E-02 7.22E-06 1.06E-02 3.05E-06 5.99E-04 1.84E-11 8.45E-03 2.08E-11 7.10E-05 1.50E-01 3.04E-03 2.198E-01
1.380E-03 4.72E-02 7.56E-06 1.06E-02 3.34E-06 6.03E-04 1.95E-11 8.69E-03 2.33E-11 8.87E-05 1.54E-01 3.32E-03 2.241E-01
1.370E-03 4.74E-02 7.74E-06 1.06E-02 3.49E-06 6.05E-04 2.01E-11 8.92E-03 2.46E-11 1.05E-04 1.56E-01 3.47E-03 2.273E-01
1.360E-03 4.77E-02 7.94E-06 1.06E-02 3.66E-06 6.08E-04 2.07E-11 9.19E-03 2.60E-11 1.21E-04 1.59E-01 3.63E-03 2.310E-01
1.350E-03 4.80E-02 8.14E-06 1.06E-02 3.84E-06 6.10E-04 2.13E-11 9.45E-03 2.74E-11 1.29E-04 1.62E-01 3.79E-03 2.349E-01
1.340E-03 4.83E-02 8.34E-06 1.07E-02 4.02E-06 6.13E-04 2.20E-11 9.78E-03 2.89E-11 1.39E-04 1.66E-01 3.96E-03 2.393E-01
1.330E-03 4.86E-02 8.53E-06 1.07E-02 4.22E-06 6.16E-04 2.26E-11 1.01E-02 3.03E-11 1.61E-04 1.69E-01 4.12E-03 2.439E-01
1.320E-03 4.90E-02 8.74E-06 1.08E-02 4.43E-06 6.19E-04 2.33E-11 1.05E-02 3.19E-11 1.98E-04 1.73E-01 4.30E-03 2.486E-01
1.310E-03 4.92E-02 8.93E-06 1.09E-02 4.65E-06 6.23E-04 2.41E-11 1.09E-02 3.35E-11 2.58E-04 1.77E-01 4.47E-03 2.535E-01
1.290E-03 4.94E-02 9.33E-06 1.12E-02 5.15E-06 6.30E-04 2.56E-11 1.16E-02 3.69E-11 5.26E-04 1.85E-01 4.85E-03 2.633E-01
1.280E-03 4.95E-02 9.56E-06 1.13E-02 5.41E-06 6.34E-04 2.64E-11 1.21E-02 3.87E-11 7.69E-04 1.90E-01 5.05E-03 2.691E-01
1.270E-03 4.97E-02 9.82E-06 1.14E-02 5.70E-06 6.39E-04 2.73E-11 1.26E-02 4.07E-11 9.30E-04 1.95E-01 5.26E-03 2.753E-01
1.260E-03 5.00E-02 1.01E-05 1.16E-02 6.04E-06 6.43E-04 2.82E-11 1.31E-02 4.26E-11 8.02E-04 2.00E-01 5.47E-03 2.813E-01
1.250E-03 5.01E-02 1.03E-05 1.18E-02 6.40E-06 6.48E-04 2.91E-11 1.37E-02 4.46E-11 5.93E-04 2.05E-01 5.68E-03 2.873E-01
1.220E-03 5.11E-02 1.13E-05 1.34E-02 7.92E-06 6.61E-04 3.21E-11 1.53E-02 5.11E-11 4.65E-04 2.22E-01 6.39E-03 3.090E-01
1.210E-03 5.14E-02 1.15E-05 1.46E-02 8.53E-06 6.66E-04 3.32E-11 1.60E-02 5.34E-11 5.34E-04 2.28E-01 6.62E-03 3.174E-01
1.200E-03 5.15E-02 1.18E-05 1.61E-02 9.11E-06 6.71E-04 3.43E-11 1.67E-02 5.60E-11 5.90E-04 2.34E-01 6.87E-03 3.264E-01
1.190E-03 5.20E-02 1.22E-05 1.78E-02 9.64E-06 6.76E-04 3.55E-11 1.74E-02 5.86E-11 5.90E-04 2.41E-01 7.14E-03 3.363E-01
1.180E-03 5.23E-02 1.25E-05 1.95E-02 1.01E-05 6.81E-04 3.68E-11 1.81E-02 6.10E-11 5.86E-04 2.47E-01 7.37E-03 3.460E-01
1.170E-03 5.27E-02 1.29E-05 2.10E-02 1.05E-05 6.86E-04 3.82E-11 1.89E-02 6.36E-11 6.51E-04 2.54E-01 7.61E-03 3.556E-01
1.160E-03 5.30E-02 1.32E-05 2.24E-02 1.08E-05 6.96E-04 3.97E-11 1.96E-02 6.62E-11 8.37E-04 2.60E-01 7.85E-03 3.647E-01
1.150E-03 5.33E-02 1.35E-05 2.37E-02 1.10E-05 9.77E-04 3.93E-11 2.04E-02 6.89E-11 1.22E-03 2.66E-01 8.09E-03 3.739E-01
1.140E-03 5.34E-02 1.39E-05 2.47E-02 1.13E-05 7.25E-04 4.19E-11 2.12E-02 7.19E-11 1.83E-03 2.73E-01 8.35E-03 3.829E-01
1.130E-03 5.36E-02 1.43E-05 2.57E-02 1.16E-05 7.24E-04 4.35E-11 2.20E-02 7.52E-11 2.23E-03 2.79E-01 8.63E-03 3.922E-01
1.120E-03 5.38E-02 1.47E-05 2.65E-02 1.18E-05 7.29E-04 4.51E-11 2.30E-02 7.85E-11 1.80E-03 2.86E-01 8.90E-03 4.010E-01
1.110E-03 5.39E-02 1.51E-05 2.74E-02 1.21E-05 7.35E-04 4.68E-11 2.40E-02 8.19E-11 1.15E-03 2.93E-01 9.17E-03 4.097E-01
1.090E-03 5.43E-02 1.60E-05 2.90E-02 1.26E-05 7.50E-04 5.04E-11 2.60E-02 8.91E-11 4.80E-04 3.08E-01 9.71E-03 4.278E-01
1.050E-03 5.54E-02 1.82E-05 3.20E-02 1.36E-05 7.85E-04 5.86E-11 3.14E-02 1.06E-10 1.65E-04 3.41E-01 1.08E-02 4.717E-01
1.000E-03 5.75E-02 2.15E-05 3.51E-02 1.44E-05 8.37E-04 7.13E-11 3.63E-02 1.13E-10 8.78E-05 3.61E-01 1.11E-02 5.021E-01
9.800E-04 5.84E-02 2.31E-05 3.57E-02 1.44E-05 8.61E-04 7.74E-11 3.81E-02 1.17E-10 7.78E-05 3.68E-01 1.12E-02 5.128E-01
9.600E-04 5.92E-02 2.47E-05 3.55E-02 1.40E-05 8.86E-04 8.40E-11 3.99E-02 1.17E-10 7.30E-05 3.73E-01 1.11E-02 5.202E-01
9.500E-04 5.99E-02 2.56E-05 3.51E-02 1.38E-05 8.99E-04 8.77E-11 4.03E-02 1.15E-10 7.23E-05 3.73E-01 1.09E-02 5.208E-01
9.400E-04 6.03E-02 2.64E-05 3.45E-02 1.35E-05 9.13E-04 9.15E-11 4.02E-02 1.10E-10 7.27E-05 3.70E-01 1.06E-02 5.164E-01
9.200E-04 6.12E-02 2.82E-05 3.28E-02 1.29E-05 9.43E-04 9.97E-11 3.74E-02 9.15E-11 7.74E-05 3.51E-01 9.49E-03 4.933E-01
8.900E-04 6.27E-02 3.15E-05 2.91E-02 1.21E-05 9.91E-04 1.14E-10 2.96E-02 5.86E-11 1.09E-04 3.07E-01 7.95E-03 4.374E-01
8.700E-04 6.31E-02 3.37E-05 2.63E-02 1.19E-05 1.03E-03 1.25E-10 2.46E-02 4.35E-11 2.30E-04 2.78E-01 7.38E-03 4.005E-01
8.600E-04 6.37E-02 3.50E-05 2.49E-02 1.19E-05 1.05E-03 1.31E-10 2.26E-02 3.84E-11 3.41E-04 2.67E-01 7.28E-03 3.866E-01
8.500E-04 6.40E-02 3.63E-05 2.35E-02 1.19E-05 1.07E-03 1.37E-10 2.08E-02 3.42E-11 2.47E-04 2.56E-01 7.19E-03 3.731E-01
8.400E-04 6.46E-02 3.79E-05 2.20E-02 1.19E-05 1.09E-03 1.43E-10 1.90E-02 3.00E-11 1.81E-04 2.46E-01 7.10E-03 3.598E-01
8.200E-04 6.53E-02 4.04E-05 1.83E-02 1.22E-05 1.13E-03 1.58E-10 1.47E-02 2.15E-11 1.85E-04 2.19E-01 6.87E-03 3.252E-01
8.000E-04 6.61E-02 4.38E-05 1.48E-02 1.34E-05 1.17E-03 1.74E-10 1.00E-02 1.66E-11 2.65E-04 1.90E-01 7.04E-03 2.896E-01
7.900E-04 6.68E-02 4.57E-05 1.34E-02 1.44E-05 1.20E-03 1.83E-10 8.44E-03 1.79E-11 3.27E-04 1.81E-01 7.49E-03 2.788E-01
7.800E-04 6.71E-02 4.73E-05 1.23E-02 1.56E-05 1.22E-03 1.93E-10 6.86E-03 2.02E-11 3.89E-04 1.71E-01 7.98E-03 2.672E-01
7.700E-04 6.72E-02 4.91E-05 1.13E-02 1.69E-05 1.24E-03 2.03E-10 5.64E-03 2.41E-11 4.17E-04 1.64E-01 8.62E-03 2.582E-01
7.600E-04 6.73E-02 5.11E-05 1.05E-02 1.84E-05 1.27E-03 2.14E-10 4.79E-03 2.94E-11 3.89E-04 1.59E-01 9.41E-03 2.523E-01
7.500E-04 6.75E-02 5.32E-05 9.80E-03 1.99E-05 1.30E-03 2.25E-10 4.02E-03 3.58E-11 3.25E-04 1.54E-01 1.03E-02 2.471E-01
7.300E-04 6.82E-02 5.83E-05 8.67E-03 2.35E-05 1.35E-03 2.51E-10 3.37E-03 5.10E-11 2.08E-04 1.52E-01 1.24E-02 2.459E-01
7.200E-04 6.85E-02 6.07E-05 8.32E-03 2.56E-05 1.38E-03 2.65E-10 3.26E-03 5.90E-11 1.77E-04 1.51E-01 1.34E-02 2.466E-01
7.100E-04 6.86E-02 6.35E-05 8.09E-03 2.77E-05 1.41E-03 2.80E-10 3.16E-03 6.78E-11 1.74E-04 1.51E-01 1.46E-02 2.475E-01
7.000E-04 6.93E-02 6.66E-05 7.88E-03 2.99E-05 1.45E-03 2.97E-10 3.13E-03 7.68E-11 2.35E-04 1.53E-01 1.58E-02 2.506E-01
6.900E-04 6.96E-02 6.91E-05 7.57E-03 3.21E-05 1.48E-03 3.14E-10 3.11E-03 8.65E-11 1.46E-04 1.53E-01 1.69E-02 2.521E-01
6.800E-04 6.85E-02 7.18E-05 7.17E-03 3.45E-05 1.52E-03 3.33E-10 3.11E-03 9.64E-11 1.17E-04 1.52E-01 1.81E-02 2.505E-01
6.600E-04 6.88E-02 8.08E-05 6.45E-03 4.01E-05 1.59E-03 3.75E-10 3.11E-03 1.18E-10 1.14E-04 1.54E-01 2.13E-02 2.555E-01
6.400E-04 7.07E-02 9.13E-05 5.59E-03 4.68E-05 1.67E-03 4.23E-10 3.10E-03 1.43E-10 1.65E-04 1.59E-01 2.47E-02 2.649E-01
6.300E-04 7.22E-02 9.63E-05 5.22E-03 5.08E-05 1.69E-03 4.51E-10 3.09E-03 1.57E-10 2.48E-04 1.62E-01 2.64E-02 2.707E-01
6.200E-04 7.26E-02 1.01E-04 5.13E-03 5.52E-05 1.76E-03 4.81E-10 3.08E-03 1.73E-10 3.30E-04 1.63E-01 2.82E-02 2.738E-01
6.100E-04 7.33E-02 1.07E-04 5.10E-03 5.95E-05 1.81E-03 5.12E-10 3.06E-03 1.89E-10 2.46E-04 1.64E-01 3.03E-02 2.781E-01
5.900E-04 7.62E-02 1.20E-04 4.19E-03 6.93E-05 1.91E-03 5.85E-10 3.02E-03 2.26E-10 1.23E-04 1.70E-01 3.47E-02 2.904E-01
5.500E-04 7.35E-02 1.44E-04 3.10E-03 9.76E-05 2.14E-03 7.73E-10 2.97E-03 3.24E-10 1.10E-04 1.67E-01 4.51E-02 2.938E-01
5.300E-04 7.40E-02 1.66E-04 2.77E-03 1.16E-04 2.27E-03 8.95E-10 2.98E-03 3.88E-10 1.62E-04 1.70E-01 5.26E-02 3.049E-01
5.200E-04 7.41E-02 1.78E-04 2.61E-03 1.27E-04 2.35E-03 9.65E-10 2.99E-03 4.26E-10 2.41E-04 1.71E-01 5.67E-02 3.103E-01
5.100E-04 7.47E-02 1.91E-04 2.44E-03 1.39E-04 2.42E-03 1.04E-09 3.00E-03 4.67E-10 3.24E-04 1.74E-01 6.12E-02 3.180E-01
5.000E-04 7.55E-02 2.06E-04 2.25E-03 1.54E-04 2.50E-03 1.13E-09 3.02E-03 5.12E-10 2.43E-04 1.76E-01 6.59E-02 3.260E-01
4.800E-04 7.64E-02 2.38E-04 2.00E-03 1.85E-04 2.66E-03 1.32E-09 3.07E-03 6.18E-10 1.33E-04 1.81E-01 7.65E-02 3.418E-01
4.500E-04 7.89E-02 2.97E-04 1.68E-03 2.46E-04 2.95E-03 1.71E-09 3.18E-03 8.26E-10 1.15E-04 1.90E-01 9.55E-02 3.724E-01
4.000E-04 8.16E-02 4.54E-04 1.24E-03 4.09E-04 3.55E-03 2.72E-09 3.42E-03 1.38E-09 1.34E-04 2.05E-01 1.41E-01 4.368E-01
3.800E-04 8.32E-02 5.49E-04 1.09E-03 5.09E-04 3.85E-03 3.33E-09 3.52E-03 1.72E-09 1.50E-04 2.14E-01 1.65E-01 4.719E-01
3.600E-04 8.49E-02 6.71E-04 9.58E-04 6.40E-04 4.19E-03 4.12E-09 3.64E-03 2.16E-09 1.77E-04 2.24E-01 1.94E-01 5.136E-01
3.400E-04 8.88E-02 8.23E-04 8.42E-04 8.14E-04 4.59E-03 5.16E-09 3.77E-03 2.74E-09 3.05E-04 2.39E-01 2.28E-01 5.670E-01
3.300E-04 8.85E-02 9.09E-04 7.88E-04 9.22E-04 4.81E-03 5.80E-09 3.84E-03 3.11E-09 6.90E-04 2.42E-01 2.48E-01 5.907E-01
3.200E-04 8.87E-02 1.02E-03 7.33E-04 1.05E-03 5.05E-03 6.55E-09 3.90E-03 3.53E-09 3.21E-04 2.47E-01 2.72E-01 6.198E-01
3.150E-04 8.94E-02 1.09E-03 7.10E-04 1.12E-03 5.17E-03 6.96E-09 3.93E-03 3.77E-09 2.66E-04 2.50E-01 2.85E-01 6.372E-01
3.100E-04 9.02E-02 1.15E-03 6.86E-04 1.20E-03 5.30E-03 7.42E-09 3.96E-03 4.03E-09 2.47E-04 2.54E-01 2.98E-01 6.550E-01
3.080E-04 9.05E-02 1.18E-03 6.77E-04 1.23E-03 5.36E-03 7.61E-09 3.98E-03 4.14E-09 2.43E-04 2.55E-01 3.03E-01 6.619E-01
3.050E-04 9.07E-02 1.22E-03 6.62E-04 1.28E-03 5.44E-03 7.91E-09 4.00E-03 4.31E-09 2.41E-04 2.57E-01 3.12E-01 6.725E-01
3.000E-04 9.12E-02 1.30E-03 6.40E-04 1.37E-03 5.59E-03 8.44E-09 4.04E-03 4.61E-09 2.41E-04 2.60E-01 3.26E-01 6.911E-01
2.900E-04 9.29E-02 1.47E-03 5.97E-04 1.58E-03 5.89E-03 9.64E-09 4.13E-03 5.30E-09 2.49E-04 2.68E-01 3.57E-01 7.314E-01
2.800E-04 9.33E-02 1.67E-03 5.56E-04 1.82E-03 6.23E-03 1.11E-08 4.22E-03 6.12E-09 2.64E-04 2.72E-01 3.91E-01 7.715E-01
2.600E-04 9.54E-02 2.22E-03 4.81E-04 2.47E-03 6.99E-03 1.48E-08 4.43E-03 8.29E-09 3.04E-04 2.85E-01 4.70E-01 8.668E-01
2.500E-04 9.72E-02 2.58E-03 4.47E-04 2.90E-03 7.42E-03 1.73E-08 4.55E-03 9.72E-09 3.29E-04 2.93E-01 5.14E-01 9.223E-01
2.200E-04 1.05E-01 4.24E-03 3.59E-04 4.87E-03 9.02E-03 2.85E-08 4.98E-03 1.63E-08 4.31E-04 3.26E-01 6.74E-01 1.129E+00
2.159E-04 1.06E-01 4.54E-03 3.48E-04 5.26E-03 9.28E-03 3.07E-08 5.05E-03 1.76E-08 4.49E-04 3.30E-01 7.00E-01 1.161E+00
2.000E-04 1.12E-01 6.13E-03 3.13E-04 7.15E-03 1.04E-02 4.14E-08 5.35E-03 2.40E-08 5.32E-04 3.51E-01 8.11E-01 1.303E+00
1.662E-04 1.27E-01 1.25E-02 2.49E-04 1.49E-02 1.39E-02 8.54E-08 6.20E-03 5.06E-08 8.18E-04 4.00E-01 1.08E+00 1.659E+00
1.650E-04 1.27E-01 1.29E-02 2.46E-04 1.54E-02 1.40E-02 8.79E-08 6.23E-03 5.21E-08 8.32E-04 4.02E-01 1.09E+00 1.673E+00
1.250E-04 1.64E-01 3.81E-02 2.24E-04 4.42E-02 2.16E-02 2.60E-07 7.91E-03 1.58E-07 1.65E-03 4.91E-01 1.45E+00 2.217E+00
1.235E-04 1.66E-01 3.99E-02 2.23E-04 4.62E-02 2.20E-02 2.73E-07 8.00E-03 1.66E-07 1.70E-03 4.95E-01 1.46E+00 2.238E+00
1.130E-04 1.84E-01 5.60E-02 2.31E-04 6.33E-02 2.53E-02 3.86E-07 8.69E-03 2.37E-07 2.12E-03 5.30E-01 1.52E+00 2.390E+00
1.000E-04 2.18E-01 8.83E-02 2.58E-04 9.54E-02 3.08E-02 6.23E-07 9.74E-03 3.87E-07 2.88E-03 5.81E-01 1.55E+00 2.578E+00
9.500E-05 2.35E-01 1.06E-01 2.61E-04 1.13E-01 3.35E-02 7.61E-07 1.02E-02 4.75E-07 3.26E-03 6.04E-01 1.55E+00 2.655E+00
9.300E-05 2.43E-01 1.14E-01 2.67E-04 1.21E-01 3.47E-02 8.26E-07 1.04E-02 5.17E-07 3.44E-03 6.13E-01 1.55E+00 2.685E+00
9.200E-05 2.47E-01 1.18E-01 2.70E-04 1.25E-01 3.53E-02 8.62E-07 1.05E-02 5.40E-07 3.53E-03 6.17E-01 1.54E+00 2.700E+00
9.100E-05 2.51E-01 1.22E-01 2.75E-04 1.29E-01 3.59E-02 8.99E-07 1.07E-02 5.64E-07 3.63E-03 6.22E-01 1.54E+00 2.716E+00
9.000E-05 2.55E-01 1.27E-01 2.79E-04 1.34E-01 3.65E-02 9.39E-07 1.08E-02 5.90E-07 3.73E-03 6.26E-01 1.54E+00 2.732E+00
8.900E-05 2.59E-01 1.32E-01 2.84E-04 1.39E-01 3.72E-02 9.80E-07 1.09E-02 6.17E-07 3.83E-03 6.31E-01 1.54E+00 2.748E+00
8.800E-05 2.64E-01 1.37E-01 2.88E-04 1.44E-01 3.79E-02 1.02E-06 1.10E-02 6.45E-07 3.94E-03 6.36E-01 1.53E+00 2.765E+00
8.700E-05 2.68E-01 1.42E-01 2.95E-04 1.49E-01 3.86E-02 1.07E-06 1.11E-02 6.75E-07 4.05E-03 6.40E-01 1.53E+00 2.782E+00
8.600E-05 2.72E-01 1.47E-01 2.99E-04 1.55E-01 3.93E-02 1.12E-06 1.12E-02 7.07E-07 4.16E-03 6.45E-01 1.53E+00 2.799E+00
8.500E-05 2.77E-01 1.53E-01 3.04E-04 1.60E-01 4.00E-02 1.17E-06 1.14E-02 7.41E-07 4.28E-03 6.49E-01 1.52E+00 2.817E+00
8.400E-05 2.82E-01 1.59E-01 3.08E-04 1.67E-01 4.08E-02 1.23E-06 1.15E-02 7.77E-07 4.41E-03 6.54E-01 1.52E+00 2.836E+00
8.330E-05 2.85E-01 1.63E-01 3.13E-04 1.71E-01 4.13E-02 1.27E-06 1.16E-02 8.04E-07 4.50E-03 6.57E-01 1.51E+00 2.849E+00
8.200E-05 2.92E-01 1.72E-01 3.19E-04 1.80E-01 4.23E-02 1.35E-06 1.18E-02 8.56E-07 4.67E-03 6.63E-01 1.51E+00 2.874E+00
8.100E-05 2.98E-01 1.79E-01 3.26E-04 1.87E-01 4.32E-02 1.41E-06 1.19E-02 8.99E-07 4.81E-03 6.68E-01 1.50E+00 2.894E+00
8.000E-05 3.04E-01 1.86E-01 3.30E-04 1.94E-01 4.40E-02 1.48E-06 1.20E-02 9.45E-07 4.96E-03 6.73E-01 1.50E+00 2.916E+00
7.900E-05 3.10E-01 1.94E-01 3.37E-04 2.02E-01 4.49E-02 1.56E-06 1.22E-02 9.94E-07 5.11E-03 6.79E-01 1.49E+00 2.938E+00
7.800E-05 3.17E-01 2.02E-01 3.47E-04 2.10E-01 4.58E-02 1.63E-06 1.23E-02 1.05E-06 5.27E-03 6.84E-01 1.48E+00 2.962E+00
7.700E-05 3.24E-01 2.10E-01 3.54E-04 2.19E-01 4.67E-02 1.72E-06 1.25E-02 1.10E-06 5.43E-03 6.90E-01 1.48E+00 2.986E+00
7.600E-05 3.32E-01 2.19E-01 3.68E-04 2.28E-01 4.76E-02 1.81E-06 1.26E-02 1.16E-06 5.60E-03 6.96E-01 1.47E+00 3.012E+00
7.500E-05 3.41E-01 2.28E-01 3.79E-04 2.37E-01 4.86E-02 1.90E-06 1.28E-02 1.22E-06 5.78E-03 7.03E-01 1.46E+00 3.039E+00
7.400E-05 3.50E-01 2.37E-01 3.96E-04 2.47E-01 4.96E-02 2.00E-06 1.29E-02 1.29E-06 5.97E-03 7.09E-01 1.45E+00 3.067E+00
7.300E-05 3.59E-01 2.47E-01 4.14E-04 2.58E-01 5.07E-02 2.11E-06 1.31E-02 1.37E-06 6.17E-03 7.15E-01 1.45E+00 3.096E+00
7.140E-05 3.75E-01 2.63E-01 4.27E-04 2.76E-01 5.24E-02 2.30E-06 1.34E-02 1.49E-06 6.50E-03 7.26E-01 1.43E+00 3.145E+00
7.100E-05 3.79E-01 2.68E-01 4.27E-04 2.80E-01 5.28E-02 2.35E-06 1.35E-02 1.53E-06 6.59E-03 7.29E-01 1.43E+00 3.158E+00
7.000E-05 3.90E-01 2.79E-01 4.41E-04 2.92E-01 5.39E-02 2.48E-06 1.36E-02 1.62E-06 6.82E-03 7.35E-01 1.42E+00 3.192E+00
6.900E-05 4.01E-01 2.90E-01 4.61E-04 3.05E-01 5.51E-02 2.63E-06 1.38E-02 1.71E-06 7.06E-03 7.42E-01 1.41E+00 3.227E+00
6.800E-05 4.12E-01 3.02E-01 4.78E-04 3.18E-01 5.63E-02 2.78E-06 1.40E-02 1.82E-06 7.30E-03 7.49E-01 1.40E+00 3.263E+00
6.700E-05 4.24E-01 3.14E-01 4.96E-04 3.32E-01 5.76E-02 2.94E-06 1.42E-02 1.93E-06 7.57E-03 7.56E-01 1.39E+00 3.301E+00
6.600E-05 4.37E-01 3.27E-01 5.21E-04 3.47E-01 5.88E-02 3.12E-06 1.44E-02 2.05E-06 7.84E-03 7.63E-01 1.39E+00 3.341E+00
6.500E-05 4.50E-01 3.41E-01 5.32E-04 3.62E-01 6.02E-02 3.31E-06 1.46E-02 2.18E-06 8.13E-03 7.70E-01 1.38E+00 3.383E+00
6.400E-05 4.64E-01 3.55E-01 5.43E-04 3.78E-01 6.16E-02 3.52E-06 1.48E-02 2.32E-06 8.44E-03 7.77E-01 1.37E+00 3.426E+00
6.300E-05 4.78E-01 3.69E-01 5.63E-04 3.95E-01 6.31E-02 3.74E-06 1.51E-02 2.47E-06 8.76E-03 7.84E-01 1.36E+00 3.472E+00
6.250E-05 4.86E-01 3.77E-01 5.68E-04 4.04E-01 6.39E-02 3.86E-06 1.52E-02 2.55E-06 8.93E-03 7.88E-01 1.35E+00 3.495E+00
6.200E-05 4.93E-01 3.84E-01 5.85E-04 4.13E-01 6.47E-02 3.99E-06 1.53E-02 2.63E-06 9.11E-03 7.92E-01 1.35E+00 3.519E+00
6.100E-05 5.10E-01 3.99E-01 6.15E-04 4.31E-01 6.62E-02 4.25E-06 1.55E-02 2.81E-06 9.47E-03 7.99E-01 1.34E+00 3.567E+00
6.000E-05 5.27E-01 4.15E-01 6.41E-04 4.50E-01 6.79E-02 4.53E-06 1.58E-02 3.01E-06 9.85E-03 8.07E-01 1.32E+00 3.617E+00
5.900E-05 5.45E-01 4.31E-01 6.68E-04 4.70E-01 6.95E-02 4.84E-06 1.60E-02 3.22E-06 1.03E-02 8.15E-01 1.31E+00 3.669E+00
5.800E-05 5.64E-01 4.47E-01 6.97E-04 4.90E-01 7.13E-02 5.18E-06 1.63E-02 3.45E-06 1.07E-02 8.23E-01 1.30E+00 3.722E+00
5.700E-05 5.85E-01 4.63E-01 7.34E-04 5.12E-01 7.31E-02 5.54E-06 1.66E-02 3.70E-06 1.12E-02 8.31E-01 1.28E+00 3.776E+00
5.600E-05 6.06E-01 4.78E-01 7.70E-04 5.34E-01 7.49E-02 5.94E-06 1.69E-02 3.97E-06 1.16E-02 8.38E-01 1.27E+00 3.830E+00
5.500E-05 6.28E-01 4.94E-01 8.06E-04 5.57E-01 7.69E-02 6.38E-06 1.71E-02 4.27E-06 1.22E-02 8.46E-01 1.25E+00 3.886E+00
5.477E-05 6.33E-01 4.97E-01 8.11E-04 5.63E-01 7.74E-02 6.49E-06 1.72E-02 4.34E-06 1.97E-02 8.48E-01 1.25E+00 3.906E+00
5.400E-05 6.51E-01 5.09E-01 8.40E-04 5.81E-01 7.92E-02 6.87E-06 1.74E-02 4.60E-06 2.04E-02 8.54E-01 1.24E+00 3.950E+00
5.300E-05 6.74E-01 5.24E-01 8.78E-04 6.07E-01 8.16E-02 7.41E-06 1.78E-02 4.96E-06 2.15E-02 8.61E-01 1.22E+00 4.007E+00
5.200E-05 6.98E-01 5.39E-01 9.33E-04 6.33E-01 8.41E-02 8.00E-06 1.81E-02 5.36E-06 2.26E-02 8.68E-01 1.20E+00 4.065E+00
5.100E-05 7.23E-01 5.53E-01 9.87E-04 6.61E-01 8.66E-02 8.65E-06 1.84E-02 5.80E-06 2.39E-02 8.75E-01 1.18E+00 4.125E+00
5.000E-05 7.49E-01 5.66E-01 1.04E-03 6.90E-01 8.93E-02 9.37E-06 1.88E-02 6.29E-06 2.52E-02 8.81E-01 1.17E+00 4.185E+00
4.900E-05 7.74E-01 5.79E-01 1.10E-03 7.20E-01 9.21E-02 1.02E-05 1.91E-02 6.83E-06 2.67E-02 8.87E-01 1.15E+00 4.247E+00
4.880E-05 7.80E-01 5.82E-01 1.11E-03 7.26E-01 9.27E-02 1.03E-05 1.92E-02 6.94E-06 2.70E-02 8.89E-01 1.14E+00 4.260E+00
4.800E-05 8.00E-01 5.92E-01 1.16E-03 7.52E-01 9.54E-02 1.11E-05 1.95E-02 7.43E-06 2.83E-02 8.93E-01 1.13E+00 4.311E+00
4.760E-05 8.11E-01 5.97E-01 1.19E-03 7.65E-01 9.69E-02 1.14E-05 1.96E-02 7.69E-06 2.90E-02 8.95E-01 1.12E+00 4.337E+00
4.700E-05 8.27E-01 6.04E-01 1.23E-03 7.85E-01 9.92E-02 1.21E-05 1.99E-02 8.09E-06 3.01E-02 8.99E-01 1.11E+00 4.376E+00
4.650E-05 8.40E-01 6.10E-01 1.27E-03 8.03E-01 1.01E-01 1.26E-05 2.01E-02 8.46E-06 3.10E-02 9.01E-01 1.10E+00 4.409E+00
4.600E-05 8.53E-01 6.16E-01 1.32E-03 8.20E-01 1.03E-01 1.32E-05 2.03E-02 8.84E-06 3.21E-02 9.03E-01 1.09E+00 4.443E+00
4.550E-05 8.67E-01 6.21E-01 1.38E-03 8.38E-01 1.05E-01 1.38E-05 2.05E-02 9.24E-06 3.31E-02 9.06E-01 1.09E+00 4.477E+00
4.500E-05 8.80E-01 6.27E-01 1.43E-03 8.57E-01 1.07E-01 1.44E-05 2.07E-02 9.67E-06 3.42E-02 9.08E-01 1.08E+00 4.512E+00
4.440E-05 8.97E-01 6.33E-01 1.52E-03 8.79E-01 1.10E-01 1.52E-05 2.10E-02 1.02E-05 3.57E-02 9.10E-01 1.07E+00 4.554E+00
4.350E-05 9.21E-01 6.42E-01 1.66E-03 9.14E-01 1.14E-01 1.66E-05 2.14E-02 1.11E-05 3.80E-02 9.13E-01 1.05E+00 4.617E+00
4.170E-05 9.71E-01 6.60E-01 2.02E-03 9.87E-01 1.24E-01 1.97E-05 2.22E-02 1.32E-05 4.35E-02 9.17E-01 1.02E+00 4.749E+00
4.000E-05 1.02E+00 6.74E-01 2.67E-03 1.06E+00 1.34E-01 2.34E-05 2.31E-02 1.57E-05 4.99E-02 9.20E-01 9.97E-01 4.877E+00
3.850E-05 1.06E+00 6.86E-01 3.55E-03 1.13E+00 1.43E-01 2.74E-05 2.39E-02 1.84E-05 5.70E-02 9.21E-01 9.76E-01 4.995E+00
3.656E-05 1.11E+00 6.99E-01 5.22E-03 1.22E+00 1.57E-01 3.42E-05 2.50E-02 2.28E-05 6.88E-02 9.21E-01 9.51E-01 5.154E+00
3.570E-05 1.13E+00 7.04E-01 6.09E-03 1.26E+00 1.63E-01 3.79E-05 2.56E-02 2.52E-05 7.54E-02 9.20E-01 9.41E-01 5.226E+00
3.330E-05 1.19E+00 7.15E-01 9.15E-03 1.38E+00 1.86E-01 5.19E-05 2.71E-02 3.38E-05 1.00E-01 9.15E-01 9.16E-01 5.439E+00
3.130E-05 1.24E+00 7.23E-01 1.21E-02 1.47E+00 2.13E-01 7.00E-05 2.86E-02 4.39E-05 1.33E-01 9.09E-01 8.98E-01 5.631E+00
3.000E-05 1.27E+00 7.26E-01 1.46E-02 1.54E+00 2.38E-01 8.67E-05 2.96E-02 5.27E-05 1.64E-01 9.05E-01 8.88E-01 5.769E+00
2.940E-05 1.28E+00 7.28E-01 1.58E-02 1.56E+00 2.51E-01 9.62E-05 3.00E-02 5.75E-05 1.82E-01 9.02E-01 8.85E-01 5.836E+00
2.780E-05 1.31E+00 7.30E-01 1.94E-02 1.63E+00 2.94E-01 1.32E-04 3.13E-02 7.34E-05 2.48E-01 8.95E-01 8.75E-01 6.036E+00
2.630E-05 1.33E+00 7.31E-01 2.29E-02 1.69E+00 3.59E-01 1.88E-04 3.26E-02 9.38E-05 3.48E-01 8.87E-01 8.68E-01 6.269E+00
2.500E-05 1.35E+00 7.35E-01 2.72E-02 1.73E+00 4.48E-01 2.73E-04 3.36E-02 1.18E-04 4.80E-01 8.81E-01 8.64E-01 6.542E+00
2.380E-05 1.36E+00 7.39E-01 3.25E-02 1.75E+00 6.17E-01 4.18E-04 3.37E-02 1.48E-04 6.48E-01 8.73E-01 8.60E-01 6.921E+00
2.270E-05 1.37E+00 7.38E-01 3.98E-02 1.77E+00 8.91E-01 6.11E-04 3.51E-02 1.86E-04 8.07E-01 8.67E-01 8.59E-01 7.380E+00
2.170E-05 1.38E+00 7.40E-01 4.97E-02 1.78E+00 1.21E+00 7.94E-04 3.95E-02 2.32E-04 8.75E-01 8.60E-01 8.58E-01 7.788E+00
2.080E-05 1.39E+00 7.42E-01 6.80E-02 1.79E+00 1.25E+00 7.37E-04 4.93E-02 2.89E-04 8.18E-01 8.53E-01 8.59E-01 7.815E+00
2.000E-05 1.39E+00 7.42E-01 2.45E-01 1.65E+00 1.08E+00 5.77E-04 6.27E-02 3.54E-04 6.93E-01 8.46E-01 8.60E-01 7.569E+00
1.920E-05 1.38E+00 7.49E-01 4.72E-01 1.46E+00 8.41E-01 3.96E-04 8.61E-02 4.40E-04 5.52E-01 8.39E-01 8.63E-01 7.249E+00
1.850E-05 1.39E+00 7.63E-01 6.13E-01 1.36E+00 6.59E-01 2.80E-04 1.15E-01 5.39E-04 4.41E-01 8.31E-01 8.66E-01 7.039E+00
1.790E-05 1.40E+00 7.74E-01 7.81E-01 1.21E+00 5.36E-01 2.14E-04 1.47E-01 6.45E-04 3.63E-01 8.24E-01 8.68E-01 6.902E+00
1.720E-05 1.41E+00 7.84E-01 9.03E-01 1.10E+00 4.30E-01 1.70E-04 2.04E-01 8.09E-04 2.92E-01 8.15E-01 8.70E-01 6.810E+00
1.670E-05 1.42E+00 7.94E-01 9.60E-01 1.05E+00 3.68E-01 1.55E-04 2.57E-01 9.56E-04 2.52E-01 8.09E-01 8.72E-01 6.784E+00
1.610E-05 1.43E+00 8.06E-01 1.01E+00 1.01E+00 3.10E-01 1.58E-04 3.51E-01 1.18E-03 2.15E-01 8.00E-01 8.75E-01 6.811E+00
1.560E-05 1.44E+00 8.15E-01 1.05E+00 9.81E-01 2.73E-01 1.78E-04 4.58E-01 1.41E-03 1.92E-01 7.92E-01 8.78E-01 6.878E+00
1.520E-05 1.45E+00 8.22E-01 1.07E+00 9.63E-01 2.47E-01 2.07E-04 5.73E-01 1.62E-03 1.77E-01 7.86E-01 8.80E-01 6.967E+00
1.470E-05 1.46E+00 8.29E-01 1.09E+00 9.43E-01 2.20E-01 2.61E-04 7.38E-01 1.92E-03 1.64E-01 7.79E-01 8.82E-01 7.101E+00
1.430E-05 1.46E+00 8.33E-01 1.10E+00 9.29E-01 2.06E-01 3.27E-04 8.79E-01 2.15E-03 1.57E-01 7.75E-01 8.81E-01 7.225E+00
1.390E-05 1.47E+00 8.35E-01 1.10E+00 9.17E-01 2.00E-01 4.15E-04 9.89E-01 2.38E-03 1.53E-01 7.72E-01 8.80E-01 7.320E+00
1.350E-05 1.47E+00 8.37E-01 1.11E+00 9.05E-01 2.00E-01 5.32E-04 1.09E+00 2.67E-03 1.52E-01 7.68E-01 8.79E-01 7.413E+00
1.320E-05 1.47E+00 8.38E-01 1.11E+00 8.96E-01 2.04E-01 6.46E-04 1.17E+00 2.92E-03 1.54E-01 7.66E-01 8.78E-01 7.491E+00
1.280E-05 1.47E+00 8.42E-01 1.11E+00 8.86E-01 2.17E-01 8.47E-04 1.29E+00 3.33E-03 1.60E-01 7.62E-01 8.78E-01 7.620E+00
1.250E-05 1.47E+00 8.45E-01 1.10E+00 8.84E-01 2.36E-01 1.04E-03 1.39E+00 3.69E-03 1.68E-01 7.58E-01 8.78E-01 7.739E+00
1.220E-05 1.47E+00 8.48E-01 1.10E+00 8.84E-01 2.63E-01 1.29E-03 1.49E+00 4.11E-03 1.80E-01 7.55E-01 8.78E-01 7.883E+00
1.190E-05 1.47E+00 8.50E-01 1.11E+00 8.93E-01 3.00E-01 1.61E-03 1.61E+00 4.61E-03 1.96E-01 7.52E-01 8.79E-01 8.064E+00
1.160E-05 1.47E+00 8.50E-01 1.11E+00 9.00E-01 3.41E-01 2.00E-03 1.74E+00 5.19E-03 2.19E-01 7.48E-01 8.79E-01 8.264E+00
1.140E-05 1.46E+00 8.49E-01 1.11E+00 9.01E-01 3.76E-01 2.35E-03 1.84E+00 5.65E-03 2.39E-01 7.46E-01 8.80E-01 8.415E+00
1.110E-05 1.45E+00 8.48E-01 1.12E+00 9.04E-01 4.31E-01 3.07E-03 2.00E+00 6.44E-03 2.77E-01 7.42E-01 8.80E-01 8.665E+00
1.080E-05 1.44E+00 8.46E-01 1.12E+00 9.06E-01 5.81E-01 4.10E-03 2.20E+00 7.43E-03 3.29E-01 7.37E-01 8.81E-01 9.055E+00
1.050E-05 1.43E+00 8.43E-01 1.12E+00 9.10E-01 7.74E-01 5.32E-03 2.44E+00 8.69E-03 4.02E-01 7.32E-01 8.83E-01 9.553E+00
1.030E-05 1.42E+00 8.41E-01 1.12E+00 9.12E-01 9.24E-01 6.09E-03 2.67E+00 9.68E-03 4.64E-01 7.29E-01 8.85E-01 9.983E+00
1.000E-05 1.41E+00 8.37E-01 1.12E+00 9.15E-01 1.13E+00 7.43E-03 3.00E+00 1.11E-02 5.82E-01 7.24E-01 8.85E-01 1.062E+01
9.750E-06 1.40E+00 8.34E-01 1.12E+00 9.18E-01 1.38E+00 9.22E-03 3.26E+00 1.24E-02 7.00E-01 7.21E-01 8.84E-01 1.123E+01
9.500E-06 1.38E+00 8.30E-01 1.12E+00 9.21E-01 1.66E+00 1.09E-02 3.54E+00 1.37E-02 8.22E-01 7.18E-01 8.83E-01 1.189E+01
9.250E-06 1.37E+00 8.25E-01 1.11E+00 9.24E-01 1.87E+00 1.22E-02 3.82E+00 1.51E-02 9.11E-01 7.15E-01 8.82E-01 1.246E+01
9.080E-06 1.36E+00 8.22E-01 1.11E+00 9.25E-01 2.00E+00 1.31E-02 3.99E+00 1.58E-02 9.31E-01 7.13E-01 8.80E-01 1.275E+01
