  abuc    abusi    avsi   avgr    apah     qmrn  rlec      rlesi     r_pmin_aC r_pmin_Si r_pmax    r_Darkmax 
  14.897  15.000   3.174   7.961   5.012   2.049 2.219e-05 2.447e-05 1.200e-05 8.000e-06 1.500e-04 1.809e-04 4.581e+00 8.026e-01
   2.0877   0.0000   0.1206   0.8180   0.7271   0.0549  0.0000e+00  0.0000e+00  0.0000e+00  0.0000e+00
  -0.0000   0.1247
   redchi2, redchi2p   0.5082 999.0000
   Mean Rad aC, Si, , aCalig, Sia  1.14e-05  1.26e-05  1.74e-05  1.65e-05  1.03e-04
