  abuc    abusi    avsi   avgr    apah     qmrn  rlec      rlesi     r_pmin_aC r_pmin_Si r_pmax    r_Darkmax 
  25.847  15.000   5.380   2.821  11.786   2.369 2.013e-05 2.569e-05 1.200e-05 8.000e-06 1.500e-04 2.424e-04 4.638e+00 1.129e+00
   2.8732   0.0000   0.3678   0.4289   1.1069   0.0471  0.0000e+00  0.0000e+00  0.0000e+00  0.0000e+00
  -0.0000   0.1234
   redchi2, redchi2p   0.3992 999.0000
   Mean Rad aC, Si, , aCalig, Sia  8.89e-06  1.12e-05  1.62e-05  1.66e-05  1.23e-04
