 # Optical depth (Siebenmorgen 2023, A&A 670A,115; SC 2023 doi: 10.48550/arXiv.2311.03310)
 # wel(cm) sa_aC    ss_aC    sa_Si    ss_Si    sa_vgr   ss_vgr   sa_vsi   ss_vsi   s_pahS+B sa_Dark  ss_Dark sigt 
 # ------------------------------------------------------------------------------------------------------------- 
1.000E+00 1.44E-07 4.55E-17 3.72E-07 5.15E-17 8.08E-09 7.02E-23 1.51E-07 2.35E-22 2.58E-11 1.71E-06 1.19E-13 2.381E-06
9.000E-01 1.68E-07 6.93E-17 4.39E-07 7.85E-17 1.03E-08 1.07E-22 1.80E-07 3.58E-22 3.19E-11 1.99E-06 1.81E-13 2.785E-06
8.000E-01 2.01E-07 1.11E-16 5.29E-07 1.26E-16 1.35E-08 1.72E-22 2.19E-07 5.73E-22 4.03E-11 2.36E-06 2.89E-13 3.321E-06
7.000E-01 2.46E-07 1.89E-16 6.54E-07 2.14E-16 1.80E-08 2.93E-22 2.70E-07 9.77E-22 5.27E-11 2.86E-06 4.93E-13 4.051E-06
6.000E-01 3.12E-07 3.51E-16 8.35E-07 3.97E-16 2.50E-08 5.42E-22 3.46E-07 1.81E-21 7.17E-11 3.59E-06 9.11E-13 5.107E-06
5.500E-01 3.56E-07 4.97E-16 9.59E-07 5.63E-16 3.00E-08 7.68E-22 3.99E-07 2.56E-21 8.53E-11 4.08E-06 1.29E-12 5.824E-06
5.000E-01 4.13E-07 7.27E-16 1.12E-06 8.24E-16 3.64E-08 1.12E-21 4.63E-07 3.75E-21 1.03E-10 4.69E-06 1.89E-12 6.723E-06
4.500E-01 4.86E-07 1.11E-15 1.32E-06 1.26E-15 4.48E-08 1.71E-21 5.52E-07 5.71E-21 1.27E-10 5.49E-06 2.87E-12 7.894E-06
4.000E-01 5.85E-07 1.77E-15 1.60E-06 2.01E-15 5.61E-08 2.74E-21 6.63E-07 9.15E-21 1.61E-10 6.54E-06 4.59E-12 9.438E-06
3.500E-01 7.22E-07 3.02E-15 1.98E-06 3.43E-15 7.18E-08 4.68E-21 8.31E-07 1.56E-20 2.11E-10 7.99E-06 7.83E-12 1.159E-05
3.000E-01 9.22E-07 5.60E-15 2.54E-06 6.36E-15 9.46E-08 8.67E-21 1.05E-06 2.89E-20 2.87E-10 1.01E-05 1.45E-11 1.468E-05
2.500E-01 1.23E-06 1.16E-14 3.42E-06 1.32E-14 1.29E-07 1.80E-20 1.42E-06 5.99E-20 4.13E-10 1.33E-05 2.99E-11 1.947E-05
2.098E-01 1.64E-06 2.34E-14 4.54E-06 2.66E-14 1.72E-07 3.63E-20 1.88E-06 1.21E-19 5.86E-10 1.74E-05 6.02E-11 2.560E-05
1.500E-01 2.85E-06 8.94E-14 7.86E-06 1.02E-13 3.28E-07 1.39E-19 3.22E-06 4.61E-19 1.15E-09 2.92E-05 2.29E-10 4.349E-05
1.382E-01 3.27E-06 1.24E-13 8.98E-06 1.41E-13 3.86E-07 1.93E-19 3.70E-06 6.40E-19 1.35E-09 3.33E-05 3.18E-10 4.960E-05
1.320E-01 3.54E-06 1.49E-13 9.69E-06 1.70E-13 4.23E-07 2.31E-19 3.98E-06 7.69E-19 1.48E-09 3.58E-05 3.82E-10 5.338E-05
1.150E-01 4.47E-06 2.59E-13 1.22E-05 2.94E-13 5.54E-07 4.02E-19 4.97E-06 1.33E-18 1.95E-09 4.45E-05 6.62E-10 6.666E-05
1.000E-01 5.68E-06 4.52E-13 1.53E-05 5.15E-13 7.28E-07 7.02E-19 6.20E-06 2.33E-18 2.58E-09 5.57E-05 1.15E-09 8.363E-05
9.970E-02 5.71E-06 4.57E-13 1.54E-05 5.21E-13 7.32E-07 7.11E-19 6.23E-06 2.36E-18 2.60E-09 5.60E-05 1.17E-09 8.405E-05
8.670E-02 7.19E-06 8.00E-13 1.94E-05 9.11E-13 9.68E-07 1.24E-18 7.82E-06 4.12E-18 3.43E-09 6.97E-05 2.04E-09 1.050E-04
8.500E-02 7.45E-06 8.66E-13 2.00E-05 9.87E-13 1.01E-06 1.35E-18 8.08E-06 4.46E-18 3.57E-09 7.20E-05 2.21E-09 1.086E-04
7.500E-02 9.45E-06 1.43E-12 2.46E-05 1.63E-12 1.28E-06 2.22E-18 9.86E-06 7.36E-18 4.59E-09 9.00E-05 3.63E-09 1.352E-04
6.000E-02 1.39E-05 3.49E-12 3.56E-05 4.00E-12 1.97E-06 5.42E-18 1.43E-05 1.80E-17 7.17E-09 1.28E-04 8.83E-09 1.937E-04
5.500E-02 1.61E-05 4.94E-12 3.98E-05 5.69E-12 2.32E-06 7.67E-18 1.67E-05 2.55E-17 8.54E-09 1.48E-04 1.25E-08 2.226E-04
5.000E-02 1.92E-05 7.24E-12 4.93E-05 8.39E-12 2.76E-06 1.12E-17 1.99E-05 3.73E-17 1.03E-08 1.75E-04 1.83E-08 2.662E-04
4.500E-02 2.36E-05 1.10E-11 6.53E-05 1.29E-11 3.37E-06 1.71E-17 2.43E-05 5.69E-17 1.28E-08 2.14E-04 2.79E-08 3.303E-04
4.000E-02 3.04E-05 1.77E-11 8.73E-05 2.08E-11 4.20E-06 2.74E-17 3.07E-05 9.13E-17 1.61E-08 2.68E-04 4.45E-08 4.210E-04
3.500E-02 3.81E-05 3.02E-11 1.33E-04 3.58E-11 5.39E-06 4.68E-17 4.06E-05 1.56E-16 2.11E-08 3.31E-04 7.58E-08 5.477E-04
3.000E-02 5.37E-05 5.62E-11 2.07E-04 6.67E-11 7.18E-06 8.66E-17 5.70E-05 2.89E-16 2.87E-08 4.53E-04 1.40E-07 7.783E-04
2.750E-02 6.41E-05 7.97E-11 2.60E-04 9.45E-11 8.47E-06 1.23E-16 6.96E-05 4.10E-16 3.42E-08 5.30E-04 1.98E-07 9.326E-04
2.500E-02 7.71E-05 1.17E-10 3.32E-04 1.38E-10 1.01E-05 1.80E-16 8.73E-05 6.01E-16 4.14E-08 6.33E-04 2.89E-07 1.140E-03
2.400E-02 8.47E-05 1.38E-10 3.67E-04 1.63E-10 1.09E-05 2.12E-16 9.52E-05 7.07E-16 4.49E-08 6.81E-04 3.39E-07 1.239E-03
2.000E-02 1.24E-04 2.88E-10 5.72E-04 3.32E-10 1.55E-05 4.39E-16 1.38E-04 1.47E-15 6.47E-08 9.56E-04 7.00E-07 1.806E-03
1.800E-02 1.54E-04 4.42E-10 7.09E-04 4.98E-10 1.90E-05 6.71E-16 1.72E-04 2.23E-15 7.99E-08 1.17E-03 1.07E-06 2.228E-03
1.600E-02 2.05E-04 7.13E-10 8.82E-04 7.81E-10 2.41E-05 1.08E-15 2.19E-04 3.58E-15 1.01E-07 1.48E-03 1.70E-06 2.808E-03
1.500E-02 2.44E-04 9.27E-10 9.89E-04 9.99E-10 2.74E-05 1.39E-15 2.48E-04 4.64E-15 1.15E-07 1.68E-03 2.18E-06 3.187E-03
1.400E-02 2.78E-04 1.22E-09 1.11E-03 1.30E-09 3.17E-05 1.84E-15 2.86E-04 6.12E-15 1.32E-07 1.86E-03 2.87E-06 3.574E-03
1.200E-02 4.24E-04 2.29E-09 1.42E-03 2.33E-09 4.41E-05 3.43E-15 3.93E-04 1.13E-14 1.80E-07 2.51E-03 5.22E-06 4.795E-03
1.000E-02 6.44E-04 4.81E-09 1.87E-03 4.61E-09 6.67E-05 7.16E-15 5.73E-04 2.36E-14 2.60E-07 3.44E-03 1.07E-05 6.604E-03
9.000E-03 8.57E-04 7.42E-09 2.13E-03 6.84E-09 8.57E-05 1.10E-14 7.16E-04 3.59E-14 3.22E-07 4.20E-03 1.61E-05 8.003E-03
8.000E-03 1.14E-03 1.17E-08 2.47E-03 1.08E-08 1.15E-04 1.77E-14 9.18E-04 5.76E-14 4.09E-07 5.00E-03 2.52E-05 9.664E-03
7.500E-03 1.33E-03 1.53E-08 2.74E-03 1.39E-08 1.35E-04 2.30E-14 1.05E-03 7.46E-14 4.66E-07 5.66E-03 3.25E-05 1.095E-02
7.000E-03 1.61E-03 2.01E-08 3.07E-03 1.82E-08 1.62E-04 3.05E-14 1.22E-03 9.83E-14 5.37E-07 6.37E-03 4.22E-05 1.247E-02
6.000E-03 2.31E-03 3.64E-08 3.94E-03 3.33E-08 2.50E-04 5.75E-14 1.70E-03 1.82E-13 7.36E-07 8.26E-03 7.62E-05 1.653E-02
5.000E-03 3.29E-03 7.12E-08 5.59E-03 6.78E-08 4.38E-04 1.22E-13 2.50E-03 3.76E-13 1.07E-06 1.11E-02 1.53E-04 2.303E-02
4.500E-03 4.05E-03 1.03E-07 6.84E-03 1.01E-07 6.20E-04 1.88E-13 3.12E-03 5.70E-13 1.34E-06 1.32E-02 2.27E-04 2.805E-02
4.000E-03 4.82E-03 1.54E-07 8.53E-03 1.51E-07 9.07E-04 3.00E-13 3.99E-03 9.03E-13 1.73E-06 1.58E-02 3.53E-04 3.445E-02
3.500E-03 5.82E-03 2.43E-07 1.05E-02 2.39E-07 1.26E-03 4.80E-13 5.20E-03 1.52E-12 2.33E-06 1.96E-02 5.84E-04 4.303E-02
3.000E-03 7.19E-03 4.02E-07 1.29E-02 3.84E-07 1.33E-03 7.50E-13 7.11E-03 2.78E-12 3.38E-06 2.53E-02 1.03E-03 5.492E-02
2.750E-03 7.88E-03 5.26E-07 1.42E-02 4.95E-07 1.15E-03 9.66E-13 8.54E-03 3.87E-12 4.36E-06 2.91E-02 1.40E-03 6.222E-02
2.500E-03 8.50E-03 7.02E-07 1.55E-02 6.48E-07 9.03E-04 1.33E-12 1.05E-02 5.58E-12 6.53E-06 3.36E-02 1.95E-03 7.101E-02
2.400E-03 8.82E-03 8.01E-07 1.61E-02 7.28E-07 8.10E-04 1.54E-12 1.14E-02 6.47E-12 8.54E-06 3.58E-02 2.23E-03 7.516E-02
2.350E-03 9.00E-03 8.57E-07 1.64E-02 7.72E-07 7.66E-04 1.67E-12 1.20E-02 6.99E-12 9.81E-06 3.70E-02 2.39E-03 7.751E-02
2.320E-03 9.11E-03 8.91E-07 1.66E-02 8.01E-07 7.41E-04 1.75E-12 1.23E-02 7.32E-12 1.04E-05 3.77E-02 2.49E-03 7.892E-02
2.310E-03 9.14E-03 9.03E-07 1.66E-02 8.11E-07 7.32E-04 1.78E-12 1.24E-02 7.44E-12 1.06E-05 3.79E-02 2.53E-03 7.940E-02
2.300E-03 9.18E-03 9.16E-07 1.67E-02 8.21E-07 7.24E-04 1.81E-12 1.25E-02 7.55E-12 1.08E-05 3.82E-02 2.56E-03 7.988E-02
2.250E-03 9.33E-03 9.77E-07 1.71E-02 8.75E-07 6.85E-04 1.98E-12 1.31E-02 8.21E-12 1.12E-05 3.95E-02 2.75E-03 8.249E-02
2.200E-03 9.48E-03 1.05E-06 1.75E-02 9.31E-07 6.48E-04 2.16E-12 1.39E-02 8.88E-12 1.18E-05 4.08E-02 2.94E-03 8.529E-02
2.150E-03 9.67E-03 1.13E-06 1.80E-02 9.90E-07 6.15E-04 2.36E-12 1.46E-02 9.60E-12 1.27E-05 4.22E-02 3.14E-03 8.815E-02
2.120E-03 9.80E-03 1.18E-06 1.82E-02 1.02E-06 5.96E-04 2.50E-12 1.50E-02 1.01E-11 1.32E-05 4.30E-02 3.27E-03 8.996E-02
2.110E-03 9.83E-03 1.19E-06 1.83E-02 1.04E-06 5.90E-04 2.55E-12 1.52E-02 1.02E-11 1.33E-05 4.33E-02 3.31E-03 9.057E-02
2.100E-03 9.86E-03 1.21E-06 1.84E-02 1.05E-06 5.84E-04 2.60E-12 1.54E-02 1.04E-11 1.34E-05 4.36E-02 3.35E-03 9.118E-02
2.080E-03 9.91E-03 1.24E-06 1.85E-02 1.07E-06 5.72E-04 2.70E-12 1.57E-02 1.07E-11 1.34E-05 4.41E-02 3.43E-03 9.227E-02
2.000E-03 1.01E-02 1.40E-06 1.91E-02 1.15E-06 5.30E-04 3.16E-12 1.72E-02 1.22E-11 1.31E-05 4.64E-02 3.81E-03 9.710E-02
1.950E-03 1.02E-02 1.52E-06 1.94E-02 1.20E-06 5.08E-04 3.50E-12 1.82E-02 1.29E-11 1.40E-05 4.76E-02 4.00E-03 9.994E-02
1.900E-03 1.04E-02 1.65E-06 1.95E-02 1.23E-06 4.87E-04 3.89E-12 1.90E-02 1.35E-11 1.64E-05 4.86E-02 4.17E-03 1.022E-01
1.850E-03 1.06E-02 1.81E-06 1.94E-02 1.24E-06 4.69E-04 4.34E-12 1.94E-02 1.39E-11 2.04E-05 4.91E-02 4.32E-03 1.032E-01
1.830E-03 1.07E-02 1.87E-06 1.92E-02 1.24E-06 4.63E-04 4.54E-12 1.95E-02 1.39E-11 2.18E-05 4.91E-02 4.36E-03 1.034E-01
1.820E-03 1.08E-02 1.90E-06 1.92E-02 1.24E-06 4.59E-04 4.64E-12 1.95E-02 1.40E-11 2.23E-05 4.91E-02 4.38E-03 1.033E-01
1.810E-03 1.08E-02 1.94E-06 1.91E-02 1.24E-06 4.57E-04 4.75E-12 1.94E-02 1.40E-11 2.26E-05 4.90E-02 4.41E-03 1.032E-01
1.800E-03 1.09E-02 1.97E-06 1.90E-02 1.24E-06 4.54E-04 4.85E-12 1.94E-02 1.40E-11 2.28E-05 4.89E-02 4.44E-03 1.030E-01
1.750E-03 1.11E-02 2.16E-06 1.81E-02 1.21E-06 4.40E-04 5.45E-12 1.89E-02 1.41E-11 2.35E-05 4.84E-02 4.58E-03 1.015E-01
1.700E-03 1.12E-02 2.37E-06 1.68E-02 1.16E-06 4.30E-04 6.13E-12 1.80E-02 1.42E-11 2.81E-05 4.73E-02 4.76E-03 9.851E-02
1.670E-03 1.14E-02 2.52E-06 1.58E-02 1.12E-06 4.25E-04 6.59E-12 1.73E-02 1.44E-11 3.25E-05 4.67E-02 4.91E-03 9.651E-02
1.650E-03 1.16E-02 2.63E-06 1.49E-02 1.10E-06 4.22E-04 6.93E-12 1.67E-02 1.45E-11 3.41E-05 4.63E-02 5.03E-03 9.504E-02
1.640E-03 1.16E-02 2.68E-06 1.45E-02 1.10E-06 4.21E-04 7.10E-12 1.65E-02 1.46E-11 3.41E-05 4.61E-02 5.09E-03 9.422E-02
1.630E-03 1.17E-02 2.73E-06 1.40E-02 1.09E-06 4.19E-04 7.28E-12 1.62E-02 1.47E-11 3.36E-05 4.58E-02 5.15E-03 9.339E-02
1.610E-03 1.18E-02 2.84E-06 1.31E-02 1.09E-06 4.17E-04 7.65E-12 1.57E-02 1.51E-11 3.18E-05 4.54E-02 5.31E-03 9.167E-02
1.600E-03 1.19E-02 2.90E-06 1.26E-02 1.09E-06 4.16E-04 7.85E-12 1.54E-02 1.53E-11 3.10E-05 4.52E-02 5.39E-03 9.081E-02
1.590E-03 1.19E-02 2.96E-06 1.20E-02 1.10E-06 4.15E-04 8.05E-12 1.51E-02 1.55E-11 3.04E-05 4.50E-02 5.48E-03 8.995E-02
1.580E-03 1.20E-02 3.02E-06 1.15E-02 1.11E-06 4.15E-04 8.26E-12 1.48E-02 1.58E-11 3.00E-05 4.48E-02 5.58E-03 8.912E-02
1.570E-03 1.20E-02 3.08E-06 1.10E-02 1.14E-06 4.14E-04 8.48E-12 1.46E-02 1.61E-11 2.97E-05 4.45E-02 5.68E-03 8.823E-02
1.560E-03 1.21E-02 3.15E-06 1.05E-02 1.17E-06 4.14E-04 8.71E-12 1.43E-02 1.64E-11 2.92E-05 4.43E-02 5.80E-03 8.749E-02
1.540E-03 1.23E-02 3.28E-06 9.65E-03 1.25E-06 4.13E-04 9.18E-12 1.38E-02 1.72E-11 2.88E-05 4.41E-02 6.05E-03 8.624E-02
1.520E-03 1.24E-02 3.41E-06 8.97E-03 1.37E-06 4.12E-04 9.68E-12 1.32E-02 1.81E-11 3.02E-05 4.37E-02 6.32E-03 8.507E-02
1.510E-03 1.24E-02 3.47E-06 8.72E-03 1.44E-06 4.12E-04 9.94E-12 1.30E-02 1.87E-11 3.11E-05 4.35E-02 6.47E-03 8.460E-02
1.500E-03 1.24E-02 3.54E-06 8.52E-03 1.52E-06 4.12E-04 1.02E-11 1.28E-02 1.93E-11 3.13E-05 4.34E-02 6.63E-03 8.421E-02
1.450E-03 1.26E-02 3.95E-06 8.12E-03 1.98E-06 4.15E-04 1.17E-11 1.18E-02 2.33E-11 3.87E-05 4.31E-02 7.73E-03 8.386E-02
1.440E-03 1.27E-02 4.04E-06 8.12E-03 2.08E-06 4.16E-04 1.21E-11 1.16E-02 2.43E-11 4.23E-05 4.32E-02 7.99E-03 8.409E-02
1.430E-03 1.28E-02 4.13E-06 8.11E-03 2.17E-06 4.17E-04 1.24E-11 1.16E-02 2.56E-11 4.55E-05 4.35E-02 8.30E-03 8.467E-02
1.420E-03 1.28E-02 4.23E-06 8.10E-03 2.28E-06 4.18E-04 1.28E-11 1.15E-02 2.70E-11 4.71E-05 4.37E-02 8.63E-03 8.526E-02
1.400E-03 1.30E-02 4.43E-06 8.11E-03 2.50E-06 4.20E-04 1.35E-11 1.16E-02 3.00E-11 5.11E-05 4.46E-02 9.35E-03 8.712E-02
1.380E-03 1.31E-02 4.64E-06 8.11E-03 2.74E-06 4.23E-04 1.43E-11 1.19E-02 3.35E-11 6.32E-05 4.59E-02 1.01E-02 8.966E-02
1.370E-03 1.31E-02 4.76E-06 8.13E-03 2.86E-06 4.25E-04 1.48E-11 1.22E-02 3.54E-11 7.42E-05 4.68E-02 1.06E-02 9.134E-02
1.360E-03 1.32E-02 4.88E-06 8.14E-03 3.00E-06 4.26E-04 1.52E-11 1.26E-02 3.74E-11 8.51E-05 4.77E-02 1.10E-02 9.321E-02
1.350E-03 1.33E-02 5.00E-06 8.17E-03 3.14E-06 4.28E-04 1.57E-11 1.30E-02 3.95E-11 9.06E-05 4.87E-02 1.14E-02 9.513E-02
1.340E-03 1.34E-02 5.12E-06 8.19E-03 3.30E-06 4.30E-04 1.62E-11 1.34E-02 4.15E-11 9.79E-05 4.98E-02 1.18E-02 9.718E-02
1.330E-03 1.35E-02 5.24E-06 8.24E-03 3.46E-06 4.32E-04 1.67E-11 1.39E-02 4.37E-11 1.13E-04 5.09E-02 1.22E-02 9.927E-02
1.320E-03 1.36E-02 5.37E-06 8.30E-03 3.63E-06 4.35E-04 1.72E-11 1.44E-02 4.59E-11 1.37E-04 5.20E-02 1.26E-02 1.014E-01
1.310E-03 1.36E-02 5.49E-06 8.37E-03 3.81E-06 4.37E-04 1.77E-11 1.49E-02 4.82E-11 1.78E-04 5.31E-02 1.30E-02 1.036E-01
1.290E-03 1.37E-02 5.73E-06 8.57E-03 4.22E-06 4.42E-04 1.88E-11 1.60E-02 5.32E-11 3.61E-04 5.52E-02 1.39E-02 1.082E-01
1.280E-03 1.37E-02 5.87E-06 8.68E-03 4.43E-06 4.45E-04 1.94E-11 1.67E-02 5.58E-11 5.26E-04 5.65E-02 1.43E-02 1.108E-01
1.270E-03 1.38E-02 6.03E-06 8.74E-03 4.67E-06 4.48E-04 2.01E-11 1.73E-02 5.85E-11 6.35E-04 5.78E-02 1.47E-02 1.134E-01
1.260E-03 1.39E-02 6.19E-06 8.86E-03 4.95E-06 4.51E-04 2.07E-11 1.80E-02 6.13E-11 5.49E-04 5.90E-02 1.51E-02 1.159E-01
1.250E-03 1.39E-02 6.34E-06 9.04E-03 5.25E-06 4.54E-04 2.14E-11 1.88E-02 6.41E-11 4.07E-04 6.02E-02 1.55E-02 1.183E-01
1.220E-03 1.42E-02 6.92E-06 1.03E-02 6.49E-06 4.64E-04 2.36E-11 2.11E-02 7.35E-11 3.20E-04 6.41E-02 1.67E-02 1.271E-01
1.210E-03 1.43E-02 7.08E-06 1.12E-02 6.99E-06 4.67E-04 2.44E-11 2.19E-02 7.69E-11 3.67E-04 6.54E-02 1.70E-02 1.307E-01
1.200E-03 1.43E-02 7.27E-06 1.24E-02 7.47E-06 4.71E-04 2.53E-11 2.29E-02 8.05E-11 4.05E-04 6.67E-02 1.74E-02 1.345E-01
1.190E-03 1.44E-02 7.50E-06 1.37E-02 7.90E-06 4.74E-04 2.61E-11 2.39E-02 8.43E-11 4.05E-04 6.81E-02 1.77E-02 1.387E-01
1.180E-03 1.45E-02 7.70E-06 1.49E-02 8.27E-06 4.78E-04 2.71E-11 2.49E-02 8.78E-11 4.03E-04 6.93E-02 1.79E-02 1.425E-01
1.170E-03 1.46E-02 7.91E-06 1.61E-02 8.57E-06 4.82E-04 2.81E-11 2.60E-02 9.16E-11 4.46E-04 7.05E-02 1.82E-02 1.464E-01
1.160E-03 1.47E-02 8.13E-06 1.72E-02 8.83E-06 4.88E-04 2.92E-11 2.70E-02 9.53E-11 5.73E-04 7.16E-02 1.84E-02 1.500E-01
1.150E-03 1.48E-02 8.32E-06 1.81E-02 9.06E-06 6.85E-04 2.89E-11 2.80E-02 9.92E-11 8.32E-04 7.26E-02 1.87E-02 1.537E-01
1.140E-03 1.48E-02 8.54E-06 1.90E-02 9.27E-06 5.09E-04 3.08E-11 2.91E-02 1.04E-10 1.25E-03 7.37E-02 1.89E-02 1.572E-01
1.130E-03 1.49E-02 8.77E-06 1.97E-02 9.47E-06 5.08E-04 3.20E-11 3.03E-02 1.08E-10 1.52E-03 7.48E-02 1.91E-02 1.608E-01
1.120E-03 1.49E-02 9.02E-06 2.04E-02 9.69E-06 5.12E-04 3.32E-11 3.15E-02 1.13E-10 1.23E-03 7.59E-02 1.93E-02 1.638E-01
1.110E-03 1.50E-02 9.27E-06 2.10E-02 9.91E-06 5.16E-04 3.45E-11 3.29E-02 1.18E-10 7.83E-04 7.70E-02 1.95E-02 1.666E-01
1.090E-03 1.51E-02 9.84E-06 2.23E-02 1.04E-05 5.26E-04 3.71E-11 3.57E-02 1.28E-10 3.31E-04 7.90E-02 1.98E-02 1.727E-01
1.050E-03 1.54E-02 1.12E-05 2.46E-02 1.12E-05 5.51E-04 4.31E-11 4.31E-02 1.52E-10 1.17E-04 8.31E-02 2.00E-02 1.869E-01
1.000E-03 1.60E-02 1.32E-05 2.69E-02 1.18E-05 5.87E-04 5.25E-11 4.99E-02 1.63E-10 6.52E-05 8.37E-02 1.87E-02 1.958E-01
9.800E-04 1.62E-02 1.42E-05 2.74E-02 1.18E-05 6.04E-04 5.69E-11 5.24E-02 1.68E-10 5.86E-05 8.38E-02 1.82E-02 1.987E-01
9.600E-04 1.64E-02 1.52E-05 2.73E-02 1.15E-05 6.22E-04 6.18E-11 5.48E-02 1.69E-10 5.56E-05 8.34E-02 1.74E-02 1.999E-01
9.500E-04 1.67E-02 1.57E-05 2.69E-02 1.13E-05 6.31E-04 6.45E-11 5.53E-02 1.65E-10 5.52E-05 8.26E-02 1.68E-02 1.990E-01
9.400E-04 1.67E-02 1.62E-05 2.64E-02 1.11E-05 6.41E-04 6.73E-11 5.52E-02 1.58E-10 5.56E-05 8.13E-02 1.60E-02 1.964E-01
9.200E-04 1.70E-02 1.73E-05 2.52E-02 1.06E-05 6.62E-04 7.33E-11 5.14E-02 1.32E-10 5.91E-05 7.71E-02 1.43E-02 1.856E-01
8.900E-04 1.74E-02 1.94E-05 2.23E-02 9.91E-06 6.96E-04 8.37E-11 4.06E-02 8.44E-11 8.08E-05 6.87E-02 1.21E-02 1.620E-01
8.700E-04 1.75E-02 2.07E-05 2.02E-02 9.74E-06 7.21E-04 9.17E-11 3.38E-02 6.26E-11 1.63E-04 6.35E-02 1.14E-02 1.474E-01
8.600E-04 1.77E-02 2.15E-05 1.91E-02 9.74E-06 7.34E-04 9.60E-11 3.10E-02 5.53E-11 2.39E-04 6.16E-02 1.13E-02 1.418E-01
8.500E-04 1.78E-02 2.23E-05 1.81E-02 9.72E-06 7.47E-04 1.01E-10 2.86E-02 4.93E-11 1.76E-04 5.97E-02 1.12E-02 1.363E-01
8.400E-04 1.80E-02 2.33E-05 1.68E-02 9.71E-06 7.61E-04 1.06E-10 2.61E-02 4.31E-11 1.31E-04 5.77E-02 1.11E-02 1.306E-01
8.200E-04 1.82E-02 2.49E-05 1.40E-02 9.97E-06 7.91E-04 1.16E-10 2.01E-02 3.10E-11 1.34E-04 5.27E-02 1.08E-02 1.168E-01
8.000E-04 1.84E-02 2.69E-05 1.13E-02 1.10E-05 8.23E-04 1.28E-10 1.38E-02 2.39E-11 1.89E-04 4.74E-02 1.13E-02 1.033E-01
7.900E-04 1.86E-02 2.81E-05 1.03E-02 1.18E-05 8.39E-04 1.35E-10 1.16E-02 2.57E-11 2.31E-04 4.59E-02 1.21E-02 9.955E-02
7.800E-04 1.87E-02 2.91E-05 9.43E-03 1.28E-05 8.56E-04 1.42E-10 9.42E-03 2.91E-11 2.73E-04 4.42E-02 1.30E-02 9.582E-02
7.700E-04 1.87E-02 3.02E-05 8.70E-03 1.39E-05 8.73E-04 1.49E-10 7.75E-03 3.47E-11 2.93E-04 4.29E-02 1.40E-02 9.330E-02
7.600E-04 1.87E-02 3.14E-05 8.07E-03 1.50E-05 8.91E-04 1.57E-10 6.58E-03 4.23E-11 2.74E-04 4.22E-02 1.52E-02 9.204E-02
7.500E-04 1.88E-02 3.27E-05 7.51E-03 1.63E-05 9.09E-04 1.66E-10 5.52E-03 5.15E-11 2.30E-04 4.16E-02 1.66E-02 9.116E-02
7.300E-04 1.90E-02 3.59E-05 6.65E-03 1.93E-05 9.49E-04 1.85E-10 4.63E-03 7.34E-11 1.52E-04 4.18E-02 1.96E-02 9.279E-02
7.200E-04 1.91E-02 3.73E-05 6.38E-03 2.10E-05 9.70E-04 1.95E-10 4.48E-03 8.49E-11 1.31E-04 4.21E-02 2.09E-02 9.402E-02
7.100E-04 1.91E-02 3.91E-05 6.21E-03 2.27E-05 9.92E-04 2.06E-10 4.34E-03 9.76E-11 1.29E-04 4.24E-02 2.24E-02 9.557E-02
7.000E-04 1.93E-02 4.10E-05 6.04E-03 2.45E-05 1.02E-03 2.18E-10 4.30E-03 1.11E-10 1.71E-04 4.29E-02 2.38E-02 9.760E-02
6.900E-04 1.94E-02 4.25E-05 5.80E-03 2.63E-05 1.04E-03 2.31E-10 4.27E-03 1.25E-10 1.10E-04 4.32E-02 2.51E-02 9.899E-02
6.800E-04 1.91E-02 4.42E-05 5.50E-03 2.83E-05 1.06E-03 2.45E-10 4.28E-03 1.39E-10 9.16E-05 4.31E-02 2.66E-02 9.980E-02
6.600E-04 1.92E-02 4.97E-05 4.95E-03 3.29E-05 1.12E-03 2.76E-10 4.27E-03 1.70E-10 9.01E-05 4.41E-02 3.00E-02 1.038E-01
6.400E-04 1.97E-02 5.62E-05 4.29E-03 3.83E-05 1.17E-03 3.11E-10 4.26E-03 2.06E-10 1.25E-04 4.56E-02 3.32E-02 1.085E-01
6.300E-04 2.01E-02 5.93E-05 4.00E-03 4.16E-05 1.19E-03 3.32E-10 4.25E-03 2.27E-10 1.82E-04 4.63E-02 3.46E-02 1.108E-01
6.200E-04 2.02E-02 6.21E-05 3.94E-03 4.53E-05 1.24E-03 3.53E-10 4.23E-03 2.48E-10 2.39E-04 4.66E-02 3.62E-02 1.127E-01
6.100E-04 2.04E-02 6.58E-05 3.92E-03 4.88E-05 1.27E-03 3.77E-10 4.20E-03 2.72E-10 1.82E-04 4.71E-02 3.78E-02 1.150E-01
5.900E-04 2.13E-02 7.39E-05 3.22E-03 5.68E-05 1.34E-03 4.30E-10 4.14E-03 3.25E-10 9.96E-05 4.86E-02 4.09E-02 1.197E-01
5.500E-04 2.05E-02 8.89E-05 2.38E-03 8.00E-05 1.50E-03 5.68E-10 4.08E-03 4.66E-10 9.33E-05 4.82E-02 4.88E-02 1.258E-01
5.300E-04 2.07E-02 1.02E-04 2.13E-03 9.51E-05 1.60E-03 6.58E-10 4.09E-03 5.59E-10 1.30E-04 4.93E-02 5.36E-02 1.317E-01
5.200E-04 2.07E-02 1.09E-04 2.00E-03 1.04E-04 1.65E-03 7.09E-10 4.10E-03 6.13E-10 1.84E-04 4.97E-02 5.62E-02 1.347E-01
5.100E-04 2.09E-02 1.18E-04 1.87E-03 1.14E-04 1.70E-03 7.66E-10 4.12E-03 6.72E-10 2.41E-04 5.03E-02 5.87E-02 1.381E-01
5.000E-04 2.11E-02 1.27E-04 1.73E-03 1.26E-04 1.75E-03 8.28E-10 4.14E-03 7.37E-10 1.87E-04 5.10E-02 6.12E-02 1.414E-01
4.800E-04 2.14E-02 1.46E-04 1.53E-03 1.51E-04 1.87E-03 9.73E-10 4.21E-03 8.90E-10 1.14E-04 5.20E-02 6.65E-02 1.480E-01
4.500E-04 2.21E-02 1.83E-04 1.29E-03 2.01E-04 2.07E-03 1.26E-09 4.36E-03 1.19E-09 1.05E-04 5.38E-02 7.45E-02 1.586E-01
4.000E-04 2.29E-02 2.80E-04 9.51E-04 3.35E-04 2.49E-03 2.00E-09 4.69E-03 1.99E-09 1.26E-04 5.69E-02 9.02E-02 1.789E-01
3.800E-04 2.34E-02 3.38E-04 8.38E-04 4.17E-04 2.70E-03 2.45E-09 4.84E-03 2.47E-09 1.40E-04 5.82E-02 9.70E-02 1.880E-01
3.600E-04 2.39E-02 4.14E-04 7.36E-04 5.25E-04 2.94E-03 3.03E-09 5.00E-03 3.11E-09 1.63E-04 5.96E-02 1.04E-01 1.972E-01
3.400E-04 2.51E-02 5.08E-04 6.47E-04 6.67E-04 3.22E-03 3.79E-09 5.18E-03 3.95E-09 2.55E-04 6.16E-02 1.10E-01 2.068E-01
3.300E-04 2.50E-02 5.61E-04 6.06E-04 7.56E-04 3.38E-03 4.27E-09 5.27E-03 4.47E-09 5.20E-04 6.19E-02 1.13E-01 2.114E-01
3.200E-04 2.51E-02 6.30E-04 5.64E-04 8.59E-04 3.54E-03 4.82E-09 5.36E-03 5.08E-09 2.72E-04 6.24E-02 1.17E-01 2.161E-01
3.150E-04 2.53E-02 6.70E-04 5.46E-04 9.17E-04 3.63E-03 5.12E-09 5.40E-03 5.42E-09 2.37E-04 6.29E-02 1.19E-01 2.186E-01
3.100E-04 2.56E-02 7.11E-04 5.28E-04 9.80E-04 3.72E-03 5.45E-09 5.44E-03 5.79E-09 2.25E-04 6.33E-02 1.21E-01 2.211E-01
3.080E-04 2.57E-02 7.28E-04 5.20E-04 1.01E-03 3.76E-03 5.60E-09 5.46E-03 5.95E-09 2.24E-04 6.35E-02 1.21E-01 2.220E-01
3.050E-04 2.58E-02 7.54E-04 5.09E-04 1.05E-03 3.82E-03 5.82E-09 5.50E-03 6.20E-09 2.23E-04 6.36E-02 1.22E-01 2.235E-01
3.000E-04 2.59E-02 8.02E-04 4.92E-04 1.12E-03 3.92E-03 6.21E-09 5.55E-03 6.63E-09 2.25E-04 6.40E-02 1.24E-01 2.259E-01
2.900E-04 2.64E-02 9.09E-04 4.59E-04 1.29E-03 4.14E-03 7.09E-09 5.67E-03 7.63E-09 2.36E-04 6.49E-02 1.27E-01 2.307E-01
2.800E-04 2.66E-02 1.03E-03 4.28E-04 1.49E-03 4.37E-03 8.14E-09 5.80E-03 8.81E-09 2.50E-04 6.54E-02 1.30E-01 2.353E-01
2.600E-04 2.73E-02 1.37E-03 3.71E-04 2.02E-03 4.90E-03 1.09E-08 6.08E-03 1.19E-08 2.89E-04 6.69E-02 1.36E-01 2.449E-01
2.500E-04 2.79E-02 1.59E-03 3.44E-04 2.37E-03 5.21E-03 1.27E-08 6.25E-03 1.40E-08 3.12E-04 6.79E-02 1.38E-01 2.495E-01
2.200E-04 3.04E-02 2.61E-03 2.77E-04 3.99E-03 6.33E-03 2.10E-08 6.84E-03 2.35E-08 4.08E-04 7.13E-02 1.42E-01 2.638E-01
2.159E-04 3.07E-02 2.80E-03 2.68E-04 4.31E-03 6.52E-03 2.26E-08 6.93E-03 2.54E-08 4.25E-04 7.17E-02 1.42E-01 2.657E-01
2.000E-04 3.25E-02 3.77E-03 2.41E-04 5.86E-03 7.33E-03 3.04E-08 7.34E-03 3.46E-08 5.02E-04 7.37E-02 1.43E-01 2.742E-01
1.662E-04 3.74E-02 7.62E-03 1.93E-04 1.22E-02 9.74E-03 6.28E-08 8.51E-03 7.28E-08 7.62E-04 7.78E-02 1.45E-01 2.991E-01
1.650E-04 3.77E-02 7.83E-03 1.90E-04 1.26E-02 9.85E-03 6.46E-08 8.56E-03 7.50E-08 7.75E-04 7.80E-02 1.45E-01 3.004E-01
1.250E-04 4.96E-02 2.19E-02 1.74E-04 3.62E-02 1.51E-02 1.92E-07 1.09E-02 2.28E-07 1.50E-03 8.39E-02 1.49E-01 3.681E-01
1.235E-04 5.03E-02 2.28E-02 1.73E-04 3.78E-02 1.54E-02 2.01E-07 1.10E-02 2.39E-07 1.54E-03 8.42E-02 1.49E-01 3.721E-01
1.130E-04 5.61E-02 3.08E-02 1.80E-04 5.17E-02 1.77E-02 2.84E-07 1.19E-02 3.42E-07 1.91E-03 8.61E-02 1.48E-01 4.048E-01
1.000E-04 6.67E-02 4.55E-02 2.01E-04 7.79E-02 2.16E-02 4.58E-07 1.34E-02 5.57E-07 2.56E-03 8.90E-02 1.46E-01 4.631E-01
9.500E-05 7.24E-02 5.30E-02 2.03E-04 9.19E-02 2.35E-02 5.59E-07 1.40E-02 6.84E-07 2.90E-03 9.03E-02 1.45E-01 4.933E-01
9.300E-05 7.48E-02 5.63E-02 2.08E-04 9.84E-02 2.43E-02 6.08E-07 1.43E-02 7.45E-07 3.05E-03 9.07E-02 1.45E-01 5.069E-01
9.200E-05 7.61E-02 5.81E-02 2.11E-04 1.02E-01 2.48E-02 6.34E-07 1.45E-02 7.77E-07 3.13E-03 9.10E-02 1.44E-01 5.140E-01
9.100E-05 7.74E-02 5.99E-02 2.14E-04 1.05E-01 2.52E-02 6.61E-07 1.46E-02 8.12E-07 3.22E-03 9.12E-02 1.44E-01 5.214E-01
9.000E-05 7.87E-02 6.17E-02 2.18E-04 1.09E-01 2.56E-02 6.90E-07 1.48E-02 8.49E-07 3.30E-03 9.15E-02 1.44E-01 5.291E-01
8.900E-05 8.01E-02 6.37E-02 2.21E-04 1.13E-01 2.61E-02 7.21E-07 1.49E-02 8.88E-07 3.39E-03 9.17E-02 1.44E-01 5.370E-01
8.800E-05 8.14E-02 6.57E-02 2.25E-04 1.17E-01 2.66E-02 7.53E-07 1.51E-02 9.29E-07 3.49E-03 9.19E-02 1.44E-01 5.452E-01
8.700E-05 8.28E-02 6.78E-02 2.30E-04 1.21E-01 2.71E-02 7.87E-07 1.53E-02 9.72E-07 3.58E-03 9.21E-02 1.43E-01 5.538E-01
8.600E-05 8.42E-02 7.00E-02 2.33E-04 1.26E-01 2.76E-02 8.23E-07 1.54E-02 1.02E-06 3.68E-03 9.23E-02 1.43E-01 5.626E-01
8.500E-05 8.57E-02 7.23E-02 2.37E-04 1.31E-01 2.81E-02 8.62E-07 1.56E-02 1.07E-06 3.79E-03 9.25E-02 1.43E-01 5.718E-01
8.400E-05 8.72E-02 7.46E-02 2.40E-04 1.36E-01 2.86E-02 9.02E-07 1.58E-02 1.12E-06 3.90E-03 9.27E-02 1.43E-01 5.814E-01
8.330E-05 8.83E-02 7.64E-02 2.44E-04 1.39E-01 2.90E-02 9.32E-07 1.59E-02 1.16E-06 3.98E-03 9.28E-02 1.43E-01 5.884E-01
8.200E-05 9.04E-02 7.97E-02 2.49E-04 1.46E-01 2.97E-02 9.90E-07 1.61E-02 1.23E-06 4.13E-03 9.32E-02 1.42E-01 6.020E-01
8.100E-05 9.21E-02 8.24E-02 2.55E-04 1.52E-01 3.03E-02 1.04E-06 1.63E-02 1.29E-06 4.25E-03 9.34E-02 1.42E-01 6.129E-01
8.000E-05 9.40E-02 8.52E-02 2.57E-04 1.58E-01 3.09E-02 1.09E-06 1.65E-02 1.36E-06 4.38E-03 9.36E-02 1.41E-01 6.243E-01
7.900E-05 9.59E-02 8.80E-02 2.63E-04 1.64E-01 3.15E-02 1.14E-06 1.67E-02 1.43E-06 4.51E-03 9.39E-02 1.41E-01 6.363E-01
7.800E-05 9.80E-02 9.09E-02 2.71E-04 1.71E-01 3.21E-02 1.20E-06 1.69E-02 1.51E-06 4.65E-03 9.41E-02 1.41E-01 6.487E-01
7.700E-05 1.00E-01 9.40E-02 2.77E-04 1.78E-01 3.28E-02 1.26E-06 1.71E-02 1.59E-06 4.80E-03 9.44E-02 1.40E-01 6.616E-01
7.600E-05 1.02E-01 9.70E-02 2.88E-04 1.85E-01 3.34E-02 1.33E-06 1.73E-02 1.67E-06 4.95E-03 9.47E-02 1.40E-01 6.751E-01
7.500E-05 1.05E-01 1.00E-01 2.96E-04 1.93E-01 3.41E-02 1.40E-06 1.75E-02 1.76E-06 5.11E-03 9.50E-02 1.39E-01 6.891E-01
7.400E-05 1.07E-01 1.03E-01 3.10E-04 2.01E-01 3.48E-02 1.47E-06 1.78E-02 1.86E-06 5.28E-03 9.53E-02 1.38E-01 7.037E-01
7.300E-05 1.10E-01 1.06E-01 3.24E-04 2.10E-01 3.56E-02 1.55E-06 1.80E-02 1.96E-06 5.45E-03 9.56E-02 1.38E-01 7.188E-01
7.140E-05 1.14E-01 1.12E-01 3.34E-04 2.24E-01 3.68E-02 1.69E-06 1.84E-02 2.15E-06 5.75E-03 9.61E-02 1.37E-01 7.441E-01
7.100E-05 1.15E-01 1.13E-01 3.34E-04 2.28E-01 3.71E-02 1.73E-06 1.85E-02 2.20E-06 5.83E-03 9.62E-02 1.37E-01 7.507E-01
7.000E-05 1.18E-01 1.16E-01 3.46E-04 2.38E-01 3.79E-02 1.83E-06 1.87E-02 2.33E-06 6.03E-03 9.65E-02 1.36E-01 7.674E-01
6.900E-05 1.20E-01 1.20E-01 3.61E-04 2.48E-01 3.87E-02 1.93E-06 1.90E-02 2.46E-06 6.24E-03 9.68E-02 1.35E-01 7.849E-01
6.800E-05 1.23E-01 1.23E-01 3.75E-04 2.59E-01 3.95E-02 2.04E-06 1.92E-02 2.61E-06 6.46E-03 9.71E-02 1.35E-01 8.030E-01
6.700E-05 1.26E-01 1.27E-01 3.89E-04 2.70E-01 4.04E-02 2.16E-06 1.95E-02 2.77E-06 6.70E-03 9.74E-02 1.34E-01 8.218E-01
6.600E-05 1.29E-01 1.30E-01 4.09E-04 2.82E-01 4.13E-02 2.29E-06 1.98E-02 2.95E-06 6.94E-03 9.77E-02 1.34E-01 8.412E-01
6.500E-05 1.33E-01 1.34E-01 4.17E-04 2.94E-01 4.23E-02 2.44E-06 2.01E-02 3.13E-06 7.20E-03 9.80E-02 1.33E-01 8.615E-01
6.400E-05 1.36E-01 1.37E-01 4.26E-04 3.07E-01 4.33E-02 2.59E-06 2.04E-02 3.33E-06 7.48E-03 9.83E-02 1.32E-01 8.825E-01
6.300E-05 1.39E-01 1.41E-01 4.42E-04 3.21E-01 4.43E-02 2.75E-06 2.07E-02 3.55E-06 7.77E-03 9.86E-02 1.31E-01 9.042E-01
6.250E-05 1.41E-01 1.43E-01 4.45E-04 3.28E-01 4.48E-02 2.84E-06 2.08E-02 3.67E-06 7.92E-03 9.88E-02 1.31E-01 9.154E-01
6.200E-05 1.43E-01 1.45E-01 4.59E-04 3.35E-01 4.54E-02 2.93E-06 2.10E-02 3.79E-06 8.08E-03 9.90E-02 1.31E-01 9.268E-01
6.100E-05 1.47E-01 1.48E-01 4.82E-04 3.49E-01 4.65E-02 3.12E-06 2.13E-02 4.05E-06 8.41E-03 9.93E-02 1.30E-01 9.501E-01
6.000E-05 1.51E-01 1.52E-01 5.03E-04 3.65E-01 4.76E-02 3.33E-06 2.17E-02 4.33E-06 8.76E-03 9.96E-02 1.29E-01 9.742E-01
5.900E-05 1.55E-01 1.55E-01 5.24E-04 3.81E-01 4.88E-02 3.56E-06 2.20E-02 4.63E-06 9.13E-03 9.99E-02 1.28E-01 9.992E-01
5.800E-05 1.59E-01 1.59E-01 5.46E-04 3.97E-01 5.00E-02 3.81E-06 2.24E-02 4.96E-06 9.52E-03 1.00E-01 1.27E-01 1.025E+00
5.700E-05 1.64E-01 1.62E-01 5.75E-04 4.14E-01 5.13E-02 4.08E-06 2.27E-02 5.32E-06 9.94E-03 1.01E-01 1.26E-01 1.051E+00
5.600E-05 1.68E-01 1.65E-01 6.04E-04 4.32E-01 5.26E-02 4.37E-06 2.31E-02 5.71E-06 1.04E-02 1.01E-01 1.26E-01 1.078E+00
5.500E-05 1.73E-01 1.68E-01 6.32E-04 4.51E-01 5.39E-02 4.69E-06 2.35E-02 6.14E-06 1.09E-02 1.01E-01 1.25E-01 1.106E+00
5.477E-05 1.74E-01 1.68E-01 6.36E-04 4.55E-01 5.43E-02 4.77E-06 2.36E-02 6.25E-06 1.86E-02 1.01E-01 1.24E-01 1.121E+00
5.400E-05 1.78E-01 1.70E-01 6.58E-04 4.70E-01 5.56E-02 5.05E-06 2.39E-02 6.62E-06 1.94E-02 1.01E-01 1.24E-01 1.143E+00
5.300E-05 1.83E-01 1.73E-01 6.88E-04 4.90E-01 5.72E-02 5.45E-06 2.44E-02 7.14E-06 2.04E-02 1.02E-01 1.23E-01 1.173E+00
5.200E-05 1.88E-01 1.75E-01 7.32E-04 5.11E-01 5.90E-02 5.88E-06 2.48E-02 7.72E-06 2.15E-02 1.02E-01 1.22E-01 1.205E+00
5.100E-05 1.94E-01 1.77E-01 7.74E-04 5.33E-01 6.08E-02 6.36E-06 2.53E-02 8.35E-06 2.27E-02 1.02E-01 1.21E-01 1.237E+00
5.000E-05 1.99E-01 1.79E-01 8.17E-04 5.56E-01 6.27E-02 6.89E-06 2.58E-02 9.05E-06 2.40E-02 1.02E-01 1.20E-01 1.270E+00
4.900E-05 2.04E-01 1.81E-01 8.61E-04 5.81E-01 6.46E-02 7.48E-06 2.62E-02 9.83E-06 2.54E-02 1.02E-01 1.19E-01 1.304E+00
4.880E-05 2.05E-01 1.82E-01 8.70E-04 5.85E-01 6.51E-02 7.60E-06 2.63E-02 9.99E-06 2.57E-02 1.02E-01 1.18E-01 1.311E+00
4.800E-05 2.09E-01 1.83E-01 9.10E-04 6.06E-01 6.70E-02 8.13E-06 2.68E-02 1.07E-05 2.69E-02 1.03E-01 1.18E-01 1.340E+00
4.760E-05 2.12E-01 1.83E-01 9.34E-04 6.16E-01 6.80E-02 8.42E-06 2.70E-02 1.11E-05 2.76E-02 1.03E-01 1.17E-01 1.355E+00
4.700E-05 2.15E-01 1.84E-01 9.68E-04 6.32E-01 6.96E-02 8.86E-06 2.73E-02 1.16E-05 2.87E-02 1.03E-01 1.17E-01 1.377E+00
4.650E-05 2.17E-01 1.85E-01 9.94E-04 6.46E-01 7.10E-02 9.26E-06 2.76E-02 1.22E-05 2.96E-02 1.03E-01 1.16E-01 1.396E+00
4.600E-05 2.20E-01 1.86E-01 1.03E-03 6.60E-01 7.24E-02 9.68E-06 2.79E-02 1.27E-05 3.06E-02 1.03E-01 1.16E-01 1.416E+00
4.550E-05 2.22E-01 1.86E-01 1.08E-03 6.74E-01 7.38E-02 1.01E-05 2.81E-02 1.33E-05 3.16E-02 1.03E-01 1.15E-01 1.436E+00
4.500E-05 2.25E-01 1.87E-01 1.12E-03 6.89E-01 7.53E-02 1.06E-05 2.84E-02 1.39E-05 3.27E-02 1.03E-01 1.15E-01 1.456E+00
4.440E-05 2.28E-01 1.87E-01 1.19E-03 7.06E-01 7.70E-02 1.12E-05 2.88E-02 1.47E-05 3.41E-02 1.03E-01 1.14E-01 1.480E+00
4.350E-05 2.33E-01 1.88E-01 1.30E-03 7.34E-01 8.00E-02 1.22E-05 2.94E-02 1.60E-05 3.63E-02 1.03E-01 1.14E-01 1.518E+00
4.170E-05 2.42E-01 1.90E-01 1.58E-03 7.91E-01 8.68E-02 1.45E-05 3.05E-02 1.90E-05 4.16E-02 1.03E-01 1.12E-01 1.597E+00
4.000E-05 2.50E-01 1.91E-01 2.10E-03 8.47E-01 9.39E-02 1.72E-05 3.17E-02 2.26E-05 4.78E-02 1.02E-01 1.11E-01 1.676E+00
3.850E-05 2.57E-01 1.91E-01 2.78E-03 8.99E-01 1.01E-01 2.02E-05 3.28E-02 2.65E-05 5.46E-02 1.02E-01 1.10E-01 1.750E+00
3.656E-05 2.65E-01 1.91E-01 4.09E-03 9.69E-01 1.10E-01 2.52E-05 3.44E-02 3.29E-05 6.60E-02 1.02E-01 1.08E-01 1.851E+00
3.570E-05 2.69E-01 1.91E-01 4.77E-03 1.00E+00 1.15E-01 2.79E-05 3.51E-02 3.62E-05 7.23E-02 1.02E-01 1.08E-01 1.897E+00
3.330E-05 2.78E-01 1.91E-01 7.16E-03 1.09E+00 1.30E-01 3.82E-05 3.72E-02 4.86E-05 9.57E-02 1.01E-01 1.07E-01 2.038E+00
3.130E-05 2.85E-01 1.91E-01 9.50E-03 1.16E+00 1.50E-01 5.15E-05 3.92E-02 6.32E-05 1.25E-01 1.00E-01 1.06E-01 2.168E+00
3.000E-05 2.89E-01 1.91E-01 1.14E-02 1.21E+00 1.67E-01 6.38E-05 4.06E-02 7.58E-05 1.52E-01 9.97E-02 1.05E-01 2.263E+00
2.940E-05 2.91E-01 1.90E-01 1.23E-02 1.23E+00 1.76E-01 7.08E-05 4.12E-02 8.27E-05 1.67E-01 9.95E-02 1.05E-01 2.309E+00
2.780E-05 2.95E-01 1.90E-01 1.51E-02 1.27E+00 2.06E-01 9.71E-05 4.30E-02 1.06E-04 2.19E-01 9.88E-02 1.04E-01 2.444E+00
2.630E-05 2.97E-01 1.89E-01 1.79E-02 1.31E+00 2.52E-01 1.38E-04 4.47E-02 1.35E-04 2.84E-01 9.81E-02 1.04E-01 2.595E+00
2.500E-05 2.99E-01 1.89E-01 2.12E-02 1.33E+00 3.14E-01 2.01E-04 4.62E-02 1.70E-04 3.50E-01 9.75E-02 1.04E-01 2.751E+00
2.380E-05 3.00E-01 1.89E-01 2.54E-02 1.34E+00 4.33E-01 3.07E-04 4.63E-02 2.13E-04 4.03E-01 9.69E-02 1.03E-01 2.940E+00
2.270E-05 3.01E-01 1.88E-01 3.10E-02 1.35E+00 6.26E-01 4.50E-04 4.81E-02 2.67E-04 4.24E-01 9.63E-02 1.03E-01 3.163E+00
2.170E-05 3.01E-01 1.88E-01 3.88E-02 1.34E+00 8.47E-01 5.84E-04 5.42E-02 3.34E-04 4.07E-01 9.57E-02 1.03E-01 3.378E+00
2.080E-05 3.01E-01 1.88E-01 5.29E-02 1.34E+00 8.77E-01 5.42E-04 6.77E-02 4.16E-04 3.65E-01 9.51E-02 1.03E-01 3.392E+00
2.000E-05 3.00E-01 1.87E-01 1.89E-01 1.22E+00 7.60E-01 4.24E-04 8.61E-02 5.10E-04 3.16E-01 9.45E-02 1.03E-01 3.262E+00
1.920E-05 2.99E-01 1.88E-01 3.61E-01 1.08E+00 5.90E-01 2.92E-04 1.18E-01 6.33E-04 2.66E-01 9.39E-02 1.04E-01 3.097E+00
1.850E-05 3.00E-01 1.91E-01 4.64E-01 9.92E-01 4.63E-01 2.06E-04 1.59E-01 7.75E-04 2.27E-01 9.32E-02 1.04E-01 2.992E+00
1.790E-05 3.01E-01 1.92E-01 5.83E-01 8.79E-01 3.76E-01 1.58E-04 2.02E-01 9.29E-04 1.97E-01 9.26E-02 1.04E-01 2.928E+00
1.720E-05 3.02E-01 1.94E-01 6.65E-01 7.99E-01 3.02E-01 1.25E-04 2.81E-01 1.16E-03 1.68E-01 9.18E-02 1.04E-01 2.908E+00
1.670E-05 3.02E-01 1.96E-01 7.01E-01 7.64E-01 2.58E-01 1.14E-04 3.54E-01 1.38E-03 1.51E-01 9.11E-02 1.05E-01 2.924E+00
1.610E-05 3.04E-01 1.98E-01 7.33E-01 7.34E-01 2.18E-01 1.16E-04 4.82E-01 1.70E-03 1.34E-01 9.03E-02 1.05E-01 2.998E+00
1.560E-05 3.04E-01 1.99E-01 7.51E-01 7.15E-01 1.91E-01 1.31E-04 6.29E-01 2.03E-03 1.22E-01 8.96E-02 1.05E-01 3.111E+00
1.520E-05 3.05E-01 2.00E-01 7.63E-01 7.03E-01 1.74E-01 1.52E-04 7.87E-01 2.34E-03 1.15E-01 8.90E-02 1.06E-01 3.244E+00
1.470E-05 3.06E-01 2.01E-01 7.72E-01 6.89E-01 1.54E-01 1.92E-04 1.01E+00 2.77E-03 1.09E-01 8.84E-02 1.06E-01 3.442E+00
1.430E-05 3.06E-01 2.02E-01 7.77E-01 6.80E-01 1.45E-01 2.40E-04 1.21E+00 3.10E-03 1.05E-01 8.80E-02 1.06E-01 3.619E+00
1.390E-05 3.06E-01 2.02E-01 7.78E-01 6.72E-01 1.41E-01 3.05E-04 1.36E+00 3.43E-03 1.04E-01 8.78E-02 1.06E-01 3.759E+00
1.350E-05 3.05E-01 2.02E-01 7.80E-01 6.64E-01 1.40E-01 3.91E-04 1.50E+00 3.84E-03 1.04E-01 8.75E-02 1.06E-01 3.893E+00
1.320E-05 3.05E-01 2.02E-01 7.79E-01 6.57E-01 1.43E-01 4.75E-04 1.61E+00 4.21E-03 1.06E-01 8.73E-02 1.06E-01 4.003E+00
1.280E-05 3.04E-01 2.03E-01 7.78E-01 6.50E-01 1.52E-01 6.23E-04 1.77E+00 4.79E-03 1.10E-01 8.70E-02 1.06E-01 4.171E+00
1.250E-05 3.04E-01 2.03E-01 7.76E-01 6.49E-01 1.65E-01 7.69E-04 1.91E+00 5.31E-03 1.16E-01 8.67E-02 1.06E-01 4.318E+00
1.220E-05 3.03E-01 2.04E-01 7.74E-01 6.48E-01 1.85E-01 9.52E-04 2.05E+00 5.91E-03 1.24E-01 8.64E-02 1.06E-01 4.490E+00
1.190E-05 3.02E-01 2.04E-01 7.75E-01 6.54E-01 2.10E-01 1.18E-03 2.21E+00 6.63E-03 1.36E-01 8.61E-02 1.06E-01 4.695E+00
1.160E-05 3.01E-01 2.04E-01 7.76E-01 6.58E-01 2.40E-01 1.47E-03 2.40E+00 7.47E-03 1.51E-01 8.58E-02 1.06E-01 4.926E+00
1.140E-05 3.00E-01 2.04E-01 7.76E-01 6.59E-01 2.64E-01 1.73E-03 2.53E+00 8.13E-03 1.64E-01 8.56E-02 1.06E-01 5.099E+00
1.110E-05 2.98E-01 2.03E-01 7.76E-01 6.60E-01 3.03E-01 2.26E-03 2.76E+00 9.28E-03 1.90E-01 8.52E-02 1.06E-01 5.389E+00
1.080E-05 2.96E-01 2.03E-01 7.76E-01 6.62E-01 4.08E-01 3.01E-03 3.02E+00 1.07E-02 2.26E-01 8.48E-02 1.06E-01 5.799E+00
1.050E-05 2.93E-01 2.02E-01 7.75E-01 6.64E-01 5.44E-01 3.91E-03 3.36E+00 1.25E-02 2.75E-01 8.43E-02 1.06E-01 6.317E+00
1.030E-05 2.92E-01 2.02E-01 7.74E-01 6.65E-01 6.50E-01 4.48E-03 3.67E+00 1.39E-02 3.17E-01 8.40E-02 1.06E-01 6.778E+00
1.000E-05 2.89E-01 2.01E-01 7.72E-01 6.67E-01 7.96E-01 5.47E-03 4.12E+00 1.60E-02 3.97E-01 8.36E-02 1.06E-01 7.451E+00
9.750E-06 2.86E-01 2.00E-01 7.70E-01 6.69E-01 9.67E-01 6.78E-03 4.48E+00 1.78E-02 4.78E-01 8.33E-02 1.06E-01 8.062E+00
9.500E-06 2.83E-01 1.99E-01 7.68E-01 6.71E-01 1.16E+00 8.03E-03 4.86E+00 1.98E-02 5.60E-01 8.31E-02 1.06E-01 8.724E+00
9.250E-06 2.80E-01 1.98E-01 7.65E-01 6.73E-01 1.31E+00 8.97E-03 5.25E+00 2.18E-02 6.21E-01 8.28E-02 1.06E-01 9.324E+00
9.080E-06 2.78E-01 1.97E-01 7.61E-01 6.73E-01 1.41E+00 9.64E-03 5.48E+00 2.28E-02 6.35E-01 8.28E-02 1.06E-01 9.647E+00
