 # Polarisation optical depth (Siebenmorgen 2023, A&A 670A,115; SC 2023 doi: 10.48550/arXiv.2311.03310)
 # wel         sigp_aC     sigp_Si      sigp_dark    sigt
 #----------------------------------------------------------------------------------------
   1.000E+00   5.211E-04   4.773E-04   0.000E+00   6.158E-07
   9.000E-01   6.104E-04   5.635E-04   0.000E+00   7.271E-07
   8.000E-01   7.291E-04   6.788E-04   0.000E+00   8.766E-07
   7.000E-01   8.928E-04   8.386E-04   0.000E+00   1.081E-06
   6.000E-01   1.130E-03   1.072E-03   0.000E+00   1.381E-06
   5.500E-01   1.292E-03   1.231E-03   0.000E+00   1.586E-06
   5.000E-01   1.496E-03   1.434E-03   0.000E+00   1.844E-06
   4.500E-01   1.762E-03   1.697E-03   0.000E+00   2.184E-06
   4.000E-01   2.118E-03   2.051E-03   0.000E+00   2.634E-06
   3.500E-01   2.614E-03   2.543E-03   0.000E+00   3.271E-06
   3.000E-01   3.337E-03   3.261E-03   0.000E+00   4.183E-06
   2.500E-01   4.470E-03   4.383E-03   0.000E+00   5.617E-06
   2.098E-01   5.938E-03   5.827E-03   0.000E+00   7.467E-06
   1.500E-01   1.032E-02   1.008E-02   0.000E+00   1.294E-05
   1.382E-01   1.184E-02   1.153E-02   0.000E+00   1.483E-05
   1.320E-01   1.279E-02   1.243E-02   0.000E+00   1.600E-05
   1.150E-01   1.616E-02   1.560E-02   0.000E+00   2.011E-05
   1.000E-01   2.055E-02   1.962E-02   0.000E+00   2.537E-05
   9.970E-02   2.066E-02   1.972E-02   0.000E+00   2.550E-05
   8.670E-02   2.601E-02   2.488E-02   0.000E+00   3.216E-05
   8.500E-02   2.694E-02   2.571E-02   0.000E+00   3.326E-05
   7.500E-02   3.418E-02   3.163E-02   0.000E+00   4.124E-05
   6.000E-02   5.027E-02   4.576E-02   0.000E+00   6.003E-05
   5.500E-02   5.825E-02   5.135E-02   0.000E+00   6.857E-05
   5.000E-02   6.934E-02   6.383E-02   0.000E+00   8.317E-05
   4.500E-02   8.545E-02   8.479E-02   0.000E+00   1.060E-04
   4.000E-02   1.098E-01   1.137E-01   0.000E+00   1.383E-04
   3.500E-02   1.377E-01   1.736E-01   0.000E+00   1.941E-04
   3.000E-02   1.945E-01   2.712E-01   0.000E+00   2.892E-04
   2.750E-02   2.322E-01   3.412E-01   0.000E+00   3.572E-04
   2.500E-02   2.797E-01   4.340E-01   0.000E+00   4.474E-04
   2.400E-02   3.073E-01   4.800E-01   0.000E+00   4.930E-04
   2.000E-02   4.503E-01   7.399E-01   0.000E+00   7.475E-04
   1.800E-02   5.619E-01   9.099E-01   0.000E+00   9.283E-04
   1.600E-02   7.484E-01   1.119E+00   0.000E+00   1.176E-03
   1.500E-02   8.933E-01   1.246E+00   0.000E+00   1.340E-03
   1.400E-02   1.016E+00   1.388E+00   0.000E+00   1.516E-03
   1.200E-02   1.557E+00   1.736E+00   0.000E+00   2.048E-03
   1.000E-02   2.370E+00   2.232E+00   0.000E+00   2.863E-03
   9.000E-03   3.165E+00   2.509E+00   0.000E+00   3.480E-03
   8.000E-03   4.174E+00   2.888E+00   0.000E+00   4.309E-03
   7.500E-03   4.893E+00   3.184E+00   0.000E+00   4.896E-03
   7.000E-03   5.889E+00   3.549E+00   0.000E+00   5.680E-03
   6.000E-03   8.361E+00   4.491E+00   0.000E+00   7.746E-03
   5.000E-03   1.161E+01   6.228E+00   0.000E+00   1.117E-02
   4.500E-03   1.397E+01   7.438E+00   0.000E+00   1.382E-02
   4.000E-03   1.608E+01   8.791E+00   0.000E+00   1.715E-02
   3.500E-03   1.874E+01   1.017E+01   0.000E+00   2.135E-02
   3.000E-03   2.181E+01   1.122E+01   0.000E+00   2.669E-02
   2.750E-03   2.302E+01   1.149E+01   0.000E+00   2.958E-02
   2.500E-03   2.378E+01   1.161E+01   0.000E+00   3.285E-02
   2.400E-03   2.428E+01   1.163E+01   0.000E+00   3.438E-02
   2.350E-03   2.458E+01   1.164E+01   0.000E+00   3.527E-02
   2.320E-03   2.471E+01   1.165E+01   0.000E+00   3.581E-02
   2.310E-03   2.476E+01   1.166E+01   0.000E+00   3.600E-02
   2.300E-03   2.481E+01   1.166E+01   0.000E+00   3.618E-02
   2.250E-03   2.494E+01   1.169E+01   0.000E+00   3.717E-02
   2.200E-03   2.509E+01   1.171E+01   0.000E+00   3.826E-02
   2.150E-03   2.534E+01   1.171E+01   0.000E+00   3.942E-02
   2.120E-03   2.548E+01   1.165E+01   0.000E+00   4.015E-02
   2.110E-03   2.551E+01   1.163E+01   0.000E+00   4.040E-02
   2.100E-03   2.551E+01   1.161E+01   0.000E+00   4.065E-02
   2.080E-03   2.548E+01   1.153E+01   0.000E+00   4.108E-02
   2.000E-03   2.547E+01   1.118E+01   0.000E+00   4.295E-02
   1.950E-03   2.563E+01   1.078E+01   0.000E+00   4.416E-02
   1.900E-03   2.595E+01   1.026E+01   0.000E+00   4.513E-02
   1.850E-03   2.626E+01   9.594E+00   0.000E+00   4.564E-02
   1.830E-03   2.640E+01   9.290E+00   0.000E+00   4.573E-02
   1.820E-03   2.641E+01   9.128E+00   0.000E+00   4.571E-02
   1.810E-03   2.645E+01   8.959E+00   0.000E+00   4.564E-02
   1.800E-03   2.652E+01   8.795E+00   0.000E+00   4.557E-02
   1.750E-03   2.681E+01   7.854E+00   0.000E+00   4.481E-02
   1.700E-03   2.685E+01   6.850E+00   0.000E+00   4.314E-02
   1.670E-03   2.713E+01   6.244E+00   0.000E+00   4.193E-02
   1.650E-03   2.740E+01   5.847E+00   0.000E+00   4.103E-02
   1.640E-03   2.748E+01   5.654E+00   0.000E+00   4.053E-02
   1.630E-03   2.757E+01   5.461E+00   0.000E+00   4.002E-02
   1.610E-03   2.768E+01   5.089E+00   0.000E+00   3.892E-02
   1.600E-03   2.776E+01   4.909E+00   0.000E+00   3.835E-02
   1.590E-03   2.784E+01   4.737E+00   0.000E+00   3.779E-02
   1.580E-03   2.790E+01   4.575E+00   0.000E+00   3.722E-02
   1.570E-03   2.790E+01   4.421E+00   0.000E+00   3.662E-02
   1.560E-03   2.802E+01   4.288E+00   0.000E+00   3.609E-02
   1.540E-03   2.825E+01   4.071E+00   0.000E+00   3.518E-02
   1.520E-03   2.827E+01   3.936E+00   0.000E+00   3.434E-02
   1.510E-03   2.827E+01   3.904E+00   0.000E+00   3.400E-02
   1.500E-03   2.822E+01   3.889E+00   0.000E+00   3.368E-02
   1.450E-03   2.839E+01   4.023E+00   0.000E+00   3.278E-02
   1.440E-03   2.846E+01   4.074E+00   0.000E+00   3.274E-02
   1.430E-03   2.851E+01   4.117E+00   0.000E+00   3.277E-02
   1.420E-03   2.856E+01   4.158E+00   0.000E+00   3.279E-02
   1.400E-03   2.874E+01   4.252E+00   0.000E+00   3.305E-02
   1.380E-03   2.887E+01   4.341E+00   0.000E+00   3.351E-02
   1.370E-03   2.892E+01   4.391E+00   0.000E+00   3.386E-02
   1.360E-03   2.903E+01   4.440E+00   0.000E+00   3.427E-02
   1.350E-03   2.916E+01   4.502E+00   0.000E+00   3.472E-02
   1.340E-03   2.927E+01   4.563E+00   0.000E+00   3.524E-02
   1.330E-03   2.933E+01   4.639E+00   0.000E+00   3.577E-02
   1.320E-03   2.944E+01   4.718E+00   0.000E+00   3.634E-02
   1.310E-03   2.944E+01   4.810E+00   0.000E+00   3.693E-02
   1.290E-03   2.934E+01   5.030E+00   0.000E+00   3.815E-02
   1.280E-03   2.933E+01   5.147E+00   0.000E+00   3.889E-02
   1.270E-03   2.939E+01   5.246E+00   0.000E+00   3.962E-02
   1.260E-03   2.944E+01   5.392E+00   0.000E+00   4.035E-02
   1.250E-03   2.944E+01   5.583E+00   0.000E+00   4.111E-02
   1.220E-03   2.989E+01   6.723E+00   0.000E+00   4.433E-02
   1.210E-03   2.990E+01   7.469E+00   0.000E+00   4.593E-02
   1.200E-03   2.990E+01   8.343E+00   0.000E+00   4.774E-02
   1.190E-03   3.010E+01   9.252E+00   0.000E+00   4.975E-02
   1.180E-03   3.020E+01   1.011E+01   0.000E+00   5.177E-02
   1.170E-03   3.027E+01   1.084E+01   0.000E+00   5.375E-02
   1.160E-03   3.037E+01   1.143E+01   0.000E+00   5.561E-02
   1.150E-03   3.034E+01   1.190E+01   0.000E+00   5.756E-02
   1.140E-03   3.029E+01   1.227E+01   0.000E+00   5.919E-02
   1.130E-03   3.028E+01   1.257E+01   0.000E+00   6.090E-02
   1.120E-03   3.027E+01   1.282E+01   0.000E+00   6.245E-02
   1.110E-03   3.025E+01   1.305E+01   0.000E+00   6.398E-02
   1.090E-03   3.031E+01   1.345E+01   0.000E+00   6.730E-02
   1.050E-03   3.072E+01   1.384E+01   0.000E+00   7.567E-02
   1.000E-03   3.141E+01   1.348E+01   0.000E+00   8.387E-02
   9.800E-04   3.173E+01   1.288E+01   0.000E+00   8.665E-02
   9.600E-04   3.199E+01   1.195E+01   0.000E+00   8.885E-02
   9.500E-04   3.223E+01   1.139E+01   0.000E+00   8.932E-02
   9.400E-04   3.223E+01   1.080E+01   0.000E+00   8.892E-02
   9.200E-04   3.237E+01   9.653E+00   0.000E+00   8.508E-02
   8.900E-04   3.282E+01   7.937E+00   0.000E+00   7.445E-02
   8.700E-04   3.268E+01   6.989E+00   0.000E+00   6.732E-02
   8.600E-04   3.290E+01   6.572E+00   0.000E+00   6.448E-02
   8.500E-04   3.288E+01   6.138E+00   0.000E+00   6.170E-02
   8.400E-04   3.313E+01   5.679E+00   0.000E+00   5.887E-02
   8.200E-04   3.294E+01   4.737E+00   0.000E+00   5.193E-02
   8.000E-04   3.309E+01   3.955E+00   0.000E+00   4.482E-02
   7.900E-04   3.329E+01   3.674E+00   0.000E+00   4.244E-02
   7.800E-04   3.317E+01   3.446E+00   0.000E+00   4.010E-02
   7.700E-04   3.305E+01   3.249E+00   0.000E+00   3.821E-02
   7.600E-04   3.296E+01   3.077E+00   0.000E+00   3.681E-02
   7.500E-04   3.286E+01   2.921E+00   0.000E+00   3.553E-02
   7.300E-04   3.306E+01   2.684E+00   0.000E+00   3.439E-02
   7.200E-04   3.295E+01   2.619E+00   0.000E+00   3.415E-02
   7.100E-04   3.289E+01   2.585E+00   0.000E+00   3.396E-02
   7.000E-04   3.311E+01   2.543E+00   0.000E+00   3.408E-02
   6.900E-04   3.291E+01   2.466E+00   0.000E+00   3.398E-02
   6.800E-04   3.226E+01   2.359E+00   0.000E+00   3.339E-02
   6.600E-04   3.262E+01   2.168E+00   0.000E+00   3.313E-02
   6.400E-04   3.357E+01   1.917E+00   0.000E+00   3.335E-02
   6.300E-04   3.405E+01   1.813E+00   0.000E+00   3.367E-02
   6.200E-04   3.398E+01   1.804E+00   0.000E+00   3.381E-02
   6.100E-04   3.419E+01   1.806E+00   0.000E+00   3.404E-02
   5.900E-04   3.521E+01   1.510E+00   0.000E+00   3.453E-02
   5.500E-04   3.285E+01   1.179E+00   0.000E+00   3.305E-02
   5.300E-04   3.324E+01   1.082E+00   0.000E+00   3.321E-02
   5.200E-04   3.325E+01   1.032E+00   0.000E+00   3.323E-02
   5.100E-04   3.359E+01   9.817E-01   0.000E+00   3.347E-02
   5.000E-04   3.391E+01   9.334E-01   0.000E+00   3.372E-02
   4.800E-04   3.422E+01   8.607E-01   0.000E+00   3.409E-02
   4.500E-04   3.504E+01   7.798E-01   0.000E+00   3.522E-02
   4.000E-04   3.626E+01   7.087E-01   0.000E+00   3.692E-02
   3.800E-04   3.709E+01   7.086E-01   0.000E+00   3.792E-02
   3.600E-04   3.807E+01   7.310E-01   0.000E+00   3.906E-02
   3.400E-04   3.978E+01   7.845E-01   0.000E+00   4.116E-02
   3.300E-04   3.963E+01   8.252E-01   0.000E+00   4.152E-02
   3.200E-04   4.004E+01   8.763E-01   0.000E+00   4.192E-02
   3.150E-04   4.054E+01   9.082E-01   0.000E+00   4.240E-02
   3.100E-04   4.101E+01   9.435E-01   0.000E+00   4.294E-02
   3.080E-04   4.116E+01   9.586E-01   0.000E+00   4.313E-02
   3.050E-04   4.135E+01   9.824E-01   0.000E+00   4.338E-02
   3.000E-04   4.173E+01   1.027E+00   0.000E+00   4.384E-02
   2.900E-04   4.277E+01   1.132E+00   0.000E+00   4.508E-02
   2.800E-04   4.332E+01   1.262E+00   0.000E+00   4.593E-02
   2.600E-04   4.557E+01   1.626E+00   0.000E+00   4.846E-02
   2.500E-04   4.726E+01   1.879E+00   0.000E+00   5.021E-02
   2.200E-04   5.461E+01   3.114E+00   0.000E+00   5.776E-02
   2.159E-04   5.568E+01   3.365E+00   0.000E+00   5.894E-02
   2.000E-04   6.181E+01   4.637E+00   0.000E+00   6.502E-02
   1.662E-04   8.182E+01   1.027E+01   0.000E+00   8.536E-02
   1.650E-04   8.280E+01   1.059E+01   0.000E+00   8.637E-02
   1.250E-04   1.398E+02   3.387E+01   0.000E+00   1.475E-01
   1.235E-04   1.431E+02   3.550E+01   0.000E+00   1.515E-01
   1.130E-04   1.674E+02   4.945E+01   0.000E+00   1.842E-01
   1.000E-04   2.015E+02   7.383E+01   0.000E+00   2.441E-01
   9.500E-05   2.141E+02   8.552E+01   0.000E+00   2.751E-01
   9.300E-05   2.187E+02   9.057E+01   0.000E+00   2.890E-01
   9.200E-05   2.210E+02   9.319E+01   0.000E+00   2.963E-01
   9.100E-05   2.231E+02   9.585E+01   0.000E+00   3.038E-01
   9.000E-05   2.252E+02   9.858E+01   0.000E+00   3.115E-01
   8.900E-05   2.273E+02   1.014E+02   0.000E+00   3.195E-01
   8.800E-05   2.293E+02   1.042E+02   0.000E+00   3.278E-01
   8.700E-05   2.313E+02   1.071E+02   0.000E+00   3.365E-01
   8.600E-05   2.332E+02   1.101E+02   0.000E+00   3.454E-01
   8.500E-05   2.351E+02   1.131E+02   0.000E+00   3.546E-01
   8.400E-05   2.371E+02   1.163E+02   0.000E+00   3.643E-01
   8.330E-05   2.384E+02   1.185E+02   0.000E+00   3.714E-01
   8.200E-05   2.408E+02   1.227E+02   0.000E+00   3.849E-01
   8.100E-05   2.425E+02   1.261E+02   0.000E+00   3.959E-01
   8.000E-05   2.443E+02   1.295E+02   0.000E+00   4.073E-01
   7.900E-05   2.459E+02   1.331E+02   0.000E+00   4.192E-01
   7.800E-05   2.475E+02   1.367E+02   0.000E+00   4.316E-01
   7.700E-05   2.489E+02   1.404E+02   0.000E+00   4.445E-01
   7.600E-05   2.502E+02   1.442E+02   0.000E+00   4.579E-01
   7.500E-05   2.514E+02   1.481E+02   0.000E+00   4.717E-01
   7.400E-05   2.524E+02   1.520E+02   0.000E+00   4.861E-01
   7.300E-05   2.532E+02   1.561E+02   0.000E+00   5.009E-01
   7.140E-05   2.542E+02   1.628E+02   0.000E+00   5.256E-01
   7.100E-05   2.543E+02   1.645E+02   0.000E+00   5.320E-01
   7.000E-05   2.546E+02   1.688E+02   0.000E+00   5.482E-01
   6.900E-05   2.547E+02   1.732E+02   0.000E+00   5.651E-01
   6.800E-05   2.546E+02   1.777E+02   0.000E+00   5.825E-01
   6.700E-05   2.542E+02   1.823E+02   0.000E+00   6.005E-01
   6.600E-05   2.536E+02   1.870E+02   0.000E+00   6.190E-01
   6.500E-05   2.527E+02   1.918E+02   0.000E+00   6.383E-01
   6.400E-05   2.516E+02   1.967E+02   0.000E+00   6.582E-01
   6.300E-05   2.502E+02   2.016E+02   0.000E+00   6.789E-01
   6.250E-05   2.494E+02   2.041E+02   0.000E+00   6.894E-01
   6.200E-05   2.485E+02   2.066E+02   0.000E+00   7.002E-01
   6.100E-05   2.464E+02   2.116E+02   0.000E+00   7.222E-01
   6.000E-05   2.440E+02   2.166E+02   0.000E+00   7.449E-01
   5.900E-05   2.412E+02   2.215E+02   0.000E+00   7.683E-01
   5.800E-05   2.380E+02   2.262E+02   0.000E+00   7.923E-01
   5.700E-05   2.345E+02   2.308E+02   0.000E+00   8.169E-01
   5.600E-05   2.305E+02   2.351E+02   0.000E+00   8.421E-01
   5.500E-05   2.261E+02   2.394E+02   0.000E+00   8.679E-01
   5.477E-05   2.250E+02   2.404E+02   0.000E+00   8.746E-01
   5.400E-05   2.213E+02   2.436E+02   0.000E+00   8.951E-01
   5.300E-05   2.161E+02   2.478E+02   0.000E+00   9.224E-01
   5.200E-05   2.107E+02   2.522E+02   0.000E+00   9.503E-01
   5.100E-05   2.049E+02   2.567E+02   0.000E+00   9.788E-01
   5.000E-05   1.989E+02   2.614E+02   0.000E+00   1.008E+00
   4.900E-05   1.926E+02   2.661E+02   0.000E+00   1.038E+00
   4.880E-05   1.913E+02   2.671E+02   0.000E+00   1.044E+00
   4.800E-05   1.860E+02   2.709E+02   0.000E+00   1.069E+00
   4.760E-05   1.833E+02   2.727E+02   0.000E+00   1.082E+00
   4.700E-05   1.792E+02   2.754E+02   0.000E+00   1.101E+00
   4.650E-05   1.757E+02   2.776E+02   0.000E+00   1.118E+00
   4.600E-05   1.722E+02   2.798E+02   0.000E+00   1.134E+00
   4.550E-05   1.685E+02   2.820E+02   0.000E+00   1.151E+00
   4.500E-05   1.649E+02   2.841E+02   0.000E+00   1.168E+00
   4.440E-05   1.605E+02   2.867E+02   0.000E+00   1.189E+00
   4.350E-05   1.538E+02   2.907E+02   0.000E+00   1.221E+00
   4.170E-05   1.399E+02   2.980E+02   0.000E+00   1.286E+00
   4.000E-05   1.264E+02   3.018E+02   0.000E+00   1.351E+00
   3.850E-05   1.143E+02   3.027E+02   0.000E+00   1.410E+00
   3.656E-05   9.858E+01   3.054E+02   0.000E+00   1.489E+00
   3.570E-05   9.171E+01   3.062E+02   0.000E+00   1.525E+00
   3.330E-05   7.321E+01   3.043E+02   0.000E+00   1.630E+00
   3.130E-05   5.862E+01   2.973E+02   0.000E+00   1.722E+00
   3.000E-05   4.961E+01   2.894E+02   0.000E+00   1.787E+00
   2.940E-05   4.560E+01   2.862E+02   0.000E+00   1.817E+00
   2.780E-05   3.494E+01   2.749E+02   0.000E+00   1.907E+00
   2.630E-05   2.616E+01   2.551E+02   0.000E+00   2.018E+00
   2.500E-05   1.949E+01   2.395E+02   0.000E+00   2.172E+00
   2.380E-05   1.367E+01   2.218E+02   0.000E+00   2.462E+00
   2.270E-05   9.603E+00   2.004E+02   0.000E+00   2.810E+00
   2.170E-05   7.525E+00   1.810E+02   0.000E+00   2.864E+00
   2.080E-05   6.385E+00   1.694E+02   0.000E+00   2.757E+00
   2.000E-05   5.952E+00   1.510E+02   0.000E+00   2.609E+00
   1.920E-05   5.786E+00   1.286E+02   0.000E+00   2.463E+00
   1.850E-05   5.819E+00   1.140E+02   0.000E+00   2.382E+00
   1.790E-05   6.289E+00   1.009E+02   0.000E+00   2.338E+00
   1.720E-05   7.140E+00   9.010E+01   0.000E+00   2.333E+00
   1.670E-05   8.065E+00   8.189E+01   0.000E+00   2.355E+00
   1.610E-05   9.840E+00   7.102E+01   0.000E+00   2.426E+00
   1.560E-05   1.152E+01   6.066E+01   0.000E+00   2.526E+00
   1.520E-05   1.293E+01   5.089E+01   0.000E+00   2.641E+00
   1.470E-05   1.484E+01   3.773E+01   0.000E+00   2.810E+00
   1.430E-05   1.646E+01   2.674E+01   0.000E+00   2.959E+00
   1.390E-05   1.801E+01   1.898E+01   0.000E+00   3.077E+00
   1.350E-05   1.929E+01   1.396E+01   0.000E+00   3.190E+00
   1.320E-05   2.011E+01   1.205E+01   0.000E+00   3.281E+00
   1.280E-05   2.120E+01   1.130E+01   0.000E+00   3.419E+00
   1.250E-05   2.211E+01   1.089E+01   0.000E+00   3.541E+00
   1.220E-05   2.306E+01   1.066E+01   0.000E+00   3.681E+00
   1.190E-05   2.401E+01   1.121E+01   0.000E+00   3.848E+00
   1.160E-05   2.485E+01   1.240E+01   0.000E+00   4.035E+00
   1.140E-05   2.534E+01   1.412E+01   0.000E+00   4.174E+00
   1.110E-05   2.597E+01   1.768E+01   0.000E+00   4.404E+00
   1.080E-05   2.645E+01   2.230E+01   0.000E+00   4.734E+00
   1.050E-05   2.678E+01   2.680E+01   0.000E+00   5.150E+00
   1.030E-05   2.691E+01   2.986E+01   0.000E+00   5.518E+00
   1.000E-05   2.698E+01   3.429E+01   0.000E+00   6.049E+00
   9.750E-06   2.693E+01   3.810E+01   0.000E+00   6.529E+00
   9.500E-06   2.677E+01   4.176E+01   0.000E+00   7.052E+00
   9.250E-06   2.651E+01   4.530E+01   0.000E+00   7.530E+00
   9.080E-06   2.627E+01   4.513E+01   0.000E+00   7.797E+00
