 # Polarisation optical depth (Siebenmorgen 2023, A&A 670A,115; SC 2023 doi: 10.48550/arXiv.2311.03310)
 # wel         sigp_aC     sigp_Si      sigp_dark    sigt
 #----------------------------------------------------------------------------------------
   1.000E+00   9.133E-04   4.205E-04   0.000E+00   4.342E-06
   9.000E-01   1.070E-03   4.964E-04   0.000E+00   5.067E-06
   8.000E-01   1.278E-03   5.980E-04   0.000E+00   6.027E-06
   7.000E-01   1.565E-03   7.388E-04   0.000E+00   7.334E-06
   6.000E-01   1.980E-03   9.440E-04   0.000E+00   9.219E-06
   5.500E-01   2.264E-03   1.084E-03   0.000E+00   1.050E-05
   5.000E-01   2.623E-03   1.263E-03   0.000E+00   1.210E-05
   4.500E-01   3.089E-03   1.495E-03   0.000E+00   1.417E-05
   4.000E-01   3.713E-03   1.806E-03   0.000E+00   1.692E-05
   3.500E-01   4.581E-03   2.240E-03   0.000E+00   2.072E-05
   3.000E-01   5.849E-03   2.873E-03   0.000E+00   2.619E-05
   2.500E-01   7.834E-03   3.861E-03   0.000E+00   3.465E-05
   2.098E-01   1.041E-02   5.133E-03   0.000E+00   4.545E-05
   1.500E-01   1.809E-02   8.883E-03   0.000E+00   7.693E-05
   1.382E-01   2.075E-02   1.016E-02   0.000E+00   8.766E-05
   1.320E-01   2.242E-02   1.095E-02   0.000E+00   9.431E-05
   1.150E-01   2.831E-02   1.374E-02   0.000E+00   1.177E-04
   1.000E-01   3.601E-02   1.728E-02   0.000E+00   1.476E-04
   9.970E-02   3.620E-02   1.737E-02   0.000E+00   1.483E-04
   8.670E-02   4.558E-02   2.192E-02   0.000E+00   1.849E-04
   8.500E-02   4.721E-02   2.265E-02   0.000E+00   1.913E-04
   7.500E-02   5.991E-02   2.787E-02   0.000E+00   2.388E-04
   6.000E-02   8.811E-02   4.031E-02   0.000E+00   3.413E-04
   5.500E-02   1.021E-01   4.523E-02   0.000E+00   3.932E-04
   5.000E-02   1.215E-01   5.623E-02   0.000E+00   4.677E-04
   4.500E-02   1.498E-01   7.470E-02   0.000E+00   5.749E-04
   4.000E-02   1.925E-01   1.002E-01   0.000E+00   7.274E-04
   3.500E-02   2.413E-01   1.529E-01   0.000E+00   9.172E-04
   3.000E-02   3.409E-01   2.389E-01   0.000E+00   1.278E-03
   2.750E-02   4.069E-01   3.005E-01   0.000E+00   1.511E-03
   2.500E-02   4.903E-01   3.823E-01   0.000E+00   1.823E-03
   2.400E-02   5.385E-01   4.229E-01   0.000E+00   1.973E-03
   2.000E-02   7.892E-01   6.519E-01   0.000E+00   2.821E-03
   1.800E-02   9.848E-01   8.015E-01   0.000E+00   3.469E-03
   1.600E-02   1.312E+00   9.855E-01   0.000E+00   4.383E-03
   1.500E-02   1.566E+00   1.098E+00   0.000E+00   4.991E-03
   1.400E-02   1.781E+00   1.222E+00   0.000E+00   5.578E-03
   1.200E-02   2.729E+00   1.529E+00   0.000E+00   7.573E-03
   1.000E-02   4.154E+00   1.967E+00   0.000E+00   1.047E-02
   9.000E-03   5.546E+00   2.210E+00   0.000E+00   1.284E-02
   8.000E-03   7.316E+00   2.544E+00   0.000E+00   1.553E-02
   7.500E-03   8.575E+00   2.805E+00   0.000E+00   1.763E-02
   7.000E-03   1.032E+01   3.127E+00   0.000E+00   2.012E-02
   6.000E-03   1.465E+01   3.957E+00   0.000E+00   2.660E-02
   5.000E-03   2.035E+01   5.488E+00   0.000E+00   3.641E-02
   4.500E-03   2.448E+01   6.554E+00   0.000E+00   4.393E-02
   4.000E-03   2.818E+01   7.747E+00   0.000E+00   5.305E-02
   3.500E-03   3.283E+01   8.965E+00   0.000E+00   6.544E-02
   3.000E-03   3.822E+01   9.891E+00   0.000E+00   8.283E-02
   2.750E-03   4.034E+01   1.013E+01   0.000E+00   9.350E-02
   2.500E-03   4.166E+01   1.024E+01   0.000E+00   1.060E-01
   2.400E-03   4.254E+01   1.025E+01   0.000E+00   1.121E-01
   2.350E-03   4.306E+01   1.026E+01   0.000E+00   1.155E-01
   2.320E-03   4.329E+01   1.027E+01   0.000E+00   1.175E-01
   2.310E-03   4.337E+01   1.028E+01   0.000E+00   1.182E-01
   2.300E-03   4.346E+01   1.027E+01   0.000E+00   1.189E-01
   2.250E-03   4.371E+01   1.031E+01   0.000E+00   1.226E-01
   2.200E-03   4.397E+01   1.032E+01   0.000E+00   1.265E-01
   2.150E-03   4.440E+01   1.032E+01   0.000E+00   1.306E-01
   2.120E-03   4.465E+01   1.027E+01   0.000E+00   1.332E-01
   2.110E-03   4.469E+01   1.025E+01   0.000E+00   1.341E-01
   2.100E-03   4.470E+01   1.023E+01   0.000E+00   1.349E-01
   2.080E-03   4.464E+01   1.016E+01   0.000E+00   1.365E-01
   2.000E-03   4.462E+01   9.851E+00   0.000E+00   1.431E-01
   1.950E-03   4.490E+01   9.503E+00   0.000E+00   1.473E-01
   1.900E-03   4.546E+01   9.042E+00   0.000E+00   1.508E-01
   1.850E-03   4.600E+01   8.456E+00   0.000E+00   1.527E-01
   1.830E-03   4.625E+01   8.188E+00   0.000E+00   1.532E-01
   1.820E-03   4.627E+01   8.045E+00   0.000E+00   1.532E-01
   1.810E-03   4.634E+01   7.897E+00   0.000E+00   1.531E-01
   1.800E-03   4.645E+01   7.752E+00   0.000E+00   1.530E-01
   1.750E-03   4.696E+01   6.923E+00   0.000E+00   1.518E-01
   1.700E-03   4.703E+01   6.037E+00   0.000E+00   1.483E-01
   1.670E-03   4.753E+01   5.504E+00   0.000E+00   1.464E-01
   1.650E-03   4.800E+01   5.154E+00   0.000E+00   1.450E-01
   1.640E-03   4.814E+01   4.984E+00   0.000E+00   1.441E-01
   1.630E-03   4.829E+01   4.814E+00   0.000E+00   1.433E-01
   1.610E-03   4.849E+01   4.486E+00   0.000E+00   1.415E-01
   1.600E-03   4.863E+01   4.327E+00   0.000E+00   1.407E-01
   1.590E-03   4.877E+01   4.176E+00   0.000E+00   1.398E-01
   1.580E-03   4.887E+01   4.033E+00   0.000E+00   1.390E-01
   1.570E-03   4.887E+01   3.898E+00   0.000E+00   1.380E-01
   1.560E-03   4.908E+01   3.780E+00   0.000E+00   1.373E-01
   1.540E-03   4.949E+01   3.589E+00   0.000E+00   1.361E-01
   1.520E-03   4.951E+01   3.471E+00   0.000E+00   1.348E-01
   1.510E-03   4.952E+01   3.442E+00   0.000E+00   1.342E-01
   1.500E-03   4.944E+01   3.430E+00   0.000E+00   1.336E-01
   1.450E-03   4.973E+01   3.548E+00   0.000E+00   1.325E-01
   1.440E-03   4.984E+01   3.594E+00   0.000E+00   1.326E-01
   1.430E-03   4.994E+01   3.631E+00   0.000E+00   1.333E-01
   1.420E-03   5.003E+01   3.668E+00   0.000E+00   1.339E-01
   1.400E-03   5.033E+01   3.751E+00   0.000E+00   1.362E-01
   1.380E-03   5.056E+01   3.830E+00   0.000E+00   1.394E-01
   1.370E-03   5.066E+01   3.874E+00   0.000E+00   1.417E-01
   1.360E-03   5.085E+01   3.918E+00   0.000E+00   1.443E-01
   1.350E-03   5.107E+01   3.972E+00   0.000E+00   1.470E-01
   1.340E-03   5.127E+01   4.026E+00   0.000E+00   1.501E-01
   1.330E-03   5.138E+01   4.093E+00   0.000E+00   1.531E-01
   1.320E-03   5.156E+01   4.163E+00   0.000E+00   1.563E-01
   1.310E-03   5.155E+01   4.245E+00   0.000E+00   1.596E-01
   1.290E-03   5.138E+01   4.440E+00   0.000E+00   1.661E-01
   1.280E-03   5.136E+01   4.544E+00   0.000E+00   1.699E-01
   1.270E-03   5.147E+01   4.631E+00   0.000E+00   1.740E-01
   1.260E-03   5.155E+01   4.760E+00   0.000E+00   1.779E-01
   1.250E-03   5.156E+01   4.929E+00   0.000E+00   1.818E-01
   1.220E-03   5.234E+01   5.937E+00   0.000E+00   1.956E-01
   1.210E-03   5.236E+01   6.595E+00   0.000E+00   2.008E-01
   1.200E-03   5.235E+01   7.368E+00   0.000E+00   2.062E-01
   1.190E-03   5.271E+01   8.171E+00   0.000E+00   2.123E-01
   1.180E-03   5.289E+01   8.925E+00   0.000E+00   2.180E-01
   1.170E-03   5.301E+01   9.573E+00   0.000E+00   2.237E-01
   1.160E-03   5.318E+01   1.010E+01   0.000E+00   2.291E-01
   1.150E-03   5.313E+01   1.051E+01   0.000E+00   2.345E-01
   1.140E-03   5.303E+01   1.084E+01   0.000E+00   2.396E-01
   1.130E-03   5.301E+01   1.110E+01   0.000E+00   2.451E-01
   1.120E-03   5.301E+01   1.132E+01   0.000E+00   2.502E-01
   1.110E-03   5.296E+01   1.152E+01   0.000E+00   2.552E-01
   1.090E-03   5.307E+01   1.188E+01   0.000E+00   2.654E-01
   1.050E-03   5.378E+01   1.222E+01   0.000E+00   2.890E-01
   1.000E-03   5.498E+01   1.190E+01   0.000E+00   3.027E-01
   9.800E-04   5.554E+01   1.137E+01   0.000E+00   3.072E-01
   9.600E-04   5.600E+01   1.055E+01   0.000E+00   3.094E-01
   9.500E-04   5.643E+01   1.005E+01   0.000E+00   3.084E-01
   9.400E-04   5.641E+01   9.535E+00   0.000E+00   3.047E-01
   9.200E-04   5.666E+01   8.520E+00   0.000E+00   2.896E-01
   8.900E-04   5.745E+01   7.006E+00   0.000E+00   2.568E-01
   8.700E-04   5.720E+01   6.170E+00   0.000E+00   2.362E-01
   8.600E-04   5.757E+01   5.802E+00   0.000E+00   2.287E-01
   8.500E-04   5.754E+01   5.420E+00   0.000E+00   2.212E-01
   8.400E-04   5.797E+01   5.014E+00   0.000E+00   2.139E-01
   8.200E-04   5.764E+01   4.184E+00   0.000E+00   1.949E-01
   8.000E-04   5.791E+01   3.495E+00   0.000E+00   1.759E-01
   7.900E-04   5.824E+01   3.248E+00   0.000E+00   1.708E-01
   7.800E-04   5.803E+01   3.047E+00   0.000E+00   1.653E-01
   7.700E-04   5.782E+01   2.874E+00   0.000E+00   1.613E-01
   7.600E-04   5.766E+01   2.722E+00   0.000E+00   1.593E-01
   7.500E-04   5.749E+01   2.585E+00   0.000E+00   1.576E-01
   7.300E-04   5.783E+01   2.377E+00   0.000E+00   1.599E-01
   7.200E-04   5.763E+01   2.321E+00   0.000E+00   1.616E-01
   7.100E-04   5.753E+01   2.291E+00   0.000E+00   1.636E-01
   7.000E-04   5.790E+01   2.255E+00   0.000E+00   1.667E-01
   6.900E-04   5.755E+01   2.188E+00   0.000E+00   1.689E-01
   6.800E-04   5.641E+01   2.094E+00   0.000E+00   1.694E-01
   6.600E-04   5.703E+01   1.927E+00   0.000E+00   1.756E-01
   6.400E-04   5.869E+01   1.707E+00   0.000E+00   1.842E-01
   6.300E-04   5.952E+01   1.615E+00   0.000E+00   1.890E-01
   6.200E-04   5.939E+01   1.609E+00   0.000E+00   1.922E-01
   6.100E-04   5.977E+01   1.612E+00   0.000E+00   1.963E-01
   5.900E-04   6.153E+01   1.352E+00   0.000E+00   2.067E-01
   5.500E-04   5.738E+01   1.067E+00   0.000E+00   2.162E-01
   5.300E-04   5.804E+01   9.849E-01   0.000E+00   2.276E-01
   5.200E-04   5.806E+01   9.438E-01   0.000E+00   2.334E-01
   5.100E-04   5.864E+01   9.017E-01   0.000E+00   2.405E-01
   5.000E-04   5.919E+01   8.629E-01   0.000E+00   2.479E-01
   4.800E-04   5.971E+01   8.060E-01   0.000E+00   2.626E-01
   4.500E-04   6.110E+01   7.494E-01   0.000E+00   2.882E-01
   4.000E-04   6.313E+01   7.275E-01   0.000E+00   3.386E-01
   3.800E-04   6.453E+01   7.531E-01   0.000E+00   3.632E-01
   3.600E-04   6.616E+01   8.072E-01   0.000E+00   3.910E-01
   3.400E-04   6.907E+01   9.010E-01   0.000E+00   4.230E-01
   3.300E-04   6.878E+01   9.665E-01   0.000E+00   4.378E-01
   3.200E-04   6.943E+01   1.046E+00   0.000E+00   4.552E-01
   3.150E-04   7.026E+01   1.094E+00   0.000E+00   4.648E-01
   3.100E-04   7.106E+01   1.147E+00   0.000E+00   4.742E-01
   3.080E-04   7.130E+01   1.170E+00   0.000E+00   4.779E-01
   3.050E-04   7.161E+01   1.205E+00   0.000E+00   4.834E-01
   3.000E-04   7.225E+01   1.271E+00   0.000E+00   4.930E-01
   2.900E-04   7.398E+01   1.422E+00   0.000E+00   5.130E-01
   2.800E-04   7.484E+01   1.609E+00   0.000E+00   5.328E-01
   2.600E-04   7.852E+01   2.126E+00   0.000E+00   5.791E-01
   2.500E-04   8.130E+01   2.482E+00   0.000E+00   6.046E-01
   2.200E-04   9.346E+01   4.209E+00   0.000E+00   6.833E-01
   2.159E-04   9.520E+01   4.558E+00   0.000E+00   6.942E-01
   2.000E-04   1.053E+02   6.323E+00   0.000E+00   7.394E-01
   1.662E-04   1.384E+02   1.396E+01   0.000E+00   8.302E-01
   1.650E-04   1.400E+02   1.439E+01   0.000E+00   8.332E-01
   1.250E-04   2.380E+02   4.194E+01   0.000E+00   9.524E-01
   1.235E-04   2.438E+02   4.365E+01   0.000E+00   9.585E-01
   1.130E-04   2.881E+02   5.737E+01   0.000E+00   1.010E+00
   1.000E-04   3.528E+02   7.876E+01   0.000E+00   1.104E+00
   9.500E-05   3.775E+02   8.851E+01   0.000E+00   1.152E+00
   9.300E-05   3.868E+02   9.270E+01   0.000E+00   1.174E+00
   9.200E-05   3.913E+02   9.487E+01   0.000E+00   1.185E+00
   9.100E-05   3.956E+02   9.708E+01   0.000E+00   1.197E+00
   9.000E-05   3.999E+02   9.934E+01   0.000E+00   1.208E+00
   8.900E-05   4.041E+02   1.016E+02   0.000E+00   1.221E+00
   8.800E-05   4.082E+02   1.040E+02   0.000E+00   1.233E+00
   8.700E-05   4.123E+02   1.064E+02   0.000E+00   1.246E+00
   8.600E-05   4.163E+02   1.089E+02   0.000E+00   1.259E+00
   8.500E-05   4.202E+02   1.114E+02   0.000E+00   1.273E+00
   8.400E-05   4.242E+02   1.139E+02   0.000E+00   1.287E+00
   8.330E-05   4.269E+02   1.157E+02   0.000E+00   1.298E+00
   8.200E-05   4.318E+02   1.192E+02   0.000E+00   1.317E+00
   8.100E-05   4.355E+02   1.218E+02   0.000E+00   1.333E+00
   8.000E-05   4.391E+02   1.246E+02   0.000E+00   1.349E+00
   7.900E-05   4.425E+02   1.274E+02   0.000E+00   1.366E+00
   7.800E-05   4.456E+02   1.302E+02   0.000E+00   1.384E+00
   7.700E-05   4.486E+02   1.331E+02   0.000E+00   1.402E+00
   7.600E-05   4.512E+02   1.361E+02   0.000E+00   1.421E+00
   7.500E-05   4.535E+02   1.391E+02   0.000E+00   1.440E+00
   7.400E-05   4.555E+02   1.421E+02   0.000E+00   1.459E+00
   7.300E-05   4.572E+02   1.452E+02   0.000E+00   1.479E+00
   7.140E-05   4.592E+02   1.503E+02   0.000E+00   1.512E+00
   7.100E-05   4.596E+02   1.515E+02   0.000E+00   1.521E+00
   7.000E-05   4.604E+02   1.546E+02   0.000E+00   1.542E+00
   6.900E-05   4.608E+02   1.577E+02   0.000E+00   1.564E+00
   6.800E-05   4.610E+02   1.608E+02   0.000E+00   1.587E+00
   6.700E-05   4.608E+02   1.638E+02   0.000E+00   1.610E+00
   6.600E-05   4.603E+02   1.667E+02   0.000E+00   1.634E+00
   6.500E-05   4.594E+02   1.695E+02   0.000E+00   1.658E+00
   6.400E-05   4.580E+02   1.723E+02   0.000E+00   1.683E+00
   6.300E-05   4.561E+02   1.750E+02   0.000E+00   1.708E+00
   6.250E-05   4.549E+02   1.763E+02   0.000E+00   1.722E+00
   6.200E-05   4.536E+02   1.777E+02   0.000E+00   1.735E+00
   6.100E-05   4.505E+02   1.805E+02   0.000E+00   1.762E+00
   6.000E-05   4.466E+02   1.833E+02   0.000E+00   1.789E+00
   5.900E-05   4.421E+02   1.863E+02   0.000E+00   1.817E+00
   5.800E-05   4.368E+02   1.893E+02   0.000E+00   1.846E+00
   5.700E-05   4.306E+02   1.925E+02   0.000E+00   1.876E+00
   5.600E-05   4.237E+02   1.957E+02   0.000E+00   1.905E+00
   5.500E-05   4.160E+02   1.988E+02   0.000E+00   1.936E+00
   5.477E-05   4.141E+02   1.995E+02   0.000E+00   1.946E+00
   5.400E-05   4.076E+02   2.019E+02   0.000E+00   1.970E+00
   5.300E-05   3.985E+02   2.049E+02   0.000E+00   2.002E+00
   5.200E-05   3.888E+02   2.079E+02   0.000E+00   2.033E+00
   5.100E-05   3.784E+02   2.110E+02   0.000E+00   2.065E+00
   5.000E-05   3.677E+02   2.142E+02   0.000E+00   2.097E+00
   4.900E-05   3.564E+02   2.173E+02   0.000E+00   2.129E+00
   4.880E-05   3.540E+02   2.178E+02   0.000E+00   2.136E+00
   4.800E-05   3.446E+02   2.201E+02   0.000E+00   2.161E+00
   4.760E-05   3.398E+02   2.211E+02   0.000E+00   2.175E+00
   4.700E-05   3.324E+02   2.223E+02   0.000E+00   2.194E+00
   4.650E-05   3.262E+02   2.232E+02   0.000E+00   2.210E+00
   4.600E-05   3.199E+02   2.239E+02   0.000E+00   2.227E+00
   4.550E-05   3.133E+02   2.244E+02   0.000E+00   2.244E+00
   4.500E-05   3.068E+02   2.249E+02   0.000E+00   2.260E+00
   4.440E-05   2.987E+02   2.255E+02   0.000E+00   2.280E+00
   4.350E-05   2.864E+02   2.266E+02   0.000E+00   2.311E+00
   4.170E-05   2.609E+02   2.294E+02   0.000E+00   2.372E+00
   4.000E-05   2.361E+02   2.310E+02   0.000E+00   2.432E+00
   3.850E-05   2.137E+02   2.309E+02   0.000E+00   2.485E+00
   3.656E-05   1.847E+02   2.291E+02   0.000E+00   2.553E+00
   3.570E-05   1.720E+02   2.272E+02   0.000E+00   2.583E+00
   3.330E-05   1.376E+02   2.208E+02   0.000E+00   2.671E+00
   3.130E-05   1.105E+02   2.133E+02   0.000E+00   2.751E+00
   3.000E-05   9.374E+01   2.041E+02   0.000E+00   2.811E+00
   2.940E-05   8.630E+01   2.007E+02   0.000E+00   2.840E+00
   2.780E-05   6.649E+01   1.886E+02   0.000E+00   2.934E+00
   2.630E-05   5.014E+01   1.749E+02   0.000E+00   3.061E+00
   2.500E-05   3.770E+01   1.667E+02   0.000E+00   3.223E+00
   2.380E-05   2.655E+01   1.556E+02   0.000E+00   3.449E+00
   2.270E-05   1.801E+01   1.400E+02   0.000E+00   3.698E+00
   2.170E-05   1.362E+01   1.293E+02   0.000E+00   3.902E+00
   2.080E-05   1.113E+01   1.248E+02   0.000E+00   3.873E+00
   2.000E-05   1.012E+01   1.097E+02   0.000E+00   3.694E+00
   1.920E-05   9.772E+00   9.229E+01   0.000E+00   3.476E+00
   1.850E-05   9.792E+00   8.100E+01   0.000E+00   3.332E+00
   1.790E-05   1.060E+01   7.211E+01   0.000E+00   3.241E+00
   1.720E-05   1.215E+01   6.443E+01   0.000E+00   3.189E+00
   1.670E-05   1.387E+01   5.843E+01   0.000E+00   3.179E+00
   1.610E-05   1.719E+01   5.034E+01   0.000E+00   3.208E+00
   1.560E-05   2.031E+01   4.260E+01   0.000E+00   3.267E+00
   1.520E-05   2.295E+01   3.530E+01   0.000E+00   3.343E+00
   1.470E-05   2.651E+01   2.554E+01   0.000E+00   3.460E+00
   1.430E-05   2.953E+01   1.778E+01   0.000E+00   3.567E+00
   1.390E-05   3.240E+01   1.320E+01   0.000E+00   3.652E+00
   1.350E-05   3.479E+01   1.049E+01   0.000E+00   3.735E+00
   1.320E-05   3.634E+01   9.644E+00   0.000E+00   3.805E+00
   1.280E-05   3.838E+01   9.548E+00   0.000E+00   3.914E+00
   1.250E-05   4.007E+01   9.247E+00   0.000E+00   4.013E+00
   1.220E-05   4.185E+01   9.125E+00   0.000E+00   4.129E+00
   1.190E-05   4.361E+01   9.715E+00   0.000E+00   4.268E+00
   1.160E-05   4.519E+01   1.075E+01   0.000E+00   4.424E+00
   1.140E-05   4.612E+01   1.211E+01   0.000E+00   4.542E+00
   1.110E-05   4.730E+01   1.478E+01   0.000E+00   4.740E+00
   1.080E-05   4.820E+01   1.814E+01   0.000E+00   5.043E+00
   1.050E-05   4.884E+01   2.140E+01   0.000E+00   5.429E+00
   1.030E-05   4.911E+01   2.362E+01   0.000E+00   5.766E+00
   1.000E-05   4.925E+01   2.682E+01   0.000E+00   6.256E+00
   9.750E-06   4.918E+01   2.957E+01   0.000E+00   6.719E+00
   9.500E-06   4.892E+01   3.221E+01   0.000E+00   7.225E+00
   9.250E-06   4.846E+01   3.475E+01   0.000E+00   7.668E+00
   9.080E-06   4.804E+01   3.205E+01   0.000E+00   7.905E+00
