 # Optical depth (Siebenmorgen 2023, A&A 670A,115; SC 2023 doi: 10.48550/arXiv.2311.03310)
 # wel(cm) sa_aC    ss_aC    sa_Si    ss_Si    sa_vgr   ss_vgr   sa_vsi   ss_vsi   s_pahS+B sa_Dark  ss_Dark sigt 
 # ------------------------------------------------------------------------------------------------------------- 
1.000E+00 1.07E-07 3.45E-17 2.86E-07 4.03E-17 7.72E-09 6.80E-23 6.40E-08 1.01E-22 3.84E-12 0.00E+00 0.00E+00 4.647E-07
9.000E-01 1.25E-07 5.25E-17 3.38E-07 6.15E-17 9.85E-09 1.04E-22 7.61E-08 1.53E-22 4.75E-12 0.00E+00 0.00E+00 5.490E-07
8.000E-01 1.50E-07 8.41E-17 4.07E-07 9.85E-17 1.28E-08 1.66E-22 9.27E-08 2.46E-22 6.01E-12 0.00E+00 0.00E+00 6.620E-07
7.000E-01 1.83E-07 1.43E-16 5.03E-07 1.68E-16 1.72E-08 2.83E-22 1.14E-07 4.19E-22 7.85E-12 0.00E+00 0.00E+00 8.172E-07
6.000E-01 2.32E-07 2.66E-16 6.42E-07 3.11E-16 2.39E-08 5.25E-22 1.47E-07 7.75E-22 1.07E-11 0.00E+00 0.00E+00 1.045E-06
5.500E-01 2.65E-07 3.76E-16 7.38E-07 4.41E-16 2.86E-08 7.43E-22 1.69E-07 1.10E-21 1.27E-11 0.00E+00 0.00E+00 1.201E-06
5.000E-01 3.07E-07 5.51E-16 8.60E-07 6.46E-16 3.47E-08 1.09E-21 1.96E-07 1.61E-21 1.54E-11 0.00E+00 0.00E+00 1.397E-06
4.500E-01 3.62E-07 8.39E-16 1.02E-06 9.84E-16 4.27E-08 1.66E-21 2.33E-07 2.45E-21 1.90E-11 0.00E+00 0.00E+00 1.656E-06
4.000E-01 4.35E-07 1.34E-15 1.23E-06 1.58E-15 5.36E-08 2.66E-21 2.80E-07 3.92E-21 2.40E-11 0.00E+00 0.00E+00 1.998E-06
3.500E-01 5.37E-07 2.29E-15 1.52E-06 2.69E-15 6.86E-08 4.53E-21 3.51E-07 6.69E-21 3.14E-11 0.00E+00 0.00E+00 2.481E-06
3.000E-01 6.85E-07 4.24E-15 1.96E-06 4.98E-15 9.03E-08 8.39E-21 4.46E-07 1.24E-20 4.27E-11 0.00E+00 0.00E+00 3.177E-06
2.500E-01 9.18E-07 8.79E-15 2.63E-06 1.03E-14 1.23E-07 1.74E-20 5.99E-07 2.57E-20 6.15E-11 0.00E+00 0.00E+00 4.268E-06
2.098E-01 1.22E-06 1.77E-14 3.49E-06 2.08E-14 1.64E-07 3.51E-20 7.96E-07 5.17E-20 8.74E-11 0.00E+00 0.00E+00 5.673E-06
1.500E-01 2.12E-06 6.77E-14 6.04E-06 7.97E-14 3.13E-07 1.34E-19 1.36E-06 1.98E-19 1.71E-10 0.00E+00 0.00E+00 9.843E-06
1.382E-01 2.43E-06 9.39E-14 6.91E-06 1.11E-13 3.69E-07 1.86E-19 1.56E-06 2.74E-19 2.01E-10 0.00E+00 0.00E+00 1.128E-05
1.320E-01 2.63E-06 1.13E-13 7.45E-06 1.33E-13 4.04E-07 2.24E-19 1.68E-06 3.29E-19 2.21E-10 0.00E+00 0.00E+00 1.217E-05
1.150E-01 3.32E-06 1.96E-13 9.35E-06 2.31E-13 5.29E-07 3.89E-19 2.10E-06 5.72E-19 2.91E-10 0.00E+00 0.00E+00 1.531E-05
1.000E-01 4.23E-06 3.42E-13 1.18E-05 4.04E-13 6.95E-07 6.80E-19 2.62E-06 9.99E-19 3.85E-10 0.00E+00 0.00E+00 1.931E-05
9.970E-02 4.25E-06 3.47E-13 1.18E-05 4.08E-13 6.99E-07 6.88E-19 2.64E-06 1.01E-18 3.87E-10 0.00E+00 0.00E+00 1.941E-05
8.670E-02 5.35E-06 6.06E-13 1.49E-05 7.14E-13 9.24E-07 1.20E-18 3.31E-06 1.77E-18 5.12E-10 0.00E+00 0.00E+00 2.450E-05
8.500E-02 5.54E-06 6.56E-13 1.54E-05 7.73E-13 9.61E-07 1.30E-18 3.42E-06 1.91E-18 5.32E-10 0.00E+00 0.00E+00 2.533E-05
7.500E-02 7.03E-06 1.08E-12 1.90E-05 1.28E-12 1.22E-06 2.15E-18 4.17E-06 3.16E-18 6.84E-10 0.00E+00 0.00E+00 3.138E-05
6.000E-02 1.03E-05 2.64E-12 2.74E-05 3.13E-12 1.88E-06 5.24E-18 6.05E-06 7.71E-18 1.07E-09 0.00E+00 0.00E+00 4.562E-05
5.500E-02 1.20E-05 3.74E-12 3.06E-05 4.46E-12 2.21E-06 7.42E-18 7.06E-06 1.09E-17 1.27E-09 0.00E+00 0.00E+00 5.189E-05
5.000E-02 1.43E-05 5.48E-12 3.79E-05 6.58E-12 2.64E-06 1.09E-17 8.40E-06 1.60E-17 1.54E-09 0.00E+00 0.00E+00 6.325E-05
4.500E-02 1.76E-05 8.37E-12 5.03E-05 1.01E-11 3.22E-06 1.66E-17 1.03E-05 2.44E-17 1.90E-09 0.00E+00 0.00E+00 8.133E-05
4.000E-02 2.26E-05 1.34E-11 6.71E-05 1.63E-11 4.01E-06 2.65E-17 1.30E-05 3.91E-17 2.41E-09 0.00E+00 0.00E+00 1.067E-04
3.500E-02 2.83E-05 2.29E-11 1.02E-04 2.81E-11 5.15E-06 4.52E-17 1.72E-05 6.68E-17 3.14E-09 0.00E+00 0.00E+00 1.527E-04
3.000E-02 3.99E-05 4.26E-11 1.59E-04 5.23E-11 6.86E-06 8.38E-17 2.41E-05 1.24E-16 4.28E-09 0.00E+00 0.00E+00 2.301E-04
2.750E-02 4.77E-05 6.04E-11 2.00E-04 7.41E-11 8.09E-06 1.19E-16 2.95E-05 1.76E-16 5.10E-09 0.00E+00 0.00E+00 2.856E-04
2.500E-02 5.74E-05 8.87E-11 2.55E-04 1.08E-10 9.66E-06 1.74E-16 3.69E-05 2.57E-16 6.17E-09 0.00E+00 0.00E+00 3.591E-04
2.400E-02 6.30E-05 1.04E-10 2.82E-04 1.27E-10 1.04E-05 2.05E-16 4.03E-05 3.03E-16 6.70E-09 0.00E+00 0.00E+00 3.962E-04
2.000E-02 9.21E-05 2.18E-10 4.40E-04 2.60E-10 1.48E-05 4.25E-16 5.84E-05 6.28E-16 9.65E-09 0.00E+00 0.00E+00 6.051E-04
1.800E-02 1.15E-04 3.35E-10 5.46E-04 3.90E-10 1.82E-05 6.49E-16 7.25E-05 9.58E-16 1.19E-08 0.00E+00 0.00E+00 7.511E-04
1.600E-02 1.52E-04 5.40E-10 6.79E-04 6.12E-10 2.30E-05 1.04E-15 9.25E-05 1.53E-15 1.51E-08 0.00E+00 0.00E+00 9.467E-04
1.500E-02 1.82E-04 7.02E-10 7.61E-04 7.83E-10 2.62E-05 1.35E-15 1.05E-04 1.99E-15 1.72E-08 0.00E+00 0.00E+00 1.074E-03
1.400E-02 2.07E-04 9.27E-10 8.54E-04 1.02E-09 3.03E-05 1.78E-15 1.21E-04 2.62E-15 1.98E-08 0.00E+00 0.00E+00 1.212E-03
1.200E-02 3.15E-04 1.74E-09 1.09E-03 1.82E-09 4.21E-05 3.31E-15 1.66E-04 4.86E-15 2.70E-08 0.00E+00 0.00E+00 1.613E-03
1.000E-02 4.79E-04 3.65E-09 1.44E-03 3.61E-09 6.37E-05 6.92E-15 2.43E-04 1.01E-14 3.91E-08 0.00E+00 0.00E+00 2.222E-03
9.000E-03 6.37E-04 5.62E-09 1.64E-03 5.36E-09 8.18E-05 1.06E-14 3.03E-04 1.54E-14 4.85E-08 0.00E+00 0.00E+00 2.660E-03
8.000E-03 8.46E-04 8.86E-09 1.90E-03 8.47E-09 1.09E-04 1.71E-14 3.88E-04 2.47E-14 6.18E-08 0.00E+00 0.00E+00 3.246E-03
7.500E-03 9.89E-04 1.16E-08 2.10E-03 1.09E-08 1.29E-04 2.23E-14 4.45E-04 3.20E-14 7.06E-08 0.00E+00 0.00E+00 3.668E-03
7.000E-03 1.19E-03 1.52E-08 2.36E-03 1.43E-08 1.55E-04 2.95E-14 5.16E-04 4.21E-14 8.15E-08 0.00E+00 0.00E+00 4.227E-03
6.000E-03 1.72E-03 2.76E-08 3.03E-03 2.61E-08 2.39E-04 5.57E-14 7.18E-04 7.80E-14 1.13E-07 0.00E+00 0.00E+00 5.700E-03
5.000E-03 2.45E-03 5.39E-08 4.30E-03 5.31E-08 4.18E-04 1.18E-13 1.06E-03 1.61E-13 1.66E-07 0.00E+00 0.00E+00 8.226E-03
4.500E-03 3.01E-03 7.83E-08 5.26E-03 7.92E-08 5.92E-04 1.82E-13 1.32E-03 2.44E-13 2.10E-07 0.00E+00 0.00E+00 1.018E-02
4.000E-03 3.58E-03 1.16E-07 6.56E-03 1.19E-07 8.66E-04 2.90E-13 1.69E-03 3.87E-13 2.75E-07 0.00E+00 0.00E+00 1.270E-02
3.500E-03 4.33E-03 1.84E-07 8.09E-03 1.87E-07 1.20E-03 4.64E-13 2.20E-03 6.51E-13 3.80E-07 0.00E+00 0.00E+00 1.583E-02
3.000E-03 5.34E-03 3.04E-07 9.96E-03 3.01E-07 1.27E-03 7.26E-13 3.01E-03 1.19E-12 5.84E-07 0.00E+00 0.00E+00 1.958E-02
2.750E-03 5.86E-03 3.99E-07 1.09E-02 3.88E-07 1.09E-03 9.35E-13 3.61E-03 1.66E-12 7.95E-07 0.00E+00 0.00E+00 2.148E-02
2.500E-03 6.32E-03 5.32E-07 1.19E-02 5.08E-07 8.62E-04 1.29E-12 4.44E-03 2.39E-12 1.34E-06 0.00E+00 0.00E+00 2.356E-02
2.400E-03 6.56E-03 6.07E-07 1.24E-02 5.70E-07 7.73E-04 1.49E-12 4.84E-03 2.77E-12 1.90E-06 0.00E+00 0.00E+00 2.452E-02
2.350E-03 6.70E-03 6.49E-07 1.26E-02 6.05E-07 7.31E-04 1.62E-12 5.06E-03 3.00E-12 2.26E-06 0.00E+00 0.00E+00 2.508E-02
2.320E-03 6.77E-03 6.75E-07 1.27E-02 6.28E-07 7.07E-04 1.70E-12 5.20E-03 3.14E-12 2.43E-06 0.00E+00 0.00E+00 2.543E-02
2.310E-03 6.80E-03 6.84E-07 1.28E-02 6.36E-07 6.99E-04 1.73E-12 5.24E-03 3.19E-12 2.48E-06 0.00E+00 0.00E+00 2.555E-02
2.300E-03 6.83E-03 6.94E-07 1.29E-02 6.43E-07 6.91E-04 1.76E-12 5.29E-03 3.24E-12 2.51E-06 0.00E+00 0.00E+00 2.566E-02
2.250E-03 6.94E-03 7.40E-07 1.31E-02 6.85E-07 6.54E-04 1.91E-12 5.56E-03 3.52E-12 2.62E-06 0.00E+00 0.00E+00 2.629E-02
2.200E-03 7.05E-03 7.93E-07 1.35E-02 7.30E-07 6.19E-04 2.09E-12 5.87E-03 3.80E-12 2.75E-06 0.00E+00 0.00E+00 2.700E-02
2.150E-03 7.19E-03 8.53E-07 1.38E-02 7.76E-07 5.87E-04 2.29E-12 6.16E-03 4.11E-12 3.01E-06 0.00E+00 0.00E+00 2.776E-02
2.120E-03 7.28E-03 8.90E-07 1.40E-02 8.02E-07 5.69E-04 2.42E-12 6.36E-03 4.31E-12 3.14E-06 0.00E+00 0.00E+00 2.823E-02
2.110E-03 7.31E-03 9.02E-07 1.41E-02 8.11E-07 5.63E-04 2.47E-12 6.43E-03 4.38E-12 3.16E-06 0.00E+00 0.00E+00 2.838E-02
2.100E-03 7.34E-03 9.14E-07 1.42E-02 8.20E-07 5.57E-04 2.51E-12 6.50E-03 4.46E-12 3.16E-06 0.00E+00 0.00E+00 2.854E-02
2.080E-03 7.37E-03 9.38E-07 1.43E-02 8.36E-07 5.46E-04 2.61E-12 6.64E-03 4.60E-12 3.14E-06 0.00E+00 0.00E+00 2.881E-02
2.000E-03 7.48E-03 1.06E-06 1.47E-02 9.04E-07 5.06E-04 3.06E-12 7.28E-03 5.22E-12 2.97E-06 0.00E+00 0.00E+00 2.997E-02
1.950E-03 7.59E-03 1.15E-06 1.49E-02 9.37E-07 4.85E-04 3.39E-12 7.70E-03 5.53E-12 3.21E-06 0.00E+00 0.00E+00 3.069E-02
1.900E-03 7.75E-03 1.25E-06 1.50E-02 9.61E-07 4.65E-04 3.77E-12 8.02E-03 5.79E-12 3.89E-06 0.00E+00 0.00E+00 3.123E-02
1.850E-03 7.91E-03 1.37E-06 1.49E-02 9.73E-07 4.48E-04 4.20E-12 8.20E-03 5.94E-12 5.03E-06 0.00E+00 0.00E+00 3.146E-02
1.830E-03 7.99E-03 1.42E-06 1.48E-02 9.73E-07 4.42E-04 4.39E-12 8.23E-03 5.97E-12 5.44E-06 0.00E+00 0.00E+00 3.147E-02
1.820E-03 8.01E-03 1.44E-06 1.47E-02 9.72E-07 4.39E-04 4.49E-12 8.23E-03 5.98E-12 5.57E-06 0.00E+00 0.00E+00 3.143E-02
1.810E-03 8.04E-03 1.47E-06 1.47E-02 9.71E-07 4.36E-04 4.59E-12 8.21E-03 6.00E-12 5.66E-06 0.00E+00 0.00E+00 3.136E-02
1.800E-03 8.07E-03 1.50E-06 1.46E-02 9.69E-07 4.33E-04 4.70E-12 8.19E-03 6.01E-12 5.70E-06 0.00E+00 0.00E+00 3.129E-02
1.750E-03 8.26E-03 1.64E-06 1.40E-02 9.44E-07 4.21E-04 5.27E-12 7.98E-03 6.04E-12 5.82E-06 0.00E+00 0.00E+00 3.063E-02
1.700E-03 8.36E-03 1.79E-06 1.29E-02 9.06E-07 4.11E-04 5.93E-12 7.59E-03 6.08E-12 7.14E-06 0.00E+00 0.00E+00 2.931E-02
1.670E-03 8.48E-03 1.91E-06 1.21E-02 8.80E-07 4.06E-04 6.38E-12 7.31E-03 6.15E-12 8.44E-06 0.00E+00 0.00E+00 2.833E-02
1.650E-03 8.59E-03 1.99E-06 1.15E-02 8.66E-07 4.03E-04 6.70E-12 7.08E-03 6.23E-12 8.90E-06 0.00E+00 0.00E+00 2.758E-02
1.640E-03 8.64E-03 2.03E-06 1.12E-02 8.60E-07 4.02E-04 6.87E-12 6.97E-03 6.27E-12 8.88E-06 0.00E+00 0.00E+00 2.718E-02
1.630E-03 8.69E-03 2.07E-06 1.08E-02 8.56E-07 4.00E-04 7.04E-12 6.86E-03 6.31E-12 8.70E-06 0.00E+00 0.00E+00 2.676E-02
1.610E-03 8.78E-03 2.15E-06 1.01E-02 8.53E-07 3.98E-04 7.41E-12 6.62E-03 6.47E-12 8.12E-06 0.00E+00 0.00E+00 2.586E-02
1.600E-03 8.82E-03 2.20E-06 9.66E-03 8.56E-07 3.98E-04 7.60E-12 6.50E-03 6.56E-12 7.85E-06 0.00E+00 0.00E+00 2.539E-02
1.590E-03 8.87E-03 2.24E-06 9.26E-03 8.62E-07 3.97E-04 7.79E-12 6.39E-03 6.65E-12 7.65E-06 0.00E+00 0.00E+00 2.492E-02
1.580E-03 8.92E-03 2.29E-06 8.86E-03 8.74E-07 3.96E-04 8.00E-12 6.27E-03 6.77E-12 7.52E-06 0.00E+00 0.00E+00 2.446E-02
1.570E-03 8.94E-03 2.33E-06 8.47E-03 8.90E-07 3.95E-04 8.21E-12 6.16E-03 6.90E-12 7.39E-06 0.00E+00 0.00E+00 2.397E-02
1.560E-03 8.99E-03 2.39E-06 8.09E-03 9.14E-07 3.95E-04 8.42E-12 6.04E-03 7.04E-12 7.23E-06 0.00E+00 0.00E+00 2.353E-02
1.540E-03 9.12E-03 2.49E-06 7.42E-03 9.81E-07 3.94E-04 8.88E-12 5.82E-03 7.37E-12 7.06E-06 0.00E+00 0.00E+00 2.277E-02
1.520E-03 9.20E-03 2.58E-06 6.90E-03 1.08E-06 3.94E-04 9.36E-12 5.60E-03 7.78E-12 7.45E-06 0.00E+00 0.00E+00 2.211E-02
1.510E-03 9.23E-03 2.63E-06 6.71E-03 1.13E-06 3.94E-04 9.62E-12 5.50E-03 8.00E-12 7.69E-06 0.00E+00 0.00E+00 2.185E-02
1.500E-03 9.25E-03 2.68E-06 6.55E-03 1.19E-06 3.94E-04 9.88E-12 5.40E-03 8.26E-12 7.74E-06 0.00E+00 0.00E+00 2.162E-02
1.450E-03 9.40E-03 2.99E-06 6.25E-03 1.55E-06 3.96E-04 1.13E-11 4.98E-03 9.99E-12 9.87E-06 0.00E+00 0.00E+00 2.104E-02
1.440E-03 9.45E-03 3.06E-06 6.24E-03 1.63E-06 3.97E-04 1.17E-11 4.91E-03 1.04E-11 1.09E-05 0.00E+00 0.00E+00 2.102E-02
1.430E-03 9.49E-03 3.13E-06 6.24E-03 1.70E-06 3.98E-04 1.20E-11 4.89E-03 1.10E-11 1.19E-05 0.00E+00 0.00E+00 2.104E-02
1.420E-03 9.54E-03 3.20E-06 6.23E-03 1.79E-06 3.99E-04 1.24E-11 4.87E-03 1.16E-11 1.23E-05 0.00E+00 0.00E+00 2.105E-02
1.400E-03 9.63E-03 3.36E-06 6.24E-03 1.96E-06 4.01E-04 1.31E-11 4.91E-03 1.29E-11 1.35E-05 0.00E+00 0.00E+00 2.120E-02
1.380E-03 9.74E-03 3.52E-06 6.24E-03 2.14E-06 4.04E-04 1.39E-11 5.04E-03 1.44E-11 1.71E-05 0.00E+00 0.00E+00 2.145E-02
1.370E-03 9.78E-03 3.60E-06 6.25E-03 2.24E-06 4.05E-04 1.43E-11 5.18E-03 1.52E-11 2.04E-05 0.00E+00 0.00E+00 2.164E-02
1.360E-03 9.83E-03 3.69E-06 6.26E-03 2.35E-06 4.07E-04 1.47E-11 5.34E-03 1.60E-11 2.37E-05 0.00E+00 0.00E+00 2.187E-02
1.350E-03 9.90E-03 3.79E-06 6.28E-03 2.46E-06 4.09E-04 1.52E-11 5.49E-03 1.69E-11 2.54E-05 0.00E+00 0.00E+00 2.212E-02
1.340E-03 9.97E-03 3.88E-06 6.30E-03 2.58E-06 4.11E-04 1.56E-11 5.68E-03 1.78E-11 2.75E-05 0.00E+00 0.00E+00 2.240E-02
1.330E-03 1.00E-02 3.97E-06 6.34E-03 2.71E-06 4.13E-04 1.61E-11 5.88E-03 1.87E-11 3.19E-05 0.00E+00 0.00E+00 2.270E-02
1.320E-03 1.01E-02 4.07E-06 6.38E-03 2.85E-06 4.15E-04 1.66E-11 6.08E-03 1.97E-11 3.95E-05 0.00E+00 0.00E+00 2.303E-02
1.310E-03 1.01E-02 4.16E-06 6.44E-03 2.99E-06 4.17E-04 1.71E-11 6.30E-03 2.07E-11 5.18E-05 0.00E+00 0.00E+00 2.337E-02
1.290E-03 1.02E-02 4.34E-06 6.59E-03 3.31E-06 4.23E-04 1.82E-11 6.76E-03 2.28E-11 1.07E-04 0.00E+00 0.00E+00 2.409E-02
1.280E-03 1.02E-02 4.45E-06 6.68E-03 3.47E-06 4.25E-04 1.88E-11 7.05E-03 2.39E-11 1.57E-04 0.00E+00 0.00E+00 2.453E-02
1.270E-03 1.03E-02 4.57E-06 6.73E-03 3.66E-06 4.28E-04 1.94E-11 7.33E-03 2.51E-11 1.91E-04 0.00E+00 0.00E+00 2.495E-02
1.260E-03 1.03E-02 4.69E-06 6.82E-03 3.88E-06 4.31E-04 2.01E-11 7.63E-03 2.63E-11 1.64E-04 0.00E+00 0.00E+00 2.536E-02
1.250E-03 1.03E-02 4.80E-06 6.96E-03 4.11E-06 4.34E-04 2.07E-11 7.94E-03 2.75E-11 1.21E-04 0.00E+00 0.00E+00 2.580E-02
1.220E-03 1.06E-02 5.24E-06 7.90E-03 5.09E-06 4.43E-04 2.29E-11 8.91E-03 3.15E-11 9.44E-05 0.00E+00 0.00E+00 2.791E-02
1.210E-03 1.06E-02 5.37E-06 8.63E-03 5.48E-06 4.46E-04 2.36E-11 9.28E-03 3.30E-11 1.09E-04 0.00E+00 0.00E+00 2.908E-02
1.200E-03 1.06E-02 5.51E-06 9.52E-03 5.85E-06 4.50E-04 2.44E-11 9.69E-03 3.45E-11 1.20E-04 0.00E+00 0.00E+00 3.043E-02
1.190E-03 1.07E-02 5.68E-06 1.05E-02 6.19E-06 4.53E-04 2.53E-11 1.01E-02 3.61E-11 1.20E-04 0.00E+00 0.00E+00 3.192E-02
1.180E-03 1.08E-02 5.83E-06 1.15E-02 6.48E-06 4.56E-04 2.62E-11 1.05E-02 3.76E-11 1.19E-04 0.00E+00 0.00E+00 3.343E-02
1.170E-03 1.09E-02 5.99E-06 1.24E-02 6.72E-06 4.60E-04 2.72E-11 1.10E-02 3.92E-11 1.33E-04 0.00E+00 0.00E+00 3.488E-02
1.160E-03 1.09E-02 6.16E-06 1.32E-02 6.92E-06 4.66E-04 2.83E-11 1.14E-02 4.08E-11 1.71E-04 0.00E+00 0.00E+00 3.624E-02
1.150E-03 1.10E-02 6.31E-06 1.40E-02 7.10E-06 6.55E-04 2.79E-11 1.18E-02 4.25E-11 2.50E-04 0.00E+00 0.00E+00 3.771E-02
1.140E-03 1.10E-02 6.47E-06 1.46E-02 7.26E-06 4.86E-04 2.98E-11 1.23E-02 4.44E-11 3.76E-04 0.00E+00 0.00E+00 3.880E-02
1.130E-03 1.11E-02 6.65E-06 1.52E-02 7.42E-06 4.85E-04 3.10E-11 1.28E-02 4.64E-11 4.59E-04 0.00E+00 0.00E+00 3.997E-02
1.120E-03 1.11E-02 6.83E-06 1.57E-02 7.59E-06 4.89E-04 3.21E-11 1.33E-02 4.84E-11 3.70E-04 0.00E+00 0.00E+00 4.097E-02
1.110E-03 1.11E-02 7.02E-06 1.62E-02 7.77E-06 4.93E-04 3.33E-11 1.39E-02 5.05E-11 2.35E-04 0.00E+00 0.00E+00 4.194E-02
1.090E-03 1.12E-02 7.46E-06 1.71E-02 8.12E-06 5.03E-04 3.59E-11 1.51E-02 5.49E-11 9.73E-05 0.00E+00 0.00E+00 4.405E-02
1.050E-03 1.14E-02 8.49E-06 1.89E-02 8.75E-06 5.26E-04 4.17E-11 1.82E-02 6.52E-11 3.19E-05 0.00E+00 0.00E+00 4.917E-02
1.000E-03 1.19E-02 1.00E-05 2.07E-02 9.26E-06 5.61E-04 5.08E-11 2.11E-02 6.98E-11 1.58E-05 0.00E+00 0.00E+00 5.425E-02
9.800E-04 1.21E-02 1.07E-05 2.11E-02 9.23E-06 5.77E-04 5.51E-11 2.21E-02 7.19E-11 1.36E-05 0.00E+00 0.00E+00 5.588E-02
9.600E-04 1.22E-02 1.15E-05 2.10E-02 9.01E-06 5.94E-04 5.98E-11 2.32E-02 7.24E-11 1.26E-05 0.00E+00 0.00E+00 5.699E-02
9.500E-04 1.24E-02 1.19E-05 2.07E-02 8.85E-06 6.03E-04 6.24E-11 2.34E-02 7.09E-11 1.23E-05 0.00E+00 0.00E+00 5.714E-02
9.400E-04 1.25E-02 1.23E-05 2.03E-02 8.66E-06 6.12E-04 6.51E-11 2.33E-02 6.79E-11 1.24E-05 0.00E+00 0.00E+00 5.677E-02
9.200E-04 1.26E-02 1.31E-05 1.94E-02 8.30E-06 6.32E-04 7.10E-11 2.17E-02 5.65E-11 1.32E-05 0.00E+00 0.00E+00 5.438E-02
8.900E-04 1.30E-02 1.47E-05 1.72E-02 7.77E-06 6.64E-04 8.10E-11 1.72E-02 3.62E-11 1.95E-05 0.00E+00 0.00E+00 4.798E-02
8.700E-04 1.30E-02 1.57E-05 1.55E-02 7.63E-06 6.88E-04 8.87E-11 1.43E-02 2.68E-11 4.44E-05 0.00E+00 0.00E+00 4.360E-02
8.600E-04 1.32E-02 1.63E-05 1.47E-02 7.63E-06 7.01E-04 9.29E-11 1.31E-02 2.37E-11 6.73E-05 0.00E+00 0.00E+00 4.182E-02
8.500E-04 1.32E-02 1.69E-05 1.39E-02 7.62E-06 7.14E-04 9.74E-11 1.21E-02 2.11E-11 4.78E-05 0.00E+00 0.00E+00 4.002E-02
8.400E-04 1.34E-02 1.76E-05 1.30E-02 7.61E-06 7.27E-04 1.02E-10 1.10E-02 1.85E-11 3.41E-05 0.00E+00 0.00E+00 3.815E-02
8.200E-04 1.35E-02 1.88E-05 1.08E-02 7.82E-06 7.56E-04 1.12E-10 8.52E-03 1.33E-11 3.47E-05 0.00E+00 0.00E+00 3.363E-02
8.000E-04 1.37E-02 2.04E-05 8.71E-03 8.63E-06 7.86E-04 1.24E-10 5.83E-03 1.02E-11 5.10E-05 0.00E+00 0.00E+00 2.908E-02
7.900E-04 1.38E-02 2.13E-05 7.91E-03 9.28E-06 8.01E-04 1.30E-10 4.90E-03 1.10E-11 6.39E-05 0.00E+00 0.00E+00 2.751E-02
7.800E-04 1.39E-02 2.20E-05 7.25E-03 1.00E-05 8.17E-04 1.37E-10 3.98E-03 1.25E-11 7.65E-05 0.00E+00 0.00E+00 2.604E-02
7.700E-04 1.39E-02 2.29E-05 6.69E-03 1.09E-05 8.34E-04 1.44E-10 3.28E-03 1.49E-11 8.22E-05 0.00E+00 0.00E+00 2.483E-02
7.600E-04 1.39E-02 2.38E-05 6.21E-03 1.18E-05 8.51E-04 1.52E-10 2.78E-03 1.81E-11 7.63E-05 0.00E+00 0.00E+00 2.389E-02
7.500E-04 1.40E-02 2.48E-05 5.78E-03 1.28E-05 8.69E-04 1.60E-10 2.34E-03 2.21E-11 6.29E-05 0.00E+00 0.00E+00 2.305E-02
7.300E-04 1.41E-02 2.72E-05 5.12E-03 1.51E-05 9.06E-04 1.79E-10 1.96E-03 3.15E-11 3.87E-05 0.00E+00 0.00E+00 2.219E-02
7.200E-04 1.42E-02 2.83E-05 4.91E-03 1.64E-05 9.27E-04 1.89E-10 1.89E-03 3.64E-11 3.20E-05 0.00E+00 0.00E+00 2.199E-02
7.100E-04 1.42E-02 2.96E-05 4.78E-03 1.78E-05 9.48E-04 2.00E-10 1.84E-03 4.18E-11 3.13E-05 0.00E+00 0.00E+00 2.184E-02
7.000E-04 1.43E-02 3.11E-05 4.65E-03 1.92E-05 9.69E-04 2.11E-10 1.82E-03 4.74E-11 4.39E-05 0.00E+00 0.00E+00 2.188E-02
6.900E-04 1.44E-02 3.22E-05 4.47E-03 2.06E-05 9.92E-04 2.24E-10 1.81E-03 5.34E-11 2.51E-05 0.00E+00 0.00E+00 2.175E-02
6.800E-04 1.42E-02 3.35E-05 4.23E-03 2.22E-05 1.02E-03 2.37E-10 1.81E-03 5.94E-11 1.92E-05 0.00E+00 0.00E+00 2.133E-02
6.600E-04 1.43E-02 3.77E-05 3.81E-03 2.58E-05 1.07E-03 2.67E-10 1.81E-03 7.30E-11 1.82E-05 0.00E+00 0.00E+00 2.103E-02
6.400E-04 1.47E-02 4.26E-05 3.30E-03 3.00E-05 1.12E-03 3.01E-10 1.80E-03 8.85E-11 2.84E-05 0.00E+00 0.00E+00 2.099E-02
6.300E-04 1.50E-02 4.49E-05 3.08E-03 3.26E-05 1.13E-03 3.21E-10 1.80E-03 9.71E-11 4.53E-05 0.00E+00 0.00E+00 2.111E-02
6.200E-04 1.51E-02 4.71E-05 3.03E-03 3.55E-05 1.18E-03 3.42E-10 1.79E-03 1.06E-10 6.21E-05 0.00E+00 0.00E+00 2.120E-02
6.100E-04 1.52E-02 4.98E-05 3.01E-03 3.82E-05 1.21E-03 3.65E-10 1.78E-03 1.16E-10 4.44E-05 0.00E+00 0.00E+00 2.133E-02
5.900E-04 1.58E-02 5.60E-05 2.47E-03 4.45E-05 1.28E-03 4.16E-10 1.75E-03 1.39E-10 1.87E-05 0.00E+00 0.00E+00 2.144E-02
5.500E-04 1.53E-02 6.73E-05 1.83E-03 6.27E-05 1.43E-03 5.50E-10 1.73E-03 2.00E-10 1.51E-05 0.00E+00 0.00E+00 2.040E-02
5.300E-04 1.54E-02 7.75E-05 1.64E-03 7.45E-05 1.52E-03 6.37E-10 1.73E-03 2.39E-10 2.52E-05 0.00E+00 0.00E+00 2.046E-02
5.200E-04 1.54E-02 8.29E-05 1.54E-03 8.14E-05 1.57E-03 6.87E-10 1.73E-03 2.62E-10 4.12E-05 0.00E+00 0.00E+00 2.046E-02
5.100E-04 1.56E-02 8.93E-05 1.44E-03 8.90E-05 1.62E-03 7.41E-10 1.74E-03 2.88E-10 5.79E-05 0.00E+00 0.00E+00 2.059E-02
5.000E-04 1.57E-02 9.60E-05 1.33E-03 9.88E-05 1.68E-03 8.02E-10 1.75E-03 3.16E-10 4.09E-05 0.00E+00 0.00E+00 2.071E-02
4.800E-04 1.59E-02 1.11E-04 1.18E-03 1.19E-04 1.79E-03 9.42E-10 1.78E-03 3.81E-10 1.73E-05 0.00E+00 0.00E+00 2.092E-02
4.500E-04 1.65E-02 1.39E-04 9.90E-04 1.58E-04 1.98E-03 1.22E-09 1.84E-03 5.10E-10 1.21E-05 0.00E+00 0.00E+00 2.158E-02
4.000E-04 1.71E-02 2.12E-04 7.32E-04 2.63E-04 2.38E-03 1.93E-09 1.98E-03 8.52E-10 1.30E-05 0.00E+00 0.00E+00 2.266E-02
3.800E-04 1.74E-02 2.56E-04 6.45E-04 3.27E-04 2.58E-03 2.37E-09 2.05E-03 1.06E-09 1.47E-05 0.00E+00 0.00E+00 2.331E-02
3.600E-04 1.78E-02 3.13E-04 5.67E-04 4.11E-04 2.81E-03 2.93E-09 2.12E-03 1.33E-09 1.84E-05 0.00E+00 0.00E+00 2.405E-02
3.400E-04 1.87E-02 3.85E-04 4.98E-04 5.23E-04 3.08E-03 3.67E-09 2.19E-03 1.69E-09 4.26E-05 0.00E+00 0.00E+00 2.539E-02
3.300E-04 1.86E-02 4.25E-04 4.66E-04 5.92E-04 3.22E-03 4.13E-09 2.23E-03 1.92E-09 1.21E-04 0.00E+00 0.00E+00 2.569E-02
3.200E-04 1.87E-02 4.77E-04 4.34E-04 6.73E-04 3.38E-03 4.66E-09 2.27E-03 2.18E-09 4.33E-05 0.00E+00 0.00E+00 2.598E-02
3.150E-04 1.89E-02 5.08E-04 4.20E-04 7.19E-04 3.47E-03 4.96E-09 2.28E-03 2.32E-09 3.13E-05 0.00E+00 0.00E+00 2.630E-02
3.100E-04 1.91E-02 5.39E-04 4.06E-04 7.68E-04 3.55E-03 5.28E-09 2.30E-03 2.48E-09 2.65E-05 0.00E+00 0.00E+00 2.665E-02
3.080E-04 1.91E-02 5.51E-04 4.00E-04 7.89E-04 3.59E-03 5.41E-09 2.31E-03 2.55E-09 2.55E-05 0.00E+00 0.00E+00 2.678E-02
3.050E-04 1.92E-02 5.71E-04 3.92E-04 8.22E-04 3.65E-03 5.63E-09 2.33E-03 2.66E-09 2.44E-05 0.00E+00 0.00E+00 2.696E-02
3.000E-04 1.93E-02 6.08E-04 3.79E-04 8.80E-04 3.74E-03 6.00E-09 2.35E-03 2.84E-09 2.36E-05 0.00E+00 0.00E+00 2.728E-02
2.900E-04 1.97E-02 6.89E-04 3.53E-04 1.01E-03 3.95E-03 6.86E-09 2.40E-03 3.27E-09 2.35E-05 0.00E+00 0.00E+00 2.811E-02
2.800E-04 1.98E-02 7.82E-04 3.30E-04 1.17E-03 4.17E-03 7.88E-09 2.45E-03 3.78E-09 2.44E-05 0.00E+00 0.00E+00 2.873E-02
2.600E-04 2.03E-02 1.04E-03 2.85E-04 1.59E-03 4.68E-03 1.05E-08 2.57E-03 5.11E-09 2.77E-05 0.00E+00 0.00E+00 3.052E-02
2.500E-04 2.08E-02 1.21E-03 2.65E-04 1.86E-03 4.97E-03 1.23E-08 2.64E-03 6.00E-09 3.00E-05 0.00E+00 0.00E+00 3.174E-02
2.200E-04 2.26E-02 1.98E-03 2.13E-04 3.13E-03 6.04E-03 2.03E-08 2.89E-03 1.01E-08 3.99E-05 0.00E+00 0.00E+00 3.693E-02
2.159E-04 2.29E-02 2.12E-03 2.07E-04 3.38E-03 6.22E-03 2.18E-08 2.93E-03 1.09E-08 4.17E-05 0.00E+00 0.00E+00 3.777E-02
2.000E-04 2.42E-02 2.86E-03 1.86E-04 4.59E-03 7.00E-03 2.95E-08 3.11E-03 1.48E-08 5.03E-05 0.00E+00 0.00E+00 4.200E-02
1.662E-04 2.79E-02 5.77E-03 1.48E-04 9.59E-03 9.30E-03 6.08E-08 3.60E-03 3.12E-08 8.19E-05 0.00E+00 0.00E+00 5.640E-02
1.650E-04 2.81E-02 5.93E-03 1.47E-04 9.87E-03 9.40E-03 6.26E-08 3.62E-03 3.21E-08 8.36E-05 0.00E+00 0.00E+00 5.712E-02
1.250E-04 3.70E-02 1.65E-02 1.34E-04 2.83E-02 1.45E-02 1.85E-07 4.60E-03 9.77E-08 1.83E-04 0.00E+00 0.00E+00 1.013E-01
1.235E-04 3.75E-02 1.73E-02 1.33E-04 2.96E-02 1.47E-02 1.94E-07 4.64E-03 1.03E-07 1.90E-04 0.00E+00 0.00E+00 1.041E-01
1.130E-04 4.19E-02 2.33E-02 1.39E-04 4.05E-02 1.69E-02 2.75E-07 5.05E-03 1.46E-07 2.44E-04 0.00E+00 0.00E+00 1.281E-01
1.000E-04 4.98E-02 3.44E-02 1.55E-04 6.10E-02 2.07E-02 4.43E-07 5.66E-03 2.39E-07 3.41E-04 0.00E+00 0.00E+00 1.721E-01
9.500E-05 5.41E-02 4.01E-02 1.57E-04 7.19E-02 2.25E-02 5.41E-07 5.94E-03 2.93E-07 3.91E-04 0.00E+00 0.00E+00 1.950E-01
9.300E-05 5.59E-02 4.26E-02 1.60E-04 7.70E-02 2.32E-02 5.88E-07 6.06E-03 3.19E-07 4.14E-04 0.00E+00 0.00E+00 2.053E-01
9.200E-05 5.69E-02 4.39E-02 1.63E-04 7.97E-02 2.36E-02 6.13E-07 6.12E-03 3.33E-07 4.26E-04 0.00E+00 0.00E+00 2.108E-01
9.100E-05 5.78E-02 4.53E-02 1.65E-04 8.25E-02 2.41E-02 6.40E-07 6.19E-03 3.48E-07 4.38E-04 0.00E+00 0.00E+00 2.164E-01
9.000E-05 5.88E-02 4.67E-02 1.68E-04 8.54E-02 2.45E-02 6.68E-07 6.25E-03 3.64E-07 4.51E-04 0.00E+00 0.00E+00 2.222E-01
8.900E-05 5.98E-02 4.81E-02 1.71E-04 8.85E-02 2.49E-02 6.98E-07 6.32E-03 3.80E-07 4.64E-04 0.00E+00 0.00E+00 2.283E-01
8.800E-05 6.08E-02 4.97E-02 1.74E-04 9.17E-02 2.54E-02 7.29E-07 6.39E-03 3.98E-07 4.78E-04 0.00E+00 0.00E+00 2.346E-01
8.700E-05 6.19E-02 5.12E-02 1.78E-04 9.50E-02 2.59E-02 7.62E-07 6.46E-03 4.17E-07 4.92E-04 0.00E+00 0.00E+00 2.411E-01
8.600E-05 6.29E-02 5.29E-02 1.80E-04 9.86E-02 2.63E-02 7.97E-07 6.53E-03 4.36E-07 5.07E-04 0.00E+00 0.00E+00 2.479E-01
8.500E-05 6.40E-02 5.46E-02 1.83E-04 1.02E-01 2.68E-02 8.34E-07 6.60E-03 4.57E-07 5.23E-04 0.00E+00 0.00E+00 2.550E-01
8.400E-05 6.51E-02 5.64E-02 1.86E-04 1.06E-01 2.73E-02 8.73E-07 6.67E-03 4.79E-07 5.39E-04 0.00E+00 0.00E+00 2.624E-01
8.330E-05 6.60E-02 5.77E-02 1.89E-04 1.09E-01 2.77E-02 9.02E-07 6.73E-03 4.96E-07 5.50E-04 0.00E+00 0.00E+00 2.678E-01
8.200E-05 6.76E-02 6.02E-02 1.92E-04 1.14E-01 2.84E-02 9.58E-07 6.83E-03 5.28E-07 5.73E-04 0.00E+00 0.00E+00 2.782E-01
8.100E-05 6.88E-02 6.22E-02 1.97E-04 1.19E-01 2.89E-02 1.00E-06 6.91E-03 5.55E-07 5.90E-04 0.00E+00 0.00E+00 2.867E-01
8.000E-05 7.02E-02 6.43E-02 1.99E-04 1.24E-01 2.95E-02 1.05E-06 6.99E-03 5.83E-07 6.09E-04 0.00E+00 0.00E+00 2.955E-01
7.900E-05 7.17E-02 6.65E-02 2.04E-04 1.29E-01 3.01E-02 1.11E-06 7.07E-03 6.13E-07 6.29E-04 0.00E+00 0.00E+00 3.048E-01
7.800E-05 7.32E-02 6.87E-02 2.10E-04 1.34E-01 3.07E-02 1.16E-06 7.16E-03 6.45E-07 6.49E-04 0.00E+00 0.00E+00 3.144E-01
7.700E-05 7.48E-02 7.10E-02 2.14E-04 1.39E-01 3.13E-02 1.22E-06 7.24E-03 6.80E-07 6.70E-04 0.00E+00 0.00E+00 3.245E-01
7.600E-05 7.65E-02 7.33E-02 2.23E-04 1.45E-01 3.19E-02 1.29E-06 7.33E-03 7.16E-07 6.92E-04 0.00E+00 0.00E+00 3.350E-01
7.500E-05 7.82E-02 7.56E-02 2.29E-04 1.51E-01 3.26E-02 1.35E-06 7.42E-03 7.55E-07 7.15E-04 0.00E+00 0.00E+00 3.459E-01
7.400E-05 8.00E-02 7.80E-02 2.40E-04 1.57E-01 3.33E-02 1.43E-06 7.52E-03 7.97E-07 7.38E-04 0.00E+00 0.00E+00 3.572E-01
7.300E-05 8.19E-02 8.04E-02 2.50E-04 1.64E-01 3.40E-02 1.50E-06 7.61E-03 8.42E-07 7.63E-04 0.00E+00 0.00E+00 3.689E-01
7.140E-05 8.51E-02 8.43E-02 2.58E-04 1.75E-01 3.51E-02 1.64E-06 7.77E-03 9.20E-07 8.05E-04 0.00E+00 0.00E+00 3.886E-01
7.100E-05 8.59E-02 8.53E-02 2.58E-04 1.78E-01 3.54E-02 1.67E-06 7.81E-03 9.41E-07 8.16E-04 0.00E+00 0.00E+00 3.937E-01
7.000E-05 8.79E-02 8.78E-02 2.67E-04 1.86E-01 3.61E-02 1.77E-06 7.92E-03 9.97E-07 8.45E-04 0.00E+00 0.00E+00 4.068E-01
6.900E-05 9.00E-02 9.03E-02 2.80E-04 1.94E-01 3.69E-02 1.87E-06 8.03E-03 1.06E-06 8.74E-04 0.00E+00 0.00E+00 4.204E-01
6.800E-05 9.21E-02 9.29E-02 2.90E-04 2.02E-01 3.77E-02 1.98E-06 8.14E-03 1.12E-06 9.05E-04 0.00E+00 0.00E+00 4.345E-01
6.700E-05 9.43E-02 9.55E-02 3.01E-04 2.11E-01 3.86E-02 2.09E-06 8.25E-03 1.19E-06 9.38E-04 0.00E+00 0.00E+00 4.491E-01
6.600E-05 9.66E-02 9.81E-02 3.16E-04 2.20E-01 3.94E-02 2.22E-06 8.37E-03 1.26E-06 9.72E-04 0.00E+00 0.00E+00 4.642E-01
6.500E-05 9.90E-02 1.01E-01 3.23E-04 2.30E-01 4.04E-02 2.36E-06 8.49E-03 1.34E-06 1.01E-03 0.00E+00 0.00E+00 4.800E-01
6.400E-05 1.01E-01 1.03E-01 3.30E-04 2.40E-01 4.13E-02 2.50E-06 8.62E-03 1.43E-06 1.05E-03 0.00E+00 0.00E+00 4.963E-01
6.300E-05 1.04E-01 1.06E-01 3.42E-04 2.51E-01 4.23E-02 2.66E-06 8.75E-03 1.52E-06 1.09E-03 0.00E+00 0.00E+00 5.132E-01
6.250E-05 1.05E-01 1.08E-01 3.45E-04 2.56E-01 4.28E-02 2.75E-06 8.81E-03 1.57E-06 1.11E-03 0.00E+00 0.00E+00 5.219E-01
6.200E-05 1.07E-01 1.09E-01 3.55E-04 2.62E-01 4.33E-02 2.84E-06 8.88E-03 1.62E-06 1.13E-03 0.00E+00 0.00E+00 5.308E-01
6.100E-05 1.09E-01 1.12E-01 3.73E-04 2.73E-01 4.44E-02 3.02E-06 9.02E-03 1.73E-06 1.17E-03 0.00E+00 0.00E+00 5.490E-01
6.000E-05 1.12E-01 1.14E-01 3.89E-04 2.85E-01 4.55E-02 3.23E-06 9.16E-03 1.85E-06 1.22E-03 0.00E+00 0.00E+00 5.677E-01
5.900E-05 1.15E-01 1.17E-01 4.06E-04 2.97E-01 4.66E-02 3.45E-06 9.31E-03 1.98E-06 1.27E-03 0.00E+00 0.00E+00 5.871E-01
5.800E-05 1.19E-01 1.19E-01 4.23E-04 3.10E-01 4.78E-02 3.69E-06 9.46E-03 2.13E-06 1.32E-03 0.00E+00 0.00E+00 6.071E-01
5.700E-05 1.22E-01 1.22E-01 4.45E-04 3.24E-01 4.90E-02 3.95E-06 9.62E-03 2.28E-06 1.37E-03 0.00E+00 0.00E+00 6.277E-01
5.600E-05 1.25E-01 1.24E-01 4.67E-04 3.38E-01 5.02E-02 4.23E-06 9.79E-03 2.45E-06 1.43E-03 0.00E+00 0.00E+00 6.488E-01
5.500E-05 1.29E-01 1.26E-01 4.89E-04 3.52E-01 5.15E-02 4.54E-06 9.96E-03 2.63E-06 1.50E-03 0.00E+00 0.00E+00 6.705E-01
5.477E-05 1.30E-01 1.27E-01 4.92E-04 3.55E-01 5.19E-02 4.62E-06 1.00E-02 2.68E-06 2.01E-03 0.00E+00 0.00E+00 6.761E-01
5.400E-05 1.33E-01 1.28E-01 5.10E-04 3.67E-01 5.31E-02 4.89E-06 1.01E-02 2.84E-06 2.09E-03 0.00E+00 0.00E+00 6.935E-01
5.300E-05 1.36E-01 1.30E-01 5.33E-04 3.83E-01 5.47E-02 5.27E-06 1.03E-02 3.06E-06 2.20E-03 0.00E+00 0.00E+00 7.168E-01
5.200E-05 1.40E-01 1.32E-01 5.66E-04 3.99E-01 5.63E-02 5.69E-06 1.05E-02 3.31E-06 2.32E-03 0.00E+00 0.00E+00 7.407E-01
5.100E-05 1.44E-01 1.33E-01 5.99E-04 4.16E-01 5.81E-02 6.16E-06 1.07E-02 3.58E-06 2.45E-03 0.00E+00 0.00E+00 7.653E-01
5.000E-05 1.48E-01 1.35E-01 6.33E-04 4.34E-01 5.99E-02 6.67E-06 1.09E-02 3.88E-06 2.59E-03 0.00E+00 0.00E+00 7.907E-01
4.900E-05 1.52E-01 1.36E-01 6.67E-04 4.53E-01 6.17E-02 7.24E-06 1.11E-02 4.21E-06 2.75E-03 0.00E+00 0.00E+00 8.168E-01
4.880E-05 1.53E-01 1.36E-01 6.73E-04 4.57E-01 6.21E-02 7.36E-06 1.11E-02 4.28E-06 2.78E-03 0.00E+00 0.00E+00 8.222E-01
4.800E-05 1.56E-01 1.37E-01 7.05E-04 4.72E-01 6.40E-02 7.87E-06 1.13E-02 4.58E-06 2.92E-03 0.00E+00 0.00E+00 8.441E-01
4.760E-05 1.57E-01 1.38E-01 7.23E-04 4.80E-01 6.50E-02 8.14E-06 1.14E-02 4.74E-06 3.00E-03 0.00E+00 0.00E+00 8.554E-01
4.700E-05 1.60E-01 1.38E-01 7.49E-04 4.93E-01 6.65E-02 8.58E-06 1.15E-02 4.99E-06 3.11E-03 0.00E+00 0.00E+00 8.725E-01
4.650E-05 1.61E-01 1.39E-01 7.70E-04 5.03E-01 6.78E-02 8.96E-06 1.17E-02 5.22E-06 3.22E-03 0.00E+00 0.00E+00 8.870E-01
4.600E-05 1.63E-01 1.39E-01 8.00E-04 5.14E-01 6.91E-02 9.37E-06 1.18E-02 5.45E-06 3.33E-03 0.00E+00 0.00E+00 9.018E-01
4.550E-05 1.65E-01 1.40E-01 8.35E-04 5.25E-01 7.05E-02 9.80E-06 1.19E-02 5.70E-06 3.44E-03 0.00E+00 0.00E+00 9.168E-01
4.500E-05 1.67E-01 1.40E-01 8.70E-04 5.37E-01 7.19E-02 1.03E-05 1.20E-02 5.96E-06 3.56E-03 0.00E+00 0.00E+00 9.321E-01
4.440E-05 1.69E-01 1.40E-01 9.23E-04 5.50E-01 7.36E-02 1.08E-05 1.22E-02 6.30E-06 3.72E-03 0.00E+00 0.00E+00 9.506E-01
4.350E-05 1.73E-01 1.41E-01 1.01E-03 5.72E-01 7.64E-02 1.18E-05 1.24E-02 6.85E-06 3.98E-03 0.00E+00 0.00E+00 9.790E-01
4.170E-05 1.79E-01 1.42E-01 1.23E-03 6.16E-01 8.29E-02 1.40E-05 1.29E-02 8.15E-06 4.59E-03 0.00E+00 0.00E+00 1.038E+00
4.000E-05 1.85E-01 1.43E-01 1.62E-03 6.59E-01 8.97E-02 1.67E-05 1.34E-02 9.68E-06 5.32E-03 0.00E+00 0.00E+00 1.097E+00
3.850E-05 1.90E-01 1.43E-01 2.15E-03 6.99E-01 9.60E-02 1.95E-05 1.39E-02 1.13E-05 6.15E-03 0.00E+00 0.00E+00 1.150E+00
3.656E-05 1.96E-01 1.43E-01 3.16E-03 7.53E-01 1.05E-01 2.43E-05 1.45E-02 1.41E-05 7.57E-03 0.00E+00 0.00E+00 1.223E+00
3.570E-05 1.99E-01 1.43E-01 3.69E-03 7.77E-01 1.09E-01 2.70E-05 1.48E-02 1.55E-05 8.39E-03 0.00E+00 0.00E+00 1.255E+00
3.330E-05 2.05E-01 1.43E-01 5.54E-03 8.46E-01 1.24E-01 3.69E-05 1.58E-02 2.08E-05 1.17E-02 0.00E+00 0.00E+00 1.351E+00
3.130E-05 2.10E-01 1.42E-01 7.35E-03 9.01E-01 1.43E-01 4.98E-05 1.66E-02 2.71E-05 1.64E-02 0.00E+00 0.00E+00 1.436E+00
3.000E-05 2.13E-01 1.42E-01 8.81E-03 9.34E-01 1.60E-01 6.17E-05 1.72E-02 3.25E-05 2.14E-02 0.00E+00 0.00E+00 1.496E+00
2.940E-05 2.14E-01 1.42E-01 9.54E-03 9.49E-01 1.68E-01 6.85E-05 1.74E-02 3.54E-05 2.47E-02 0.00E+00 0.00E+00 1.524E+00
2.780E-05 2.17E-01 1.41E-01 1.17E-02 9.84E-01 1.97E-01 9.40E-05 1.82E-02 4.53E-05 3.85E-02 0.00E+00 0.00E+00 1.607E+00
2.630E-05 2.18E-01 1.40E-01 1.38E-02 1.01E+00 2.41E-01 1.34E-04 1.89E-02 5.79E-05 6.71E-02 0.00E+00 0.00E+00 1.709E+00
2.500E-05 2.19E-01 1.40E-01 1.64E-02 1.02E+00 3.00E-01 1.95E-04 1.95E-02 7.27E-05 1.28E-01 0.00E+00 0.00E+00 1.849E+00
2.380E-05 2.20E-01 1.40E-01 1.96E-02 1.03E+00 4.14E-01 2.97E-04 1.96E-02 9.13E-05 2.71E-01 0.00E+00 0.00E+00 2.116E+00
2.270E-05 2.21E-01 1.40E-01 2.40E-02 1.03E+00 5.98E-01 4.35E-04 2.04E-02 1.15E-04 4.18E-01 0.00E+00 0.00E+00 2.452E+00
2.170E-05 2.20E-01 1.39E-01 3.00E-02 1.03E+00 8.09E-01 5.65E-04 2.29E-02 1.43E-04 2.80E-01 0.00E+00 0.00E+00 2.530E+00
2.080E-05 2.20E-01 1.39E-01 4.09E-02 1.02E+00 8.38E-01 5.25E-04 2.86E-02 1.78E-04 1.48E-01 0.00E+00 0.00E+00 2.440E+00
2.000E-05 2.20E-01 1.39E-01 1.46E-01 9.32E-01 7.26E-01 4.11E-04 3.64E-02 2.18E-04 8.75E-02 0.00E+00 0.00E+00 2.287E+00
1.920E-05 2.19E-01 1.40E-01 2.77E-01 8.17E-01 5.64E-01 2.82E-04 5.00E-02 2.71E-04 5.63E-02 0.00E+00 0.00E+00 2.123E+00
1.850E-05 2.19E-01 1.41E-01 3.55E-01 7.52E-01 4.42E-01 2.00E-04 6.71E-02 3.32E-04 4.09E-02 0.00E+00 0.00E+00 2.019E+00
1.790E-05 2.20E-01 1.43E-01 4.45E-01 6.65E-01 3.59E-01 1.53E-04 8.55E-02 3.98E-04 3.25E-02 0.00E+00 0.00E+00 1.951E+00
1.720E-05 2.20E-01 1.44E-01 5.06E-01 6.05E-01 2.88E-01 1.21E-04 1.19E-01 4.99E-04 2.61E-02 0.00E+00 0.00E+00 1.909E+00
1.670E-05 2.21E-01 1.45E-01 5.32E-01 5.79E-01 2.47E-01 1.10E-04 1.50E-01 5.90E-04 2.30E-02 0.00E+00 0.00E+00 1.897E+00
1.610E-05 2.22E-01 1.46E-01 5.54E-01 5.56E-01 2.08E-01 1.12E-04 2.04E-01 7.28E-04 2.06E-02 0.00E+00 0.00E+00 1.912E+00
1.560E-05 2.22E-01 1.47E-01 5.67E-01 5.42E-01 1.83E-01 1.27E-04 2.66E-01 8.71E-04 1.93E-02 0.00E+00 0.00E+00 1.948E+00
1.520E-05 2.23E-01 1.48E-01 5.75E-01 5.33E-01 1.66E-01 1.47E-04 3.33E-01 1.00E-03 1.87E-02 0.00E+00 0.00E+00 1.997E+00
1.470E-05 2.23E-01 1.49E-01 5.81E-01 5.23E-01 1.47E-01 1.86E-04 4.29E-01 1.19E-03 1.86E-02 0.00E+00 0.00E+00 2.072E+00
1.430E-05 2.23E-01 1.49E-01 5.84E-01 5.16E-01 1.38E-01 2.32E-04 5.11E-01 1.33E-03 1.89E-02 0.00E+00 0.00E+00 2.142E+00
1.390E-05 2.23E-01 1.49E-01 5.85E-01 5.10E-01 1.34E-01 2.95E-04 5.75E-01 1.47E-03 1.96E-02 0.00E+00 0.00E+00 2.198E+00
1.350E-05 2.22E-01 1.49E-01 5.85E-01 5.04E-01 1.34E-01 3.79E-04 6.35E-01 1.65E-03 2.08E-02 0.00E+00 0.00E+00 2.253E+00
1.320E-05 2.22E-01 1.50E-01 5.85E-01 4.99E-01 1.37E-01 4.60E-04 6.82E-01 1.80E-03 2.21E-02 0.00E+00 0.00E+00 2.299E+00
1.280E-05 2.22E-01 1.50E-01 5.84E-01 4.94E-01 1.46E-01 6.03E-04 7.51E-01 2.05E-03 2.45E-02 0.00E+00 0.00E+00 2.373E+00
1.250E-05 2.21E-01 1.50E-01 5.82E-01 4.93E-01 1.58E-01 7.44E-04 8.07E-01 2.27E-03 2.69E-02 0.00E+00 0.00E+00 2.440E+00
1.220E-05 2.21E-01 1.51E-01 5.81E-01 4.92E-01 1.76E-01 9.21E-04 8.68E-01 2.53E-03 3.00E-02 0.00E+00 0.00E+00 2.523E+00
1.190E-05 2.20E-01 1.51E-01 5.81E-01 4.96E-01 2.01E-01 1.14E-03 9.37E-01 2.84E-03 3.40E-02 0.00E+00 0.00E+00 2.624E+00
1.160E-05 2.19E-01 1.51E-01 5.82E-01 4.99E-01 2.29E-01 1.42E-03 1.01E+00 3.20E-03 3.93E-02 0.00E+00 0.00E+00 2.737E+00
1.140E-05 2.18E-01 1.50E-01 5.82E-01 5.00E-01 2.53E-01 1.68E-03 1.07E+00 3.48E-03 4.37E-02 0.00E+00 0.00E+00 2.822E+00
1.110E-05 2.17E-01 1.50E-01 5.81E-01 5.01E-01 2.89E-01 2.19E-03 1.17E+00 3.97E-03 5.20E-02 0.00E+00 0.00E+00 2.962E+00
1.080E-05 2.15E-01 1.50E-01 5.80E-01 5.02E-01 3.90E-01 2.92E-03 1.28E+00 4.58E-03 6.33E-02 0.00E+00 0.00E+00 3.188E+00
1.050E-05 2.13E-01 1.49E-01 5.79E-01 5.04E-01 5.20E-01 3.78E-03 1.42E+00 5.36E-03 7.86E-02 0.00E+00 0.00E+00 3.473E+00
1.030E-05 2.12E-01 1.49E-01 5.79E-01 5.04E-01 6.21E-01 4.33E-03 1.55E+00 5.97E-03 9.17E-02 0.00E+00 0.00E+00 3.719E+00
1.000E-05 2.10E-01 1.48E-01 5.77E-01 5.06E-01 7.61E-01 5.29E-03 1.74E+00 6.85E-03 1.16E-01 0.00E+00 0.00E+00 4.072E+00
9.750E-06 2.08E-01 1.48E-01 5.75E-01 5.07E-01 9.24E-01 6.56E-03 1.89E+00 7.63E-03 1.41E-01 0.00E+00 0.00E+00 4.411E+00
9.500E-06 2.06E-01 1.47E-01 5.73E-01 5.09E-01 1.11E+00 7.77E-03 2.06E+00 8.48E-03 1.67E-01 0.00E+00 0.00E+00 4.786E+00
9.250E-06 2.04E-01 1.46E-01 5.71E-01 5.10E-01 1.25E+00 8.68E-03 2.22E+00 9.32E-03 1.85E-01 0.00E+00 0.00E+00 5.111E+00
9.080E-06 2.02E-01 1.46E-01 5.67E-01 5.10E-01 1.34E+00 9.33E-03 2.32E+00 9.76E-03 1.90E-01 0.00E+00 0.00E+00 5.293E+00
