  ++++++++++++++++++++++++++++++++++++++++++++++++++++++++++++++++++++++++
   --> crossec_dd              START                            ++++++++++
  
 ** Reading 8 input parameters from file jsm12fit.inp
 ** Reading 2 input parameters from file jsmTaufit.inp
                 ** Rv_obs,tauV,ebv_obs=      5.53    2.19    0.43
                 ** abuc               =       58.67
                 ** abusi              =       15.00
                 ** abuvsi             =        8.21
                 ** abucvgr            =        9.10
                 ** abucpah            =       15.24
                 ** qmrn               =        2.32
                 ** alec               =    2.11E-05
                 ** alesi              =    2.45E-05
                 ** arad_polmin_aC     =    1.20E-05
                 ** arad_polmin_Si     =    8.00E-06
                 ** arad_Darkmax       =    6.75E-04
     *** 5% vaccum and Demyk+22 mix := X50A (92.2%) and E20R 2.8% per volumne
     ***     porosity of aC and SI Mix     0.05
     *** rhc, rhsi, wmolsi   1.52E+00  2.58E+00  9.52E+01
     abusi  abuc_tot    abucaC     abugr    abuvsi  abucpahs  abucpahb 
    15.000    83.012    58.666     9.102     8.215    15.244     0.000
  acmass,   Simass,   vgrmass,  vsimass,  pahmasss, pahmassb : only MRN dust 
  1.99E-01  4.05E-01  3.09E-02  3.13E-01  5.18E-02  0.00E+00
     ***     open:   d.QSi_X922E028V005_idg60 
     ***     open:   d.QellipaC
     ***     open:   d.QellipDark
 0  2.0  X92E3V5   2  1.0                                                       
 0  2.0  ACH2_zub  2 10.000                                                     
 0  1.0  Si50C30V  0    0                                                       
  
  Relative volume in Dark dust  :
       aC        Si        Eis       Vac       total
       0.30      0.50      0.00      0.20      1.00
     Density of porous Dark dust =    1.75
       Radii aC  :    6.00E-07  2.11E-05    1   74
       Radii Si  :    6.00E-07  2.45E-05    1   77
       Radii Dark :   2.45E-05  6.75E-04   77  145
# graphiteDraine2003 nw =          283 nr =            5                        
# asil_D03 nw =          283 nr =            5                                  
 ***   P A H              ***
       small PAH: zcpah, zhpah
                   30.0   12.0
   Change 2175AA PAH bump using ./Input/PAH2170.wq
   wel(ir_res(18)), x2170, gam2170,  gam_res(18) 
    0.2170     4.61     1.91  1.800E+15     old : as in data statement    
    0.2165     4.62     1.80  3.399E+15     used: as in ./Input/PAH2170.wq
   ***  Amount of dust : N_large+vsg, N_dark, ratio Nd/Nl =    2.785E-04   4.670E-05   5.965E+00
 Obs   (Reddening paper): tauV,     Ebv_obs, Rv_obs        =    2.19    0.43    5.53
 Model (Dgaia)          : tauV_mod, Ebv_mod, Rv_mod        =    2.19    0.43    5.53
                              
  ++++++++++++++++++++++++++++++++++++++++++++++++++++++++++++++++++++++++++++++
  +++ Dark dust model (Siebennmorgen 2023 A&A, 670A, 115                     +++
  +++ Amount of dark dust: Eq.2,3 in SC 2023 doi: 10.48550/arXiv.2311.03310) +++
  --> crossec_dd              DONE                                    ++++++++++
