 # Optical depth (Siebenmorgen 2023, A&A 670A,115; SC 2023 doi: 10.48550/arXiv.2311.03310)
 # wel(cm) sa_aC    ss_aC    sa_Si    ss_Si    sa_vgr   ss_vgr   sa_vsi   ss_vsi   s_pahS+B sa_Dark  ss_Dark sigt 
 # ------------------------------------------------------------------------------------------------------------- 
1.000E+00 2.08E-07 8.68E-17 3.90E-07 6.14E-17 1.21E-08 1.15E-22 1.95E-07 3.31E-22 3.25E-11 1.00E-05 2.25E-11 1.082E-05
9.000E-01 2.44E-07 1.32E-16 4.60E-07 9.35E-17 1.55E-08 1.76E-22 2.32E-07 5.05E-22 4.01E-11 1.17E-05 3.42E-11 1.262E-05
8.000E-01 2.91E-07 2.12E-16 5.54E-07 1.50E-16 2.02E-08 2.81E-22 2.82E-07 8.08E-22 5.07E-11 1.38E-05 5.48E-11 1.499E-05
7.000E-01 3.57E-07 3.61E-16 6.85E-07 2.56E-16 2.71E-08 4.80E-22 3.47E-07 1.38E-21 6.62E-11 1.68E-05 9.33E-11 1.823E-05
6.000E-01 4.52E-07 6.69E-16 8.75E-07 4.73E-16 3.76E-08 8.90E-22 4.47E-07 2.55E-21 9.02E-11 2.11E-05 1.73E-10 2.288E-05
5.500E-01 5.16E-07 9.47E-16 1.01E-06 6.71E-16 4.50E-08 1.26E-21 5.15E-07 3.61E-21 1.07E-10 2.40E-05 2.44E-10 2.604E-05
5.000E-01 5.98E-07 1.39E-15 1.17E-06 9.82E-16 5.45E-08 1.84E-21 5.97E-07 5.29E-21 1.30E-10 2.76E-05 3.57E-10 2.998E-05
4.500E-01 7.05E-07 2.11E-15 1.39E-06 1.50E-15 6.71E-08 2.81E-21 7.12E-07 8.06E-21 1.60E-10 3.22E-05 5.44E-10 3.510E-05
4.000E-01 8.47E-07 3.38E-15 1.67E-06 2.40E-15 8.41E-08 4.50E-21 8.55E-07 1.29E-20 2.03E-10 3.84E-05 8.71E-10 4.186E-05
3.500E-01 1.05E-06 5.77E-15 2.08E-06 4.09E-15 1.08E-07 7.68E-21 1.07E-06 2.20E-20 2.65E-10 4.69E-05 1.48E-09 5.123E-05
3.000E-01 1.34E-06 1.07E-14 2.66E-06 7.58E-15 1.42E-07 1.42E-20 1.36E-06 4.08E-20 3.61E-10 5.92E-05 2.74E-09 6.467E-05
2.500E-01 1.79E-06 2.21E-14 3.58E-06 1.57E-14 1.94E-07 2.95E-20 1.82E-06 8.45E-20 5.19E-10 7.81E-05 5.68E-09 8.548E-05
2.098E-01 2.38E-06 4.46E-14 4.76E-06 3.17E-14 2.57E-07 5.95E-20 2.43E-06 1.70E-19 7.37E-10 1.02E-04 1.14E-08 1.120E-04
1.500E-01 4.13E-06 1.70E-13 8.23E-06 1.21E-13 4.91E-07 2.28E-19 4.15E-06 6.51E-19 1.44E-09 1.72E-04 4.35E-08 1.895E-04
1.382E-01 4.74E-06 2.37E-13 9.41E-06 1.68E-13 5.79E-07 3.16E-19 4.76E-06 9.03E-19 1.70E-09 1.96E-04 6.03E-08 2.159E-04
1.320E-01 5.12E-06 2.84E-13 1.02E-05 2.02E-13 6.34E-07 3.80E-19 5.13E-06 1.08E-18 1.86E-09 2.11E-04 7.24E-08 2.323E-04
1.150E-01 6.47E-06 4.93E-13 1.27E-05 3.51E-13 8.31E-07 6.59E-19 6.40E-06 1.88E-18 2.45E-09 2.63E-04 1.25E-07 2.899E-04
1.000E-01 8.23E-06 8.62E-13 1.60E-05 6.14E-13 1.09E-06 1.15E-18 8.00E-06 3.29E-18 3.25E-09 3.30E-04 2.19E-07 3.639E-04
9.970E-02 8.28E-06 8.72E-13 1.61E-05 6.21E-13 1.10E-06 1.17E-18 8.04E-06 3.33E-18 3.27E-09 3.32E-04 2.22E-07 3.658E-04
8.670E-02 1.04E-05 1.53E-12 2.03E-05 1.09E-12 1.45E-06 2.04E-18 1.01E-05 5.82E-18 4.32E-09 4.14E-04 3.87E-07 4.568E-04
8.500E-02 1.08E-05 1.65E-12 2.10E-05 1.18E-12 1.51E-06 2.21E-18 1.04E-05 6.30E-18 4.49E-09 4.29E-04 4.19E-07 4.727E-04
7.500E-02 1.37E-05 2.72E-12 2.58E-05 1.94E-12 1.92E-06 3.64E-18 1.27E-05 1.04E-17 5.77E-09 5.37E-04 6.90E-07 5.919E-04
6.000E-02 2.02E-05 6.65E-12 3.73E-05 4.77E-12 2.95E-06 8.89E-18 1.84E-05 2.54E-17 9.02E-09 7.70E-04 1.68E-06 8.502E-04
5.500E-02 2.34E-05 9.42E-12 4.17E-05 6.78E-12 3.47E-06 1.26E-17 2.15E-05 3.59E-17 1.07E-08 8.92E-04 2.38E-06 9.845E-04
5.000E-02 2.78E-05 1.38E-11 5.17E-05 1.00E-11 4.14E-06 1.84E-17 2.56E-05 5.27E-17 1.30E-08 1.06E-03 3.48E-06 1.175E-03
4.500E-02 3.42E-05 2.11E-11 6.84E-05 1.53E-11 5.06E-06 2.81E-17 3.13E-05 8.03E-17 1.60E-08 1.31E-03 5.31E-06 1.450E-03
4.000E-02 4.40E-05 3.38E-11 9.14E-05 2.48E-11 6.30E-06 4.50E-17 3.96E-05 1.29E-16 2.03E-08 1.65E-03 8.50E-06 1.844E-03
3.500E-02 5.51E-05 5.77E-11 1.39E-04 4.27E-11 8.08E-06 7.67E-17 5.23E-05 2.20E-16 2.65E-08 2.06E-03 1.45E-05 2.333E-03
3.000E-02 7.78E-05 1.07E-10 2.17E-04 7.95E-11 1.08E-05 1.42E-16 7.35E-05 4.08E-16 3.61E-08 2.87E-03 2.69E-05 3.275E-03
2.750E-02 9.29E-05 1.52E-10 2.73E-04 1.13E-10 1.27E-05 2.01E-16 8.98E-05 5.79E-16 4.30E-08 3.39E-03 3.80E-05 3.893E-03
2.500E-02 1.12E-04 2.23E-10 3.48E-04 1.65E-10 1.52E-05 2.95E-16 1.12E-04 8.48E-16 5.20E-08 4.10E-03 5.58E-05 4.744E-03
2.400E-02 1.23E-04 2.63E-10 3.85E-04 1.94E-10 1.64E-05 3.47E-16 1.23E-04 9.98E-16 5.64E-08 4.43E-03 6.56E-05 5.143E-03
2.000E-02 1.80E-04 5.49E-10 5.99E-04 3.96E-10 2.32E-05 7.21E-16 1.78E-04 2.07E-15 8.13E-08 6.40E-03 1.36E-04 7.519E-03
1.800E-02 2.24E-04 8.42E-10 7.43E-04 5.93E-10 2.85E-05 1.10E-15 2.21E-04 3.15E-15 1.00E-07 8.00E-03 2.09E-04 9.427E-03
1.600E-02 2.97E-04 1.36E-09 9.24E-04 9.31E-10 3.61E-05 1.77E-15 2.82E-04 5.05E-15 1.27E-07 1.03E-02 3.36E-04 1.215E-02
1.500E-02 3.54E-04 1.77E-09 1.04E-03 1.19E-09 4.11E-05 2.29E-15 3.20E-04 6.54E-15 1.45E-07 1.18E-02 4.34E-04 1.396E-02
1.400E-02 4.03E-04 2.33E-09 1.16E-03 1.55E-09 4.75E-05 3.02E-15 3.69E-04 8.63E-15 1.66E-07 1.33E-02 5.74E-04 1.591E-02
1.200E-02 6.15E-04 4.37E-09 1.48E-03 2.77E-09 6.61E-05 5.62E-15 5.06E-04 1.60E-14 2.27E-07 1.85E-02 1.06E-03 2.224E-02
1.000E-02 9.33E-04 9.18E-09 1.96E-03 5.49E-09 1.00E-04 1.17E-14 7.39E-04 3.32E-14 3.27E-07 2.67E-02 2.24E-03 3.265E-02
9.000E-03 1.24E-03 1.42E-08 2.23E-03 8.16E-09 1.28E-04 1.80E-14 9.22E-04 5.07E-14 4.05E-07 3.34E-02 3.43E-03 4.138E-02
8.000E-03 1.65E-03 2.23E-08 2.59E-03 1.29E-08 1.72E-04 2.90E-14 1.18E-03 8.13E-14 5.14E-07 4.15E-02 5.48E-03 5.254E-02
7.500E-03 1.93E-03 2.92E-08 2.87E-03 1.66E-08 2.03E-04 3.78E-14 1.36E-03 1.05E-13 5.86E-07 4.79E-02 7.16E-03 6.140E-02
7.000E-03 2.33E-03 3.82E-08 3.22E-03 2.17E-08 2.43E-04 5.01E-14 1.57E-03 1.39E-13 6.74E-07 5.50E-02 9.38E-03 7.172E-02
6.000E-03 3.34E-03 6.94E-08 4.12E-03 3.97E-08 3.75E-04 9.44E-14 2.19E-03 2.57E-13 9.24E-07 7.45E-02 1.71E-02 1.017E-01
5.000E-03 4.77E-03 1.36E-07 5.86E-03 8.08E-08 6.57E-04 2.00E-13 3.23E-03 5.30E-13 1.35E-06 1.03E-01 3.30E-02 1.509E-01
4.500E-03 5.87E-03 1.97E-07 7.16E-03 1.20E-07 9.29E-04 3.09E-13 4.03E-03 8.04E-13 1.68E-06 1.22E-01 4.53E-02 1.853E-01
4.000E-03 6.99E-03 2.93E-07 8.94E-03 1.81E-07 1.36E-03 4.92E-13 5.14E-03 1.27E-12 2.16E-06 1.41E-01 6.10E-02 2.249E-01
3.500E-03 8.44E-03 4.63E-07 1.10E-02 2.85E-07 1.89E-03 7.87E-13 6.71E-03 2.14E-12 2.91E-06 1.61E-01 7.86E-02 2.678E-01
3.000E-03 1.04E-02 7.66E-07 1.36E-02 4.58E-07 1.99E-03 1.23E-12 9.17E-03 3.92E-12 4.22E-06 1.79E-01 9.46E-02 3.087E-01
2.750E-03 1.14E-02 1.00E-06 1.49E-02 5.90E-07 1.72E-03 1.59E-12 1.10E-02 5.46E-12 5.41E-06 1.87E-01 1.01E-01 3.271E-01
2.500E-03 1.23E-02 1.34E-06 1.63E-02 7.73E-07 1.35E-03 2.18E-12 1.35E-02 7.87E-12 8.04E-06 1.95E-01 1.07E-01 3.455E-01
2.400E-03 1.28E-02 1.53E-06 1.68E-02 8.67E-07 1.21E-03 2.53E-12 1.47E-02 9.13E-12 1.05E-05 1.98E-01 1.09E-01 3.527E-01
2.350E-03 1.31E-02 1.63E-06 1.71E-02 9.20E-07 1.15E-03 2.74E-12 1.54E-02 9.86E-12 1.20E-05 2.00E-01 1.10E-01 3.564E-01
2.320E-03 1.32E-02 1.70E-06 1.74E-02 9.55E-07 1.11E-03 2.88E-12 1.58E-02 1.03E-11 1.27E-05 2.01E-01 1.10E-01 3.585E-01
2.310E-03 1.33E-02 1.72E-06 1.74E-02 9.67E-07 1.10E-03 2.93E-12 1.60E-02 1.05E-11 1.29E-05 2.01E-01 1.11E-01 3.592E-01
2.300E-03 1.33E-02 1.75E-06 1.75E-02 9.78E-07 1.09E-03 2.98E-12 1.61E-02 1.07E-11 1.31E-05 2.01E-01 1.11E-01 3.599E-01
2.250E-03 1.35E-02 1.86E-06 1.79E-02 1.04E-06 1.03E-03 3.24E-12 1.69E-02 1.16E-11 1.37E-05 2.03E-01 1.12E-01 3.637E-01
2.200E-03 1.37E-02 2.00E-06 1.83E-02 1.11E-06 9.72E-04 3.54E-12 1.79E-02 1.25E-11 1.43E-05 2.04E-01 1.12E-01 3.672E-01
2.150E-03 1.40E-02 2.15E-06 1.88E-02 1.18E-06 9.21E-04 3.88E-12 1.88E-02 1.35E-11 1.55E-05 2.05E-01 1.13E-01 3.706E-01
2.120E-03 1.42E-02 2.24E-06 1.91E-02 1.22E-06 8.93E-04 4.10E-12 1.94E-02 1.42E-11 1.61E-05 2.06E-01 1.13E-01 3.725E-01
2.110E-03 1.43E-02 2.27E-06 1.92E-02 1.23E-06 8.84E-04 4.18E-12 1.96E-02 1.44E-11 1.62E-05 2.06E-01 1.13E-01 3.731E-01
2.100E-03 1.43E-02 2.30E-06 1.93E-02 1.25E-06 8.75E-04 4.26E-12 1.98E-02 1.47E-11 1.63E-05 2.06E-01 1.13E-01 3.737E-01
2.080E-03 1.44E-02 2.36E-06 1.94E-02 1.27E-06 8.58E-04 4.43E-12 2.02E-02 1.51E-11 1.63E-05 2.07E-01 1.13E-01 3.747E-01
2.000E-03 1.46E-02 2.67E-06 2.00E-02 1.37E-06 7.95E-04 5.19E-12 2.22E-02 1.72E-11 1.60E-05 2.08E-01 1.13E-01 3.793E-01
1.950E-03 1.48E-02 2.89E-06 2.03E-02 1.42E-06 7.61E-04 5.75E-12 2.35E-02 1.82E-11 1.71E-05 2.09E-01 1.13E-01 3.804E-01
1.900E-03 1.51E-02 3.16E-06 2.04E-02 1.46E-06 7.31E-04 6.39E-12 2.45E-02 1.90E-11 2.00E-05 2.08E-01 1.12E-01 3.806E-01
1.850E-03 1.54E-02 3.45E-06 2.03E-02 1.48E-06 7.04E-04 7.12E-12 2.50E-02 1.96E-11 2.48E-05 2.07E-01 1.11E-01 3.793E-01
1.830E-03 1.56E-02 3.57E-06 2.02E-02 1.48E-06 6.94E-04 7.45E-12 2.51E-02 1.97E-11 2.65E-05 2.07E-01 1.10E-01 3.782E-01
1.820E-03 1.56E-02 3.63E-06 2.01E-02 1.48E-06 6.89E-04 7.62E-12 2.51E-02 1.97E-11 2.70E-05 2.06E-01 1.10E-01 3.776E-01
1.810E-03 1.57E-02 3.70E-06 2.00E-02 1.48E-06 6.85E-04 7.79E-12 2.50E-02 1.97E-11 2.74E-05 2.06E-01 1.10E-01 3.770E-01
1.800E-03 1.57E-02 3.77E-06 1.99E-02 1.47E-06 6.80E-04 7.97E-12 2.50E-02 1.98E-11 2.76E-05 2.05E-01 1.10E-01 3.764E-01
1.750E-03 1.61E-02 4.12E-06 1.90E-02 1.44E-06 6.60E-04 8.94E-12 2.43E-02 1.99E-11 2.84E-05 2.03E-01 1.09E-01 3.728E-01
1.700E-03 1.63E-02 4.51E-06 1.76E-02 1.38E-06 6.45E-04 1.01E-11 2.31E-02 2.00E-11 3.39E-05 2.01E-01 1.10E-01 3.687E-01
1.670E-03 1.65E-02 4.80E-06 1.65E-02 1.34E-06 6.37E-04 1.08E-11 2.23E-02 2.03E-11 3.92E-05 1.99E-01 1.12E-01 3.669E-01
1.650E-03 1.68E-02 5.01E-06 1.57E-02 1.32E-06 6.33E-04 1.14E-11 2.16E-02 2.05E-11 4.12E-05 1.98E-01 1.13E-01 3.657E-01
1.640E-03 1.69E-02 5.11E-06 1.52E-02 1.31E-06 6.31E-04 1.17E-11 2.12E-02 2.06E-11 4.12E-05 1.98E-01 1.13E-01 3.651E-01
1.630E-03 1.69E-02 5.22E-06 1.47E-02 1.30E-06 6.29E-04 1.19E-11 2.09E-02 2.08E-11 4.06E-05 1.98E-01 1.14E-01 3.644E-01
1.610E-03 1.71E-02 5.42E-06 1.37E-02 1.30E-06 6.26E-04 1.26E-11 2.02E-02 2.13E-11 3.85E-05 1.97E-01 1.15E-01 3.637E-01
1.600E-03 1.72E-02 5.53E-06 1.32E-02 1.30E-06 6.24E-04 1.29E-11 1.98E-02 2.16E-11 3.75E-05 1.96E-01 1.16E-01 3.633E-01
1.590E-03 1.73E-02 5.65E-06 1.26E-02 1.31E-06 6.23E-04 1.32E-11 1.95E-02 2.19E-11 3.68E-05 1.96E-01 1.17E-01 3.630E-01
1.580E-03 1.74E-02 5.76E-06 1.21E-02 1.33E-06 6.22E-04 1.36E-11 1.91E-02 2.23E-11 3.64E-05 1.96E-01 1.18E-01 3.629E-01
1.570E-03 1.74E-02 5.87E-06 1.15E-02 1.35E-06 6.21E-04 1.39E-11 1.88E-02 2.27E-11 3.60E-05 1.96E-01 1.19E-01 3.628E-01
1.560E-03 1.75E-02 6.01E-06 1.10E-02 1.39E-06 6.20E-04 1.43E-11 1.84E-02 2.32E-11 3.54E-05 1.95E-01 1.20E-01 3.630E-01
1.540E-03 1.78E-02 6.26E-06 1.01E-02 1.49E-06 6.19E-04 1.51E-11 1.77E-02 2.43E-11 3.49E-05 1.95E-01 1.22E-01 3.635E-01
1.520E-03 1.79E-02 6.50E-06 9.40E-03 1.64E-06 6.18E-04 1.59E-11 1.71E-02 2.56E-11 3.67E-05 1.95E-01 1.25E-01 3.645E-01
1.510E-03 1.80E-02 6.62E-06 9.14E-03 1.72E-06 6.18E-04 1.63E-11 1.68E-02 2.63E-11 3.77E-05 1.95E-01 1.26E-01 3.652E-01
1.500E-03 1.80E-02 6.75E-06 8.93E-03 1.82E-06 6.18E-04 1.68E-11 1.65E-02 2.72E-11 3.80E-05 1.94E-01 1.28E-01 3.661E-01
1.450E-03 1.83E-02 7.54E-06 8.51E-03 2.36E-06 6.22E-04 1.92E-11 1.52E-02 3.29E-11 4.69E-05 1.95E-01 1.36E-01 3.742E-01
1.440E-03 1.84E-02 7.71E-06 8.51E-03 2.47E-06 6.23E-04 1.98E-11 1.50E-02 3.43E-11 5.12E-05 1.96E-01 1.38E-01 3.762E-01
1.430E-03 1.85E-02 7.88E-06 8.50E-03 2.59E-06 6.25E-04 2.04E-11 1.49E-02 3.62E-11 5.49E-05 1.96E-01 1.40E-01 3.787E-01
1.420E-03 1.86E-02 8.07E-06 8.49E-03 2.72E-06 6.26E-04 2.09E-11 1.48E-02 3.80E-11 5.68E-05 1.97E-01 1.41E-01 3.811E-01
1.400E-03 1.88E-02 8.46E-06 8.50E-03 2.98E-06 6.30E-04 2.22E-11 1.50E-02 4.23E-11 6.16E-05 1.99E-01 1.45E-01 3.863E-01
1.380E-03 1.90E-02 8.86E-06 8.50E-03 3.26E-06 6.34E-04 2.35E-11 1.54E-02 4.73E-11 7.60E-05 2.01E-01 1.47E-01 3.916E-01
1.370E-03 1.91E-02 9.07E-06 8.52E-03 3.41E-06 6.37E-04 2.42E-11 1.58E-02 5.00E-11 8.90E-05 2.02E-01 1.48E-01 3.942E-01
1.360E-03 1.92E-02 9.30E-06 8.53E-03 3.57E-06 6.39E-04 2.50E-11 1.63E-02 5.28E-11 1.02E-04 2.03E-01 1.49E-01 3.968E-01
1.350E-03 1.93E-02 9.54E-06 8.56E-03 3.75E-06 6.42E-04 2.57E-11 1.67E-02 5.57E-11 1.09E-04 2.04E-01 1.50E-01 3.993E-01
1.340E-03 1.95E-02 9.77E-06 8.59E-03 3.93E-06 6.45E-04 2.65E-11 1.73E-02 5.86E-11 1.17E-04 2.05E-01 1.50E-01 4.015E-01
1.330E-03 1.96E-02 1.00E-05 8.64E-03 4.12E-06 6.48E-04 2.73E-11 1.79E-02 6.16E-11 1.35E-04 2.06E-01 1.50E-01 4.037E-01
1.320E-03 1.97E-02 1.02E-05 8.70E-03 4.33E-06 6.52E-04 2.82E-11 1.85E-02 6.48E-11 1.64E-04 2.07E-01 1.51E-01 4.059E-01
1.310E-03 1.98E-02 1.05E-05 8.77E-03 4.55E-06 6.55E-04 2.91E-11 1.92E-02 6.80E-11 2.13E-04 2.08E-01 1.51E-01 4.079E-01
1.290E-03 1.99E-02 1.09E-05 8.98E-03 5.03E-06 6.63E-04 3.09E-11 2.06E-02 7.50E-11 4.29E-04 2.10E-01 1.52E-01 4.121E-01
1.280E-03 1.99E-02 1.12E-05 9.10E-03 5.28E-06 6.68E-04 3.19E-11 2.15E-02 7.87E-11 6.26E-04 2.11E-01 1.52E-01 4.143E-01
1.270E-03 2.00E-02 1.15E-05 9.16E-03 5.57E-06 6.72E-04 3.29E-11 2.23E-02 8.26E-11 7.55E-04 2.12E-01 1.52E-01 4.165E-01
1.260E-03 2.01E-02 1.18E-05 9.29E-03 5.90E-06 6.77E-04 3.40E-11 2.33E-02 8.65E-11 6.53E-04 2.12E-01 1.52E-01 4.183E-01
1.250E-03 2.02E-02 1.21E-05 9.48E-03 6.26E-06 6.81E-04 3.51E-11 2.42E-02 9.05E-11 4.84E-04 2.13E-01 1.52E-01 4.200E-01
1.220E-03 2.06E-02 1.32E-05 1.08E-02 7.74E-06 6.96E-04 3.88E-11 2.71E-02 1.04E-10 3.81E-04 2.15E-01 1.52E-01 4.266E-01
1.210E-03 2.07E-02 1.35E-05 1.18E-02 8.33E-06 7.01E-04 4.01E-11 2.83E-02 1.09E-10 4.37E-04 2.16E-01 1.52E-01 4.293E-01
1.200E-03 2.07E-02 1.39E-05 1.30E-02 8.90E-06 7.06E-04 4.15E-11 2.95E-02 1.14E-10 4.82E-04 2.16E-01 1.51E-01 4.323E-01
1.190E-03 2.09E-02 1.43E-05 1.43E-02 9.41E-06 7.11E-04 4.29E-11 3.08E-02 1.19E-10 4.82E-04 2.17E-01 1.51E-01 4.356E-01
1.180E-03 2.11E-02 1.47E-05 1.57E-02 9.85E-06 7.17E-04 4.44E-11 3.21E-02 1.24E-10 4.79E-04 2.18E-01 1.51E-01 4.384E-01
1.170E-03 2.12E-02 1.51E-05 1.69E-02 1.02E-05 7.22E-04 4.61E-11 3.35E-02 1.29E-10 5.31E-04 2.18E-01 1.50E-01 4.412E-01
1.160E-03 2.14E-02 1.55E-05 1.80E-02 1.05E-05 7.32E-04 4.80E-11 3.48E-02 1.34E-10 6.82E-04 2.18E-01 1.50E-01 4.439E-01
1.150E-03 2.15E-02 1.59E-05 1.90E-02 1.08E-05 1.03E-03 4.74E-11 3.61E-02 1.40E-10 9.89E-04 2.19E-01 1.50E-01 4.467E-01
1.140E-03 2.15E-02 1.63E-05 1.99E-02 1.10E-05 7.63E-04 5.05E-11 3.75E-02 1.46E-10 1.48E-03 2.19E-01 1.49E-01 4.492E-01
1.130E-03 2.16E-02 1.67E-05 2.06E-02 1.13E-05 7.62E-04 5.25E-11 3.90E-02 1.53E-10 1.81E-03 2.19E-01 1.49E-01 4.519E-01
1.120E-03 2.17E-02 1.72E-05 2.13E-02 1.15E-05 7.67E-04 5.45E-11 4.06E-02 1.59E-10 1.46E-03 2.20E-01 1.48E-01 4.538E-01
1.110E-03 2.17E-02 1.77E-05 2.20E-02 1.18E-05 7.73E-04 5.65E-11 4.24E-02 1.66E-10 9.31E-04 2.20E-01 1.48E-01 4.555E-01
1.090E-03 2.19E-02 1.88E-05 2.34E-02 1.23E-05 7.89E-04 6.09E-11 4.60E-02 1.81E-10 3.95E-04 2.20E-01 1.47E-01 4.593E-01
1.050E-03 2.23E-02 2.14E-05 2.58E-02 1.33E-05 8.26E-04 7.08E-11 5.56E-02 2.15E-10 1.40E-04 2.21E-01 1.43E-01 4.682E-01
1.000E-03 2.32E-02 2.52E-05 2.82E-02 1.41E-05 8.81E-04 8.61E-11 6.43E-02 2.30E-10 7.92E-05 2.17E-01 1.35E-01 4.692E-01
9.800E-04 2.35E-02 2.71E-05 2.87E-02 1.40E-05 9.06E-04 9.34E-11 6.75E-02 2.37E-10 7.14E-05 2.16E-01 1.32E-01 4.688E-01
9.600E-04 2.39E-02 2.90E-05 2.86E-02 1.37E-05 9.32E-04 1.01E-10 7.06E-02 2.38E-10 6.80E-05 2.14E-01 1.28E-01 4.658E-01
9.500E-04 2.42E-02 3.00E-05 2.82E-02 1.34E-05 9.46E-04 1.06E-10 7.13E-02 2.33E-10 6.76E-05 2.12E-01 1.25E-01 4.621E-01
9.400E-04 2.43E-02 3.10E-05 2.77E-02 1.32E-05 9.61E-04 1.10E-10 7.11E-02 2.23E-10 6.81E-05 2.10E-01 1.22E-01 4.561E-01
9.200E-04 2.47E-02 3.31E-05 2.64E-02 1.26E-05 9.92E-04 1.20E-10 6.62E-02 1.86E-10 7.23E-05 2.04E-01 1.15E-01 4.377E-01
8.900E-04 2.53E-02 3.70E-05 2.34E-02 1.18E-05 1.04E-03 1.37E-10 5.23E-02 1.19E-10 9.83E-05 1.95E-01 1.08E-01 4.043E-01
8.700E-04 2.55E-02 3.95E-05 2.11E-02 1.16E-05 1.08E-03 1.50E-10 4.36E-02 8.84E-11 1.97E-04 1.89E-01 1.06E-01 3.868E-01
8.600E-04 2.57E-02 4.11E-05 2.01E-02 1.16E-05 1.10E-03 1.58E-10 4.00E-02 7.80E-11 2.86E-04 1.87E-01 1.07E-01 3.808E-01
8.500E-04 2.58E-02 4.26E-05 1.89E-02 1.16E-05 1.12E-03 1.65E-10 3.69E-02 6.95E-11 2.11E-04 1.85E-01 1.07E-01 3.749E-01
8.400E-04 2.61E-02 4.45E-05 1.76E-02 1.16E-05 1.14E-03 1.73E-10 3.37E-02 6.08E-11 1.58E-04 1.82E-01 1.08E-01 3.689E-01
8.200E-04 2.64E-02 4.74E-05 1.47E-02 1.19E-05 1.19E-03 1.91E-10 2.60E-02 4.37E-11 1.61E-04 1.76E-01 1.11E-01 3.554E-01
8.000E-04 2.67E-02 5.14E-05 1.19E-02 1.31E-05 1.23E-03 2.10E-10 1.78E-02 3.37E-11 2.27E-04 1.70E-01 1.20E-01 3.477E-01
7.900E-04 2.70E-02 5.36E-05 1.08E-02 1.41E-05 1.26E-03 2.21E-10 1.49E-02 3.63E-11 2.78E-04 1.69E-01 1.27E-01 3.499E-01
7.800E-04 2.71E-02 5.55E-05 9.88E-03 1.53E-05 1.28E-03 2.33E-10 1.21E-02 4.11E-11 3.28E-04 1.67E-01 1.35E-01 3.525E-01
7.700E-04 2.72E-02 5.76E-05 9.12E-03 1.65E-05 1.31E-03 2.45E-10 9.99E-03 4.89E-11 3.51E-04 1.66E-01 1.43E-01 3.568E-01
7.600E-04 2.72E-02 6.00E-05 8.46E-03 1.79E-05 1.34E-03 2.58E-10 8.48E-03 5.97E-11 3.28E-04 1.66E-01 1.51E-01 3.622E-01
7.500E-04 2.73E-02 6.24E-05 7.88E-03 1.95E-05 1.36E-03 2.72E-10 7.12E-03 7.26E-11 2.77E-04 1.65E-01 1.59E-01 3.679E-01
7.300E-04 2.76E-02 6.84E-05 6.97E-03 2.30E-05 1.42E-03 3.03E-10 5.97E-03 1.04E-10 1.84E-04 1.67E-01 1.70E-01 3.794E-01
7.200E-04 2.77E-02 7.12E-05 6.69E-03 2.50E-05 1.45E-03 3.20E-10 5.77E-03 1.20E-10 1.59E-04 1.68E-01 1.74E-01 3.838E-01
7.100E-04 2.77E-02 7.45E-05 6.51E-03 2.71E-05 1.49E-03 3.38E-10 5.60E-03 1.38E-10 1.57E-04 1.69E-01 1.78E-01 3.885E-01
7.000E-04 2.80E-02 7.82E-05 6.34E-03 2.92E-05 1.52E-03 3.58E-10 5.54E-03 1.56E-10 2.07E-04 1.70E-01 1.81E-01 3.924E-01
6.900E-04 2.82E-02 8.12E-05 6.09E-03 3.13E-05 1.56E-03 3.79E-10 5.51E-03 1.76E-10 1.35E-04 1.70E-01 1.83E-01 3.954E-01
6.800E-04 2.78E-02 8.43E-05 5.77E-03 3.37E-05 1.59E-03 4.02E-10 5.51E-03 1.96E-10 1.13E-04 1.70E-01 1.87E-01 3.982E-01
6.600E-04 2.79E-02 9.50E-05 5.19E-03 3.92E-05 1.67E-03 4.52E-10 5.51E-03 2.40E-10 1.11E-04 1.72E-01 1.91E-01 4.042E-01
6.400E-04 2.87E-02 1.07E-04 4.50E-03 4.57E-05 1.76E-03 5.11E-10 5.50E-03 2.91E-10 1.53E-04 1.75E-01 1.93E-01 4.087E-01
6.300E-04 2.93E-02 1.13E-04 4.20E-03 4.96E-05 1.78E-03 5.45E-10 5.48E-03 3.20E-10 2.21E-04 1.75E-01 1.94E-01 4.104E-01
6.200E-04 2.94E-02 1.19E-04 4.13E-03 5.40E-05 1.85E-03 5.80E-10 5.45E-03 3.50E-10 2.88E-04 1.76E-01 1.95E-01 4.122E-01
6.100E-04 2.97E-02 1.26E-04 4.11E-03 5.81E-05 1.90E-03 6.19E-10 5.41E-03 3.83E-10 2.21E-04 1.76E-01 1.96E-01 4.140E-01
5.900E-04 3.09E-02 1.41E-04 3.37E-03 6.77E-05 2.01E-03 7.06E-10 5.34E-03 4.59E-10 1.23E-04 1.78E-01 1.97E-01 4.166E-01
5.500E-04 2.99E-02 1.70E-04 2.50E-03 9.53E-05 2.25E-03 9.33E-10 5.26E-03 6.58E-10 1.17E-04 1.76E-01 2.03E-01 4.202E-01
5.300E-04 3.01E-02 1.95E-04 2.23E-03 1.13E-04 2.39E-03 1.08E-09 5.27E-03 7.88E-10 1.61E-04 1.77E-01 2.05E-01 4.228E-01
5.200E-04 3.02E-02 2.09E-04 2.10E-03 1.24E-04 2.47E-03 1.16E-09 5.28E-03 8.64E-10 2.26E-04 1.77E-01 2.06E-01 4.240E-01
5.100E-04 3.05E-02 2.25E-04 1.96E-03 1.35E-04 2.55E-03 1.26E-09 5.31E-03 9.48E-10 2.94E-04 1.78E-01 2.07E-01 4.254E-01
5.000E-04 3.08E-02 2.42E-04 1.82E-03 1.50E-04 2.63E-03 1.36E-09 5.34E-03 1.04E-09 2.30E-04 1.78E-01 2.07E-01 4.266E-01
4.800E-04 3.12E-02 2.79E-04 1.61E-03 1.80E-04 2.80E-03 1.60E-09 5.43E-03 1.26E-09 1.44E-04 1.79E-01 2.09E-01 4.288E-01
4.500E-04 3.23E-02 3.50E-04 1.35E-03 2.40E-04 3.10E-03 2.06E-09 5.62E-03 1.68E-09 1.34E-04 1.79E-01 2.10E-01 4.326E-01
4.000E-04 3.35E-02 5.35E-04 1.00E-03 4.00E-04 3.74E-03 3.28E-09 6.05E-03 2.80E-09 1.61E-04 1.79E-01 2.14E-01 4.389E-01
3.800E-04 3.43E-02 6.46E-04 8.81E-04 4.97E-04 4.05E-03 4.02E-09 6.24E-03 3.49E-09 1.79E-04 1.79E-01 2.15E-01 4.414E-01
3.600E-04 3.51E-02 7.90E-04 7.75E-04 6.25E-04 4.41E-03 4.97E-09 6.45E-03 4.39E-09 2.07E-04 1.79E-01 2.16E-01 4.437E-01
3.400E-04 3.68E-02 9.70E-04 6.81E-04 7.95E-04 4.83E-03 6.23E-09 6.68E-03 5.57E-09 3.18E-04 1.79E-01 2.16E-01 4.464E-01
3.300E-04 3.67E-02 1.07E-03 6.38E-04 9.01E-04 5.06E-03 7.00E-09 6.79E-03 6.31E-09 6.34E-04 1.79E-01 2.17E-01 4.473E-01
3.200E-04 3.69E-02 1.20E-03 5.94E-04 1.02E-03 5.31E-03 7.90E-09 6.90E-03 7.17E-09 3.41E-04 1.78E-01 2.17E-01 4.479E-01
3.150E-04 3.72E-02 1.28E-03 5.75E-04 1.09E-03 5.44E-03 8.41E-09 6.96E-03 7.65E-09 3.00E-04 1.78E-01 2.17E-01 4.486E-01
3.100E-04 3.76E-02 1.36E-03 5.56E-04 1.17E-03 5.58E-03 8.95E-09 7.02E-03 8.18E-09 2.87E-04 1.78E-01 2.18E-01 4.492E-01
3.080E-04 3.77E-02 1.39E-03 5.48E-04 1.20E-03 5.64E-03 9.18E-09 7.04E-03 8.40E-09 2.85E-04 1.78E-01 2.18E-01 4.495E-01
3.050E-04 3.78E-02 1.44E-03 5.36E-04 1.25E-03 5.73E-03 9.54E-09 7.09E-03 8.74E-09 2.85E-04 1.78E-01 2.18E-01 4.498E-01
3.000E-04 3.81E-02 1.53E-03 5.19E-04 1.34E-03 5.88E-03 1.02E-08 7.16E-03 9.36E-09 2.88E-04 1.78E-01 2.18E-01 4.505E-01
2.900E-04 3.89E-02 1.74E-03 4.84E-04 1.54E-03 6.20E-03 1.16E-08 7.31E-03 1.08E-08 3.01E-04 1.78E-01 2.18E-01 4.521E-01
2.800E-04 3.91E-02 1.97E-03 4.52E-04 1.78E-03 6.55E-03 1.34E-08 7.47E-03 1.24E-08 3.20E-04 1.77E-01 2.19E-01 4.534E-01
2.600E-04 4.03E-02 2.61E-03 3.91E-04 2.41E-03 7.35E-03 1.79E-08 7.84E-03 1.68E-08 3.70E-04 1.76E-01 2.20E-01 4.569E-01
2.500E-04 4.12E-02 3.04E-03 3.64E-04 2.83E-03 7.81E-03 2.08E-08 8.05E-03 1.97E-08 4.00E-04 1.76E-01 2.20E-01 4.591E-01
2.200E-04 4.51E-02 4.98E-03 2.93E-04 4.76E-03 9.49E-03 3.44E-08 8.82E-03 3.32E-08 5.23E-04 1.75E-01 2.19E-01 4.679E-01
2.159E-04 4.55E-02 5.34E-03 2.84E-04 5.13E-03 9.77E-03 3.70E-08 8.94E-03 3.58E-08 5.44E-04 1.75E-01 2.19E-01 4.693E-01
2.000E-04 4.83E-02 7.19E-03 2.56E-04 6.98E-03 1.10E-02 5.00E-08 9.46E-03 4.88E-08 6.42E-04 1.74E-01 2.18E-01 4.767E-01
1.662E-04 5.61E-02 1.44E-02 2.05E-04 1.46E-02 1.46E-02 1.03E-07 1.10E-02 1.03E-07 9.72E-04 1.73E-01 2.17E-01 5.017E-01
1.650E-04 5.64E-02 1.48E-02 2.03E-04 1.50E-02 1.48E-02 1.06E-07 1.10E-02 1.06E-07 9.88E-04 1.73E-01 2.17E-01 5.030E-01
1.250E-04 7.50E-02 4.04E-02 1.87E-04 4.29E-02 2.27E-02 3.14E-07 1.40E-02 3.22E-07 1.90E-03 1.71E-01 2.13E-01 5.815E-01
1.235E-04 7.61E-02 4.21E-02 1.85E-04 4.48E-02 2.31E-02 3.30E-07 1.42E-02 3.38E-07 1.95E-03 1.71E-01 2.13E-01 5.866E-01
1.130E-04 8.51E-02 5.62E-02 1.93E-04 6.13E-02 2.66E-02 4.67E-07 1.54E-02 4.82E-07 2.42E-03 1.71E-01 2.11E-01 6.293E-01
1.000E-04 1.02E-01 8.16E-02 2.17E-04 9.20E-02 3.24E-02 7.52E-07 1.72E-02 7.86E-07 3.24E-03 1.70E-01 2.09E-01 7.078E-01
9.500E-05 1.10E-01 9.43E-02 2.19E-04 1.08E-01 3.53E-02 9.18E-07 1.81E-02 9.65E-07 3.66E-03 1.70E-01 2.08E-01 7.485E-01
9.300E-05 1.14E-01 9.99E-02 2.24E-04 1.16E-01 3.65E-02 9.97E-07 1.85E-02 1.05E-06 3.85E-03 1.70E-01 2.07E-01 7.668E-01
9.200E-05 1.16E-01 1.03E-01 2.28E-04 1.20E-01 3.71E-02 1.04E-06 1.87E-02 1.10E-06 3.96E-03 1.70E-01 2.07E-01 7.764E-01
9.100E-05 1.18E-01 1.06E-01 2.31E-04 1.24E-01 3.78E-02 1.09E-06 1.89E-02 1.15E-06 4.06E-03 1.70E-01 2.07E-01 7.863E-01
9.000E-05 1.20E-01 1.09E-01 2.35E-04 1.29E-01 3.84E-02 1.13E-06 1.91E-02 1.20E-06 4.17E-03 1.70E-01 2.07E-01 7.965E-01
8.900E-05 1.22E-01 1.12E-01 2.39E-04 1.33E-01 3.91E-02 1.18E-06 1.93E-02 1.25E-06 4.28E-03 1.70E-01 2.07E-01 8.071E-01
8.800E-05 1.24E-01 1.16E-01 2.43E-04 1.38E-01 3.99E-02 1.24E-06 1.95E-02 1.31E-06 4.40E-03 1.70E-01 2.06E-01 8.180E-01
8.700E-05 1.26E-01 1.19E-01 2.49E-04 1.43E-01 4.06E-02 1.29E-06 1.97E-02 1.37E-06 4.52E-03 1.70E-01 2.06E-01 8.294E-01
8.600E-05 1.28E-01 1.23E-01 2.52E-04 1.48E-01 4.14E-02 1.35E-06 1.99E-02 1.44E-06 4.65E-03 1.70E-01 2.06E-01 8.413E-01
8.500E-05 1.31E-01 1.26E-01 2.57E-04 1.54E-01 4.21E-02 1.41E-06 2.01E-02 1.51E-06 4.78E-03 1.70E-01 2.06E-01 8.535E-01
8.400E-05 1.33E-01 1.30E-01 2.61E-04 1.59E-01 4.29E-02 1.48E-06 2.03E-02 1.58E-06 4.91E-03 1.70E-01 2.05E-01 8.663E-01
8.330E-05 1.34E-01 1.33E-01 2.65E-04 1.64E-01 4.35E-02 1.53E-06 2.05E-02 1.63E-06 5.01E-03 1.70E-01 2.05E-01 8.756E-01
8.200E-05 1.38E-01 1.39E-01 2.70E-04 1.72E-01 4.46E-02 1.63E-06 2.08E-02 1.74E-06 5.20E-03 1.70E-01 2.05E-01 8.936E-01
8.100E-05 1.40E-01 1.43E-01 2.77E-04 1.79E-01 4.54E-02 1.70E-06 2.11E-02 1.83E-06 5.36E-03 1.69E-01 2.05E-01 9.081E-01
8.000E-05 1.43E-01 1.47E-01 2.79E-04 1.86E-01 4.63E-02 1.79E-06 2.13E-02 1.92E-06 5.52E-03 1.69E-01 2.04E-01 9.232E-01
7.900E-05 1.46E-01 1.52E-01 2.86E-04 1.93E-01 4.72E-02 1.88E-06 2.16E-02 2.02E-06 5.69E-03 1.69E-01 2.04E-01 9.390E-01
7.800E-05 1.49E-01 1.56E-01 2.95E-04 2.01E-01 4.82E-02 1.97E-06 2.18E-02 2.12E-06 5.86E-03 1.69E-01 2.04E-01 9.554E-01
7.700E-05 1.52E-01 1.61E-01 3.01E-04 2.09E-01 4.91E-02 2.07E-06 2.21E-02 2.24E-06 6.04E-03 1.69E-01 2.04E-01 9.723E-01
7.600E-05 1.55E-01 1.66E-01 3.14E-04 2.18E-01 5.01E-02 2.18E-06 2.23E-02 2.36E-06 6.23E-03 1.69E-01 2.03E-01 9.900E-01
7.500E-05 1.58E-01 1.71E-01 3.22E-04 2.27E-01 5.12E-02 2.30E-06 2.26E-02 2.49E-06 6.43E-03 1.69E-01 2.03E-01 1.008E+00
7.400E-05 1.62E-01 1.75E-01 3.38E-04 2.36E-01 5.22E-02 2.42E-06 2.29E-02 2.62E-06 6.64E-03 1.69E-01 2.03E-01 1.027E+00
7.300E-05 1.65E-01 1.80E-01 3.53E-04 2.46E-01 5.33E-02 2.55E-06 2.32E-02 2.77E-06 6.86E-03 1.69E-01 2.02E-01 1.047E+00
7.140E-05 1.71E-01 1.88E-01 3.64E-04 2.63E-01 5.51E-02 2.78E-06 2.37E-02 3.03E-06 7.23E-03 1.69E-01 2.02E-01 1.079E+00
7.100E-05 1.73E-01 1.90E-01 3.63E-04 2.67E-01 5.56E-02 2.84E-06 2.38E-02 3.10E-06 7.33E-03 1.69E-01 2.02E-01 1.088E+00
7.000E-05 1.76E-01 1.95E-01 3.77E-04 2.79E-01 5.68E-02 3.00E-06 2.41E-02 3.28E-06 7.59E-03 1.69E-01 2.01E-01 1.109E+00
6.900E-05 1.80E-01 2.00E-01 3.95E-04 2.90E-01 5.80E-02 3.17E-06 2.45E-02 3.48E-06 7.85E-03 1.69E-01 2.01E-01 1.131E+00
6.800E-05 1.84E-01 2.05E-01 4.09E-04 3.03E-01 5.93E-02 3.35E-06 2.48E-02 3.69E-06 8.13E-03 1.69E-01 2.01E-01 1.154E+00
6.700E-05 1.88E-01 2.10E-01 4.25E-04 3.16E-01 6.06E-02 3.55E-06 2.52E-02 3.91E-06 8.42E-03 1.69E-01 2.00E-01 1.178E+00
6.600E-05 1.93E-01 2.15E-01 4.47E-04 3.30E-01 6.19E-02 3.77E-06 2.55E-02 4.16E-06 8.74E-03 1.69E-01 2.00E-01 1.202E+00
6.500E-05 1.97E-01 2.20E-01 4.55E-04 3.44E-01 6.34E-02 4.00E-06 2.59E-02 4.42E-06 9.06E-03 1.69E-01 2.00E-01 1.227E+00
6.400E-05 2.01E-01 2.25E-01 4.65E-04 3.59E-01 6.49E-02 4.25E-06 2.63E-02 4.70E-06 9.41E-03 1.69E-01 1.99E-01 1.254E+00
6.300E-05 2.06E-01 2.30E-01 4.83E-04 3.74E-01 6.64E-02 4.52E-06 2.67E-02 5.01E-06 9.77E-03 1.68E-01 1.99E-01 1.281E+00
6.250E-05 2.08E-01 2.32E-01 4.87E-04 3.82E-01 6.72E-02 4.66E-06 2.69E-02 5.18E-06 9.97E-03 1.68E-01 1.99E-01 1.294E+00
6.200E-05 2.11E-01 2.35E-01 5.02E-04 3.90E-01 6.80E-02 4.81E-06 2.71E-02 5.35E-06 1.02E-02 1.68E-01 1.98E-01 1.308E+00
6.100E-05 2.16E-01 2.40E-01 5.27E-04 4.07E-01 6.97E-02 5.13E-06 2.75E-02 5.71E-06 1.06E-02 1.68E-01 1.98E-01 1.337E+00
6.000E-05 2.21E-01 2.44E-01 5.50E-04 4.25E-01 7.14E-02 5.47E-06 2.79E-02 6.10E-06 1.10E-02 1.68E-01 1.98E-01 1.367E+00
5.900E-05 2.27E-01 2.49E-01 5.73E-04 4.43E-01 7.32E-02 5.84E-06 2.84E-02 6.53E-06 1.15E-02 1.68E-01 1.97E-01 1.397E+00
5.800E-05 2.32E-01 2.53E-01 5.97E-04 4.62E-01 7.50E-02 6.25E-06 2.88E-02 7.00E-06 1.20E-02 1.68E-01 1.97E-01 1.428E+00
5.700E-05 2.38E-01 2.57E-01 6.29E-04 4.81E-01 7.69E-02 6.69E-06 2.93E-02 7.51E-06 1.25E-02 1.68E-01 1.96E-01 1.460E+00
5.600E-05 2.44E-01 2.61E-01 6.60E-04 5.01E-01 7.89E-02 7.17E-06 2.98E-02 8.06E-06 1.31E-02 1.68E-01 1.96E-01 1.493E+00
5.500E-05 2.51E-01 2.64E-01 6.91E-04 5.22E-01 8.09E-02 7.70E-06 3.03E-02 8.67E-06 1.37E-02 1.68E-01 1.96E-01 1.526E+00
5.477E-05 2.52E-01 2.65E-01 6.96E-04 5.27E-01 8.14E-02 7.83E-06 3.05E-02 8.82E-06 2.37E-02 1.68E-01 1.96E-01 1.544E+00
5.400E-05 2.57E-01 2.67E-01 7.20E-04 5.44E-01 8.33E-02 8.29E-06 3.09E-02 9.34E-06 2.46E-02 1.68E-01 1.95E-01 1.570E+00
5.300E-05 2.64E-01 2.70E-01 7.52E-04 5.67E-01 8.59E-02 8.94E-06 3.14E-02 1.01E-05 2.58E-02 1.68E-01 1.95E-01 1.606E+00
5.200E-05 2.70E-01 2.72E-01 8.00E-04 5.90E-01 8.85E-02 9.65E-06 3.20E-02 1.09E-05 2.72E-02 1.67E-01 1.94E-01 1.643E+00
5.100E-05 2.77E-01 2.74E-01 8.46E-04 6.15E-01 9.12E-02 1.04E-05 3.26E-02 1.18E-05 2.87E-02 1.67E-01 1.94E-01 1.680E+00
5.000E-05 2.83E-01 2.76E-01 8.94E-04 6.40E-01 9.40E-02 1.13E-05 3.32E-02 1.28E-05 3.04E-02 1.67E-01 1.93E-01 1.718E+00
4.900E-05 2.89E-01 2.78E-01 9.41E-04 6.67E-01 9.70E-02 1.23E-05 3.38E-02 1.39E-05 3.21E-02 1.67E-01 1.93E-01 1.758E+00
4.880E-05 2.90E-01 2.78E-01 9.51E-04 6.73E-01 9.76E-02 1.25E-05 3.40E-02 1.41E-05 3.25E-02 1.67E-01 1.93E-01 1.766E+00
4.800E-05 2.95E-01 2.79E-01 9.95E-04 6.95E-01 1.00E-01 1.33E-05 3.45E-02 1.51E-05 3.41E-02 1.67E-01 1.93E-01 1.799E+00
4.760E-05 2.98E-01 2.79E-01 1.02E-03 7.07E-01 1.02E-01 1.38E-05 3.48E-02 1.56E-05 3.49E-02 1.67E-01 1.92E-01 1.816E+00
4.700E-05 3.02E-01 2.80E-01 1.06E-03 7.24E-01 1.04E-01 1.45E-05 3.52E-02 1.64E-05 3.63E-02 1.67E-01 1.92E-01 1.841E+00
4.650E-05 3.05E-01 2.80E-01 1.09E-03 7.39E-01 1.06E-01 1.52E-05 3.55E-02 1.72E-05 3.74E-02 1.66E-01 1.92E-01 1.863E+00
4.600E-05 3.07E-01 2.80E-01 1.13E-03 7.55E-01 1.09E-01 1.59E-05 3.59E-02 1.79E-05 3.86E-02 1.66E-01 1.92E-01 1.885E+00
4.550E-05 3.10E-01 2.81E-01 1.18E-03 7.70E-01 1.11E-01 1.66E-05 3.63E-02 1.88E-05 3.99E-02 1.66E-01 1.92E-01 1.908E+00
4.500E-05 3.13E-01 2.81E-01 1.23E-03 7.86E-01 1.13E-01 1.74E-05 3.67E-02 1.96E-05 4.13E-02 1.66E-01 1.91E-01 1.930E+00
4.440E-05 3.17E-01 2.81E-01 1.30E-03 8.06E-01 1.16E-01 1.84E-05 3.71E-02 2.07E-05 4.30E-02 1.66E-01 1.91E-01 1.958E+00
4.350E-05 3.22E-01 2.81E-01 1.42E-03 8.36E-01 1.20E-01 2.00E-05 3.78E-02 2.25E-05 4.58E-02 1.66E-01 1.91E-01 2.000E+00
4.170E-05 3.31E-01 2.81E-01 1.73E-03 8.97E-01 1.30E-01 2.38E-05 3.94E-02 2.68E-05 5.24E-02 1.65E-01 1.90E-01 2.089E+00
4.000E-05 3.40E-01 2.80E-01 2.29E-03 9.57E-01 1.41E-01 2.83E-05 4.09E-02 3.19E-05 6.01E-02 1.65E-01 1.90E-01 2.176E+00
3.850E-05 3.47E-01 2.80E-01 3.03E-03 1.01E+00 1.51E-01 3.31E-05 4.23E-02 3.73E-05 6.85E-02 1.64E-01 1.89E-01 2.257E+00
3.656E-05 3.55E-01 2.78E-01 4.45E-03 1.08E+00 1.65E-01 4.13E-05 4.43E-02 4.64E-05 8.24E-02 1.64E-01 1.89E-01 2.366E+00
3.570E-05 3.58E-01 2.77E-01 5.20E-03 1.12E+00 1.72E-01 4.57E-05 4.52E-02 5.11E-05 9.01E-02 1.64E-01 1.88E-01 2.416E+00
3.330E-05 3.66E-01 2.75E-01 7.79E-03 1.21E+00 1.95E-01 6.26E-05 4.80E-02 6.85E-05 1.18E-01 1.63E-01 1.88E-01 2.566E+00
3.130E-05 3.71E-01 2.72E-01 1.03E-02 1.27E+00 2.25E-01 8.44E-05 5.06E-02 8.91E-05 1.53E-01 1.62E-01 1.87E-01 2.704E+00
3.000E-05 3.74E-01 2.71E-01 1.24E-02 1.31E+00 2.51E-01 1.05E-04 5.23E-02 1.07E-04 1.84E-01 1.62E-01 1.87E-01 2.805E+00
2.940E-05 3.75E-01 2.70E-01 1.34E-02 1.33E+00 2.64E-01 1.16E-04 5.32E-02 1.17E-04 2.01E-01 1.61E-01 1.87E-01 2.853E+00
2.780E-05 3.77E-01 2.68E-01 1.64E-02 1.36E+00 3.09E-01 1.59E-04 5.55E-02 1.49E-04 2.58E-01 1.61E-01 1.86E-01 2.996E+00
2.630E-05 3.77E-01 2.66E-01 1.94E-02 1.39E+00 3.78E-01 2.27E-04 5.77E-02 1.91E-04 3.28E-01 1.60E-01 1.86E-01 3.157E+00
2.500E-05 3.77E-01 2.64E-01 2.30E-02 1.39E+00 4.72E-01 3.30E-04 5.95E-02 2.39E-04 3.94E-01 1.60E-01 1.86E-01 3.326E+00
2.380E-05 3.77E-01 2.64E-01 2.74E-02 1.38E+00 6.50E-01 5.04E-04 5.98E-02 3.00E-04 4.47E-01 1.59E-01 1.86E-01 3.552E+00
2.270E-05 3.76E-01 2.62E-01 3.35E-02 1.36E+00 9.39E-01 7.38E-04 6.21E-02 3.77E-04 4.67E-01 1.59E-01 1.85E-01 3.847E+00
2.170E-05 3.75E-01 2.61E-01 4.18E-02 1.34E+00 1.27E+00 9.59E-04 6.99E-02 4.72E-04 4.51E-01 1.58E-01 1.85E-01 4.153E+00
2.080E-05 3.73E-01 2.60E-01 5.69E-02 1.32E+00 1.32E+00 8.90E-04 8.73E-02 5.86E-04 4.10E-01 1.57E-01 1.86E-01 4.165E+00
2.000E-05 3.72E-01 2.59E-01 2.00E-01 1.18E+00 1.14E+00 6.96E-04 1.11E-01 7.19E-04 3.62E-01 1.57E-01 1.86E-01 3.965E+00
1.920E-05 3.70E-01 2.60E-01 3.72E-01 1.02E+00 8.85E-01 4.78E-04 1.53E-01 8.94E-04 3.11E-01 1.56E-01 1.86E-01 3.709E+00
1.850E-05 3.70E-01 2.63E-01 4.69E-01 9.26E-01 6.93E-01 3.38E-04 2.05E-01 1.09E-03 2.68E-01 1.55E-01 1.86E-01 3.536E+00
1.790E-05 3.69E-01 2.64E-01 5.74E-01 8.14E-01 5.64E-01 2.59E-04 2.61E-01 1.31E-03 2.35E-01 1.55E-01 1.87E-01 3.425E+00
1.720E-05 3.69E-01 2.66E-01 6.38E-01 7.41E-01 4.53E-01 2.06E-04 3.62E-01 1.64E-03 2.03E-01 1.54E-01 1.87E-01 3.373E+00
1.670E-05 3.69E-01 2.67E-01 6.61E-01 7.10E-01 3.87E-01 1.87E-04 4.56E-01 1.94E-03 1.83E-01 1.53E-01 1.88E-01 3.377E+00
1.610E-05 3.69E-01 2.69E-01 6.79E-01 6.85E-01 3.27E-01 1.90E-04 6.22E-01 2.40E-03 1.63E-01 1.52E-01 1.88E-01 3.456E+00
1.560E-05 3.69E-01 2.70E-01 6.87E-01 6.71E-01 2.87E-01 2.15E-04 8.12E-01 2.87E-03 1.50E-01 1.51E-01 1.89E-01 3.588E+00
1.520E-05 3.68E-01 2.71E-01 6.90E-01 6.61E-01 2.60E-01 2.50E-04 1.02E+00 3.30E-03 1.42E-01 1.50E-01 1.89E-01 3.751E+00
1.470E-05 3.68E-01 2.72E-01 6.91E-01 6.51E-01 2.32E-01 3.15E-04 1.31E+00 3.91E-03 1.33E-01 1.49E-01 1.90E-01 3.999E+00
1.430E-05 3.67E-01 2.72E-01 6.91E-01 6.44E-01 2.17E-01 3.94E-04 1.56E+00 4.37E-03 1.29E-01 1.49E-01 1.90E-01 4.223E+00
1.390E-05 3.65E-01 2.72E-01 6.90E-01 6.37E-01 2.11E-01 5.01E-04 1.75E+00 4.84E-03 1.27E-01 1.49E-01 1.90E-01 4.402E+00
1.350E-05 3.64E-01 2.72E-01 6.88E-01 6.31E-01 2.11E-01 6.42E-04 1.94E+00 5.42E-03 1.27E-01 1.49E-01 1.89E-01 4.575E+00
1.320E-05 3.63E-01 2.72E-01 6.87E-01 6.26E-01 2.15E-01 7.80E-04 2.08E+00 5.94E-03 1.29E-01 1.49E-01 1.89E-01 4.718E+00
1.280E-05 3.61E-01 2.72E-01 6.84E-01 6.20E-01 2.29E-01 1.02E-03 2.29E+00 6.76E-03 1.34E-01 1.48E-01 1.89E-01 4.937E+00
1.250E-05 3.60E-01 2.73E-01 6.82E-01 6.18E-01 2.49E-01 1.26E-03 2.46E+00 7.49E-03 1.41E-01 1.48E-01 1.89E-01 5.130E+00
1.220E-05 3.58E-01 2.73E-01 6.80E-01 6.17E-01 2.77E-01 1.56E-03 2.65E+00 8.35E-03 1.50E-01 1.48E-01 1.89E-01 5.354E+00
1.190E-05 3.56E-01 2.73E-01 6.79E-01 6.21E-01 3.16E-01 1.94E-03 2.86E+00 9.35E-03 1.64E-01 1.47E-01 1.90E-01 5.616E+00
1.160E-05 3.54E-01 2.73E-01 6.77E-01 6.24E-01 3.60E-01 2.42E-03 3.09E+00 1.05E-02 1.82E-01 1.47E-01 1.90E-01 5.913E+00
1.140E-05 3.52E-01 2.72E-01 6.75E-01 6.24E-01 3.98E-01 2.84E-03 3.27E+00 1.15E-02 1.98E-01 1.47E-01 1.90E-01 6.138E+00
1.110E-05 3.50E-01 2.72E-01 6.73E-01 6.25E-01 4.55E-01 3.71E-03 3.56E+00 1.31E-02 2.28E-01 1.46E-01 1.90E-01 6.514E+00
1.080E-05 3.47E-01 2.71E-01 6.70E-01 6.26E-01 6.14E-01 4.95E-03 3.91E+00 1.51E-02 2.71E-01 1.46E-01 1.90E-01 7.060E+00
1.050E-05 3.44E-01 2.70E-01 6.66E-01 6.28E-01 8.19E-01 6.42E-03 4.34E+00 1.77E-02 3.29E-01 1.45E-01 1.91E-01 7.751E+00
1.030E-05 3.42E-01 2.69E-01 6.64E-01 6.28E-01 9.77E-01 7.35E-03 4.74E+00 1.97E-02 3.79E-01 1.45E-01 1.91E-01 8.362E+00
1.000E-05 3.38E-01 2.68E-01 6.60E-01 6.30E-01 1.20E+00 8.98E-03 5.32E+00 2.26E-02 4.73E-01 1.44E-01 1.91E-01 9.253E+00
9.750E-06 3.35E-01 2.67E-01 6.57E-01 6.31E-01 1.45E+00 1.11E-02 5.78E+00 2.51E-02 5.69E-01 1.44E-01 1.91E-01 1.007E+01
9.500E-06 3.32E-01 2.66E-01 6.53E-01 6.33E-01 1.75E+00 1.32E-02 6.28E+00 2.79E-02 6.67E-01 1.44E-01 1.91E-01 1.095E+01
9.250E-06 3.29E-01 2.65E-01 6.49E-01 6.34E-01 1.97E+00 1.47E-02 6.78E+00 3.07E-02 7.39E-01 1.44E-01 1.91E-01 1.175E+01
9.080E-06 3.27E-01 2.64E-01 6.43E-01 6.33E-01 2.11E+00 1.58E-02 7.07E+00 3.21E-02 7.55E-01 1.44E-01 1.90E-01 1.219E+01
