 # Polarisation optical depth (Siebenmorgen 2023, A&A 670A,115; SC 2023 doi: 10.48550/arXiv.2311.03310)
 # wel         sigp_aC     sigp_Si      sigp_dark    sigt
 #----------------------------------------------------------------------------------------
   1.000E+00   4.372E-04   7.302E-04   0.000E+00   3.604E-06
   9.000E-01   5.121E-04   8.621E-04   0.000E+00   4.204E-06
   8.000E-01   6.117E-04   1.038E-03   0.000E+00   4.997E-06
   7.000E-01   7.492E-04   1.283E-03   0.000E+00   6.077E-06
   6.000E-01   9.481E-04   1.639E-03   0.000E+00   7.631E-06
   5.500E-01   1.084E-03   1.883E-03   0.000E+00   8.684E-06
   5.000E-01   1.256E-03   2.193E-03   0.000E+00   1.000E-05
   4.500E-01   1.479E-03   2.597E-03   0.000E+00   1.171E-05
   4.000E-01   1.778E-03   3.137E-03   0.000E+00   1.397E-05
   3.500E-01   2.193E-03   3.890E-03   0.000E+00   1.710E-05
   3.000E-01   2.800E-03   4.989E-03   0.000E+00   2.159E-05
   2.500E-01   3.750E-03   6.705E-03   0.000E+00   2.854E-05
   2.098E-01   4.983E-03   8.914E-03   0.000E+00   3.739E-05
   1.500E-01   8.663E-03   1.543E-02   0.000E+00   6.315E-05
   1.382E-01   9.935E-03   1.764E-02   0.000E+00   7.191E-05
   1.320E-01   1.073E-02   1.902E-02   0.000E+00   7.734E-05
   1.150E-01   1.356E-02   2.387E-02   0.000E+00   9.640E-05
   1.000E-01   1.724E-02   3.002E-02   0.000E+00   1.208E-04
   9.970E-02   1.733E-02   3.017E-02   0.000E+00   1.214E-04
   8.670E-02   2.182E-02   3.806E-02   0.000E+00   1.512E-04
   8.500E-02   2.260E-02   3.934E-02   0.000E+00   1.564E-04
   7.500E-02   2.868E-02   4.840E-02   0.000E+00   1.951E-04
   6.000E-02   4.218E-02   7.000E-02   0.000E+00   2.781E-04
   5.500E-02   4.887E-02   7.855E-02   0.000E+00   3.202E-04
   5.000E-02   5.818E-02   9.765E-02   0.000E+00   3.808E-04
   4.500E-02   7.170E-02   1.297E-01   0.000E+00   4.680E-04
   4.000E-02   9.213E-02   1.740E-01   0.000E+00   5.916E-04
   3.500E-02   1.155E-01   2.656E-01   0.000E+00   7.458E-04
   3.000E-02   1.632E-01   4.149E-01   0.000E+00   1.038E-03
   2.750E-02   1.948E-01   5.219E-01   0.000E+00   1.226E-03
   2.500E-02   2.347E-01   6.639E-01   0.000E+00   1.479E-03
   2.400E-02   2.578E-01   7.344E-01   0.000E+00   1.598E-03
   2.000E-02   3.778E-01   1.132E+00   0.000E+00   2.281E-03
   1.800E-02   4.715E-01   1.392E+00   0.000E+00   2.802E-03
   1.600E-02   6.279E-01   1.712E+00   0.000E+00   3.524E-03
   1.500E-02   7.495E-01   1.906E+00   0.000E+00   3.997E-03
   1.400E-02   8.529E-01   2.123E+00   0.000E+00   4.457E-03
   1.200E-02   1.307E+00   2.655E+00   0.000E+00   5.979E-03
   1.000E-02   1.989E+00   3.415E+00   0.000E+00   8.170E-03
   9.000E-03   2.655E+00   3.838E+00   0.000E+00   9.908E-03
   8.000E-03   3.502E+00   4.419E+00   0.000E+00   1.181E-02
   7.500E-03   4.105E+00   4.871E+00   0.000E+00   1.336E-02
   7.000E-03   4.941E+00   5.430E+00   0.000E+00   1.509E-02
   6.000E-03   7.015E+00   6.872E+00   0.000E+00   1.964E-02
   5.000E-03   9.743E+00   9.531E+00   0.000E+00   2.661E-02
   4.500E-03   1.172E+01   1.138E+01   0.000E+00   3.192E-02
   4.000E-03   1.349E+01   1.345E+01   0.000E+00   3.853E-02
   3.500E-03   1.572E+01   1.557E+01   0.000E+00   4.760E-02
   3.000E-03   1.830E+01   1.718E+01   0.000E+00   6.054E-02
   2.750E-03   1.931E+01   1.759E+01   0.000E+00   6.872E-02
   2.500E-03   1.994E+01   1.778E+01   0.000E+00   7.859E-02
   2.400E-03   2.036E+01   1.780E+01   0.000E+00   8.328E-02
   2.350E-03   2.061E+01   1.782E+01   0.000E+00   8.595E-02
   2.320E-03   2.072E+01   1.784E+01   0.000E+00   8.752E-02
   2.310E-03   2.076E+01   1.785E+01   0.000E+00   8.806E-02
   2.300E-03   2.080E+01   1.784E+01   0.000E+00   8.860E-02
   2.250E-03   2.092E+01   1.790E+01   0.000E+00   9.152E-02
   2.200E-03   2.104E+01   1.793E+01   0.000E+00   9.463E-02
   2.150E-03   2.125E+01   1.792E+01   0.000E+00   9.778E-02
   2.120E-03   2.137E+01   1.784E+01   0.000E+00   9.981E-02
   2.110E-03   2.139E+01   1.781E+01   0.000E+00   1.005E-01
   2.100E-03   2.139E+01   1.777E+01   0.000E+00   1.012E-01
   2.080E-03   2.137E+01   1.765E+01   0.000E+00   1.024E-01
   2.000E-03   2.136E+01   1.711E+01   0.000E+00   1.077E-01
   1.950E-03   2.149E+01   1.650E+01   0.000E+00   1.109E-01
   1.900E-03   2.176E+01   1.570E+01   0.000E+00   1.135E-01
   1.850E-03   2.202E+01   1.469E+01   0.000E+00   1.148E-01
   1.830E-03   2.213E+01   1.422E+01   0.000E+00   1.150E-01
   1.820E-03   2.214E+01   1.397E+01   0.000E+00   1.150E-01
   1.810E-03   2.218E+01   1.371E+01   0.000E+00   1.148E-01
   1.800E-03   2.223E+01   1.346E+01   0.000E+00   1.147E-01
   1.750E-03   2.248E+01   1.202E+01   0.000E+00   1.134E-01
   1.700E-03   2.251E+01   1.048E+01   0.000E+00   1.104E-01
   1.670E-03   2.275E+01   9.559E+00   0.000E+00   1.087E-01
   1.650E-03   2.297E+01   8.951E+00   0.000E+00   1.074E-01
   1.640E-03   2.304E+01   8.655E+00   0.000E+00   1.066E-01
   1.630E-03   2.311E+01   8.360E+00   0.000E+00   1.059E-01
   1.610E-03   2.321E+01   7.791E+00   0.000E+00   1.043E-01
   1.600E-03   2.327E+01   7.515E+00   0.000E+00   1.036E-01
   1.590E-03   2.334E+01   7.252E+00   0.000E+00   1.028E-01
   1.580E-03   2.339E+01   7.004E+00   0.000E+00   1.021E-01
   1.570E-03   2.339E+01   6.769E+00   0.000E+00   1.012E-01
   1.560E-03   2.349E+01   6.565E+00   0.000E+00   1.006E-01
   1.540E-03   2.368E+01   6.233E+00   0.000E+00   9.951E-02
   1.520E-03   2.369E+01   6.028E+00   0.000E+00   9.835E-02
   1.510E-03   2.370E+01   5.978E+00   0.000E+00   9.785E-02
   1.500E-03   2.366E+01   5.956E+00   0.000E+00   9.739E-02
   1.450E-03   2.380E+01   6.162E+00   0.000E+00   9.658E-02
   1.440E-03   2.385E+01   6.241E+00   0.000E+00   9.671E-02
   1.430E-03   2.390E+01   6.306E+00   0.000E+00   9.725E-02
   1.420E-03   2.394E+01   6.370E+00   0.000E+00   9.779E-02
   1.400E-03   2.409E+01   6.515E+00   0.000E+00   9.970E-02
   1.380E-03   2.419E+01   6.651E+00   0.000E+00   1.024E-01
   1.370E-03   2.424E+01   6.727E+00   0.000E+00   1.044E-01
   1.360E-03   2.433E+01   6.803E+00   0.000E+00   1.065E-01
   1.350E-03   2.444E+01   6.898E+00   0.000E+00   1.088E-01
   1.340E-03   2.453E+01   6.992E+00   0.000E+00   1.113E-01
   1.330E-03   2.458E+01   7.108E+00   0.000E+00   1.138E-01
   1.320E-03   2.467E+01   7.230E+00   0.000E+00   1.164E-01
   1.310E-03   2.467E+01   7.371E+00   0.000E+00   1.191E-01
   1.290E-03   2.459E+01   7.710E+00   0.000E+00   1.246E-01
   1.280E-03   2.457E+01   7.890E+00   0.000E+00   1.278E-01
   1.270E-03   2.463E+01   8.041E+00   0.000E+00   1.311E-01
   1.260E-03   2.467E+01   8.265E+00   0.000E+00   1.344E-01
   1.250E-03   2.467E+01   8.559E+00   0.000E+00   1.377E-01
   1.220E-03   2.504E+01   1.031E+01   0.000E+00   1.491E-01
   1.210E-03   2.505E+01   1.145E+01   0.000E+00   1.534E-01
   1.200E-03   2.505E+01   1.279E+01   0.000E+00   1.580E-01
   1.190E-03   2.522E+01   1.419E+01   0.000E+00   1.629E-01
   1.180E-03   2.530E+01   1.550E+01   0.000E+00   1.676E-01
   1.170E-03   2.536E+01   1.662E+01   0.000E+00   1.722E-01
   1.160E-03   2.544E+01   1.753E+01   0.000E+00   1.765E-01
   1.150E-03   2.542E+01   1.825E+01   0.000E+00   1.807E-01
   1.140E-03   2.537E+01   1.882E+01   0.000E+00   1.849E-01
   1.130E-03   2.536E+01   1.927E+01   0.000E+00   1.893E-01
   1.120E-03   2.536E+01   1.965E+01   0.000E+00   1.934E-01
   1.110E-03   2.534E+01   2.001E+01   0.000E+00   1.976E-01
   1.090E-03   2.539E+01   2.062E+01   0.000E+00   2.057E-01
   1.050E-03   2.573E+01   2.122E+01   0.000E+00   2.237E-01
   1.000E-03   2.630E+01   2.067E+01   0.000E+00   2.321E-01
   9.800E-04   2.657E+01   1.974E+01   0.000E+00   2.346E-01
   9.600E-04   2.679E+01   1.831E+01   0.000E+00   2.351E-01
   9.500E-04   2.699E+01   1.745E+01   0.000E+00   2.335E-01
   9.400E-04   2.698E+01   1.656E+01   0.000E+00   2.299E-01
   9.200E-04   2.710E+01   1.480E+01   0.000E+00   2.169E-01
   8.900E-04   2.748E+01   1.217E+01   0.000E+00   1.903E-01
   8.700E-04   2.736E+01   1.071E+01   0.000E+00   1.741E-01
   8.600E-04   2.753E+01   1.008E+01   0.000E+00   1.680E-01
   8.500E-04   2.752E+01   9.411E+00   0.000E+00   1.621E-01
   8.400E-04   2.772E+01   8.708E+00   0.000E+00   1.562E-01
   8.200E-04   2.757E+01   7.266E+00   0.000E+00   1.410E-01
   8.000E-04   2.769E+01   6.069E+00   0.000E+00   1.259E-01
   7.900E-04   2.785E+01   5.640E+00   0.000E+00   1.220E-01
   7.800E-04   2.775E+01   5.291E+00   0.000E+00   1.177E-01
   7.700E-04   2.765E+01   4.990E+00   0.000E+00   1.148E-01
   7.600E-04   2.757E+01   4.726E+00   0.000E+00   1.135E-01
   7.500E-04   2.749E+01   4.488E+00   0.000E+00   1.126E-01
   7.300E-04   2.765E+01   4.127E+00   0.000E+00   1.150E-01
   7.200E-04   2.755E+01   4.029E+00   0.000E+00   1.167E-01
   7.100E-04   2.750E+01   3.977E+00   0.000E+00   1.187E-01
   7.000E-04   2.768E+01   3.915E+00   0.000E+00   1.214E-01
   6.900E-04   2.751E+01   3.798E+00   0.000E+00   1.234E-01
   6.800E-04   2.697E+01   3.634E+00   0.000E+00   1.245E-01
   6.600E-04   2.726E+01   3.344E+00   0.000E+00   1.304E-01
   6.400E-04   2.805E+01   2.962E+00   0.000E+00   1.378E-01
   6.300E-04   2.844E+01   2.803E+00   0.000E+00   1.415E-01
   6.200E-04   2.838E+01   2.791E+00   0.000E+00   1.445E-01
   6.100E-04   2.856E+01   2.797E+00   0.000E+00   1.482E-01
   5.900E-04   2.940E+01   2.346E+00   0.000E+00   1.567E-01
   5.500E-04   2.741E+01   1.848E+00   0.000E+00   1.674E-01
   5.300E-04   2.772E+01   1.706E+00   0.000E+00   1.781E-01
   5.200E-04   2.772E+01   1.634E+00   0.000E+00   1.836E-01
   5.100E-04   2.800E+01   1.560E+00   0.000E+00   1.901E-01
   5.000E-04   2.825E+01   1.492E+00   0.000E+00   1.967E-01
   4.800E-04   2.850E+01   1.392E+00   0.000E+00   2.103E-01
   4.500E-04   2.915E+01   1.291E+00   0.000E+00   2.332E-01
   4.000E-04   3.009E+01   1.246E+00   0.000E+00   2.785E-01
   3.800E-04   3.074E+01   1.285E+00   0.000E+00   3.002E-01
   3.600E-04   3.149E+01   1.373E+00   0.000E+00   3.247E-01
   3.400E-04   3.285E+01   1.527E+00   0.000E+00   3.517E-01
   3.300E-04   3.270E+01   1.635E+00   0.000E+00   3.651E-01
   3.200E-04   3.299E+01   1.767E+00   0.000E+00   3.806E-01
   3.150E-04   3.338E+01   1.846E+00   0.000E+00   3.888E-01
   3.100E-04   3.375E+01   1.933E+00   0.000E+00   3.967E-01
   3.080E-04   3.386E+01   1.971E+00   0.000E+00   3.998E-01
   3.050E-04   3.400E+01   2.030E+00   0.000E+00   4.045E-01
   3.000E-04   3.429E+01   2.138E+00   0.000E+00   4.126E-01
   2.900E-04   3.509E+01   2.390E+00   0.000E+00   4.290E-01
   2.800E-04   3.547E+01   2.700E+00   0.000E+00   4.459E-01
   2.600E-04   3.715E+01   3.558E+00   0.000E+00   4.842E-01
   2.500E-04   3.842E+01   4.150E+00   0.000E+00   5.046E-01
   2.200E-04   4.399E+01   7.023E+00   0.000E+00   5.629E-01
   2.159E-04   4.478E+01   7.605E+00   0.000E+00   5.708E-01
   2.000E-04   4.941E+01   1.055E+01   0.000E+00   6.012E-01
   1.662E-04   6.454E+01   2.339E+01   0.000E+00   6.497E-01
   1.650E-04   6.529E+01   2.413E+01   0.000E+00   6.508E-01
   1.250E-04   1.114E+02   7.256E+01   0.000E+00   6.826E-01
   1.235E-04   1.142E+02   7.567E+01   0.000E+00   6.841E-01
   1.130E-04   1.361E+02   1.009E+02   0.000E+00   6.999E-01
   1.000E-04   1.690E+02   1.405E+02   0.000E+00   7.367E-01
   9.500E-05   1.818E+02   1.583E+02   0.000E+00   7.576E-01
   9.300E-05   1.866E+02   1.658E+02   0.000E+00   7.669E-01
   9.200E-05   1.890E+02   1.697E+02   0.000E+00   7.720E-01
   9.100E-05   1.913E+02   1.737E+02   0.000E+00   7.772E-01
   9.000E-05   1.936E+02   1.777E+02   0.000E+00   7.826E-01
   8.900E-05   1.958E+02   1.818E+02   0.000E+00   7.881E-01
   8.800E-05   1.980E+02   1.860E+02   0.000E+00   7.938E-01
   8.700E-05   2.001E+02   1.903E+02   0.000E+00   7.998E-01
   8.600E-05   2.022E+02   1.947E+02   0.000E+00   8.059E-01
   8.500E-05   2.043E+02   1.992E+02   0.000E+00   8.121E-01
   8.400E-05   2.065E+02   2.037E+02   0.000E+00   8.187E-01
   8.330E-05   2.079E+02   2.070E+02   0.000E+00   8.235E-01
   8.200E-05   2.105E+02   2.131E+02   0.000E+00   8.326E-01
   8.100E-05   2.125E+02   2.179E+02   0.000E+00   8.398E-01
   8.000E-05   2.144E+02   2.228E+02   0.000E+00   8.472E-01
   7.900E-05   2.163E+02   2.278E+02   0.000E+00   8.551E-01
   7.800E-05   2.179E+02   2.328E+02   0.000E+00   8.631E-01
   7.700E-05   2.195E+02   2.380E+02   0.000E+00   8.714E-01
   7.600E-05   2.209E+02   2.432E+02   0.000E+00   8.799E-01
   7.500E-05   2.221E+02   2.485E+02   0.000E+00   8.888E-01
   7.400E-05   2.231E+02   2.539E+02   0.000E+00   8.979E-01
   7.300E-05   2.239E+02   2.593E+02   0.000E+00   9.073E-01
   7.140E-05   2.249E+02   2.682E+02   0.000E+00   9.232E-01
   7.100E-05   2.251E+02   2.705E+02   0.000E+00   9.272E-01
   7.000E-05   2.254E+02   2.762E+02   0.000E+00   9.376E-01
   6.900E-05   2.256E+02   2.819E+02   0.000E+00   9.484E-01
   6.800E-05   2.256E+02   2.877E+02   0.000E+00   9.597E-01
   6.700E-05   2.255E+02   2.933E+02   0.000E+00   9.712E-01
   6.600E-05   2.254E+02   2.989E+02   0.000E+00   9.831E-01
   6.500E-05   2.250E+02   3.043E+02   0.000E+00   9.955E-01
   6.400E-05   2.245E+02   3.095E+02   0.000E+00   1.008E+00
   6.300E-05   2.238E+02   3.144E+02   0.000E+00   1.021E+00
   6.250E-05   2.233E+02   3.167E+02   0.000E+00   1.028E+00
   6.200E-05   2.228E+02   3.191E+02   0.000E+00   1.035E+00
   6.100E-05   2.215E+02   3.235E+02   0.000E+00   1.049E+00
   6.000E-05   2.199E+02   3.277E+02   0.000E+00   1.063E+00
   5.900E-05   2.180E+02   3.320E+02   0.000E+00   1.078E+00
   5.800E-05   2.156E+02   3.363E+02   0.000E+00   1.093E+00
   5.700E-05   2.128E+02   3.408E+02   0.000E+00   1.108E+00
   5.600E-05   2.095E+02   3.455E+02   0.000E+00   1.124E+00
   5.500E-05   2.059E+02   3.505E+02   0.000E+00   1.140E+00
   5.477E-05   2.050E+02   3.516E+02   0.000E+00   1.144E+00
   5.400E-05   2.019E+02   3.555E+02   0.000E+00   1.157E+00
   5.300E-05   1.974E+02   3.606E+02   0.000E+00   1.174E+00
   5.200E-05   1.927E+02   3.655E+02   0.000E+00   1.192E+00
   5.100E-05   1.877E+02   3.701E+02   0.000E+00   1.210E+00
   5.000E-05   1.824E+02   3.746E+02   0.000E+00   1.228E+00
   4.900E-05   1.768E+02   3.791E+02   0.000E+00   1.247E+00
   4.880E-05   1.757E+02   3.801E+02   0.000E+00   1.251E+00
   4.800E-05   1.710E+02   3.839E+02   0.000E+00   1.266E+00
   4.760E-05   1.687E+02   3.858E+02   0.000E+00   1.274E+00
   4.700E-05   1.651E+02   3.886E+02   0.000E+00   1.286E+00
   4.650E-05   1.620E+02   3.908E+02   0.000E+00   1.296E+00
   4.600E-05   1.589E+02   3.927E+02   0.000E+00   1.306E+00
   4.550E-05   1.557E+02   3.944E+02   0.000E+00   1.316E+00
   4.500E-05   1.525E+02   3.956E+02   0.000E+00   1.325E+00
   4.440E-05   1.486E+02   3.964E+02   0.000E+00   1.338E+00
   4.350E-05   1.425E+02   3.966E+02   0.000E+00   1.356E+00
   4.170E-05   1.299E+02   3.960E+02   0.000E+00   1.394E+00
   4.000E-05   1.176E+02   3.980E+02   0.000E+00   1.430E+00
   3.850E-05   1.065E+02   3.982E+02   0.000E+00   1.462E+00
   3.656E-05   9.214E+01   3.938E+02   0.000E+00   1.503E+00
   3.570E-05   8.583E+01   3.911E+02   0.000E+00   1.520E+00
   3.330E-05   6.872E+01   3.738E+02   0.000E+00   1.567E+00
   3.130E-05   5.524E+01   3.587E+02   0.000E+00   1.606E+00
   3.000E-05   4.693E+01   3.458E+02   0.000E+00   1.631E+00
   2.940E-05   4.324E+01   3.359E+02   0.000E+00   1.642E+00
   2.780E-05   3.340E+01   3.123E+02   0.000E+00   1.675E+00
   2.630E-05   2.528E+01   2.867E+02   0.000E+00   1.725E+00
   2.500E-05   1.909E+01   2.640E+02   0.000E+00   1.811E+00
   2.380E-05   1.355E+01   2.473E+02   0.000E+00   1.986E+00
   2.270E-05   8.865E+00   2.197E+02   0.000E+00   2.178E+00
   2.170E-05   6.449E+00   1.991E+02   0.000E+00   2.177E+00
   2.080E-05   5.113E+00   1.944E+02   0.000E+00   2.074E+00
   2.000E-05   4.598E+00   1.729E+02   0.000E+00   1.959E+00
   1.920E-05   4.448E+00   1.475E+02   0.000E+00   1.846E+00
   1.850E-05   4.480E+00   1.318E+02   0.000E+00   1.771E+00
   1.790E-05   4.912E+00   1.177E+02   0.000E+00   1.719E+00
   1.720E-05   5.721E+00   1.050E+02   0.000E+00   1.684E+00
   1.670E-05   6.596E+00   9.518E+01   0.000E+00   1.671E+00
   1.610E-05   8.247E+00   8.177E+01   0.000E+00   1.672E+00
   1.560E-05   9.801E+00   6.881E+01   0.000E+00   1.687E+00
   1.520E-05   1.111E+01   5.659E+01   0.000E+00   1.711E+00
   1.470E-05   1.288E+01   4.029E+01   0.000E+00   1.750E+00
   1.430E-05   1.438E+01   2.712E+01   0.000E+00   1.786E+00
   1.390E-05   1.580E+01   1.978E+01   0.000E+00   1.816E+00
   1.350E-05   1.699E+01   1.615E+01   0.000E+00   1.845E+00
   1.320E-05   1.776E+01   1.549E+01   0.000E+00   1.870E+00
   1.280E-05   1.878E+01   1.611E+01   0.000E+00   1.911E+00
   1.250E-05   1.962E+01   1.571E+01   0.000E+00   1.949E+00
   1.220E-05   2.050E+01   1.566E+01   0.000E+00   1.994E+00
   1.190E-05   2.138E+01   1.701E+01   0.000E+00   2.050E+00
   1.160E-05   2.217E+01   1.905E+01   0.000E+00   2.112E+00
   1.140E-05   2.263E+01   2.156E+01   0.000E+00   2.160E+00
   1.110E-05   2.322E+01   2.616E+01   0.000E+00   2.240E+00
   1.080E-05   2.367E+01   3.168E+01   0.000E+00   2.367E+00
   1.050E-05   2.399E+01   3.704E+01   0.000E+00   2.530E+00
   1.030E-05   2.413E+01   4.068E+01   0.000E+00   2.670E+00
   1.000E-05   2.421E+01   4.594E+01   0.000E+00   2.875E+00
   9.750E-06   2.418E+01   5.045E+01   0.000E+00   3.072E+00
   9.500E-06   2.406E+01   5.477E+01   0.000E+00   3.289E+00
   9.250E-06   2.383E+01   5.892E+01   0.000E+00   3.475E+00
   9.080E-06   2.363E+01   5.393E+01   0.000E+00   3.571E+00
