 # Polarisation optical depth (Siebenmorgen 2023, A&A 670A,115; SC 2023 doi: 10.48550/arXiv.2311.03310)
 # wel         sigp_aC     sigp_Si      sigp_dark    sigt
 #----------------------------------------------------------------------------------------
   1.000E+00   5.710E-04   4.861E-04   0.000E+00   5.127E-06
   9.000E-01   6.689E-04   5.739E-04   0.000E+00   5.980E-06
   8.000E-01   7.990E-04   6.913E-04   0.000E+00   7.109E-06
   7.000E-01   9.784E-04   8.541E-04   0.000E+00   8.647E-06
   6.000E-01   1.238E-03   1.091E-03   0.000E+00   1.086E-05
   5.500E-01   1.415E-03   1.254E-03   0.000E+00   1.236E-05
   5.000E-01   1.640E-03   1.460E-03   0.000E+00   1.424E-05
   4.500E-01   1.931E-03   1.729E-03   0.000E+00   1.667E-05
   4.000E-01   2.322E-03   2.089E-03   0.000E+00   1.989E-05
   3.500E-01   2.864E-03   2.590E-03   0.000E+00   2.435E-05
   3.000E-01   3.657E-03   3.322E-03   0.000E+00   3.075E-05
   2.500E-01   4.898E-03   4.464E-03   0.000E+00   4.065E-05
   2.098E-01   6.507E-03   5.935E-03   0.000E+00   5.329E-05
   1.500E-01   1.131E-02   1.027E-02   0.000E+00   9.005E-05
   1.382E-01   1.298E-02   1.174E-02   0.000E+00   1.026E-04
   1.320E-01   1.402E-02   1.266E-02   0.000E+00   1.103E-04
   1.150E-01   1.770E-02   1.589E-02   0.000E+00   1.375E-04
   1.000E-01   2.252E-02   1.998E-02   0.000E+00   1.724E-04
   9.970E-02   2.263E-02   2.008E-02   0.000E+00   1.732E-04
   8.670E-02   2.850E-02   2.534E-02   0.000E+00   2.158E-04
   8.500E-02   2.952E-02   2.619E-02   0.000E+00   2.232E-04
   7.500E-02   3.746E-02   3.222E-02   0.000E+00   2.786E-04
   6.000E-02   5.509E-02   4.660E-02   0.000E+00   3.975E-04
   5.500E-02   6.383E-02   5.230E-02   0.000E+00   4.580E-04
   5.000E-02   7.598E-02   6.501E-02   0.000E+00   5.444E-04
   4.500E-02   9.364E-02   8.636E-02   0.000E+00   6.687E-04
   4.000E-02   1.203E-01   1.158E-01   0.000E+00   8.451E-04
   3.500E-02   1.509E-01   1.768E-01   0.000E+00   1.063E-03
   3.000E-02   2.131E-01   2.762E-01   0.000E+00   1.478E-03
   2.750E-02   2.544E-01   3.475E-01   0.000E+00   1.744E-03
   2.500E-02   3.065E-01   4.420E-01   0.000E+00   2.103E-03
   2.400E-02   3.367E-01   4.889E-01   0.000E+00   2.273E-03
   2.000E-02   4.934E-01   7.536E-01   0.000E+00   3.242E-03
   1.800E-02   6.157E-01   9.267E-01   0.000E+00   3.983E-03
   1.600E-02   8.200E-01   1.139E+00   0.000E+00   5.022E-03
   1.500E-02   9.788E-01   1.269E+00   0.000E+00   5.708E-03
   1.400E-02   1.114E+00   1.413E+00   0.000E+00   6.372E-03
   1.200E-02   1.706E+00   1.768E+00   0.000E+00   8.603E-03
   1.000E-02   2.597E+00   2.274E+00   0.000E+00   1.183E-02
   9.000E-03   3.468E+00   2.555E+00   0.000E+00   1.443E-02
   8.000E-03   4.574E+00   2.941E+00   0.000E+00   1.733E-02
   7.500E-03   5.361E+00   3.243E+00   0.000E+00   1.964E-02
   7.000E-03   6.452E+00   3.614E+00   0.000E+00   2.230E-02
   6.000E-03   9.160E+00   4.574E+00   0.000E+00   2.925E-02
   5.000E-03   1.272E+01   6.343E+00   0.000E+00   3.979E-02
   4.500E-03   1.530E+01   7.575E+00   0.000E+00   4.784E-02
   4.000E-03   1.761E+01   8.953E+00   0.000E+00   5.773E-02
   3.500E-03   2.052E+01   1.036E+01   0.000E+00   7.133E-02
   3.000E-03   2.389E+01   1.143E+01   0.000E+00   9.089E-02
   2.750E-03   2.520E+01   1.170E+01   0.000E+00   1.033E-01
   2.500E-03   2.603E+01   1.183E+01   0.000E+00   1.181E-01
   2.400E-03   2.658E+01   1.184E+01   0.000E+00   1.252E-01
   2.350E-03   2.690E+01   1.185E+01   0.000E+00   1.292E-01
   2.320E-03   2.705E+01   1.187E+01   0.000E+00   1.316E-01
   2.310E-03   2.710E+01   1.187E+01   0.000E+00   1.324E-01
   2.300E-03   2.715E+01   1.187E+01   0.000E+00   1.332E-01
   2.250E-03   2.730E+01   1.191E+01   0.000E+00   1.376E-01
   2.200E-03   2.747E+01   1.193E+01   0.000E+00   1.422E-01
   2.150E-03   2.773E+01   1.192E+01   0.000E+00   1.469E-01
   2.120E-03   2.789E+01   1.186E+01   0.000E+00   1.500E-01
   2.110E-03   2.792E+01   1.185E+01   0.000E+00   1.510E-01
   2.100E-03   2.792E+01   1.182E+01   0.000E+00   1.520E-01
   2.080E-03   2.788E+01   1.174E+01   0.000E+00   1.538E-01
   2.000E-03   2.787E+01   1.138E+01   0.000E+00   1.617E-01
   1.950E-03   2.804E+01   1.098E+01   0.000E+00   1.665E-01
   1.900E-03   2.839E+01   1.045E+01   0.000E+00   1.704E-01
   1.850E-03   2.873E+01   9.770E+00   0.000E+00   1.725E-01
   1.830E-03   2.888E+01   9.459E+00   0.000E+00   1.730E-01
   1.820E-03   2.889E+01   9.294E+00   0.000E+00   1.730E-01
   1.810E-03   2.894E+01   9.123E+00   0.000E+00   1.728E-01
   1.800E-03   2.901E+01   8.956E+00   0.000E+00   1.727E-01
   1.750E-03   2.933E+01   7.998E+00   0.000E+00   1.711E-01
   1.700E-03   2.937E+01   6.975E+00   0.000E+00   1.671E-01
   1.670E-03   2.968E+01   6.358E+00   0.000E+00   1.647E-01
   1.650E-03   2.997E+01   5.954E+00   0.000E+00   1.631E-01
   1.640E-03   3.006E+01   5.757E+00   0.000E+00   1.621E-01
   1.630E-03   3.015E+01   5.560E+00   0.000E+00   1.612E-01
   1.610E-03   3.027E+01   5.181E+00   0.000E+00   1.592E-01
   1.600E-03   3.036E+01   4.998E+00   0.000E+00   1.582E-01
   1.590E-03   3.045E+01   4.823E+00   0.000E+00   1.572E-01
   1.580E-03   3.051E+01   4.658E+00   0.000E+00   1.563E-01
   1.570E-03   3.051E+01   4.501E+00   0.000E+00   1.552E-01
   1.560E-03   3.064E+01   4.365E+00   0.000E+00   1.544E-01
   1.540E-03   3.090E+01   4.144E+00   0.000E+00   1.531E-01
   1.520E-03   3.091E+01   4.007E+00   0.000E+00   1.517E-01
   1.510E-03   3.091E+01   3.974E+00   0.000E+00   1.510E-01
   1.500E-03   3.086E+01   3.959E+00   0.000E+00   1.505E-01
   1.450E-03   3.104E+01   4.095E+00   0.000E+00   1.498E-01
   1.440E-03   3.111E+01   4.147E+00   0.000E+00   1.501E-01
   1.430E-03   3.117E+01   4.190E+00   0.000E+00   1.510E-01
   1.420E-03   3.123E+01   4.232E+00   0.000E+00   1.519E-01
   1.400E-03   3.141E+01   4.328E+00   0.000E+00   1.550E-01
   1.380E-03   3.155E+01   4.418E+00   0.000E+00   1.593E-01
   1.370E-03   3.162E+01   4.468E+00   0.000E+00   1.622E-01
   1.360E-03   3.173E+01   4.519E+00   0.000E+00   1.655E-01
   1.350E-03   3.187E+01   4.581E+00   0.000E+00   1.690E-01
   1.340E-03   3.199E+01   4.643E+00   0.000E+00   1.727E-01
   1.330E-03   3.206E+01   4.720E+00   0.000E+00   1.765E-01
   1.320E-03   3.217E+01   4.801E+00   0.000E+00   1.805E-01
   1.310E-03   3.217E+01   4.894E+00   0.000E+00   1.845E-01
   1.290E-03   3.206E+01   5.119E+00   0.000E+00   1.927E-01
   1.280E-03   3.204E+01   5.238E+00   0.000E+00   1.974E-01
   1.270E-03   3.212E+01   5.337E+00   0.000E+00   2.023E-01
   1.260E-03   3.216E+01   5.486E+00   0.000E+00   2.072E-01
   1.250E-03   3.217E+01   5.680E+00   0.000E+00   2.119E-01
   1.220E-03   3.265E+01   6.839E+00   0.000E+00   2.284E-01
   1.210E-03   3.266E+01   7.598E+00   0.000E+00   2.345E-01
   1.200E-03   3.266E+01   8.487E+00   0.000E+00   2.409E-01
   1.190E-03   3.288E+01   9.412E+00   0.000E+00   2.479E-01
   1.180E-03   3.299E+01   1.028E+01   0.000E+00   2.544E-01
   1.170E-03   3.306E+01   1.103E+01   0.000E+00   2.608E-01
   1.160E-03   3.317E+01   1.163E+01   0.000E+00   2.669E-01
   1.150E-03   3.314E+01   1.211E+01   0.000E+00   2.727E-01
   1.140E-03   3.307E+01   1.248E+01   0.000E+00   2.787E-01
   1.130E-03   3.306E+01   1.278E+01   0.000E+00   2.848E-01
   1.120E-03   3.306E+01   1.304E+01   0.000E+00   2.905E-01
   1.110E-03   3.303E+01   1.328E+01   0.000E+00   2.961E-01
   1.090E-03   3.309E+01   1.368E+01   0.000E+00   3.074E-01
   1.050E-03   3.353E+01   1.408E+01   0.000E+00   3.322E-01
   1.000E-03   3.427E+01   1.372E+01   0.000E+00   3.439E-01
   9.800E-04   3.461E+01   1.310E+01   0.000E+00   3.475E-01
   9.600E-04   3.490E+01   1.216E+01   0.000E+00   3.483E-01
   9.500E-04   3.516E+01   1.159E+01   0.000E+00   3.462E-01
   9.400E-04   3.515E+01   1.099E+01   0.000E+00   3.411E-01
   9.200E-04   3.530E+01   9.823E+00   0.000E+00   3.226E-01
   8.900E-04   3.578E+01   8.076E+00   0.000E+00   2.846E-01
   8.700E-04   3.562E+01   7.111E+00   0.000E+00   2.614E-01
   8.600E-04   3.585E+01   6.686E+00   0.000E+00   2.528E-01
   8.500E-04   3.583E+01   6.245E+00   0.000E+00   2.444E-01
   8.400E-04   3.609E+01   5.777E+00   0.000E+00   2.361E-01
   8.200E-04   3.588E+01   4.818E+00   0.000E+00   2.146E-01
   8.000E-04   3.604E+01   4.022E+00   0.000E+00   1.934E-01
   7.900E-04   3.625E+01   3.736E+00   0.000E+00   1.880E-01
   7.800E-04   3.611E+01   3.503E+00   0.000E+00   1.821E-01
   7.700E-04   3.598E+01   3.303E+00   0.000E+00   1.783E-01
   7.600E-04   3.587E+01   3.127E+00   0.000E+00   1.766E-01
   7.500E-04   3.576E+01   2.968E+00   0.000E+00   1.755E-01
   7.300E-04   3.596E+01   2.726E+00   0.000E+00   1.795E-01
   7.200E-04   3.584E+01   2.660E+00   0.000E+00   1.821E-01
   7.100E-04   3.577E+01   2.625E+00   0.000E+00   1.851E-01
   7.000E-04   3.600E+01   2.582E+00   0.000E+00   1.893E-01
   6.900E-04   3.577E+01   2.503E+00   0.000E+00   1.923E-01
   6.800E-04   3.506E+01   2.394E+00   0.000E+00   1.938E-01
   6.600E-04   3.542E+01   2.199E+00   0.000E+00   2.027E-01
   6.400E-04   3.644E+01   1.943E+00   0.000E+00   2.138E-01
   6.300E-04   3.695E+01   1.836E+00   0.000E+00   2.196E-01
   6.200E-04   3.686E+01   1.826E+00   0.000E+00   2.239E-01
   6.100E-04   3.709E+01   1.828E+00   0.000E+00   2.293E-01
   5.900E-04   3.817E+01   1.526E+00   0.000E+00   2.419E-01
   5.500E-04   3.555E+01   1.186E+00   0.000E+00   2.569E-01
   5.300E-04   3.593E+01   1.085E+00   0.000E+00   2.718E-01
   5.200E-04   3.593E+01   1.033E+00   0.000E+00   2.791E-01
   5.100E-04   3.627E+01   9.803E-01   0.000E+00   2.878E-01
   5.000E-04   3.659E+01   9.293E-01   0.000E+00   2.965E-01
   4.800E-04   3.688E+01   8.515E-01   0.000E+00   3.140E-01
   4.500E-04   3.767E+01   7.616E-01   0.000E+00   3.433E-01
   4.000E-04   3.876E+01   6.686E-01   0.000E+00   4.029E-01
   3.800E-04   3.954E+01   6.554E-01   0.000E+00   4.318E-01
   3.600E-04   4.043E+01   6.609E-01   0.000E+00   4.632E-01
   3.400E-04   4.210E+01   6.918E-01   0.000E+00   4.961E-01
   3.300E-04   4.184E+01   7.185E-01   0.000E+00   5.117E-01
   3.200E-04   4.215E+01   7.530E-01   0.000E+00   5.298E-01
   3.150E-04   4.261E+01   7.755E-01   0.000E+00   5.397E-01
   3.100E-04   4.305E+01   8.006E-01   0.000E+00   5.495E-01
   3.080E-04   4.318E+01   8.114E-01   0.000E+00   5.533E-01
   3.050E-04   4.333E+01   8.284E-01   0.000E+00   5.592E-01
   3.000E-04   4.366E+01   8.610E-01   0.000E+00   5.694E-01
   2.900E-04   4.460E+01   9.376E-01   0.000E+00   5.902E-01
   2.800E-04   4.498E+01   1.034E+00   0.000E+00   6.106E-01
   2.600E-04   4.685E+01   1.308E+00   0.000E+00   6.539E-01
   2.500E-04   4.829E+01   1.499E+00   0.000E+00   6.767E-01
   2.200E-04   5.465E+01   2.437E+00   0.000E+00   7.447E-01
   2.159E-04   5.553E+01   2.628E+00   0.000E+00   7.532E-01
   2.000E-04   6.075E+01   3.598E+00   0.000E+00   7.874E-01
   1.662E-04   7.764E+01   7.914E+00   0.000E+00   8.486E-01
   1.650E-04   7.848E+01   8.166E+00   0.000E+00   8.505E-01
   1.250E-04   1.324E+02   2.687E+01   0.000E+00   9.354E-01
   1.235E-04   1.359E+02   2.825E+01   0.000E+00   9.404E-01
   1.130E-04   1.641E+02   4.043E+01   0.000E+00   9.811E-01
   1.000E-04   2.112E+02   6.353E+01   0.000E+00   1.050E+00
   9.500E-05   2.316E+02   7.537E+01   0.000E+00   1.083E+00
   9.300E-05   2.397E+02   8.061E+01   0.000E+00   1.097E+00
   9.200E-05   2.438E+02   8.335E+01   0.000E+00   1.104E+00
   9.100E-05   2.477E+02   8.616E+01   0.000E+00   1.112E+00
   9.000E-05   2.517E+02   8.904E+01   0.000E+00   1.119E+00
   8.900E-05   2.556E+02   9.199E+01   0.000E+00   1.127E+00
   8.800E-05   2.596E+02   9.503E+01   0.000E+00   1.135E+00
   8.700E-05   2.635E+02   9.814E+01   0.000E+00   1.143E+00
   8.600E-05   2.674E+02   1.013E+02   0.000E+00   1.152E+00
   8.500E-05   2.713E+02   1.046E+02   0.000E+00   1.161E+00
   8.400E-05   2.752E+02   1.079E+02   0.000E+00   1.170E+00
   8.330E-05   2.780E+02   1.103E+02   0.000E+00   1.176E+00
   8.200E-05   2.831E+02   1.149E+02   0.000E+00   1.189E+00
   8.100E-05   2.870E+02   1.184E+02   0.000E+00   1.200E+00
   8.000E-05   2.908E+02   1.221E+02   0.000E+00   1.211E+00
   7.900E-05   2.946E+02   1.259E+02   0.000E+00   1.222E+00
   7.800E-05   2.982E+02   1.297E+02   0.000E+00   1.234E+00
   7.700E-05   3.016E+02   1.337E+02   0.000E+00   1.246E+00
   7.600E-05   3.049E+02   1.378E+02   0.000E+00   1.260E+00
   7.500E-05   3.079E+02   1.419E+02   0.000E+00   1.273E+00
   7.400E-05   3.106E+02   1.462E+02   0.000E+00   1.288E+00
   7.300E-05   3.130E+02   1.506E+02   0.000E+00   1.303E+00
   7.140E-05   3.161E+02   1.579E+02   0.000E+00   1.328E+00
   7.100E-05   3.167E+02   1.598E+02   0.000E+00   1.334E+00
   7.000E-05   3.181E+02   1.645E+02   0.000E+00   1.351E+00
   6.900E-05   3.192E+02   1.694E+02   0.000E+00   1.368E+00
   6.800E-05   3.200E+02   1.744E+02   0.000E+00   1.386E+00
   6.700E-05   3.205E+02   1.796E+02   0.000E+00   1.405E+00
   6.600E-05   3.207E+02   1.848E+02   0.000E+00   1.424E+00
   6.500E-05   3.207E+02   1.902E+02   0.000E+00   1.445E+00
   6.400E-05   3.204E+02   1.957E+02   0.000E+00   1.466E+00
   6.300E-05   3.199E+02   2.013E+02   0.000E+00   1.487E+00
   6.250E-05   3.195E+02   2.041E+02   0.000E+00   1.499E+00
   6.200E-05   3.191E+02   2.070E+02   0.000E+00   1.510E+00
   6.100E-05   3.180E+02   2.129E+02   0.000E+00   1.533E+00
   6.000E-05   3.166E+02   2.188E+02   0.000E+00   1.558E+00
   5.900E-05   3.148E+02   2.249E+02   0.000E+00   1.583E+00
   5.800E-05   3.125E+02   2.311E+02   0.000E+00   1.609E+00
   5.700E-05   3.096E+02   2.374E+02   0.000E+00   1.635E+00
   5.600E-05   3.062E+02   2.437E+02   0.000E+00   1.663E+00
   5.500E-05   3.022E+02   2.500E+02   0.000E+00   1.691E+00
   5.477E-05   3.011E+02   2.514E+02   0.000E+00   1.699E+00
   5.400E-05   2.975E+02   2.561E+02   0.000E+00   1.721E+00
   5.300E-05   2.922E+02   2.621E+02   0.000E+00   1.750E+00
   5.200E-05   2.864E+02   2.678E+02   0.000E+00   1.780E+00
   5.100E-05   2.800E+02   2.731E+02   0.000E+00   1.811E+00
   5.000E-05   2.731E+02   2.783E+02   0.000E+00   1.842E+00
   4.900E-05   2.658E+02   2.833E+02   0.000E+00   1.874E+00
   4.880E-05   2.642E+02   2.843E+02   0.000E+00   1.880E+00
   4.800E-05   2.580E+02   2.883E+02   0.000E+00   1.906E+00
   4.760E-05   2.548E+02   2.904E+02   0.000E+00   1.920E+00
   4.700E-05   2.499E+02   2.935E+02   0.000E+00   1.940E+00
   4.650E-05   2.456E+02   2.962E+02   0.000E+00   1.957E+00
   4.600E-05   2.414E+02   2.989E+02   0.000E+00   1.974E+00
   4.550E-05   2.370E+02   3.017E+02   0.000E+00   1.992E+00
   4.500E-05   2.325E+02   3.045E+02   0.000E+00   2.010E+00
   4.440E-05   2.270E+02   3.078E+02   0.000E+00   2.031E+00
   4.350E-05   2.185E+02   3.127E+02   0.000E+00   2.065E+00
   4.170E-05   2.006E+02   3.217E+02   0.000E+00   2.134E+00
   4.000E-05   1.827E+02   3.299E+02   0.000E+00   2.204E+00
   3.850E-05   1.663E+02   3.370E+02   0.000E+00   2.267E+00
   3.656E-05   1.447E+02   3.413E+02   0.000E+00   2.351E+00
   3.570E-05   1.352E+02   3.414E+02   0.000E+00   2.389E+00
   3.330E-05   1.093E+02   3.428E+02   0.000E+00   2.503E+00
   3.130E-05   8.869E+01   3.408E+02   0.000E+00   2.605E+00
   3.000E-05   7.592E+01   3.367E+02   0.000E+00   2.677E+00
   2.940E-05   7.024E+01   3.332E+02   0.000E+00   2.711E+00
   2.780E-05   5.513E+01   3.185E+02   0.000E+00   2.809E+00
   2.630E-05   4.260E+01   3.041E+02   0.000E+00   2.922E+00
   2.500E-05   3.300E+01   2.865E+02   0.000E+00   3.065E+00
   2.380E-05   2.438E+01   2.617E+02   0.000E+00   3.302E+00
   2.270E-05   1.670E+01   2.385E+02   0.000E+00   3.701E+00
   2.170E-05   1.142E+01   2.190E+02   0.000E+00   4.055E+00
   2.080E-05   7.869E+00   2.037E+02   0.000E+00   3.885E+00
   2.000E-05   6.097E+00   1.766E+02   0.000E+00   3.592E+00
   1.920E-05   5.495E+00   1.474E+02   0.000E+00   3.383E+00
   1.850E-05   5.176E+00   1.307E+02   0.000E+00   3.289E+00
   1.790E-05   5.369E+00   1.163E+02   0.000E+00   3.243E+00
   1.720E-05   6.279E+00   1.043E+02   0.000E+00   3.229E+00
   1.670E-05   7.523E+00   9.488E+01   0.000E+00   3.240E+00
   1.610E-05   1.010E+01   8.254E+01   0.000E+00   3.286E+00
   1.560E-05   1.253E+01   7.087E+01   0.000E+00   3.353E+00
   1.520E-05   1.458E+01   5.987E+01   0.000E+00   3.430E+00
   1.470E-05   1.733E+01   4.500E+01   0.000E+00   3.542E+00
   1.430E-05   1.965E+01   3.256E+01   0.000E+00   3.641E+00
   1.390E-05   2.188E+01   2.278E+01   0.000E+00   3.718E+00
   1.350E-05   2.374E+01   1.592E+01   0.000E+00   3.790E+00
   1.320E-05   2.496E+01   1.311E+01   0.000E+00   3.849E+00
   1.280E-05   2.656E+01   1.175E+01   0.000E+00   3.941E+00
   1.250E-05   2.788E+01   1.126E+01   0.000E+00   4.022E+00
   1.220E-05   2.927E+01   1.094E+01   0.000E+00   4.117E+00
   1.190E-05   3.065E+01   1.136E+01   0.000E+00   4.233E+00
   1.160E-05   3.189E+01   1.256E+01   0.000E+00   4.363E+00
   1.140E-05   3.263E+01   1.440E+01   0.000E+00   4.459E+00
   1.110E-05   3.358E+01   1.839E+01   0.000E+00   4.619E+00
   1.080E-05   3.432E+01   2.368E+01   0.000E+00   4.845E+00
   1.050E-05   3.487E+01   2.884E+01   0.000E+00   5.130E+00
   1.030E-05   3.513E+01   3.234E+01   0.000E+00   5.384E+00
   1.000E-05   3.531E+01   3.744E+01   0.000E+00   5.756E+00
   9.750E-06   3.532E+01   4.182E+01   0.000E+00   6.094E+00
   9.500E-06   3.519E+01   4.603E+01   0.000E+00   6.460E+00
   9.250E-06   3.491E+01   5.011E+01   0.000E+00   6.788E+00
   9.080E-06   3.463E+01   5.278E+01   0.000E+00   6.963E+00
