 # Polarisation optical depth (Siebenmorgen 2023, A&A 670A,115; SC 2023 doi: 10.48550/arXiv.2311.03310)
 # wel         sigp_aC     sigp_Si      sigp_dark    sigt
 #----------------------------------------------------------------------------------------
   1.000E+00   6.092E-04   5.775E-04   0.000E+00   2.490E-06
   9.000E-01   7.135E-04   6.817E-04   0.000E+00   2.908E-06
   8.000E-01   8.523E-04   8.212E-04   0.000E+00   3.461E-06
   7.000E-01   1.044E-03   1.015E-03   0.000E+00   4.216E-06
   6.000E-01   1.321E-03   1.297E-03   0.000E+00   5.305E-06
   5.500E-01   1.510E-03   1.489E-03   0.000E+00   6.043E-06
   5.000E-01   1.749E-03   1.735E-03   0.000E+00   6.969E-06
   4.500E-01   2.060E-03   2.053E-03   0.000E+00   8.171E-06
   4.000E-01   2.477E-03   2.481E-03   0.000E+00   9.759E-06
   3.500E-01   3.055E-03   3.076E-03   0.000E+00   1.196E-05
   3.000E-01   3.902E-03   3.946E-03   0.000E+00   1.513E-05
   2.500E-01   5.225E-03   5.303E-03   0.000E+00   2.004E-05
   2.098E-01   6.942E-03   7.050E-03   0.000E+00   2.631E-05
   1.500E-01   1.207E-02   1.220E-02   0.000E+00   4.459E-05
   1.382E-01   1.384E-02   1.395E-02   0.000E+00   5.082E-05
   1.320E-01   1.495E-02   1.504E-02   0.000E+00   5.469E-05
   1.150E-01   1.889E-02   1.888E-02   0.000E+00   6.825E-05
   1.000E-01   2.402E-02   2.374E-02   0.000E+00   8.561E-05
   9.970E-02   2.415E-02   2.386E-02   0.000E+00   8.604E-05
   8.670E-02   3.040E-02   3.010E-02   0.000E+00   1.074E-04
   8.500E-02   3.149E-02   3.111E-02   0.000E+00   1.111E-04
   7.500E-02   3.996E-02   3.827E-02   0.000E+00   1.385E-04
   6.000E-02   5.877E-02   5.536E-02   0.000E+00   1.981E-04
   5.500E-02   6.809E-02   6.212E-02   0.000E+00   2.278E-04
   5.000E-02   8.106E-02   7.722E-02   0.000E+00   2.716E-04
   4.500E-02   9.990E-02   1.026E-01   0.000E+00   3.355E-04
   4.000E-02   1.284E-01   1.376E-01   0.000E+00   4.260E-04
   3.500E-02   1.609E-01   2.101E-01   0.000E+00   5.450E-04
   3.000E-02   2.274E-01   3.281E-01   0.000E+00   7.668E-04
   2.750E-02   2.714E-01   4.128E-01   0.000E+00   9.120E-04
   2.500E-02   3.270E-01   5.251E-01   0.000E+00   1.106E-03
   2.400E-02   3.592E-01   5.808E-01   0.000E+00   1.200E-03
   2.000E-02   5.264E-01   8.952E-01   0.000E+00   1.732E-03
   1.800E-02   6.569E-01   1.101E+00   0.000E+00   2.131E-03
   1.600E-02   8.748E-01   1.354E+00   0.000E+00   2.687E-03
   1.500E-02   1.044E+00   1.508E+00   0.000E+00   3.054E-03
   1.400E-02   1.188E+00   1.679E+00   0.000E+00   3.415E-03
   1.200E-02   1.821E+00   2.100E+00   0.000E+00   4.602E-03
   1.000E-02   2.771E+00   2.701E+00   0.000E+00   6.330E-03
   9.000E-03   3.699E+00   3.035E+00   0.000E+00   7.701E-03
   8.000E-03   4.880E+00   3.494E+00   0.000E+00   9.277E-03
   7.500E-03   5.719E+00   3.852E+00   0.000E+00   1.051E-02
   7.000E-03   6.884E+00   4.294E+00   0.000E+00   1.196E-02
   6.000E-03   9.773E+00   5.434E+00   0.000E+00   1.577E-02
   5.000E-03   1.357E+01   7.537E+00   0.000E+00   2.167E-02
   4.500E-03   1.633E+01   9.001E+00   0.000E+00   2.619E-02
   4.000E-03   1.880E+01   1.064E+01   0.000E+00   3.176E-02
   3.500E-03   2.190E+01   1.231E+01   0.000E+00   3.922E-02
   3.000E-03   2.549E+01   1.358E+01   0.000E+00   4.948E-02
   2.750E-03   2.690E+01   1.391E+01   0.000E+00   5.566E-02
   2.500E-03   2.778E+01   1.406E+01   0.000E+00   6.291E-02
   2.400E-03   2.837E+01   1.407E+01   0.000E+00   6.635E-02
   2.350E-03   2.872E+01   1.409E+01   0.000E+00   6.832E-02
   2.320E-03   2.887E+01   1.410E+01   0.000E+00   6.949E-02
   2.310E-03   2.892E+01   1.411E+01   0.000E+00   6.989E-02
   2.300E-03   2.898E+01   1.411E+01   0.000E+00   7.028E-02
   2.250E-03   2.914E+01   1.415E+01   0.000E+00   7.243E-02
   2.200E-03   2.932E+01   1.418E+01   0.000E+00   7.472E-02
   2.150E-03   2.961E+01   1.417E+01   0.000E+00   7.708E-02
   2.120E-03   2.977E+01   1.410E+01   0.000E+00   7.860E-02
   2.110E-03   2.980E+01   1.408E+01   0.000E+00   7.911E-02
   2.100E-03   2.980E+01   1.405E+01   0.000E+00   7.961E-02
   2.080E-03   2.977E+01   1.396E+01   0.000E+00   8.050E-02
   2.000E-03   2.975E+01   1.353E+01   0.000E+00   8.437E-02
   1.950E-03   2.994E+01   1.305E+01   0.000E+00   8.675E-02
   1.900E-03   3.031E+01   1.242E+01   0.000E+00   8.869E-02
   1.850E-03   3.067E+01   1.161E+01   0.000E+00   8.972E-02
   1.830E-03   3.083E+01   1.124E+01   0.000E+00   8.993E-02
   1.820E-03   3.085E+01   1.105E+01   0.000E+00   8.990E-02
   1.810E-03   3.090E+01   1.084E+01   0.000E+00   8.981E-02
   1.800E-03   3.097E+01   1.064E+01   0.000E+00   8.972E-02
   1.750E-03   3.131E+01   9.506E+00   0.000E+00   8.871E-02
   1.700E-03   3.136E+01   8.290E+00   0.000E+00   8.631E-02
   1.670E-03   3.169E+01   7.558E+00   0.000E+00   8.481E-02
   1.650E-03   3.200E+01   7.077E+00   0.000E+00   8.372E-02
   1.640E-03   3.210E+01   6.844E+00   0.000E+00   8.310E-02
   1.630E-03   3.219E+01   6.610E+00   0.000E+00   8.247E-02
   1.610E-03   3.233E+01   6.160E+00   0.000E+00   8.113E-02
   1.600E-03   3.242E+01   5.942E+00   0.000E+00   8.045E-02
   1.590E-03   3.251E+01   5.734E+00   0.000E+00   7.978E-02
   1.580E-03   3.258E+01   5.538E+00   0.000E+00   7.913E-02
   1.570E-03   3.258E+01   5.352E+00   0.000E+00   7.839E-02
   1.560E-03   3.272E+01   5.191E+00   0.000E+00   7.780E-02
   1.540E-03   3.299E+01   4.928E+00   0.000E+00   7.683E-02
   1.520E-03   3.301E+01   4.766E+00   0.000E+00   7.580E-02
   1.510E-03   3.301E+01   4.726E+00   0.000E+00   7.537E-02
   1.500E-03   3.296E+01   4.709E+00   0.000E+00   7.496E-02
   1.450E-03   3.315E+01   4.872E+00   0.000E+00   7.407E-02
   1.440E-03   3.323E+01   4.934E+00   0.000E+00   7.412E-02
   1.430E-03   3.329E+01   4.986E+00   0.000E+00   7.443E-02
   1.420E-03   3.335E+01   5.036E+00   0.000E+00   7.474E-02
   1.400E-03   3.355E+01   5.150E+00   0.000E+00   7.592E-02
   1.380E-03   3.370E+01   5.258E+00   0.000E+00   7.766E-02
   1.370E-03   3.377E+01   5.318E+00   0.000E+00   7.889E-02
   1.360E-03   3.389E+01   5.378E+00   0.000E+00   8.030E-02
   1.350E-03   3.404E+01   5.453E+00   0.000E+00   8.177E-02
   1.340E-03   3.417E+01   5.527E+00   0.000E+00   8.341E-02
   1.330E-03   3.425E+01   5.619E+00   0.000E+00   8.508E-02
   1.320E-03   3.437E+01   5.715E+00   0.000E+00   8.684E-02
   1.310E-03   3.436E+01   5.827E+00   0.000E+00   8.864E-02
   1.290E-03   3.425E+01   6.095E+00   0.000E+00   9.230E-02
   1.280E-03   3.423E+01   6.237E+00   0.000E+00   9.446E-02
   1.270E-03   3.431E+01   6.356E+00   0.000E+00   9.670E-02
   1.260E-03   3.436E+01   6.533E+00   0.000E+00   9.887E-02
   1.250E-03   3.437E+01   6.765E+00   0.000E+00   1.010E-01
   1.220E-03   3.488E+01   8.148E+00   0.000E+00   1.090E-01
   1.210E-03   3.490E+01   9.052E+00   0.000E+00   1.122E-01
   1.200E-03   3.489E+01   1.011E+01   0.000E+00   1.156E-01
   1.190E-03   3.513E+01   1.121E+01   0.000E+00   1.194E-01
   1.180E-03   3.525E+01   1.225E+01   0.000E+00   1.230E-01
   1.170E-03   3.533E+01   1.314E+01   0.000E+00   1.265E-01
   1.160E-03   3.544E+01   1.386E+01   0.000E+00   1.299E-01
   1.150E-03   3.541E+01   1.442E+01   0.000E+00   1.333E-01
   1.140E-03   3.534E+01   1.487E+01   0.000E+00   1.365E-01
   1.130E-03   3.533E+01   1.523E+01   0.000E+00   1.398E-01
   1.120E-03   3.533E+01   1.553E+01   0.000E+00   1.429E-01
   1.110E-03   3.530E+01   1.582E+01   0.000E+00   1.458E-01
   1.090E-03   3.536E+01   1.630E+01   0.000E+00   1.519E-01
   1.050E-03   3.584E+01   1.677E+01   0.000E+00   1.661E-01
   1.000E-03   3.663E+01   1.634E+01   0.000E+00   1.750E-01
   9.800E-04   3.701E+01   1.560E+01   0.000E+00   1.779E-01
   9.600E-04   3.731E+01   1.448E+01   0.000E+00   1.793E-01
   9.500E-04   3.759E+01   1.380E+01   0.000E+00   1.788E-01
   9.400E-04   3.758E+01   1.309E+01   0.000E+00   1.766E-01
   9.200E-04   3.775E+01   1.170E+01   0.000E+00   1.678E-01
   8.900E-04   3.827E+01   9.617E+00   0.000E+00   1.483E-01
   8.700E-04   3.810E+01   8.469E+00   0.000E+00   1.359E-01
   8.600E-04   3.835E+01   7.964E+00   0.000E+00   1.313E-01
   8.500E-04   3.833E+01   7.439E+00   0.000E+00   1.267E-01
   8.400E-04   3.861E+01   6.882E+00   0.000E+00   1.221E-01
   8.200E-04   3.839E+01   5.742E+00   0.000E+00   1.104E-01
   8.000E-04   3.857E+01   4.796E+00   0.000E+00   9.870E-02
   7.900E-04   3.879E+01   4.456E+00   0.000E+00   9.537E-02
   7.800E-04   3.865E+01   4.180E+00   0.000E+00   9.186E-02
   7.700E-04   3.851E+01   3.942E+00   0.000E+00   8.931E-02
   7.600E-04   3.840E+01   3.734E+00   0.000E+00   8.782E-02
   7.500E-04   3.828E+01   3.545E+00   0.000E+00   8.661E-02
   7.300E-04   3.850E+01   3.260E+00   0.000E+00   8.731E-02
   7.200E-04   3.837E+01   3.182E+00   0.000E+00   8.805E-02
   7.100E-04   3.830E+01   3.141E+00   0.000E+00   8.899E-02
   7.000E-04   3.855E+01   3.092E+00   0.000E+00   9.059E-02
   6.900E-04   3.831E+01   2.999E+00   0.000E+00   9.160E-02
   6.800E-04   3.755E+01   2.869E+00   0.000E+00   9.171E-02
   6.600E-04   3.796E+01   2.639E+00   0.000E+00   9.475E-02
   6.400E-04   3.906E+01   2.337E+00   0.000E+00   9.907E-02
   6.300E-04   3.961E+01   2.211E+00   0.000E+00   1.015E-01
   6.200E-04   3.952E+01   2.202E+00   0.000E+00   1.032E-01
   6.100E-04   3.976E+01   2.206E+00   0.000E+00   1.053E-01
   5.900E-04   4.093E+01   1.849E+00   0.000E+00   1.105E-01
   5.500E-04   3.816E+01   1.454E+00   0.000E+00   1.151E-01
   5.300E-04   3.858E+01   1.340E+00   0.000E+00   1.210E-01
   5.200E-04   3.859E+01   1.282E+00   0.000E+00   1.240E-01
   5.100E-04   3.897E+01   1.223E+00   0.000E+00   1.278E-01
   5.000E-04   3.933E+01   1.168E+00   0.000E+00   1.316E-01
   4.800E-04   3.967E+01   1.087E+00   0.000E+00   1.395E-01
   4.500E-04   4.056E+01   1.003E+00   0.000E+00   1.534E-01
   4.000E-04   4.185E+01   9.561E-01   0.000E+00   1.812E-01
   3.800E-04   4.275E+01   9.804E-01   0.000E+00   1.947E-01
   3.600E-04   4.380E+01   1.040E+00   0.000E+00   2.098E-01
   3.400E-04   4.568E+01   1.149E+00   0.000E+00   2.273E-01
   3.300E-04   4.546E+01   1.226E+00   0.000E+00   2.355E-01
   3.200E-04   4.586E+01   1.321E+00   0.000E+00   2.452E-01
   3.150E-04   4.639E+01   1.379E+00   0.000E+00   2.507E-01
   3.100E-04   4.690E+01   1.442E+00   0.000E+00   2.561E-01
   3.080E-04   4.705E+01   1.469E+00   0.000E+00   2.582E-01
   3.050E-04   4.725E+01   1.512E+00   0.000E+00   2.614E-01
   3.000E-04   4.764E+01   1.590E+00   0.000E+00   2.669E-01
   2.900E-04   4.875E+01   1.773E+00   0.000E+00   2.784E-01
   2.800E-04   4.926E+01   1.999E+00   0.000E+00   2.897E-01
   2.600E-04   5.156E+01   2.625E+00   0.000E+00   3.156E-01
   2.500E-04   5.331E+01   3.057E+00   0.000E+00   3.302E-01
   2.200E-04   6.097E+01   5.157E+00   0.000E+00   3.770E-01
   2.159E-04   6.205E+01   5.582E+00   0.000E+00   3.833E-01
   2.000E-04   6.840E+01   7.734E+00   0.000E+00   4.100E-01
   1.662E-04   8.914E+01   1.714E+01   0.000E+00   4.662E-01
   1.650E-04   9.017E+01   1.768E+01   0.000E+00   4.682E-01
   1.250E-04   1.536E+02   5.342E+01   0.000E+00   5.420E-01
   1.235E-04   1.575E+02   5.574E+01   0.000E+00   5.458E-01
   1.130E-04   1.878E+02   7.468E+01   0.000E+00   5.765E-01
   1.000E-04   2.339E+02   1.049E+02   0.000E+00   6.344E-01
   9.500E-05   2.521E+02   1.187E+02   0.000E+00   6.651E-01
   9.300E-05   2.591E+02   1.246E+02   0.000E+00   6.790E-01
   9.200E-05   2.625E+02   1.276E+02   0.000E+00   6.863E-01
   9.100E-05   2.658E+02   1.307E+02   0.000E+00   6.939E-01
   9.000E-05   2.691E+02   1.339E+02   0.000E+00   7.017E-01
   8.900E-05   2.723E+02   1.371E+02   0.000E+00   7.097E-01
   8.800E-05   2.755E+02   1.405E+02   0.000E+00   7.181E-01
   8.700E-05   2.786E+02   1.439E+02   0.000E+00   7.268E-01
   8.600E-05   2.817E+02   1.473E+02   0.000E+00   7.358E-01
   8.500E-05   2.847E+02   1.508E+02   0.000E+00   7.451E-01
   8.400E-05   2.878E+02   1.545E+02   0.000E+00   7.548E-01
   8.330E-05   2.900E+02   1.570E+02   0.000E+00   7.619E-01
   8.200E-05   2.939E+02   1.619E+02   0.000E+00   7.755E-01
   8.100E-05   2.968E+02   1.658E+02   0.000E+00   7.863E-01
   8.000E-05   2.996E+02   1.697E+02   0.000E+00   7.977E-01
   7.900E-05   3.023E+02   1.737E+02   0.000E+00   8.096E-01
   7.800E-05   3.049E+02   1.777E+02   0.000E+00   8.218E-01
   7.700E-05   3.072E+02   1.819E+02   0.000E+00   8.344E-01
   7.600E-05   3.094E+02   1.861E+02   0.000E+00   8.476E-01
   7.500E-05   3.112E+02   1.904E+02   0.000E+00   8.612E-01
   7.400E-05   3.128E+02   1.947E+02   0.000E+00   8.751E-01
   7.300E-05   3.142E+02   1.992E+02   0.000E+00   8.895E-01
   7.140E-05   3.158E+02   2.065E+02   0.000E+00   9.134E-01
   7.100E-05   3.161E+02   2.083E+02   0.000E+00   9.196E-01
   7.000E-05   3.168E+02   2.130E+02   0.000E+00   9.352E-01
   6.900E-05   3.172E+02   2.177E+02   0.000E+00   9.513E-01
   6.800E-05   3.174E+02   2.224E+02   0.000E+00   9.680E-01
   6.700E-05   3.174E+02   2.272E+02   0.000E+00   9.851E-01
   6.600E-05   3.173E+02   2.318E+02   0.000E+00   1.003E+00
   6.500E-05   3.169E+02   2.365E+02   0.000E+00   1.021E+00
   6.400E-05   3.163E+02   2.409E+02   0.000E+00   1.040E+00
   6.300E-05   3.154E+02   2.452E+02   0.000E+00   1.059E+00
   6.250E-05   3.148E+02   2.473E+02   0.000E+00   1.069E+00
   6.200E-05   3.141E+02   2.494E+02   0.000E+00   1.079E+00
   6.100E-05   3.124E+02   2.534E+02   0.000E+00   1.099E+00
   6.000E-05   3.103E+02   2.573E+02   0.000E+00   1.120E+00
   5.900E-05   3.076E+02   2.612E+02   0.000E+00   1.141E+00
   5.800E-05   3.044E+02   2.652E+02   0.000E+00   1.163E+00
   5.700E-05   3.005E+02   2.694E+02   0.000E+00   1.186E+00
   5.600E-05   2.961E+02   2.737E+02   0.000E+00   1.209E+00
   5.500E-05   2.911E+02   2.782E+02   0.000E+00   1.232E+00
   5.477E-05   2.898E+02   2.792E+02   0.000E+00   1.240E+00
   5.400E-05   2.855E+02   2.827E+02   0.000E+00   1.258E+00
   5.300E-05   2.794E+02   2.873E+02   0.000E+00   1.283E+00
   5.200E-05   2.729E+02   2.918E+02   0.000E+00   1.309E+00
   5.100E-05   2.659E+02   2.961E+02   0.000E+00   1.334E+00
   5.000E-05   2.585E+02   3.003E+02   0.000E+00   1.361E+00
   4.900E-05   2.508E+02   3.046E+02   0.000E+00   1.388E+00
   4.880E-05   2.492E+02   3.054E+02   0.000E+00   1.393E+00
   4.800E-05   2.428E+02   3.090E+02   0.000E+00   1.415E+00
   4.760E-05   2.395E+02   3.108E+02   0.000E+00   1.426E+00
   4.700E-05   2.345E+02   3.134E+02   0.000E+00   1.443E+00
   4.650E-05   2.302E+02   3.154E+02   0.000E+00   1.457E+00
   4.600E-05   2.259E+02   3.173E+02   0.000E+00   1.471E+00
   4.550E-05   2.214E+02   3.190E+02   0.000E+00   1.485E+00
   4.500E-05   2.169E+02   3.204E+02   0.000E+00   1.499E+00
   4.440E-05   2.114E+02   3.217E+02   0.000E+00   1.517E+00
   4.350E-05   2.029E+02   3.228E+02   0.000E+00   1.543E+00
   4.170E-05   1.852E+02   3.244E+02   0.000E+00   1.597E+00
   4.000E-05   1.678E+02   3.274E+02   0.000E+00   1.649E+00
   3.850E-05   1.521E+02   3.288E+02   0.000E+00   1.696E+00
   3.656E-05   1.317E+02   3.273E+02   0.000E+00   1.757E+00
   3.570E-05   1.228E+02   3.260E+02   0.000E+00   1.784E+00
   3.330E-05   9.844E+01   3.153E+02   0.000E+00   1.860E+00
   3.130E-05   7.926E+01   3.053E+02   0.000E+00   1.928E+00
   3.000E-05   6.744E+01   2.963E+02   0.000E+00   1.976E+00
   2.940E-05   6.218E+01   2.893E+02   0.000E+00   1.999E+00
   2.780E-05   4.817E+01   2.720E+02   0.000E+00   2.073E+00
   2.630E-05   3.658E+01   2.525E+02   0.000E+00   2.179E+00
   2.500E-05   2.776E+01   2.346E+02   0.000E+00   2.336E+00
   2.380E-05   1.984E+01   2.201E+02   0.000E+00   2.590E+00
   2.270E-05   1.312E+01   1.976E+02   0.000E+00   2.839E+00
   2.170E-05   9.530E+00   1.801E+02   0.000E+00   2.914E+00
   2.080E-05   7.432E+00   1.740E+02   0.000E+00   2.803E+00
   2.000E-05   6.537E+00   1.534E+02   0.000E+00   2.632E+00
   1.920E-05   6.245E+00   1.302E+02   0.000E+00   2.458E+00
   1.850E-05   6.213E+00   1.151E+02   0.000E+00   2.346E+00
   1.790E-05   6.724E+00   1.023E+02   0.000E+00   2.273E+00
   1.720E-05   7.793E+00   9.138E+01   0.000E+00   2.227E+00
   1.670E-05   9.009E+00   8.293E+01   0.000E+00   2.213E+00
   1.610E-05   1.137E+01   7.152E+01   0.000E+00   2.225E+00
   1.560E-05   1.359E+01   6.057E+01   0.000E+00   2.257E+00
   1.520E-05   1.546E+01   5.025E+01   0.000E+00   2.302E+00
   1.470E-05   1.798E+01   3.642E+01   0.000E+00   2.371E+00
   1.430E-05   2.012E+01   2.516E+01   0.000E+00   2.436E+00
   1.390E-05   2.216E+01   1.837E+01   0.000E+00   2.488E+00
   1.350E-05   2.386E+01   1.442E+01   0.000E+00   2.540E+00
   1.320E-05   2.497E+01   1.321E+01   0.000E+00   2.583E+00
   1.280E-05   2.642E+01   1.313E+01   0.000E+00   2.652E+00
   1.250E-05   2.762E+01   1.273E+01   0.000E+00   2.716E+00
   1.220E-05   2.889E+01   1.258E+01   0.000E+00   2.792E+00
   1.190E-05   3.014E+01   1.345E+01   0.000E+00   2.884E+00
   1.160E-05   3.127E+01   1.495E+01   0.000E+00   2.988E+00
   1.140E-05   3.193E+01   1.691E+01   0.000E+00   3.068E+00
   1.110E-05   3.278E+01   2.072E+01   0.000E+00   3.200E+00
   1.080E-05   3.343E+01   2.547E+01   0.000E+00   3.406E+00
   1.050E-05   3.390E+01   3.010E+01   0.000E+00   3.670E+00
   1.030E-05   3.410E+01   3.324E+01   0.000E+00   3.898E+00
   1.000E-05   3.422E+01   3.778E+01   0.000E+00   4.233E+00
   9.750E-06   3.419E+01   4.168E+01   0.000E+00   4.552E+00
   9.500E-06   3.402E+01   4.542E+01   0.000E+00   4.902E+00
   9.250E-06   3.371E+01   4.903E+01   0.000E+00   5.204E+00
   9.080E-06   3.343E+01   4.596E+01   0.000E+00   5.363E+00
