 # Optical depth (Siebenmorgen 2023, A&A 670A,115; SC 2023 doi: 10.48550/arXiv.2311.03310)
 # wel(cm) sa_aC    ss_aC    sa_Si    ss_Si    sa_vgr   ss_vgr   sa_vsi   ss_vsi   s_pahS+B sa_Dark  ss_Dark sigt 
 # ------------------------------------------------------------------------------------------------------------- 
1.000E+00 1.98E-07 6.50E-17 4.66E-07 6.69E-17 1.04E-08 8.36E-23 1.31E-07 1.89E-22 1.14E-11 2.72E-07 7.34E-15 1.078E-06
9.000E-01 2.32E-07 9.90E-17 5.50E-07 1.02E-16 1.33E-08 1.27E-22 1.56E-07 2.87E-22 1.40E-11 3.17E-07 1.12E-14 1.269E-06
8.000E-01 2.77E-07 1.59E-16 6.63E-07 1.63E-16 1.73E-08 2.04E-22 1.90E-07 4.60E-22 1.77E-11 3.76E-07 1.79E-14 1.524E-06
7.000E-01 3.39E-07 2.70E-16 8.19E-07 2.78E-16 2.32E-08 3.48E-22 2.34E-07 7.85E-22 2.32E-11 4.56E-07 3.05E-14 1.872E-06
6.000E-01 4.30E-07 5.01E-16 1.05E-06 5.16E-16 3.22E-08 6.45E-22 3.01E-07 1.45E-21 3.15E-11 5.72E-07 5.64E-14 2.381E-06
5.500E-01 4.91E-07 7.09E-16 1.20E-06 7.31E-16 3.86E-08 9.14E-22 3.47E-07 2.06E-21 3.75E-11 6.50E-07 7.98E-14 2.729E-06
5.000E-01 5.69E-07 1.04E-15 1.40E-06 1.07E-15 4.68E-08 1.34E-21 4.02E-07 3.01E-21 4.54E-11 7.48E-07 1.17E-13 3.166E-06
4.500E-01 6.70E-07 1.58E-15 1.66E-06 1.63E-15 5.76E-08 2.04E-21 4.79E-07 4.59E-21 5.61E-11 8.75E-07 1.78E-13 3.740E-06
4.000E-01 8.06E-07 2.53E-15 2.00E-06 2.61E-15 7.22E-08 3.27E-21 5.76E-07 7.35E-21 7.10E-11 1.04E-06 2.84E-13 4.499E-06
3.500E-01 9.94E-07 4.32E-15 2.48E-06 4.46E-15 9.24E-08 5.57E-21 7.21E-07 1.25E-20 9.27E-11 1.27E-06 4.84E-13 5.564E-06
3.000E-01 1.27E-06 8.00E-15 3.19E-06 8.26E-15 1.22E-07 1.03E-20 9.15E-07 2.32E-20 1.26E-10 1.60E-06 8.96E-13 7.097E-06
2.500E-01 1.70E-06 1.66E-14 4.28E-06 1.71E-14 1.66E-07 2.14E-20 1.23E-06 4.81E-20 1.82E-10 2.12E-06 1.85E-12 9.493E-06
2.098E-01 2.26E-06 3.34E-14 5.69E-06 3.45E-14 2.21E-07 4.32E-20 1.64E-06 9.70E-20 2.58E-10 2.77E-06 3.73E-12 1.257E-05
1.500E-01 3.93E-06 1.28E-13 9.85E-06 1.32E-13 4.21E-07 1.65E-19 2.80E-06 3.71E-19 5.05E-10 4.66E-06 1.42E-11 2.166E-05
1.382E-01 4.51E-06 1.77E-13 1.13E-05 1.83E-13 4.97E-07 2.29E-19 3.21E-06 5.14E-19 5.95E-10 5.30E-06 1.97E-11 2.478E-05
1.320E-01 4.87E-06 2.13E-13 1.21E-05 2.20E-13 5.44E-07 2.75E-19 3.45E-06 6.18E-19 6.52E-10 5.70E-06 2.36E-11 2.671E-05
1.150E-01 6.15E-06 3.69E-13 1.52E-05 3.82E-13 7.13E-07 4.78E-19 4.31E-06 1.07E-18 8.59E-10 7.09E-06 4.09E-11 3.351E-05
1.000E-01 7.83E-06 6.45E-13 1.92E-05 6.69E-13 9.36E-07 8.36E-19 5.39E-06 1.87E-18 1.14E-09 8.88E-06 7.14E-11 4.219E-05
9.970E-02 7.87E-06 6.53E-13 1.93E-05 6.77E-13 9.42E-07 8.46E-19 5.41E-06 1.90E-18 1.14E-09 8.92E-06 7.23E-11 4.241E-05
8.670E-02 9.91E-06 1.14E-12 2.43E-05 1.18E-12 1.25E-06 1.48E-18 6.79E-06 3.31E-18 1.51E-09 1.11E-05 1.26E-10 5.334E-05
8.500E-02 1.03E-05 1.24E-12 2.51E-05 1.28E-12 1.29E-06 1.60E-18 7.02E-06 3.59E-18 1.57E-09 1.15E-05 1.37E-10 5.516E-05
7.500E-02 1.30E-05 2.04E-12 3.09E-05 2.12E-12 1.65E-06 2.64E-18 8.56E-06 5.92E-18 2.02E-09 1.43E-05 2.25E-10 6.844E-05
6.000E-02 1.92E-05 4.98E-12 4.46E-05 5.19E-12 2.53E-06 6.45E-18 1.24E-05 1.44E-17 3.16E-09 2.04E-05 5.47E-10 9.905E-05
5.500E-02 2.22E-05 7.05E-12 4.99E-05 7.39E-12 2.98E-06 9.13E-18 1.45E-05 2.05E-17 3.76E-09 2.35E-05 7.74E-10 1.131E-04
5.000E-02 2.64E-05 1.03E-11 6.18E-05 1.09E-11 3.56E-06 1.34E-17 1.73E-05 3.00E-17 4.55E-09 2.78E-05 1.13E-09 1.369E-04
4.500E-02 3.25E-05 1.58E-11 8.19E-05 1.67E-11 4.34E-06 2.04E-17 2.11E-05 4.57E-17 5.61E-09 3.40E-05 1.72E-09 1.739E-04
4.000E-02 4.18E-05 2.53E-11 1.09E-04 2.70E-11 5.41E-06 3.26E-17 2.67E-05 7.33E-17 7.10E-09 4.27E-05 2.75E-09 2.260E-04
3.500E-02 5.24E-05 4.32E-11 1.66E-04 4.65E-11 6.94E-06 5.57E-17 3.53E-05 1.25E-16 9.28E-09 5.26E-05 4.69E-09 3.135E-04
3.000E-02 7.40E-05 8.03E-11 2.59E-04 8.66E-11 9.24E-06 1.03E-16 4.95E-05 2.33E-16 1.26E-08 7.20E-05 8.65E-09 4.641E-04
2.750E-02 8.83E-05 1.14E-10 3.26E-04 1.23E-10 1.09E-05 1.46E-16 6.05E-05 3.30E-16 1.50E-08 8.40E-05 1.22E-08 5.702E-04
2.500E-02 1.06E-04 1.67E-10 4.16E-04 1.80E-10 1.30E-05 2.14E-16 7.58E-05 4.83E-16 1.82E-08 1.00E-04 1.79E-08 7.112E-04
2.400E-02 1.17E-04 1.97E-10 4.60E-04 2.11E-10 1.41E-05 2.52E-16 8.27E-05 5.68E-16 1.98E-08 1.08E-04 2.10E-08 7.817E-04
2.000E-02 1.71E-04 4.11E-10 7.17E-04 4.31E-10 1.99E-05 5.23E-16 1.20E-04 1.18E-15 2.85E-08 1.51E-04 4.33E-08 1.178E-03
1.800E-02 2.12E-04 6.31E-10 8.89E-04 6.46E-10 2.45E-05 7.98E-16 1.49E-04 1.80E-15 3.52E-08 1.85E-04 6.58E-08 1.461E-03
1.600E-02 2.82E-04 1.02E-09 1.11E-03 1.01E-09 3.10E-05 1.28E-15 1.90E-04 2.88E-15 4.46E-08 2.33E-04 1.05E-07 1.842E-03
1.500E-02 3.37E-04 1.32E-09 1.24E-03 1.30E-09 3.53E-05 1.66E-15 2.15E-04 3.73E-15 5.08E-08 2.65E-04 1.35E-07 2.092E-03
1.400E-02 3.83E-04 1.75E-09 1.39E-03 1.69E-09 4.08E-05 2.19E-15 2.49E-04 4.91E-15 5.84E-08 2.94E-04 1.77E-07 2.358E-03
1.200E-02 5.84E-04 3.27E-09 1.77E-03 3.02E-09 5.67E-05 4.08E-15 3.41E-04 9.11E-15 7.97E-08 3.96E-04 3.22E-07 3.153E-03
1.000E-02 8.87E-04 6.87E-09 2.34E-03 5.98E-09 8.58E-05 8.52E-15 4.98E-04 1.89E-14 1.15E-07 5.40E-04 6.57E-07 4.354E-03
9.000E-03 1.18E-03 1.06E-08 2.67E-03 8.89E-09 1.10E-04 1.31E-14 6.21E-04 2.89E-14 1.43E-07 6.58E-04 9.89E-07 5.241E-03
8.000E-03 1.57E-03 1.67E-08 3.10E-03 1.40E-08 1.47E-04 2.11E-14 7.97E-04 4.63E-14 1.82E-07 7.81E-04 1.55E-06 6.395E-03
7.500E-03 1.83E-03 2.19E-08 3.43E-03 1.81E-08 1.74E-04 2.74E-14 9.14E-04 5.99E-14 2.08E-07 8.84E-04 1.99E-06 7.236E-03
7.000E-03 2.21E-03 2.86E-08 3.85E-03 2.37E-08 2.09E-04 3.63E-14 1.06E-03 7.90E-14 2.39E-07 9.94E-04 2.58E-06 8.325E-03
6.000E-03 3.18E-03 5.20E-08 4.93E-03 4.32E-08 3.22E-04 6.85E-14 1.47E-03 1.46E-13 3.30E-07 1.28E-03 4.65E-06 1.120E-02
5.000E-03 4.53E-03 1.02E-07 7.01E-03 8.80E-08 5.64E-04 1.45E-13 2.17E-03 3.02E-13 4.86E-07 1.71E-03 9.30E-06 1.599E-02
4.500E-03 5.58E-03 1.48E-07 8.57E-03 1.31E-07 7.97E-04 2.24E-13 2.71E-03 4.58E-13 6.11E-07 2.03E-03 1.38E-05 1.970E-02
4.000E-03 6.64E-03 2.19E-07 1.07E-02 1.97E-07 1.17E-03 3.57E-13 3.47E-03 7.25E-13 7.95E-07 2.42E-03 2.14E-05 2.441E-02
3.500E-03 8.02E-03 3.47E-07 1.32E-02 3.11E-07 1.62E-03 5.71E-13 4.52E-03 1.22E-12 1.09E-06 2.98E-03 3.52E-05 3.037E-02
3.000E-03 9.90E-03 5.73E-07 1.62E-02 4.99E-07 1.71E-03 8.93E-13 6.18E-03 2.23E-12 1.65E-06 3.81E-03 6.20E-05 3.790E-02
2.750E-03 1.09E-02 7.52E-07 1.78E-02 6.43E-07 1.47E-03 1.15E-12 7.42E-03 3.11E-12 2.21E-06 4.37E-03 8.45E-05 4.198E-02
2.500E-03 1.17E-02 1.00E-06 1.95E-02 8.42E-07 1.16E-03 1.58E-12 9.11E-03 4.48E-12 3.62E-06 5.04E-03 1.18E-04 4.660E-02
2.400E-03 1.21E-02 1.14E-06 2.01E-02 9.45E-07 1.04E-03 1.84E-12 9.93E-03 5.20E-12 5.02E-06 5.36E-03 1.36E-04 4.875E-02
2.350E-03 1.24E-02 1.22E-06 2.05E-02 1.00E-06 9.85E-04 1.99E-12 1.04E-02 5.62E-12 5.92E-06 5.54E-03 1.46E-04 5.000E-02
2.320E-03 1.25E-02 1.27E-06 2.08E-02 1.04E-06 9.53E-04 2.09E-12 1.07E-02 5.88E-12 6.37E-06 5.65E-03 1.52E-04 5.075E-02
2.310E-03 1.26E-02 1.29E-06 2.09E-02 1.05E-06 9.42E-04 2.12E-12 1.08E-02 5.97E-12 6.48E-06 5.69E-03 1.54E-04 5.101E-02
2.300E-03 1.26E-02 1.31E-06 2.09E-02 1.07E-06 9.32E-04 2.16E-12 1.09E-02 6.07E-12 6.57E-06 5.72E-03 1.56E-04 5.127E-02
2.250E-03 1.29E-02 1.40E-06 2.14E-02 1.14E-06 8.81E-04 2.35E-12 1.14E-02 6.59E-12 6.85E-06 5.92E-03 1.68E-04 5.266E-02
2.200E-03 1.31E-02 1.50E-06 2.19E-02 1.21E-06 8.34E-04 2.57E-12 1.20E-02 7.13E-12 7.19E-06 6.13E-03 1.81E-04 5.419E-02
2.150E-03 1.33E-02 1.61E-06 2.25E-02 1.29E-06 7.91E-04 2.81E-12 1.26E-02 7.71E-12 7.85E-06 6.33E-03 1.94E-04 5.582E-02
2.120E-03 1.35E-02 1.68E-06 2.28E-02 1.33E-06 7.66E-04 2.98E-12 1.31E-02 8.09E-12 8.18E-06 6.47E-03 2.02E-04 5.683E-02
2.110E-03 1.35E-02 1.70E-06 2.29E-02 1.34E-06 7.59E-04 3.03E-12 1.32E-02 8.22E-12 8.23E-06 6.51E-03 2.05E-04 5.717E-02
2.100E-03 1.36E-02 1.72E-06 2.31E-02 1.36E-06 7.51E-04 3.09E-12 1.33E-02 8.35E-12 8.25E-06 6.56E-03 2.08E-04 5.751E-02
2.080E-03 1.37E-02 1.77E-06 2.32E-02 1.39E-06 7.36E-04 3.21E-12 1.36E-02 8.62E-12 8.19E-06 6.64E-03 2.14E-04 5.811E-02
2.000E-03 1.38E-02 2.00E-06 2.40E-02 1.50E-06 6.82E-04 3.76E-12 1.49E-02 9.79E-12 7.82E-06 7.00E-03 2.39E-04 6.069E-02
1.950E-03 1.41E-02 2.16E-06 2.43E-02 1.55E-06 6.53E-04 4.17E-12 1.58E-02 1.04E-11 8.42E-06 7.21E-03 2.53E-04 6.229E-02
1.900E-03 1.44E-02 2.36E-06 2.44E-02 1.59E-06 6.27E-04 4.64E-12 1.65E-02 1.08E-11 1.01E-05 7.38E-03 2.66E-04 6.353E-02
1.850E-03 1.46E-02 2.58E-06 2.43E-02 1.61E-06 6.04E-04 5.17E-12 1.68E-02 1.11E-11 1.30E-05 7.47E-03 2.77E-04 6.412E-02
1.830E-03 1.48E-02 2.67E-06 2.41E-02 1.61E-06 5.95E-04 5.40E-12 1.69E-02 1.12E-11 1.40E-05 7.48E-03 2.81E-04 6.419E-02
1.820E-03 1.48E-02 2.72E-06 2.40E-02 1.61E-06 5.91E-04 5.52E-12 1.69E-02 1.12E-11 1.44E-05 7.48E-03 2.83E-04 6.414E-02
1.810E-03 1.49E-02 2.77E-06 2.39E-02 1.61E-06 5.87E-04 5.65E-12 1.69E-02 1.12E-11 1.46E-05 7.47E-03 2.85E-04 6.402E-02
1.800E-03 1.50E-02 2.82E-06 2.38E-02 1.61E-06 5.84E-04 5.78E-12 1.68E-02 1.13E-11 1.47E-05 7.47E-03 2.87E-04 6.390E-02
1.750E-03 1.53E-02 3.08E-06 2.27E-02 1.56E-06 5.67E-04 6.48E-12 1.64E-02 1.13E-11 1.50E-05 7.39E-03 2.98E-04 6.270E-02
1.700E-03 1.55E-02 3.38E-06 2.11E-02 1.50E-06 5.53E-04 7.30E-12 1.56E-02 1.14E-11 1.83E-05 7.21E-03 3.11E-04 6.025E-02
1.670E-03 1.57E-02 3.60E-06 1.97E-02 1.46E-06 5.47E-04 7.85E-12 1.50E-02 1.15E-11 2.16E-05 7.11E-03 3.22E-04 5.848E-02
1.650E-03 1.59E-02 3.75E-06 1.87E-02 1.43E-06 5.43E-04 8.24E-12 1.45E-02 1.17E-11 2.27E-05 7.05E-03 3.31E-04 5.714E-02
1.640E-03 1.60E-02 3.83E-06 1.82E-02 1.43E-06 5.41E-04 8.45E-12 1.43E-02 1.17E-11 2.27E-05 7.01E-03 3.35E-04 5.641E-02
1.630E-03 1.61E-02 3.90E-06 1.76E-02 1.42E-06 5.39E-04 8.66E-12 1.41E-02 1.18E-11 2.22E-05 6.97E-03 3.39E-04 5.565E-02
1.610E-03 1.63E-02 4.06E-06 1.64E-02 1.41E-06 5.37E-04 9.11E-12 1.36E-02 1.21E-11 2.08E-05 6.89E-03 3.50E-04 5.404E-02
1.600E-03 1.63E-02 4.14E-06 1.57E-02 1.42E-06 5.36E-04 9.35E-12 1.34E-02 1.23E-11 2.02E-05 6.85E-03 3.56E-04 5.320E-02
1.590E-03 1.64E-02 4.23E-06 1.51E-02 1.43E-06 5.34E-04 9.59E-12 1.31E-02 1.25E-11 1.97E-05 6.81E-03 3.62E-04 5.237E-02
1.580E-03 1.65E-02 4.31E-06 1.44E-02 1.45E-06 5.34E-04 9.84E-12 1.29E-02 1.27E-11 1.94E-05 6.78E-03 3.69E-04 5.154E-02
1.570E-03 1.66E-02 4.39E-06 1.38E-02 1.48E-06 5.33E-04 1.01E-11 1.26E-02 1.29E-11 1.91E-05 6.73E-03 3.76E-04 5.067E-02
1.560E-03 1.67E-02 4.50E-06 1.32E-02 1.51E-06 5.32E-04 1.04E-11 1.24E-02 1.32E-11 1.87E-05 6.70E-03 3.84E-04 4.989E-02
1.540E-03 1.69E-02 4.69E-06 1.21E-02 1.63E-06 5.31E-04 1.09E-11 1.19E-02 1.38E-11 1.83E-05 6.64E-03 4.01E-04 4.855E-02
1.520E-03 1.70E-02 4.87E-06 1.12E-02 1.78E-06 5.31E-04 1.15E-11 1.15E-02 1.46E-11 1.92E-05 6.57E-03 4.20E-04 4.734E-02
1.510E-03 1.71E-02 4.96E-06 1.09E-02 1.88E-06 5.31E-04 1.18E-11 1.13E-02 1.50E-11 1.99E-05 6.54E-03 4.30E-04 4.686E-02
1.500E-03 1.71E-02 5.05E-06 1.07E-02 1.98E-06 5.31E-04 1.22E-11 1.11E-02 1.55E-11 2.00E-05 6.51E-03 4.41E-04 4.643E-02
1.450E-03 1.74E-02 5.64E-06 1.02E-02 2.57E-06 5.34E-04 1.40E-11 1.02E-02 1.87E-11 2.53E-05 6.41E-03 5.17E-04 4.531E-02
1.440E-03 1.75E-02 5.77E-06 1.02E-02 2.70E-06 5.35E-04 1.44E-11 1.01E-02 1.96E-11 2.80E-05 6.41E-03 5.35E-04 4.528E-02
1.430E-03 1.76E-02 5.90E-06 1.02E-02 2.82E-06 5.36E-04 1.48E-11 1.00E-02 2.06E-11 3.03E-05 6.44E-03 5.57E-04 4.536E-02
1.420E-03 1.77E-02 6.04E-06 1.02E-02 2.96E-06 5.37E-04 1.52E-11 1.00E-02 2.17E-11 3.14E-05 6.46E-03 5.80E-04 4.543E-02
1.400E-03 1.78E-02 6.33E-06 1.02E-02 3.24E-06 5.41E-04 1.61E-11 1.01E-02 2.41E-11 3.43E-05 6.57E-03 6.31E-04 4.588E-02
1.380E-03 1.80E-02 6.63E-06 1.02E-02 3.55E-06 5.44E-04 1.71E-11 1.04E-02 2.69E-11 4.33E-05 6.74E-03 6.88E-04 4.660E-02
1.370E-03 1.81E-02 6.79E-06 1.02E-02 3.72E-06 5.46E-04 1.76E-11 1.06E-02 2.84E-11 5.15E-05 6.87E-03 7.20E-04 4.714E-02
1.360E-03 1.82E-02 6.97E-06 1.02E-02 3.90E-06 5.49E-04 1.81E-11 1.10E-02 3.00E-11 5.97E-05 7.01E-03 7.52E-04 4.776E-02
1.350E-03 1.83E-02 7.14E-06 1.02E-02 4.08E-06 5.51E-04 1.87E-11 1.13E-02 3.17E-11 6.38E-05 7.16E-03 7.86E-04 4.842E-02
1.340E-03 1.85E-02 7.32E-06 1.03E-02 4.28E-06 5.54E-04 1.92E-11 1.17E-02 3.34E-11 6.92E-05 7.32E-03 8.18E-04 4.918E-02
1.330E-03 1.86E-02 7.49E-06 1.03E-02 4.49E-06 5.56E-04 1.98E-11 1.21E-02 3.51E-11 8.01E-05 7.49E-03 8.51E-04 4.997E-02
1.320E-03 1.87E-02 7.67E-06 1.04E-02 4.71E-06 5.59E-04 2.04E-11 1.25E-02 3.69E-11 9.88E-05 7.66E-03 8.85E-04 5.081E-02
1.310E-03 1.88E-02 7.84E-06 1.05E-02 4.95E-06 5.62E-04 2.11E-11 1.29E-02 3.87E-11 1.29E-04 7.84E-03 9.19E-04 5.169E-02
1.290E-03 1.89E-02 8.19E-06 1.07E-02 5.48E-06 5.69E-04 2.24E-11 1.39E-02 4.27E-11 2.67E-04 8.19E-03 9.91E-04 5.355E-02
1.280E-03 1.89E-02 8.39E-06 1.09E-02 5.76E-06 5.73E-04 2.31E-11 1.45E-02 4.48E-11 3.91E-04 8.39E-03 1.03E-03 5.468E-02
1.270E-03 1.90E-02 8.61E-06 1.10E-02 6.07E-06 5.77E-04 2.39E-11 1.51E-02 4.70E-11 4.73E-04 8.61E-03 1.07E-03 5.577E-02
1.260E-03 1.91E-02 8.84E-06 1.11E-02 6.43E-06 5.81E-04 2.47E-11 1.57E-02 4.93E-11 4.08E-04 8.83E-03 1.11E-03 5.681E-02
1.250E-03 1.92E-02 9.06E-06 1.13E-02 6.82E-06 5.85E-04 2.55E-11 1.63E-02 5.15E-11 3.01E-04 9.04E-03 1.14E-03 5.788E-02
1.220E-03 1.95E-02 9.88E-06 1.29E-02 8.43E-06 5.97E-04 2.81E-11 1.83E-02 5.90E-11 2.35E-04 9.74E-03 1.27E-03 6.257E-02
1.210E-03 1.96E-02 1.01E-05 1.41E-02 9.08E-06 6.01E-04 2.91E-11 1.91E-02 6.18E-11 2.71E-04 9.99E-03 1.31E-03 6.494E-02
1.200E-03 1.97E-02 1.04E-05 1.55E-02 9.70E-06 6.06E-04 3.01E-11 1.99E-02 6.47E-11 2.99E-04 1.02E-02 1.35E-03 6.762E-02
1.190E-03 1.99E-02 1.07E-05 1.71E-02 1.03E-05 6.10E-04 3.11E-11 2.08E-02 6.77E-11 2.99E-04 1.05E-02 1.39E-03 7.057E-02
1.180E-03 2.00E-02 1.10E-05 1.87E-02 1.07E-05 6.15E-04 3.22E-11 2.16E-02 7.05E-11 2.97E-04 1.08E-02 1.42E-03 7.351E-02
1.170E-03 2.01E-02 1.13E-05 2.02E-02 1.11E-05 6.20E-04 3.34E-11 2.26E-02 7.36E-11 3.30E-04 1.10E-02 1.46E-03 7.638E-02
1.160E-03 2.03E-02 1.16E-05 2.16E-02 1.15E-05 6.28E-04 3.48E-11 2.34E-02 7.65E-11 4.25E-04 1.12E-02 1.49E-03 7.909E-02
1.150E-03 2.04E-02 1.19E-05 2.27E-02 1.18E-05 8.82E-04 3.44E-11 2.43E-02 7.97E-11 6.20E-04 1.15E-02 1.53E-03 8.193E-02
1.140E-03 2.04E-02 1.22E-05 2.38E-02 1.20E-05 6.55E-04 3.66E-11 2.53E-02 8.32E-11 9.33E-04 1.17E-02 1.56E-03 8.433E-02
1.130E-03 2.05E-02 1.25E-05 2.47E-02 1.23E-05 6.54E-04 3.81E-11 2.63E-02 8.69E-11 1.14E-03 1.19E-02 1.60E-03 8.681E-02
1.120E-03 2.06E-02 1.29E-05 2.55E-02 1.26E-05 6.58E-04 3.95E-11 2.74E-02 9.07E-11 9.17E-04 1.22E-02 1.63E-03 8.888E-02
1.110E-03 2.06E-02 1.32E-05 2.63E-02 1.29E-05 6.64E-04 4.10E-11 2.86E-02 9.47E-11 5.83E-04 1.24E-02 1.67E-03 9.087E-02
1.090E-03 2.08E-02 1.41E-05 2.79E-02 1.35E-05 6.77E-04 4.42E-11 3.10E-02 1.03E-10 2.43E-04 1.29E-02 1.73E-03 9.525E-02
1.050E-03 2.12E-02 1.60E-05 3.08E-02 1.45E-05 7.09E-04 5.13E-11 3.75E-02 1.22E-10 8.07E-05 1.39E-02 1.82E-03 1.061E-01
1.000E-03 2.20E-02 1.89E-05 3.37E-02 1.54E-05 7.56E-04 6.25E-11 4.33E-02 1.31E-10 4.10E-05 1.44E-02 1.77E-03 1.160E-01
9.800E-04 2.23E-02 2.03E-05 3.43E-02 1.53E-05 7.77E-04 6.77E-11 4.55E-02 1.35E-10 3.57E-05 1.45E-02 1.75E-03 1.192E-01
9.600E-04 2.27E-02 2.17E-05 3.42E-02 1.49E-05 8.00E-04 7.36E-11 4.76E-02 1.36E-10 3.31E-05 1.45E-02 1.70E-03 1.214E-01
9.500E-04 2.29E-02 2.25E-05 3.38E-02 1.47E-05 8.12E-04 7.67E-11 4.80E-02 1.33E-10 3.26E-05 1.44E-02 1.64E-03 1.217E-01
9.400E-04 2.31E-02 2.32E-05 3.32E-02 1.44E-05 8.25E-04 8.01E-11 4.79E-02 1.27E-10 3.27E-05 1.42E-02 1.57E-03 1.208E-01
9.200E-04 2.34E-02 2.48E-05 3.15E-02 1.38E-05 8.51E-04 8.73E-11 4.46E-02 1.06E-10 3.49E-05 1.34E-02 1.40E-03 1.153E-01
8.900E-04 2.40E-02 2.77E-05 2.79E-02 1.29E-05 8.95E-04 9.97E-11 3.53E-02 6.78E-11 5.06E-05 1.18E-02 1.17E-03 1.012E-01
8.700E-04 2.42E-02 2.96E-05 2.53E-02 1.26E-05 9.27E-04 1.09E-10 2.94E-02 5.03E-11 1.12E-04 1.08E-02 1.09E-03 9.177E-02
8.600E-04 2.44E-02 3.08E-05 2.40E-02 1.26E-05 9.44E-04 1.14E-10 2.70E-02 4.44E-11 1.69E-04 1.04E-02 1.08E-03 8.801E-02
8.500E-04 2.45E-02 3.19E-05 2.26E-02 1.26E-05 9.62E-04 1.20E-10 2.49E-02 3.96E-11 1.21E-04 1.01E-02 1.07E-03 8.425E-02
8.400E-04 2.48E-02 3.33E-05 2.11E-02 1.26E-05 9.80E-04 1.26E-10 2.27E-02 3.46E-11 8.71E-05 9.68E-03 1.06E-03 8.040E-02
8.200E-04 2.50E-02 3.55E-05 1.76E-02 1.29E-05 1.02E-03 1.38E-10 1.75E-02 2.49E-11 8.86E-05 8.72E-03 1.03E-03 7.099E-02
8.000E-04 2.53E-02 3.85E-05 1.42E-02 1.43E-05 1.06E-03 1.53E-10 1.20E-02 1.92E-11 1.29E-04 7.71E-03 1.06E-03 6.150E-02
7.900E-04 2.56E-02 4.01E-05 1.29E-02 1.54E-05 1.08E-03 1.60E-10 1.01E-02 2.07E-11 1.61E-04 7.41E-03 1.14E-03 5.837E-02
7.800E-04 2.57E-02 4.15E-05 1.18E-02 1.66E-05 1.10E-03 1.69E-10 8.18E-03 2.34E-11 1.93E-04 7.07E-03 1.21E-03 5.533E-02
7.700E-04 2.58E-02 4.31E-05 1.09E-02 1.80E-05 1.12E-03 1.78E-10 6.73E-03 2.79E-11 2.07E-04 6.81E-03 1.31E-03 5.290E-02
7.600E-04 2.58E-02 4.49E-05 1.01E-02 1.95E-05 1.15E-03 1.87E-10 5.71E-03 3.40E-11 1.92E-04 6.64E-03 1.43E-03 5.112E-02
7.500E-04 2.59E-02 4.67E-05 9.42E-03 2.12E-05 1.17E-03 1.97E-10 4.79E-03 4.13E-11 1.59E-04 6.50E-03 1.56E-03 4.953E-02
7.300E-04 2.62E-02 5.12E-05 8.34E-03 2.51E-05 1.22E-03 2.20E-10 4.02E-03 5.90E-11 9.92E-05 6.48E-03 1.85E-03 4.825E-02
7.200E-04 2.63E-02 5.33E-05 8.00E-03 2.72E-05 1.25E-03 2.32E-10 3.89E-03 6.82E-11 8.28E-05 6.50E-03 1.99E-03 4.805E-02
7.100E-04 2.63E-02 5.58E-05 7.78E-03 2.95E-05 1.28E-03 2.45E-10 3.77E-03 7.84E-11 8.11E-05 6.53E-03 2.14E-03 4.796E-02
7.000E-04 2.66E-02 5.86E-05 7.58E-03 3.18E-05 1.31E-03 2.60E-10 3.73E-03 8.88E-11 1.12E-04 6.61E-03 2.29E-03 4.829E-02
6.900E-04 2.67E-02 6.08E-05 7.28E-03 3.42E-05 1.34E-03 2.75E-10 3.71E-03 1.00E-10 6.62E-05 6.65E-03 2.43E-03 4.825E-02
6.800E-04 2.63E-02 6.31E-05 6.89E-03 3.67E-05 1.37E-03 2.91E-10 3.71E-03 1.11E-10 5.15E-05 6.62E-03 2.58E-03 4.762E-02
6.600E-04 2.64E-02 7.11E-05 6.21E-03 4.27E-05 1.44E-03 3.28E-10 3.71E-03 1.37E-10 4.93E-05 6.76E-03 2.95E-03 4.767E-02
6.400E-04 2.72E-02 8.03E-05 5.38E-03 4.98E-05 1.51E-03 3.71E-10 3.70E-03 1.66E-10 7.47E-05 7.01E-03 3.33E-03 4.831E-02
6.300E-04 2.77E-02 8.47E-05 5.02E-03 5.41E-05 1.53E-03 3.95E-10 3.69E-03 1.82E-10 1.17E-04 7.14E-03 3.51E-03 4.888E-02
6.200E-04 2.79E-02 8.88E-05 4.93E-03 5.88E-05 1.59E-03 4.21E-10 3.67E-03 2.00E-10 1.59E-04 7.20E-03 3.69E-03 4.928E-02
6.100E-04 2.81E-02 9.40E-05 4.91E-03 6.33E-05 1.63E-03 4.49E-10 3.65E-03 2.18E-10 1.15E-04 7.29E-03 3.90E-03 4.980E-02
5.900E-04 2.93E-02 1.06E-04 4.03E-03 7.37E-05 1.72E-03 5.12E-10 3.60E-03 2.61E-10 5.17E-05 7.57E-03 4.31E-03 5.075E-02
5.500E-04 2.83E-02 1.27E-04 2.99E-03 1.04E-04 1.93E-03 6.76E-10 3.54E-03 3.75E-10 4.34E-05 7.52E-03 5.31E-03 4.984E-02
5.300E-04 2.85E-02 1.46E-04 2.67E-03 1.23E-04 2.05E-03 7.83E-10 3.55E-03 4.49E-10 6.89E-05 7.71E-03 5.99E-03 5.081E-02
5.200E-04 2.85E-02 1.56E-04 2.51E-03 1.35E-04 2.12E-03 8.45E-10 3.56E-03 4.92E-10 1.09E-04 7.78E-03 6.34E-03 5.125E-02
5.100E-04 2.88E-02 1.68E-04 2.34E-03 1.47E-04 2.19E-03 9.12E-10 3.58E-03 5.40E-10 1.50E-04 7.89E-03 6.72E-03 5.198E-02
5.000E-04 2.91E-02 1.81E-04 2.17E-03 1.64E-04 2.26E-03 9.86E-10 3.60E-03 5.92E-10 1.09E-04 8.01E-03 7.10E-03 5.269E-02
4.800E-04 2.95E-02 2.09E-04 1.92E-03 1.97E-04 2.41E-03 1.16E-09 3.66E-03 7.15E-10 5.09E-05 8.20E-03 7.91E-03 5.403E-02
4.500E-04 3.05E-02 2.62E-04 1.61E-03 2.62E-04 2.66E-03 1.50E-09 3.79E-03 9.56E-10 3.92E-05 8.55E-03 9.21E-03 5.687E-02
4.000E-04 3.16E-02 4.00E-04 1.19E-03 4.36E-04 3.21E-03 2.38E-09 4.07E-03 1.60E-09 4.38E-05 9.16E-03 1.20E-02 6.216E-02
3.800E-04 3.23E-02 4.83E-04 1.05E-03 5.42E-04 3.48E-03 2.91E-09 4.20E-03 1.99E-09 4.92E-05 9.46E-03 1.34E-02 6.493E-02
3.600E-04 3.30E-02 5.91E-04 9.23E-04 6.81E-04 3.79E-03 3.61E-09 4.34E-03 2.50E-09 5.98E-05 9.76E-03 1.49E-02 6.803E-02
3.400E-04 3.46E-02 7.26E-04 8.11E-04 8.66E-04 4.14E-03 4.52E-09 4.50E-03 3.17E-09 1.21E-04 1.02E-02 1.63E-02 7.225E-02
3.300E-04 3.45E-02 8.01E-04 7.60E-04 9.81E-04 4.34E-03 5.08E-09 4.58E-03 3.59E-09 3.17E-04 1.02E-02 1.72E-02 7.371E-02
3.200E-04 3.46E-02 9.01E-04 7.07E-04 1.12E-03 4.56E-03 5.73E-09 4.65E-03 4.08E-09 1.25E-04 1.03E-02 1.82E-02 7.519E-02
3.150E-04 3.49E-02 9.58E-04 6.85E-04 1.19E-03 4.67E-03 6.10E-09 4.69E-03 4.36E-09 9.62E-05 1.04E-02 1.86E-02 7.631E-02
3.100E-04 3.53E-02 1.02E-03 6.61E-04 1.27E-03 4.79E-03 6.49E-09 4.73E-03 4.66E-09 8.49E-05 1.06E-02 1.91E-02 7.748E-02
3.080E-04 3.54E-02 1.04E-03 6.52E-04 1.31E-03 4.84E-03 6.66E-09 4.75E-03 4.78E-09 8.26E-05 1.06E-02 1.93E-02 7.792E-02
3.050E-04 3.55E-02 1.08E-03 6.38E-04 1.36E-03 4.91E-03 6.92E-09 4.77E-03 4.98E-09 8.05E-05 1.06E-02 1.96E-02 7.857E-02
3.000E-04 3.57E-02 1.15E-03 6.17E-04 1.46E-03 5.05E-03 7.39E-09 4.82E-03 5.33E-09 7.90E-05 1.07E-02 2.01E-02 7.970E-02
2.900E-04 3.64E-02 1.30E-03 5.75E-04 1.68E-03 5.32E-03 8.44E-09 4.92E-03 6.13E-09 8.03E-05 1.09E-02 2.11E-02 8.233E-02
2.800E-04 3.66E-02 1.47E-03 5.37E-04 1.94E-03 5.62E-03 9.69E-09 5.03E-03 7.08E-09 8.41E-05 1.11E-02 2.22E-02 8.458E-02
2.600E-04 3.76E-02 1.96E-03 4.64E-04 2.62E-03 6.31E-03 1.30E-08 5.28E-03 9.58E-09 9.63E-05 1.14E-02 2.44E-02 9.017E-02
2.500E-04 3.84E-02 2.28E-03 4.32E-04 3.08E-03 6.70E-03 1.51E-08 5.43E-03 1.12E-08 1.04E-04 1.17E-02 2.55E-02 9.358E-02
2.200E-04 4.19E-02 3.73E-03 3.47E-04 5.17E-03 8.14E-03 2.49E-08 5.94E-03 1.89E-08 1.38E-04 1.25E-02 2.87E-02 1.065E-01
2.159E-04 4.23E-02 4.00E-03 3.36E-04 5.58E-03 8.38E-03 2.69E-08 6.02E-03 2.04E-08 1.44E-04 1.26E-02 2.91E-02 1.084E-01
2.000E-04 4.47E-02 5.38E-03 3.03E-04 7.59E-03 9.43E-03 3.62E-08 6.38E-03 2.78E-08 1.72E-04 1.31E-02 3.05E-02 1.176E-01
1.662E-04 5.15E-02 1.08E-02 2.41E-04 1.58E-02 1.25E-02 7.48E-08 7.39E-03 5.85E-08 2.72E-04 1.43E-02 3.28E-02 1.456E-01
1.650E-04 5.18E-02 1.11E-02 2.38E-04 1.63E-02 1.27E-02 7.70E-08 7.43E-03 6.02E-08 2.77E-04 1.43E-02 3.28E-02 1.469E-01
1.250E-04 6.80E-02 3.05E-02 2.18E-04 4.61E-02 1.95E-02 2.28E-07 9.44E-03 1.83E-07 5.79E-04 1.62E-02 3.40E-02 2.246E-01
1.235E-04 6.90E-02 3.18E-02 2.16E-04 4.81E-02 1.99E-02 2.39E-07 9.54E-03 1.92E-07 5.99E-04 1.63E-02 3.41E-02 2.296E-01
1.130E-04 7.69E-02 4.26E-02 2.24E-04 6.54E-02 2.28E-02 3.38E-07 1.04E-02 2.74E-07 7.59E-04 1.70E-02 3.44E-02 2.706E-01
1.000E-04 9.15E-02 6.24E-02 2.51E-04 9.79E-02 2.78E-02 5.45E-07 1.16E-02 4.48E-07 1.05E-03 1.79E-02 3.47E-02 3.451E-01
9.500E-05 9.92E-02 7.24E-02 2.54E-04 1.15E-01 3.03E-02 6.66E-07 1.22E-02 5.49E-07 1.20E-03 1.83E-02 3.46E-02 3.837E-01
9.300E-05 1.03E-01 7.68E-02 2.60E-04 1.23E-01 3.13E-02 7.23E-07 1.24E-02 5.98E-07 1.26E-03 1.85E-02 3.46E-02 4.010E-01
9.200E-05 1.04E-01 7.92E-02 2.63E-04 1.28E-01 3.19E-02 7.55E-07 1.26E-02 6.25E-07 1.30E-03 1.85E-02 3.45E-02 4.101E-01
9.100E-05 1.06E-01 8.16E-02 2.68E-04 1.32E-01 3.24E-02 7.87E-07 1.27E-02 6.52E-07 1.34E-03 1.86E-02 3.45E-02 4.195E-01
9.000E-05 1.08E-01 8.40E-02 2.72E-04 1.37E-01 3.30E-02 8.22E-07 1.28E-02 6.82E-07 1.37E-03 1.87E-02 3.44E-02 4.293E-01
8.900E-05 1.10E-01 8.66E-02 2.78E-04 1.42E-01 3.36E-02 8.58E-07 1.30E-02 7.13E-07 1.41E-03 1.88E-02 3.44E-02 4.394E-01
8.800E-05 1.11E-01 8.93E-02 2.80E-04 1.47E-01 3.42E-02 8.97E-07 1.31E-02 7.46E-07 1.45E-03 1.88E-02 3.44E-02 4.498E-01
8.700E-05 1.13E-01 9.21E-02 2.88E-04 1.52E-01 3.48E-02 9.37E-07 1.33E-02 7.81E-07 1.50E-03 1.89E-02 3.43E-02 4.607E-01
8.600E-05 1.15E-01 9.49E-02 2.91E-04 1.58E-01 3.55E-02 9.80E-07 1.34E-02 8.18E-07 1.54E-03 1.90E-02 3.43E-02 4.719E-01
8.500E-05 1.17E-01 9.80E-02 2.98E-04 1.64E-01 3.61E-02 1.03E-06 1.36E-02 8.57E-07 1.59E-03 1.90E-02 3.42E-02 4.837E-01
8.400E-05 1.19E-01 1.01E-01 3.02E-04 1.70E-01 3.68E-02 1.07E-06 1.37E-02 8.99E-07 1.63E-03 1.91E-02 3.41E-02 4.959E-01
8.330E-05 1.20E-01 1.03E-01 3.06E-04 1.75E-01 3.73E-02 1.11E-06 1.38E-02 9.29E-07 1.67E-03 1.92E-02 3.41E-02 5.048E-01
8.200E-05 1.23E-01 1.08E-01 3.11E-04 1.83E-01 3.82E-02 1.18E-06 1.40E-02 9.90E-07 1.74E-03 1.93E-02 3.40E-02 5.219E-01
8.100E-05 1.26E-01 1.11E-01 3.18E-04 1.91E-01 3.90E-02 1.24E-06 1.42E-02 1.04E-06 1.79E-03 1.93E-02 3.39E-02 5.358E-01
8.000E-05 1.28E-01 1.15E-01 3.23E-04 1.98E-01 3.97E-02 1.30E-06 1.43E-02 1.09E-06 1.85E-03 1.94E-02 3.38E-02 5.503E-01
7.900E-05 1.31E-01 1.18E-01 3.30E-04 2.06E-01 4.05E-02 1.36E-06 1.45E-02 1.15E-06 1.90E-03 1.95E-02 3.37E-02 5.653E-01
7.800E-05 1.33E-01 1.22E-01 3.40E-04 2.14E-01 4.13E-02 1.43E-06 1.47E-02 1.21E-06 1.96E-03 1.96E-02 3.36E-02 5.811E-01
7.700E-05 1.36E-01 1.26E-01 3.46E-04 2.23E-01 4.22E-02 1.50E-06 1.49E-02 1.27E-06 2.03E-03 1.97E-02 3.35E-02 5.974E-01
7.600E-05 1.39E-01 1.30E-01 3.61E-04 2.32E-01 4.30E-02 1.58E-06 1.51E-02 1.34E-06 2.09E-03 1.98E-02 3.33E-02 6.144E-01
7.500E-05 1.42E-01 1.34E-01 3.71E-04 2.41E-01 4.39E-02 1.67E-06 1.52E-02 1.42E-06 2.16E-03 1.99E-02 3.32E-02 6.320E-01
7.400E-05 1.45E-01 1.38E-01 3.86E-04 2.51E-01 4.48E-02 1.75E-06 1.54E-02 1.49E-06 2.23E-03 2.00E-02 3.31E-02 6.502E-01
7.300E-05 1.49E-01 1.42E-01 4.03E-04 2.61E-01 4.57E-02 1.85E-06 1.56E-02 1.58E-06 2.31E-03 2.01E-02 3.29E-02 6.691E-01
7.140E-05 1.54E-01 1.49E-01 4.17E-04 2.79E-01 4.73E-02 2.01E-06 1.60E-02 1.73E-06 2.44E-03 2.03E-02 3.27E-02 7.007E-01
7.100E-05 1.56E-01 1.50E-01 4.17E-04 2.84E-01 4.77E-02 2.06E-06 1.60E-02 1.76E-06 2.47E-03 2.03E-02 3.26E-02 7.089E-01
7.000E-05 1.59E-01 1.54E-01 4.32E-04 2.95E-01 4.87E-02 2.17E-06 1.63E-02 1.87E-06 2.56E-03 2.04E-02 3.25E-02 7.298E-01
6.900E-05 1.63E-01 1.59E-01 4.47E-04 3.08E-01 4.98E-02 2.30E-06 1.65E-02 1.98E-06 2.65E-03 2.05E-02 3.23E-02 7.514E-01
6.800E-05 1.67E-01 1.63E-01 4.66E-04 3.21E-01 5.08E-02 2.43E-06 1.67E-02 2.10E-06 2.74E-03 2.06E-02 3.21E-02 7.739E-01
6.700E-05 1.71E-01 1.67E-01 4.84E-04 3.34E-01 5.20E-02 2.58E-06 1.69E-02 2.23E-06 2.84E-03 2.07E-02 3.19E-02 7.971E-01
6.600E-05 1.75E-01 1.72E-01 5.06E-04 3.48E-01 5.31E-02 2.73E-06 1.72E-02 2.37E-06 2.94E-03 2.08E-02 3.18E-02 8.211E-01
6.500E-05 1.79E-01 1.76E-01 5.18E-04 3.63E-01 5.44E-02 2.90E-06 1.74E-02 2.52E-06 3.05E-03 2.10E-02 3.16E-02 8.460E-01
6.400E-05 1.83E-01 1.81E-01 5.30E-04 3.78E-01 5.57E-02 3.08E-06 1.77E-02 2.68E-06 3.17E-03 2.11E-02 3.14E-02 8.718E-01
6.300E-05 1.88E-01 1.85E-01 5.47E-04 3.94E-01 5.70E-02 3.28E-06 1.80E-02 2.85E-06 3.29E-03 2.12E-02 3.12E-02 8.985E-01
6.250E-05 1.90E-01 1.88E-01 5.52E-04 4.02E-01 5.77E-02 3.38E-06 1.81E-02 2.95E-06 3.35E-03 2.12E-02 3.11E-02 9.122E-01
6.200E-05 1.93E-01 1.90E-01 5.66E-04 4.11E-01 5.84E-02 3.49E-06 1.82E-02 3.05E-06 3.42E-03 2.13E-02 3.09E-02 9.261E-01
6.100E-05 1.98E-01 1.94E-01 5.94E-04 4.28E-01 5.98E-02 3.72E-06 1.85E-02 3.25E-06 3.56E-03 2.14E-02 3.07E-02 9.546E-01
6.000E-05 2.03E-01 1.99E-01 6.20E-04 4.46E-01 6.13E-02 3.97E-06 1.88E-02 3.48E-06 3.70E-03 2.15E-02 3.05E-02 9.841E-01
5.900E-05 2.09E-01 2.03E-01 6.46E-04 4.64E-01 6.28E-02 4.24E-06 1.91E-02 3.72E-06 3.85E-03 2.16E-02 3.02E-02 1.015E+00
5.800E-05 2.15E-01 2.07E-01 6.76E-04 4.84E-01 6.44E-02 4.53E-06 1.94E-02 3.99E-06 4.02E-03 2.17E-02 2.99E-02 1.046E+00
5.700E-05 2.21E-01 2.12E-01 7.10E-04 5.04E-01 6.60E-02 4.85E-06 1.98E-02 4.27E-06 4.19E-03 2.19E-02 2.96E-02 1.078E+00
5.600E-05 2.27E-01 2.15E-01 7.46E-04 5.25E-01 6.77E-02 5.20E-06 2.01E-02 4.59E-06 4.37E-03 2.20E-02 2.93E-02 1.111E+00
5.500E-05 2.34E-01 2.19E-01 7.79E-04 5.47E-01 6.94E-02 5.59E-06 2.04E-02 4.94E-06 4.57E-03 2.21E-02 2.90E-02 1.146E+00
5.477E-05 2.36E-01 2.20E-01 7.84E-04 5.52E-01 6.99E-02 5.68E-06 2.05E-02 5.02E-06 6.73E-03 2.21E-02 2.89E-02 1.156E+00
5.400E-05 2.41E-01 2.22E-01 8.10E-04 5.69E-01 7.15E-02 6.01E-06 2.08E-02 5.32E-06 6.99E-03 2.22E-02 2.87E-02 1.184E+00
5.300E-05 2.48E-01 2.26E-01 8.48E-04 5.93E-01 7.37E-02 6.49E-06 2.12E-02 5.74E-06 7.36E-03 2.23E-02 2.83E-02 1.220E+00
5.200E-05 2.55E-01 2.29E-01 9.02E-04 6.18E-01 7.59E-02 7.00E-06 2.15E-02 6.20E-06 7.77E-03 2.24E-02 2.80E-02 1.258E+00
5.100E-05 2.62E-01 2.32E-01 9.54E-04 6.44E-01 7.82E-02 7.57E-06 2.19E-02 6.71E-06 8.21E-03 2.25E-02 2.77E-02 1.297E+00
5.000E-05 2.70E-01 2.34E-01 1.01E-03 6.71E-01 8.07E-02 8.20E-06 2.24E-02 7.27E-06 8.69E-03 2.26E-02 2.74E-02 1.338E+00
4.900E-05 2.77E-01 2.36E-01 1.06E-03 7.00E-01 8.32E-02 8.90E-06 2.28E-02 7.90E-06 9.22E-03 2.27E-02 2.71E-02 1.379E+00
4.880E-05 2.78E-01 2.37E-01 1.07E-03 7.06E-01 8.37E-02 9.05E-06 2.29E-02 8.03E-06 9.33E-03 2.27E-02 2.70E-02 1.388E+00
4.800E-05 2.84E-01 2.39E-01 1.12E-03 7.30E-01 8.62E-02 9.68E-06 2.32E-02 8.59E-06 9.81E-03 2.27E-02 2.68E-02 1.423E+00
4.760E-05 2.87E-01 2.39E-01 1.15E-03 7.42E-01 8.75E-02 1.00E-05 2.34E-02 8.89E-06 1.01E-02 2.27E-02 2.67E-02 1.440E+00
4.700E-05 2.92E-01 2.41E-01 1.19E-03 7.61E-01 8.96E-02 1.06E-05 2.37E-02 9.36E-06 1.05E-02 2.28E-02 2.65E-02 1.467E+00
4.650E-05 2.95E-01 2.41E-01 1.23E-03 7.77E-01 9.13E-02 1.10E-05 2.39E-02 9.78E-06 1.08E-02 2.28E-02 2.63E-02 1.490E+00
4.600E-05 2.99E-01 2.42E-01 1.27E-03 7.93E-01 9.31E-02 1.15E-05 2.42E-02 1.02E-05 1.12E-02 2.28E-02 2.62E-02 1.513E+00
4.550E-05 3.03E-01 2.43E-01 1.33E-03 8.10E-01 9.49E-02 1.21E-05 2.44E-02 1.07E-05 1.16E-02 2.29E-02 2.60E-02 1.537E+00
4.500E-05 3.07E-01 2.44E-01 1.39E-03 8.26E-01 9.68E-02 1.26E-05 2.47E-02 1.12E-05 1.20E-02 2.29E-02 2.59E-02 1.561E+00
4.440E-05 3.11E-01 2.45E-01 1.47E-03 8.47E-01 9.91E-02 1.33E-05 2.50E-02 1.18E-05 1.25E-02 2.29E-02 2.57E-02 1.590E+00
4.350E-05 3.18E-01 2.46E-01 1.60E-03 8.78E-01 1.03E-01 1.45E-05 2.55E-02 1.28E-05 1.34E-02 2.29E-02 2.55E-02 1.634E+00
4.170E-05 3.31E-01 2.48E-01 1.95E-03 9.44E-01 1.12E-01 1.73E-05 2.65E-02 1.53E-05 1.54E-02 2.29E-02 2.50E-02 1.727E+00
4.000E-05 3.43E-01 2.50E-01 2.58E-03 1.01E+00 1.21E-01 2.05E-05 2.75E-02 1.81E-05 1.79E-02 2.29E-02 2.45E-02 1.819E+00
3.850E-05 3.54E-01 2.51E-01 3.42E-03 1.07E+00 1.29E-01 2.40E-05 2.85E-02 2.13E-05 2.07E-02 2.29E-02 2.42E-02 1.904E+00
3.656E-05 3.67E-01 2.52E-01 5.03E-03 1.15E+00 1.42E-01 3.00E-05 2.98E-02 2.64E-05 2.55E-02 2.28E-02 2.38E-02 2.020E+00
3.570E-05 3.73E-01 2.53E-01 5.87E-03 1.19E+00 1.47E-01 3.32E-05 3.05E-02 2.91E-05 2.83E-02 2.28E-02 2.36E-02 2.072E+00
3.330E-05 3.88E-01 2.53E-01 8.79E-03 1.29E+00 1.68E-01 4.54E-05 3.23E-02 3.90E-05 3.91E-02 2.26E-02 2.32E-02 2.227E+00
3.130E-05 4.00E-01 2.54E-01 1.17E-02 1.38E+00 1.93E-01 6.13E-05 3.41E-02 5.08E-05 5.47E-02 2.25E-02 2.29E-02 2.368E+00
3.000E-05 4.07E-01 2.54E-01 1.40E-02 1.43E+00 2.15E-01 7.59E-05 3.52E-02 6.09E-05 7.09E-02 2.23E-02 2.27E-02 2.470E+00
2.940E-05 4.10E-01 2.54E-01 1.51E-02 1.45E+00 2.26E-01 8.42E-05 3.58E-02 6.65E-05 8.11E-02 2.23E-02 2.27E-02 2.519E+00
2.780E-05 4.18E-01 2.53E-01 1.85E-02 1.51E+00 2.65E-01 1.16E-04 3.74E-02 8.48E-05 1.23E-01 2.21E-02 2.25E-02 2.670E+00
2.630E-05 4.23E-01 2.53E-01 2.20E-02 1.56E+00 3.24E-01 1.64E-04 3.88E-02 1.09E-04 2.03E-01 2.19E-02 2.24E-02 2.864E+00
2.500E-05 4.27E-01 2.53E-01 2.61E-02 1.59E+00 4.04E-01 2.39E-04 4.01E-02 1.36E-04 3.44E-01 2.18E-02 2.24E-02 3.130E+00
2.380E-05 4.31E-01 2.54E-01 3.11E-02 1.61E+00 5.57E-01 3.66E-04 4.02E-02 1.71E-04 5.74E-01 2.16E-02 2.23E-02 3.546E+00
2.270E-05 4.33E-01 2.53E-01 3.81E-02 1.63E+00 8.05E-01 5.35E-04 4.18E-02 2.15E-04 7.29E-01 2.15E-02 2.23E-02 3.977E+00
2.170E-05 4.34E-01 2.53E-01 4.74E-02 1.65E+00 1.09E+00 6.96E-04 4.70E-02 2.69E-04 5.88E-01 2.13E-02 2.23E-02 4.152E+00
2.080E-05 4.35E-01 2.53E-01 6.48E-02 1.67E+00 1.13E+00 6.45E-04 5.87E-02 3.34E-04 3.83E-01 2.12E-02 2.23E-02 4.040E+00
2.000E-05 4.35E-01 2.53E-01 2.32E-01 1.55E+00 9.79E-01 5.05E-04 7.47E-02 4.09E-04 2.54E-01 2.10E-02 2.24E-02 3.820E+00
1.920E-05 4.34E-01 2.54E-01 4.45E-01 1.38E+00 7.60E-01 3.47E-04 1.03E-01 5.09E-04 1.73E-01 2.09E-02 2.24E-02 3.594E+00
1.850E-05 4.36E-01 2.58E-01 5.78E-01 1.28E+00 5.95E-01 2.45E-04 1.38E-01 6.23E-04 1.29E-01 2.07E-02 2.25E-02 3.463E+00
1.790E-05 4.38E-01 2.61E-01 7.38E-01 1.15E+00 4.84E-01 1.88E-04 1.76E-01 7.46E-04 1.03E-01 2.05E-02 2.25E-02 3.389E+00
1.720E-05 4.40E-01 2.64E-01 8.57E-01 1.05E+00 3.88E-01 1.49E-04 2.44E-01 9.35E-04 8.26E-02 2.04E-02 2.26E-02 3.366E+00
1.670E-05 4.43E-01 2.67E-01 9.14E-01 1.00E+00 3.32E-01 1.36E-04 3.07E-01 1.11E-03 7.23E-02 2.02E-02 2.26E-02 3.380E+00
1.610E-05 4.46E-01 2.70E-01 9.68E-01 9.61E-01 2.80E-01 1.38E-04 4.18E-01 1.37E-03 6.34E-02 2.00E-02 2.27E-02 3.451E+00
1.560E-05 4.48E-01 2.72E-01 1.00E+00 9.36E-01 2.46E-01 1.56E-04 5.46E-01 1.63E-03 5.85E-02 1.98E-02 2.28E-02 3.555E+00
1.520E-05 4.50E-01 2.74E-01 1.03E+00 9.18E-01 2.23E-01 1.81E-04 6.82E-01 1.88E-03 5.58E-02 1.97E-02 2.28E-02 3.677E+00
1.470E-05 4.53E-01 2.76E-01 1.05E+00 8.99E-01 1.99E-01 2.29E-04 8.79E-01 2.22E-03 5.41E-02 1.95E-02 2.29E-02 3.853E+00
1.430E-05 4.54E-01 2.77E-01 1.06E+00 8.86E-01 1.86E-01 2.86E-04 1.05E+00 2.49E-03 5.39E-02 1.94E-02 2.29E-02 4.012E+00
1.390E-05 4.55E-01 2.78E-01 1.07E+00 8.74E-01 1.81E-01 3.63E-04 1.18E+00 2.75E-03 5.49E-02 1.94E-02 2.29E-02 4.136E+00
1.350E-05 4.55E-01 2.78E-01 1.07E+00 8.63E-01 1.81E-01 4.66E-04 1.30E+00 3.09E-03 5.72E-02 1.93E-02 2.28E-02 4.256E+00
1.320E-05 4.55E-01 2.78E-01 1.08E+00 8.54E-01 1.84E-01 5.66E-04 1.40E+00 3.38E-03 6.00E-02 1.93E-02 2.28E-02 4.353E+00
1.280E-05 4.55E-01 2.80E-01 1.08E+00 8.45E-01 1.96E-01 7.42E-04 1.54E+00 3.85E-03 6.53E-02 1.92E-02 2.28E-02 4.503E+00
1.250E-05 4.55E-01 2.80E-01 1.07E+00 8.43E-01 2.13E-01 9.15E-04 1.65E+00 4.26E-03 7.09E-02 1.91E-02 2.28E-02 4.637E+00
1.220E-05 4.55E-01 2.81E-01 1.07E+00 8.43E-01 2.37E-01 1.13E-03 1.78E+00 4.75E-03 7.82E-02 1.90E-02 2.28E-02 4.796E+00
1.190E-05 4.55E-01 2.82E-01 1.08E+00 8.52E-01 2.70E-01 1.41E-03 1.92E+00 5.33E-03 8.79E-02 1.90E-02 2.28E-02 4.994E+00
1.160E-05 4.53E-01 2.82E-01 1.08E+00 8.59E-01 3.08E-01 1.75E-03 2.08E+00 6.00E-03 1.01E-01 1.89E-02 2.28E-02 5.213E+00
1.140E-05 4.52E-01 2.82E-01 1.09E+00 8.60E-01 3.40E-01 2.06E-03 2.19E+00 6.53E-03 1.11E-01 1.88E-02 2.29E-02 5.376E+00
1.110E-05 4.50E-01 2.81E-01 1.09E+00 8.63E-01 3.89E-01 2.69E-03 2.39E+00 7.45E-03 1.32E-01 1.87E-02 2.29E-02 5.645E+00
1.080E-05 4.47E-01 2.81E-01 1.09E+00 8.66E-01 5.24E-01 3.59E-03 2.62E+00 8.59E-03 1.59E-01 1.86E-02 2.29E-02 6.046E+00
1.050E-05 4.44E-01 2.80E-01 1.10E+00 8.70E-01 6.99E-01 4.65E-03 2.91E+00 1.01E-02 1.97E-01 1.85E-02 2.30E-02 6.551E+00
1.030E-05 4.41E-01 2.79E-01 1.10E+00 8.72E-01 8.34E-01 5.33E-03 3.18E+00 1.12E-02 2.29E-01 1.84E-02 2.30E-02 6.992E+00
1.000E-05 4.37E-01 2.78E-01 1.10E+00 8.75E-01 1.02E+00 6.51E-03 3.57E+00 1.28E-02 2.90E-01 1.83E-02 2.30E-02 7.631E+00
9.750E-06 4.33E-01 2.77E-01 1.10E+00 8.78E-01 1.24E+00 8.07E-03 3.88E+00 1.43E-02 3.52E-01 1.83E-02 2.30E-02 8.225E+00
9.500E-06 4.29E-01 2.76E-01 1.10E+00 8.82E-01 1.49E+00 9.56E-03 4.22E+00 1.59E-02 4.14E-01 1.82E-02 2.30E-02 8.875E+00
9.250E-06 4.24E-01 2.74E-01 1.10E+00 8.85E-01 1.69E+00 1.07E-02 4.56E+00 1.75E-02 4.60E-01 1.82E-02 2.29E-02 9.452E+00
9.080E-06 4.21E-01 2.73E-01 1.09E+00 8.85E-01 1.81E+00 1.15E-02 4.75E+00 1.83E-02 4.71E-01 1.81E-02 2.29E-02 9.768E+00
