 # Optical depth (Siebenmorgen 2023, A&A 670A,115; SC 2023 doi: 10.48550/arXiv.2311.03310)
 # wel(cm) sa_aC    ss_aC    sa_Si    ss_Si    sa_vgr   ss_vgr   sa_vsi   ss_vsi   s_pahS+B sa_Dark  ss_Dark sigt 
 # ------------------------------------------------------------------------------------------------------------- 
1.000E+00 7.86E-08 2.51E-17 6.73E-07 1.46E-16 2.02E-09 1.76E-23 8.88E-08 1.39E-22 4.47E-11 4.06E-06 4.42E-13 4.907E-06
9.000E-01 9.20E-08 3.83E-17 7.94E-07 2.22E-16 2.57E-09 2.69E-23 1.06E-07 2.12E-22 5.52E-11 4.73E-06 6.73E-13 5.728E-06
8.000E-01 1.10E-07 6.13E-17 9.57E-07 3.56E-16 3.35E-09 4.31E-23 1.29E-07 3.39E-22 6.99E-11 5.62E-06 1.08E-12 6.817E-06
7.000E-01 1.35E-07 1.05E-16 1.18E-06 6.07E-16 4.50E-09 7.35E-23 1.58E-07 5.78E-22 9.13E-11 6.82E-06 1.84E-12 8.301E-06
6.000E-01 1.70E-07 1.94E-16 1.51E-06 1.13E-15 6.24E-09 1.36E-22 2.03E-07 1.07E-21 1.24E-10 8.55E-06 3.40E-12 1.044E-05
5.500E-01 1.95E-07 2.74E-16 1.73E-06 1.59E-15 7.48E-09 1.93E-22 2.35E-07 1.51E-21 1.48E-10 9.72E-06 4.81E-12 1.189E-05
5.000E-01 2.26E-07 4.01E-16 2.02E-06 2.33E-15 9.07E-09 2.82E-22 2.72E-07 2.22E-21 1.79E-10 1.12E-05 7.03E-12 1.371E-05
4.500E-01 2.66E-07 6.11E-16 2.39E-06 3.56E-15 1.12E-08 4.30E-22 3.24E-07 3.38E-21 2.21E-10 1.31E-05 1.07E-11 1.607E-05
4.000E-01 3.20E-07 9.79E-16 2.89E-06 5.70E-15 1.40E-08 6.89E-22 3.89E-07 5.41E-21 2.79E-10 1.56E-05 1.71E-11 1.919E-05
3.500E-01 3.94E-07 1.67E-15 3.58E-06 9.72E-15 1.79E-08 1.18E-21 4.88E-07 9.23E-21 3.65E-10 1.90E-05 2.92E-11 2.351E-05
3.000E-01 5.04E-07 3.09E-15 4.60E-06 1.80E-14 2.36E-08 2.18E-21 6.19E-07 1.71E-20 4.97E-10 2.40E-05 5.40E-11 2.973E-05
2.500E-01 6.75E-07 6.41E-15 6.18E-06 3.73E-14 3.22E-08 4.51E-21 8.31E-07 3.54E-20 7.15E-10 3.16E-05 1.12E-10 3.935E-05
2.098E-01 8.97E-07 1.29E-14 8.21E-06 7.53E-14 4.28E-08 9.10E-21 1.11E-06 7.14E-20 1.02E-09 4.14E-05 2.25E-10 5.164E-05
1.500E-01 1.56E-06 4.93E-14 1.42E-05 2.88E-13 8.17E-08 3.48E-20 1.89E-06 2.73E-19 1.99E-09 6.97E-05 8.56E-10 8.740E-05
1.382E-01 1.79E-06 6.85E-14 1.62E-05 4.00E-13 9.62E-08 4.83E-20 2.17E-06 3.78E-19 2.34E-09 7.93E-05 1.19E-09 9.956E-05
1.320E-01 1.93E-06 8.23E-14 1.75E-05 4.80E-13 1.05E-07 5.81E-20 2.34E-06 4.55E-19 2.57E-09 8.52E-05 1.42E-09 1.071E-04
1.150E-01 2.44E-06 1.43E-13 2.20E-05 8.34E-13 1.38E-07 1.01E-19 2.92E-06 7.89E-19 3.38E-09 1.06E-04 2.47E-09 1.336E-04
1.000E-01 3.11E-06 2.50E-13 2.76E-05 1.46E-12 1.81E-07 1.76E-19 3.64E-06 1.38E-18 4.47E-09 1.33E-04 4.31E-09 1.674E-04
9.970E-02 3.12E-06 2.53E-13 2.78E-05 1.48E-12 1.83E-07 1.78E-19 3.66E-06 1.40E-18 4.50E-09 1.33E-04 4.36E-09 1.682E-04
8.670E-02 3.93E-06 4.42E-13 3.51E-05 2.58E-12 2.41E-07 3.12E-19 4.59E-06 2.44E-18 5.95E-09 1.66E-04 7.61E-09 2.099E-04
8.500E-02 4.07E-06 4.78E-13 3.62E-05 2.79E-12 2.51E-07 3.38E-19 4.74E-06 2.64E-18 6.19E-09 1.72E-04 8.23E-09 2.170E-04
7.500E-02 5.17E-06 7.89E-13 4.46E-05 4.62E-12 3.19E-07 5.57E-19 5.79E-06 4.35E-18 7.95E-09 2.15E-04 1.36E-08 2.704E-04
6.000E-02 7.60E-06 1.92E-12 6.43E-05 1.13E-11 4.90E-07 1.36E-18 8.40E-06 1.06E-17 1.24E-08 3.05E-04 3.29E-08 3.860E-04
5.500E-02 8.81E-06 2.73E-12 7.20E-05 1.61E-11 5.78E-07 1.93E-18 9.80E-06 1.51E-17 1.48E-08 3.52E-04 4.66E-08 4.435E-04
5.000E-02 1.05E-05 4.00E-12 8.92E-05 2.38E-11 6.89E-07 2.82E-18 1.17E-05 2.21E-17 1.79E-08 4.18E-04 6.83E-08 5.297E-04
4.500E-02 1.29E-05 6.10E-12 1.18E-04 3.65E-11 8.41E-07 4.30E-18 1.43E-05 3.37E-17 2.21E-08 5.10E-04 1.04E-07 6.561E-04
4.000E-02 1.66E-05 9.78E-12 1.58E-04 5.90E-11 1.05E-06 6.88E-18 1.80E-05 5.40E-17 2.80E-08 6.41E-04 1.66E-07 8.344E-04
3.500E-02 2.08E-05 1.67E-11 2.40E-04 1.01E-10 1.34E-06 1.17E-17 2.38E-05 9.22E-17 3.65E-08 7.90E-04 2.83E-07 1.076E-03
3.000E-02 2.94E-05 3.10E-11 3.74E-04 1.89E-10 1.79E-06 2.17E-17 3.35E-05 1.71E-16 4.98E-08 1.08E-03 5.22E-07 1.523E-03
2.750E-02 3.50E-05 4.40E-11 4.71E-04 2.68E-10 2.11E-06 3.08E-17 4.09E-05 2.43E-16 5.92E-08 1.27E-03 7.37E-07 1.816E-03
2.500E-02 4.22E-05 6.46E-11 6.00E-04 3.92E-10 2.52E-06 4.51E-17 5.12E-05 3.55E-16 7.17E-08 1.51E-03 1.08E-06 2.211E-03
2.400E-02 4.63E-05 7.61E-11 6.64E-04 4.61E-10 2.73E-06 5.31E-17 5.59E-05 4.18E-16 7.78E-08 1.63E-03 1.27E-06 2.399E-03
2.000E-02 6.77E-05 1.59E-10 1.03E-03 9.40E-10 3.86E-06 1.10E-16 8.10E-05 8.67E-16 1.12E-07 2.29E-03 2.61E-06 3.479E-03
1.800E-02 8.43E-05 2.44E-10 1.28E-03 1.41E-09 4.74E-06 1.68E-16 1.01E-04 1.32E-15 1.39E-07 2.81E-03 3.98E-06 4.286E-03
1.600E-02 1.12E-04 3.94E-10 1.60E-03 2.21E-09 6.01E-06 2.70E-16 1.28E-04 2.12E-15 1.76E-07 3.54E-03 6.34E-06 5.388E-03
1.500E-02 1.34E-04 5.12E-10 1.79E-03 2.83E-09 6.84E-06 3.50E-16 1.46E-04 2.74E-15 2.00E-07 4.02E-03 8.15E-06 6.102E-03
1.400E-02 1.52E-04 6.75E-10 2.01E-03 3.68E-09 7.90E-06 4.62E-16 1.68E-04 3.62E-15 2.30E-07 4.48E-03 1.07E-05 6.822E-03
1.200E-02 2.32E-04 1.27E-09 2.56E-03 6.59E-09 1.10E-05 8.60E-16 2.31E-04 6.71E-15 3.14E-07 6.04E-03 1.95E-05 9.093E-03
1.000E-02 3.52E-04 2.66E-09 3.38E-03 1.31E-08 1.66E-05 1.80E-15 3.37E-04 1.39E-14 4.53E-07 8.29E-03 4.00E-05 1.241E-02
9.000E-03 4.68E-04 4.10E-09 3.85E-03 1.94E-08 2.14E-05 2.75E-15 4.20E-04 2.12E-14 5.62E-07 1.01E-02 6.03E-05 1.495E-02
8.000E-03 6.22E-04 6.46E-09 4.47E-03 3.06E-08 2.86E-05 4.44E-15 5.39E-04 3.41E-14 7.14E-07 1.21E-02 9.44E-05 1.783E-02
7.500E-03 7.27E-04 8.45E-09 4.95E-03 3.95E-08 3.37E-05 5.78E-15 6.18E-04 4.41E-14 8.15E-07 1.37E-02 1.22E-04 2.013E-02
7.000E-03 8.78E-04 1.11E-08 5.55E-03 5.16E-08 4.04E-05 7.67E-15 7.16E-04 5.81E-14 9.40E-07 1.54E-02 1.59E-04 2.277E-02
6.000E-03 1.26E-03 2.01E-08 7.12E-03 9.43E-08 6.23E-05 1.44E-14 9.97E-04 1.08E-13 1.29E-06 2.01E-02 2.87E-04 2.979E-02
5.000E-03 1.80E-03 3.93E-08 1.01E-02 1.92E-07 1.09E-04 3.07E-14 1.47E-03 2.22E-13 1.90E-06 2.70E-02 5.78E-04 4.105E-02
4.500E-03 2.21E-03 5.70E-08 1.24E-02 2.86E-07 1.54E-04 4.73E-14 1.83E-03 3.37E-13 2.39E-06 3.23E-02 8.59E-04 4.970E-02
4.000E-03 2.63E-03 8.48E-08 1.54E-02 4.29E-07 2.26E-04 7.53E-14 2.34E-03 5.34E-13 3.10E-06 3.89E-02 1.34E-03 6.087E-02
3.500E-03 3.18E-03 1.34E-07 1.90E-02 6.77E-07 3.14E-04 1.20E-13 3.05E-03 8.99E-13 4.24E-06 4.84E-02 2.21E-03 7.621E-02
3.000E-03 3.93E-03 2.22E-07 2.34E-02 1.09E-06 3.32E-04 1.88E-13 4.18E-03 1.64E-12 6.37E-06 6.26E-02 3.90E-03 9.838E-02
2.750E-03 4.31E-03 2.91E-07 2.56E-02 1.40E-06 2.86E-04 2.43E-13 5.02E-03 2.29E-12 8.47E-06 7.20E-02 5.28E-03 1.125E-01
2.500E-03 4.65E-03 3.88E-07 2.81E-02 1.84E-06 2.25E-04 3.34E-13 6.16E-03 3.30E-12 1.37E-05 8.33E-02 7.30E-03 1.297E-01
2.400E-03 4.82E-03 4.42E-07 2.90E-02 2.06E-06 2.02E-04 3.87E-13 6.71E-03 3.83E-12 1.88E-05 8.85E-02 8.33E-03 1.376E-01
2.350E-03 4.92E-03 4.73E-07 2.96E-02 2.19E-06 1.91E-04 4.19E-13 7.03E-03 4.13E-12 2.20E-05 9.14E-02 8.89E-03 1.421E-01
2.320E-03 4.98E-03 4.92E-07 3.00E-02 2.27E-06 1.85E-04 4.41E-13 7.22E-03 4.33E-12 2.37E-05 9.31E-02 9.25E-03 1.447E-01
2.310E-03 5.00E-03 4.99E-07 3.01E-02 2.30E-06 1.83E-04 4.48E-13 7.28E-03 4.40E-12 2.41E-05 9.37E-02 9.37E-03 1.456E-01
2.300E-03 5.02E-03 5.05E-07 3.02E-02 2.32E-06 1.80E-04 4.55E-13 7.34E-03 4.47E-12 2.44E-05 9.43E-02 9.49E-03 1.465E-01
2.250E-03 5.10E-03 5.40E-07 3.09E-02 2.48E-06 1.71E-04 4.96E-13 7.72E-03 4.85E-12 2.54E-05 9.74E-02 1.01E-02 1.514E-01
2.200E-03 5.18E-03 5.78E-07 3.16E-02 2.64E-06 1.62E-04 5.42E-13 8.14E-03 5.25E-12 2.67E-05 1.01E-01 1.08E-02 1.565E-01
2.150E-03 5.29E-03 6.22E-07 3.25E-02 2.80E-06 1.53E-04 5.94E-13 8.55E-03 5.67E-12 2.91E-05 1.04E-01 1.15E-02 1.617E-01
2.120E-03 5.35E-03 6.49E-07 3.30E-02 2.90E-06 1.49E-04 6.28E-13 8.82E-03 5.95E-12 3.03E-05 1.06E-01 1.19E-02 1.649E-01
2.110E-03 5.38E-03 6.58E-07 3.31E-02 2.93E-06 1.47E-04 6.40E-13 8.92E-03 6.05E-12 3.05E-05 1.06E-01 1.21E-02 1.660E-01
2.100E-03 5.39E-03 6.66E-07 3.33E-02 2.96E-06 1.45E-04 6.52E-13 9.02E-03 6.15E-12 3.06E-05 1.07E-01 1.22E-02 1.671E-01
2.080E-03 5.42E-03 6.83E-07 3.35E-02 3.02E-06 1.43E-04 6.78E-13 9.21E-03 6.34E-12 3.04E-05 1.08E-01 1.25E-02 1.690E-01
2.000E-03 5.50E-03 7.72E-07 3.46E-02 3.27E-06 1.32E-04 7.94E-13 1.01E-02 7.20E-12 2.91E-05 1.13E-01 1.37E-02 1.773E-01
1.950E-03 5.58E-03 8.37E-07 3.51E-02 3.38E-06 1.27E-04 8.80E-13 1.07E-02 7.63E-12 3.14E-05 1.16E-01 1.43E-02 1.818E-01
1.900E-03 5.69E-03 9.13E-07 3.52E-02 3.47E-06 1.22E-04 9.78E-13 1.11E-02 7.98E-12 3.76E-05 1.18E-01 1.48E-02 1.851E-01
1.850E-03 5.81E-03 9.99E-07 3.50E-02 3.51E-06 1.17E-04 1.09E-12 1.14E-02 8.20E-12 4.80E-05 1.19E-01 1.52E-02 1.864E-01
1.830E-03 5.87E-03 1.03E-06 3.48E-02 3.52E-06 1.15E-04 1.14E-12 1.14E-02 8.24E-12 5.17E-05 1.19E-01 1.53E-02 1.865E-01
1.820E-03 5.89E-03 1.05E-06 3.47E-02 3.51E-06 1.15E-04 1.17E-12 1.14E-02 8.26E-12 5.29E-05 1.19E-01 1.54E-02 1.863E-01
1.810E-03 5.91E-03 1.07E-06 3.45E-02 3.51E-06 1.14E-04 1.19E-12 1.14E-02 8.27E-12 5.37E-05 1.19E-01 1.55E-02 1.860E-01
1.800E-03 5.93E-03 1.09E-06 3.43E-02 3.50E-06 1.13E-04 1.22E-12 1.14E-02 8.29E-12 5.41E-05 1.18E-01 1.56E-02 1.857E-01
1.750E-03 6.07E-03 1.19E-06 3.28E-02 3.41E-06 1.10E-04 1.37E-12 1.11E-02 8.33E-12 5.54E-05 1.17E-01 1.59E-02 1.830E-01
1.700E-03 6.14E-03 1.31E-06 3.04E-02 3.27E-06 1.07E-04 1.54E-12 1.05E-02 8.39E-12 6.74E-05 1.14E-01 1.65E-02 1.781E-01
1.670E-03 6.24E-03 1.39E-06 2.85E-02 3.18E-06 1.06E-04 1.66E-12 1.01E-02 8.49E-12 7.91E-05 1.13E-01 1.70E-02 1.750E-01
1.650E-03 6.32E-03 1.45E-06 2.70E-02 3.13E-06 1.05E-04 1.74E-12 9.83E-03 8.59E-12 8.33E-05 1.12E-01 1.74E-02 1.727E-01
1.640E-03 6.35E-03 1.48E-06 2.62E-02 3.11E-06 1.05E-04 1.78E-12 9.68E-03 8.64E-12 8.32E-05 1.11E-01 1.75E-02 1.715E-01
1.630E-03 6.39E-03 1.51E-06 2.54E-02 3.09E-06 1.05E-04 1.83E-12 9.52E-03 8.71E-12 8.16E-05 1.11E-01 1.77E-02 1.702E-01
1.610E-03 6.45E-03 1.57E-06 2.36E-02 3.08E-06 1.04E-04 1.92E-12 9.19E-03 8.93E-12 7.65E-05 1.10E-01 1.82E-02 1.676E-01
1.600E-03 6.48E-03 1.60E-06 2.27E-02 3.09E-06 1.04E-04 1.97E-12 9.03E-03 9.05E-12 7.42E-05 1.09E-01 1.85E-02 1.664E-01
1.590E-03 6.52E-03 1.63E-06 2.18E-02 3.11E-06 1.04E-04 2.02E-12 8.86E-03 9.18E-12 7.24E-05 1.09E-01 1.88E-02 1.651E-01
1.580E-03 6.55E-03 1.67E-06 2.08E-02 3.16E-06 1.03E-04 2.08E-12 8.70E-03 9.35E-12 7.13E-05 1.09E-01 1.91E-02 1.640E-01
1.570E-03 6.57E-03 1.70E-06 1.99E-02 3.22E-06 1.03E-04 2.13E-12 8.54E-03 9.52E-12 7.02E-05 1.08E-01 1.95E-02 1.627E-01
1.560E-03 6.61E-03 1.74E-06 1.90E-02 3.30E-06 1.03E-04 2.19E-12 8.38E-03 9.71E-12 6.89E-05 1.08E-01 1.98E-02 1.617E-01
1.540E-03 6.71E-03 1.81E-06 1.75E-02 3.54E-06 1.03E-04 2.30E-12 8.08E-03 1.02E-11 6.74E-05 1.07E-01 2.06E-02 1.602E-01
1.520E-03 6.76E-03 1.88E-06 1.62E-02 3.89E-06 1.03E-04 2.43E-12 7.78E-03 1.07E-11 7.10E-05 1.06E-01 2.15E-02 1.589E-01
1.510E-03 6.79E-03 1.92E-06 1.58E-02 4.09E-06 1.03E-04 2.50E-12 7.63E-03 1.10E-11 7.33E-05 1.06E-01 2.20E-02 1.584E-01
1.500E-03 6.80E-03 1.95E-06 1.54E-02 4.31E-06 1.03E-04 2.56E-12 7.50E-03 1.14E-11 7.38E-05 1.06E-01 2.25E-02 1.582E-01
1.450E-03 6.91E-03 2.18E-06 1.47E-02 5.60E-06 1.03E-04 2.94E-12 6.91E-03 1.38E-11 9.31E-05 1.06E-01 2.61E-02 1.604E-01
1.440E-03 6.95E-03 2.23E-06 1.47E-02 5.88E-06 1.04E-04 3.03E-12 6.81E-03 1.44E-11 1.03E-04 1.06E-01 2.69E-02 1.615E-01
1.430E-03 6.98E-03 2.28E-06 1.47E-02 6.16E-06 1.04E-04 3.11E-12 6.79E-03 1.52E-11 1.11E-04 1.07E-01 2.79E-02 1.632E-01
1.420E-03 7.01E-03 2.33E-06 1.47E-02 6.45E-06 1.04E-04 3.20E-12 6.76E-03 1.59E-11 1.15E-04 1.07E-01 2.89E-02 1.649E-01
1.400E-03 7.08E-03 2.45E-06 1.47E-02 7.07E-06 1.05E-04 3.39E-12 6.81E-03 1.77E-11 1.26E-04 1.10E-01 3.12E-02 1.696E-01
1.380E-03 7.16E-03 2.56E-06 1.47E-02 7.75E-06 1.05E-04 3.60E-12 7.00E-03 1.98E-11 1.58E-04 1.13E-01 3.36E-02 1.755E-01
1.370E-03 7.19E-03 2.63E-06 1.47E-02 8.11E-06 1.06E-04 3.71E-12 7.19E-03 2.09E-11 1.88E-04 1.15E-01 3.48E-02 1.790E-01
1.360E-03 7.23E-03 2.69E-06 1.47E-02 8.49E-06 1.06E-04 3.82E-12 7.41E-03 2.21E-11 2.17E-04 1.17E-01 3.61E-02 1.828E-01
1.350E-03 7.28E-03 2.76E-06 1.48E-02 8.90E-06 1.07E-04 3.94E-12 7.62E-03 2.33E-11 2.32E-04 1.19E-01 3.73E-02 1.867E-01
1.340E-03 7.33E-03 2.83E-06 1.48E-02 9.33E-06 1.07E-04 4.06E-12 7.88E-03 2.46E-11 2.52E-04 1.22E-01 3.85E-02 1.907E-01
1.330E-03 7.37E-03 2.89E-06 1.49E-02 9.79E-06 1.08E-04 4.18E-12 8.16E-03 2.58E-11 2.91E-04 1.24E-01 3.96E-02 1.946E-01
1.320E-03 7.42E-03 2.97E-06 1.50E-02 1.03E-05 1.08E-04 4.31E-12 8.44E-03 2.71E-11 3.59E-04 1.27E-01 4.07E-02 1.987E-01
1.310E-03 7.46E-03 3.03E-06 1.52E-02 1.08E-05 1.09E-04 4.45E-12 8.75E-03 2.85E-11 4.69E-04 1.29E-01 4.17E-02 2.028E-01
1.290E-03 7.50E-03 3.16E-06 1.55E-02 1.19E-05 1.10E-04 4.73E-12 9.39E-03 3.14E-11 9.64E-04 1.34E-01 4.39E-02 2.112E-01
1.280E-03 7.51E-03 3.24E-06 1.57E-02 1.26E-05 1.11E-04 4.88E-12 9.78E-03 3.30E-11 1.41E-03 1.36E-01 4.50E-02 2.160E-01
1.270E-03 7.54E-03 3.33E-06 1.58E-02 1.32E-05 1.12E-04 5.04E-12 1.02E-02 3.46E-11 1.71E-03 1.39E-01 4.61E-02 2.206E-01
1.260E-03 7.58E-03 3.42E-06 1.60E-02 1.40E-05 1.12E-04 5.20E-12 1.06E-02 3.63E-11 1.47E-03 1.42E-01 4.70E-02 2.246E-01
1.250E-03 7.60E-03 3.50E-06 1.64E-02 1.49E-05 1.13E-04 5.37E-12 1.10E-02 3.79E-11 1.09E-03 1.44E-01 4.79E-02 2.284E-01
1.220E-03 7.76E-03 3.82E-06 1.86E-02 1.84E-05 1.16E-04 5.93E-12 1.24E-02 4.34E-11 8.51E-04 1.52E-01 5.06E-02 2.424E-01
1.210E-03 7.79E-03 3.91E-06 2.03E-02 1.98E-05 1.16E-04 6.13E-12 1.29E-02 4.55E-11 9.78E-04 1.55E-01 5.13E-02 2.481E-01
1.200E-03 7.82E-03 4.01E-06 2.24E-02 2.12E-05 1.17E-04 6.34E-12 1.34E-02 4.76E-11 1.08E-03 1.57E-01 5.21E-02 2.542E-01
1.190E-03 7.88E-03 4.14E-06 2.47E-02 2.24E-05 1.18E-04 6.56E-12 1.40E-02 4.98E-11 1.08E-03 1.60E-01 5.28E-02 2.606E-01
1.180E-03 7.94E-03 4.25E-06 2.71E-02 2.34E-05 1.19E-04 6.80E-12 1.46E-02 5.19E-11 1.07E-03 1.62E-01 5.32E-02 2.663E-01
1.170E-03 7.99E-03 4.37E-06 2.92E-02 2.43E-05 1.20E-04 7.05E-12 1.53E-02 5.41E-11 1.19E-03 1.65E-01 5.37E-02 2.721E-01
1.160E-03 8.05E-03 4.49E-06 3.12E-02 2.50E-05 1.22E-04 7.34E-12 1.58E-02 5.63E-11 1.54E-03 1.67E-01 5.41E-02 2.774E-01
1.150E-03 8.09E-03 4.60E-06 3.29E-02 2.57E-05 1.71E-04 7.25E-12 1.64E-02 5.87E-11 2.24E-03 1.69E-01 5.44E-02 2.828E-01
1.140E-03 8.10E-03 4.71E-06 3.43E-02 2.62E-05 1.27E-04 7.73E-12 1.71E-02 6.12E-11 3.37E-03 1.71E-01 5.48E-02 2.884E-01
1.130E-03 8.13E-03 4.84E-06 3.57E-02 2.68E-05 1.27E-04 8.03E-12 1.78E-02 6.40E-11 4.11E-03 1.73E-01 5.52E-02 2.937E-01
1.120E-03 8.16E-03 4.98E-06 3.69E-02 2.74E-05 1.28E-04 8.34E-12 1.85E-02 6.68E-11 3.31E-03 1.75E-01 5.55E-02 2.972E-01
1.110E-03 8.18E-03 5.12E-06 3.80E-02 2.81E-05 1.29E-04 8.65E-12 1.93E-02 6.97E-11 2.10E-03 1.77E-01 5.58E-02 3.002E-01
1.090E-03 8.24E-03 5.43E-06 4.03E-02 2.93E-05 1.31E-04 9.31E-12 2.09E-02 7.58E-11 8.78E-04 1.80E-01 5.61E-02 3.070E-01
1.050E-03 8.41E-03 6.19E-06 4.45E-02 3.16E-05 1.37E-04 1.08E-11 2.53E-02 9.00E-11 2.94E-04 1.88E-01 5.56E-02 3.220E-01
1.000E-03 8.72E-03 7.30E-06 4.87E-02 3.35E-05 1.46E-04 1.32E-11 2.93E-02 9.64E-11 1.52E-04 1.88E-01 5.15E-02 3.264E-01
9.800E-04 8.87E-03 7.83E-06 4.96E-02 3.33E-05 1.51E-04 1.43E-11 3.07E-02 9.92E-11 1.33E-04 1.88E-01 5.00E-02 3.272E-01
9.600E-04 8.99E-03 8.40E-06 4.93E-02 3.25E-05 1.55E-04 1.55E-11 3.22E-02 9.99E-11 1.23E-04 1.86E-01 4.77E-02 3.248E-01
9.500E-04 9.10E-03 8.69E-06 4.88E-02 3.19E-05 1.57E-04 1.62E-11 3.25E-02 9.78E-11 1.22E-04 1.85E-01 4.60E-02 3.212E-01
9.400E-04 9.15E-03 8.96E-06 4.79E-02 3.13E-05 1.60E-04 1.69E-11 3.24E-02 9.36E-11 1.22E-04 1.82E-01 4.39E-02 3.154E-01
9.200E-04 9.29E-03 9.57E-06 4.55E-02 3.00E-05 1.65E-04 1.84E-11 3.02E-02 7.79E-11 1.30E-04 1.73E-01 3.94E-02 2.973E-01
8.900E-04 9.52E-03 1.07E-05 4.04E-02 2.80E-05 1.73E-04 2.10E-11 2.38E-02 4.99E-11 1.87E-04 1.55E-01 3.38E-02 2.631E-01
8.700E-04 9.59E-03 1.14E-05 3.65E-02 2.75E-05 1.80E-04 2.30E-11 1.98E-02 3.70E-11 4.10E-04 1.44E-01 3.20E-02 2.430E-01
8.600E-04 9.68E-03 1.19E-05 3.46E-02 2.75E-05 1.83E-04 2.41E-11 1.82E-02 3.27E-11 6.15E-04 1.40E-01 3.17E-02 2.354E-01
8.500E-04 9.73E-03 1.23E-05 3.27E-02 2.75E-05 1.86E-04 2.53E-11 1.68E-02 2.91E-11 4.42E-04 1.36E-01 3.15E-02 2.276E-01
8.400E-04 9.83E-03 1.29E-05 3.05E-02 2.75E-05 1.90E-04 2.65E-11 1.53E-02 2.55E-11 3.19E-04 1.32E-01 3.12E-02 2.196E-01
8.200E-04 9.93E-03 1.37E-05 2.54E-02 2.82E-05 1.97E-04 2.92E-11 1.18E-02 1.83E-11 3.25E-04 1.22E-01 3.08E-02 2.001E-01
8.000E-04 1.00E-02 1.49E-05 2.05E-02 3.11E-05 2.05E-04 3.22E-11 8.09E-03 1.41E-11 4.72E-04 1.10E-01 3.24E-02 1.822E-01
7.900E-04 1.02E-02 1.55E-05 1.86E-02 3.35E-05 2.09E-04 3.38E-11 6.80E-03 1.52E-11 5.87E-04 1.07E-01 3.47E-02 1.785E-01
7.800E-04 1.02E-02 1.61E-05 1.71E-02 3.62E-05 2.13E-04 3.56E-11 5.53E-03 1.72E-11 7.01E-04 1.04E-01 3.73E-02 1.748E-01
7.700E-04 1.02E-02 1.67E-05 1.58E-02 3.92E-05 2.18E-04 3.75E-11 4.55E-03 2.05E-11 7.52E-04 1.01E-01 4.04E-02 1.731E-01
7.600E-04 1.02E-02 1.73E-05 1.46E-02 4.25E-05 2.22E-04 3.95E-11 3.86E-03 2.50E-11 7.00E-04 9.97E-02 4.39E-02 1.733E-01
7.500E-04 1.03E-02 1.81E-05 1.36E-02 4.62E-05 2.27E-04 4.16E-11 3.24E-03 3.04E-11 5.81E-04 9.84E-02 4.78E-02 1.742E-01
7.300E-04 1.04E-02 1.98E-05 1.21E-02 5.46E-05 2.37E-04 4.63E-11 2.72E-03 4.34E-11 3.65E-04 9.91E-02 5.60E-02 1.810E-01
7.200E-04 1.04E-02 2.06E-05 1.16E-02 5.93E-05 2.42E-04 4.90E-11 2.63E-03 5.02E-11 3.06E-04 9.97E-02 5.96E-02 1.846E-01
7.100E-04 1.04E-02 2.16E-05 1.13E-02 6.42E-05 2.47E-04 5.18E-11 2.55E-03 5.77E-11 3.00E-04 1.00E-01 6.37E-02 1.890E-01
7.000E-04 1.05E-02 2.26E-05 1.10E-02 6.92E-05 2.53E-04 5.48E-11 2.52E-03 6.54E-11 4.13E-04 1.02E-01 6.74E-02 1.938E-01
6.900E-04 1.06E-02 2.35E-05 1.05E-02 7.44E-05 2.59E-04 5.80E-11 2.51E-03 7.36E-11 2.46E-04 1.02E-01 7.07E-02 1.973E-01
6.800E-04 1.04E-02 2.44E-05 9.97E-03 8.00E-05 2.65E-04 6.15E-11 2.51E-03 8.20E-11 1.94E-04 1.02E-01 7.47E-02 2.003E-01
6.600E-04 1.05E-02 2.75E-05 8.98E-03 9.30E-05 2.78E-04 6.92E-11 2.51E-03 1.01E-10 1.86E-04 1.04E-01 8.33E-02 2.104E-01
6.400E-04 1.08E-02 3.10E-05 7.78E-03 1.08E-04 2.92E-04 7.82E-11 2.50E-03 1.22E-10 2.79E-04 1.08E-01 9.14E-02 2.209E-01
6.300E-04 1.10E-02 3.27E-05 7.26E-03 1.18E-04 2.96E-04 8.34E-11 2.49E-03 1.34E-10 4.31E-04 1.09E-01 9.47E-02 2.258E-01
6.200E-04 1.11E-02 3.43E-05 7.14E-03 1.28E-04 3.08E-04 8.87E-11 2.48E-03 1.47E-10 5.82E-04 1.10E-01 9.85E-02 2.304E-01
6.100E-04 1.12E-02 3.63E-05 7.11E-03 1.38E-04 3.16E-04 9.46E-11 2.47E-03 1.61E-10 4.25E-04 1.11E-01 1.02E-01 2.354E-01
5.900E-04 1.16E-02 4.08E-05 5.84E-03 1.61E-04 3.34E-04 1.08E-10 2.43E-03 1.92E-10 1.97E-04 1.15E-01 1.10E-01 2.451E-01
5.500E-04 1.12E-02 4.91E-05 4.33E-03 2.26E-04 3.74E-04 1.43E-10 2.40E-03 2.76E-10 1.69E-04 1.14E-01 1.29E-01 2.615E-01
5.300E-04 1.13E-02 5.65E-05 3.87E-03 2.69E-04 3.98E-04 1.65E-10 2.40E-03 3.30E-10 2.62E-04 1.16E-01 1.40E-01 2.745E-01
5.200E-04 1.13E-02 6.04E-05 3.64E-03 2.94E-04 4.10E-04 1.78E-10 2.41E-03 3.62E-10 4.07E-04 1.17E-01 1.46E-01 2.809E-01
5.100E-04 1.14E-02 6.51E-05 3.40E-03 3.21E-04 4.24E-04 1.92E-10 2.42E-03 3.97E-10 5.57E-04 1.18E-01 1.51E-01 2.879E-01
5.000E-04 1.16E-02 7.00E-05 3.15E-03 3.56E-04 4.37E-04 2.08E-10 2.43E-03 4.36E-10 4.07E-04 1.19E-01 1.57E-01 2.944E-01
4.800E-04 1.17E-02 8.08E-05 2.79E-03 4.28E-04 4.66E-04 2.44E-10 2.47E-03 5.26E-10 2.00E-04 1.22E-01 1.68E-01 3.078E-01
4.500E-04 1.21E-02 1.01E-04 2.34E-03 5.70E-04 5.16E-04 3.15E-10 2.56E-03 7.03E-10 1.60E-04 1.26E-01 1.85E-01 3.286E-01
4.000E-04 1.25E-02 1.55E-04 1.74E-03 9.49E-04 6.22E-04 5.02E-10 2.75E-03 1.18E-09 1.82E-04 1.31E-01 2.15E-01 3.657E-01
3.800E-04 1.28E-02 1.87E-04 1.53E-03 1.18E-03 6.74E-04 6.14E-10 2.84E-03 1.46E-09 2.03E-04 1.34E-01 2.27E-01 3.812E-01
3.600E-04 1.31E-02 2.28E-04 1.35E-03 1.48E-03 7.33E-04 7.60E-10 2.94E-03 1.84E-09 2.45E-04 1.37E-01 2.39E-01 3.967E-01
3.400E-04 1.37E-02 2.80E-04 1.19E-03 1.89E-03 8.03E-04 9.52E-10 3.04E-03 2.34E-09 4.71E-04 1.41E-01 2.48E-01 4.106E-01
3.300E-04 1.37E-02 3.10E-04 1.11E-03 2.14E-03 8.42E-04 1.07E-09 3.09E-03 2.64E-09 1.18E-03 1.41E-01 2.54E-01 4.180E-01
3.200E-04 1.37E-02 3.48E-04 1.04E-03 2.43E-03 8.83E-04 1.21E-09 3.14E-03 3.00E-09 4.89E-04 1.43E-01 2.60E-01 4.247E-01
3.150E-04 1.39E-02 3.70E-04 1.00E-03 2.59E-03 9.05E-04 1.29E-09 3.17E-03 3.21E-09 3.85E-04 1.43E-01 2.62E-01 4.282E-01
3.100E-04 1.40E-02 3.92E-04 9.70E-04 2.77E-03 9.28E-04 1.37E-09 3.20E-03 3.43E-09 3.46E-04 1.44E-01 2.65E-01 4.315E-01
3.080E-04 1.40E-02 4.02E-04 9.56E-04 2.84E-03 9.37E-04 1.40E-09 3.21E-03 3.52E-09 3.38E-04 1.45E-01 2.65E-01 4.328E-01
3.050E-04 1.41E-02 4.16E-04 9.36E-04 2.96E-03 9.52E-04 1.46E-09 3.23E-03 3.66E-09 3.31E-04 1.45E-01 2.67E-01 4.347E-01
3.000E-04 1.42E-02 4.43E-04 9.06E-04 3.17E-03 9.78E-04 1.56E-09 3.26E-03 3.92E-09 3.27E-04 1.46E-01 2.69E-01 4.379E-01
2.900E-04 1.45E-02 5.02E-04 8.45E-04 3.65E-03 1.03E-03 1.78E-09 3.33E-03 4.51E-09 3.34E-04 1.47E-01 2.72E-01 4.439E-01
2.800E-04 1.46E-02 5.70E-04 7.90E-04 4.21E-03 1.09E-03 2.04E-09 3.40E-03 5.21E-09 3.52E-04 1.48E-01 2.77E-01 4.498E-01
2.600E-04 1.49E-02 7.56E-04 6.85E-04 5.71E-03 1.22E-03 2.73E-09 3.57E-03 7.05E-09 4.03E-04 1.51E-01 2.83E-01 4.612E-01
2.500E-04 1.52E-02 8.80E-04 6.38E-04 6.69E-03 1.30E-03 3.19E-09 3.67E-03 8.27E-09 4.36E-04 1.53E-01 2.85E-01 4.664E-01
2.200E-04 1.66E-02 1.44E-03 5.16E-04 1.12E-02 1.58E-03 5.26E-09 4.02E-03 1.39E-08 5.74E-04 1.59E-01 2.88E-01 4.826E-01
2.159E-04 1.68E-02 1.55E-03 5.00E-04 1.21E-02 1.62E-03 5.66E-09 4.07E-03 1.50E-08 5.99E-04 1.60E-01 2.88E-01 4.851E-01
2.000E-04 1.78E-02 2.08E-03 4.52E-04 1.64E-02 1.83E-03 7.64E-09 4.31E-03 2.04E-08 7.14E-04 1.63E-01 2.90E-01 4.964E-01
1.662E-04 2.05E-02 4.20E-03 3.64E-04 3.38E-02 2.43E-03 1.58E-08 5.00E-03 4.31E-08 1.12E-03 1.70E-01 2.97E-01 5.340E-01
1.650E-04 2.06E-02 4.32E-03 3.60E-04 3.47E-02 2.46E-03 1.62E-08 5.03E-03 4.43E-08 1.14E-03 1.70E-01 2.97E-01 5.358E-01
1.250E-04 2.72E-02 1.21E-02 3.32E-04 9.45E-02 3.78E-03 4.81E-08 6.38E-03 1.35E-07 2.34E-03 1.80E-01 2.99E-01 6.255E-01
1.235E-04 2.76E-02 1.26E-02 3.30E-04 9.84E-02 3.85E-03 5.04E-08 6.45E-03 1.42E-07 2.41E-03 1.80E-01 2.99E-01 6.307E-01
1.130E-04 3.07E-02 1.70E-02 3.45E-04 1.32E-01 4.42E-03 7.14E-08 7.01E-03 2.02E-07 3.04E-03 1.83E-01 2.97E-01 6.740E-01
1.000E-04 3.66E-02 2.51E-02 3.92E-04 1.94E-01 5.39E-03 1.15E-07 7.85E-03 3.29E-07 4.17E-03 1.88E-01 2.92E-01 7.536E-01
9.500E-05 3.97E-02 2.92E-02 3.98E-04 2.27E-01 5.86E-03 1.40E-07 8.25E-03 4.04E-07 4.75E-03 1.90E-01 2.90E-01 7.953E-01
9.300E-05 4.10E-02 3.11E-02 4.08E-04 2.43E-01 6.07E-03 1.53E-07 8.41E-03 4.40E-07 5.01E-03 1.91E-01 2.89E-01 8.142E-01
9.200E-05 4.17E-02 3.20E-02 4.13E-04 2.51E-01 6.17E-03 1.59E-07 8.50E-03 4.60E-07 5.15E-03 1.91E-01 2.88E-01 8.242E-01
9.100E-05 4.24E-02 3.30E-02 4.23E-04 2.60E-01 6.28E-03 1.66E-07 8.59E-03 4.80E-07 5.29E-03 1.91E-01 2.87E-01 8.347E-01
9.000E-05 4.31E-02 3.40E-02 4.28E-04 2.69E-01 6.39E-03 1.73E-07 8.68E-03 5.02E-07 5.44E-03 1.92E-01 2.87E-01 8.455E-01
8.900E-05 4.39E-02 3.51E-02 4.36E-04 2.79E-01 6.51E-03 1.81E-07 8.77E-03 5.25E-07 5.59E-03 1.92E-01 2.86E-01 8.567E-01
8.800E-05 4.46E-02 3.62E-02 4.41E-04 2.88E-01 6.63E-03 1.89E-07 8.87E-03 5.49E-07 5.75E-03 1.92E-01 2.85E-01 8.684E-01
8.700E-05 4.54E-02 3.74E-02 4.58E-04 2.99E-01 6.75E-03 1.98E-07 8.96E-03 5.75E-07 5.92E-03 1.93E-01 2.84E-01 8.806E-01
8.600E-05 4.62E-02 3.86E-02 4.62E-04 3.09E-01 6.88E-03 2.07E-07 9.06E-03 6.02E-07 6.09E-03 1.93E-01 2.84E-01 8.933E-01
8.500E-05 4.69E-02 3.98E-02 4.68E-04 3.20E-01 7.00E-03 2.16E-07 9.16E-03 6.31E-07 6.27E-03 1.93E-01 2.83E-01 9.064E-01
8.400E-05 4.78E-02 4.12E-02 4.76E-04 3.32E-01 7.14E-03 2.26E-07 9.26E-03 6.61E-07 6.45E-03 1.94E-01 2.82E-01 9.202E-01
8.330E-05 4.84E-02 4.21E-02 4.84E-04 3.40E-01 7.23E-03 2.34E-07 9.34E-03 6.84E-07 6.59E-03 1.94E-01 2.82E-01 9.301E-01
8.200E-05 4.96E-02 4.39E-02 4.94E-04 3.57E-01 7.41E-03 2.49E-07 9.48E-03 7.28E-07 6.85E-03 1.94E-01 2.81E-01 9.494E-01
8.100E-05 5.05E-02 4.54E-02 5.06E-04 3.70E-01 7.55E-03 2.61E-07 9.59E-03 7.65E-07 7.05E-03 1.95E-01 2.80E-01 9.649E-01
8.000E-05 5.15E-02 4.69E-02 5.12E-04 3.84E-01 7.70E-03 2.74E-07 9.70E-03 8.04E-07 7.27E-03 1.95E-01 2.79E-01 9.811E-01
7.900E-05 5.26E-02 4.85E-02 5.24E-04 3.98E-01 7.85E-03 2.87E-07 9.82E-03 8.46E-07 7.50E-03 1.95E-01 2.78E-01 9.979E-01
7.800E-05 5.37E-02 5.01E-02 5.34E-04 4.13E-01 8.01E-03 3.02E-07 9.93E-03 8.90E-07 7.73E-03 1.96E-01 2.77E-01 1.015E+00
7.700E-05 5.49E-02 5.18E-02 5.49E-04 4.28E-01 8.17E-03 3.17E-07 1.01E-02 9.38E-07 7.98E-03 1.96E-01 2.76E-01 1.034E+00
7.600E-05 5.61E-02 5.35E-02 5.71E-04 4.44E-01 8.34E-03 3.34E-07 1.02E-02 9.88E-07 8.23E-03 1.97E-01 2.75E-01 1.052E+00
7.500E-05 5.74E-02 5.52E-02 5.89E-04 4.60E-01 8.51E-03 3.51E-07 1.03E-02 1.04E-06 8.50E-03 1.97E-01 2.74E-01 1.072E+00
7.400E-05 5.87E-02 5.69E-02 6.12E-04 4.78E-01 8.68E-03 3.70E-07 1.04E-02 1.10E-06 8.78E-03 1.98E-01 2.73E-01 1.092E+00
7.300E-05 6.01E-02 5.87E-02 6.40E-04 4.96E-01 8.86E-03 3.90E-07 1.06E-02 1.16E-06 9.07E-03 1.98E-01 2.71E-01 1.113E+00
7.140E-05 6.24E-02 6.15E-02 6.58E-04 5.26E-01 9.16E-03 4.25E-07 1.08E-02 1.27E-06 9.56E-03 1.99E-01 2.70E-01 1.148E+00
7.100E-05 6.30E-02 6.23E-02 6.63E-04 5.33E-01 9.24E-03 4.34E-07 1.08E-02 1.30E-06 9.69E-03 1.99E-01 2.69E-01 1.157E+00
7.000E-05 6.45E-02 6.41E-02 6.83E-04 5.53E-01 9.44E-03 4.59E-07 1.10E-02 1.37E-06 1.00E-02 2.00E-01 2.68E-01 1.180E+00
6.900E-05 6.60E-02 6.59E-02 7.03E-04 5.74E-01 9.64E-03 4.85E-07 1.11E-02 1.46E-06 1.04E-02 2.00E-01 2.66E-01 1.204E+00
6.800E-05 6.76E-02 6.78E-02 7.34E-04 5.95E-01 9.85E-03 5.13E-07 1.13E-02 1.54E-06 1.07E-02 2.01E-01 2.65E-01 1.229E+00
6.700E-05 6.92E-02 6.97E-02 7.63E-04 6.17E-01 1.01E-02 5.43E-07 1.15E-02 1.64E-06 1.11E-02 2.01E-01 2.64E-01 1.254E+00
6.600E-05 7.09E-02 7.17E-02 7.94E-04 6.40E-01 1.03E-02 5.76E-07 1.16E-02 1.74E-06 1.15E-02 2.01E-01 2.62E-01 1.281E+00
6.500E-05 7.26E-02 7.36E-02 8.12E-04 6.64E-01 1.05E-02 6.11E-07 1.18E-02 1.85E-06 1.20E-02 2.02E-01 2.61E-01 1.308E+00
6.400E-05 7.44E-02 7.56E-02 8.31E-04 6.88E-01 1.08E-02 6.50E-07 1.20E-02 1.97E-06 1.24E-02 2.02E-01 2.59E-01 1.336E+00
6.300E-05 7.63E-02 7.76E-02 8.57E-04 7.13E-01 1.10E-02 6.91E-07 1.21E-02 2.10E-06 1.29E-02 2.03E-01 2.58E-01 1.364E+00
6.250E-05 7.72E-02 7.86E-02 8.65E-04 7.26E-01 1.12E-02 7.13E-07 1.22E-02 2.17E-06 1.31E-02 2.03E-01 2.57E-01 1.379E+00
6.200E-05 7.82E-02 7.96E-02 8.90E-04 7.39E-01 1.13E-02 7.36E-07 1.23E-02 2.24E-06 1.34E-02 2.03E-01 2.56E-01 1.394E+00
6.100E-05 8.03E-02 8.15E-02 9.29E-04 7.66E-01 1.16E-02 7.84E-07 1.25E-02 2.39E-06 1.39E-02 2.03E-01 2.55E-01 1.425E+00
6.000E-05 8.24E-02 8.35E-02 9.71E-04 7.94E-01 1.19E-02 8.37E-07 1.27E-02 2.56E-06 1.45E-02 2.04E-01 2.53E-01 1.457E+00
5.900E-05 8.47E-02 8.54E-02 1.01E-03 8.23E-01 1.22E-02 8.94E-07 1.29E-02 2.74E-06 1.51E-02 2.04E-01 2.51E-01 1.490E+00
5.800E-05 8.71E-02 8.72E-02 1.05E-03 8.53E-01 1.25E-02 9.56E-07 1.31E-02 2.93E-06 1.57E-02 2.05E-01 2.49E-01 1.524E+00
5.700E-05 8.95E-02 8.90E-02 1.11E-03 8.85E-01 1.28E-02 1.02E-06 1.34E-02 3.15E-06 1.64E-02 2.05E-01 2.47E-01 1.559E+00
5.600E-05 9.21E-02 9.06E-02 1.17E-03 9.17E-01 1.31E-02 1.10E-06 1.36E-02 3.38E-06 1.71E-02 2.05E-01 2.46E-01 1.596E+00
5.500E-05 9.47E-02 9.22E-02 1.22E-03 9.51E-01 1.34E-02 1.18E-06 1.38E-02 3.63E-06 1.78E-02 2.06E-01 2.44E-01 1.634E+00
5.477E-05 9.54E-02 9.26E-02 1.23E-03 9.59E-01 1.35E-02 1.20E-06 1.39E-02 3.70E-06 2.69E-02 2.06E-01 2.43E-01 1.652E+00
5.400E-05 9.74E-02 9.37E-02 1.27E-03 9.86E-01 1.39E-02 1.27E-06 1.41E-02 3.91E-06 2.80E-02 2.06E-01 2.42E-01 1.683E+00
5.300E-05 1.00E-01 9.51E-02 1.33E-03 1.02E+00 1.43E-02 1.37E-06 1.43E-02 4.22E-06 2.94E-02 2.06E-01 2.40E-01 1.724E+00
5.200E-05 1.03E-01 9.63E-02 1.41E-03 1.06E+00 1.47E-02 1.48E-06 1.46E-02 4.56E-06 3.10E-02 2.07E-01 2.38E-01 1.767E+00
5.100E-05 1.06E-01 9.75E-02 1.49E-03 1.10E+00 1.52E-02 1.60E-06 1.48E-02 4.94E-06 3.27E-02 2.07E-01 2.36E-01 1.811E+00
5.000E-05 1.09E-01 9.86E-02 1.58E-03 1.14E+00 1.56E-02 1.73E-06 1.51E-02 5.35E-06 3.45E-02 2.07E-01 2.35E-01 1.856E+00
4.900E-05 1.12E-01 9.95E-02 1.66E-03 1.18E+00 1.61E-02 1.88E-06 1.54E-02 5.81E-06 3.66E-02 2.07E-01 2.33E-01 1.902E+00
4.880E-05 1.12E-01 9.97E-02 1.67E-03 1.19E+00 1.62E-02 1.91E-06 1.55E-02 5.91E-06 3.70E-02 2.07E-01 2.33E-01 1.911E+00
4.800E-05 1.14E-01 1.00E-01 1.75E-03 1.22E+00 1.67E-02 2.04E-06 1.57E-02 6.32E-06 3.88E-02 2.07E-01 2.31E-01 1.950E+00
4.760E-05 1.16E-01 1.01E-01 1.79E-03 1.24E+00 1.70E-02 2.11E-06 1.58E-02 6.54E-06 3.98E-02 2.07E-01 2.31E-01 1.969E+00
4.700E-05 1.17E-01 1.01E-01 1.86E-03 1.27E+00 1.74E-02 2.23E-06 1.60E-02 6.89E-06 4.13E-02 2.07E-01 2.30E-01 1.998E+00
4.650E-05 1.19E-01 1.02E-01 1.91E-03 1.29E+00 1.77E-02 2.33E-06 1.62E-02 7.20E-06 4.26E-02 2.07E-01 2.29E-01 2.023E+00
4.600E-05 1.20E-01 1.02E-01 1.98E-03 1.31E+00 1.80E-02 2.43E-06 1.64E-02 7.52E-06 4.40E-02 2.07E-01 2.28E-01 2.048E+00
4.550E-05 1.22E-01 1.02E-01 2.06E-03 1.33E+00 1.84E-02 2.54E-06 1.65E-02 7.86E-06 4.55E-02 2.07E-01 2.27E-01 2.074E+00
4.500E-05 1.23E-01 1.03E-01 2.16E-03 1.36E+00 1.88E-02 2.66E-06 1.67E-02 8.23E-06 4.70E-02 2.07E-01 2.26E-01 2.100E+00
4.440E-05 1.25E-01 1.03E-01 2.28E-03 1.38E+00 1.92E-02 2.81E-06 1.69E-02 8.69E-06 4.90E-02 2.07E-01 2.25E-01 2.131E+00
4.350E-05 1.27E-01 1.03E-01 2.48E-03 1.43E+00 1.99E-02 3.06E-06 1.72E-02 9.45E-06 5.23E-02 2.07E-01 2.24E-01 2.180E+00
4.170E-05 1.32E-01 1.04E-01 3.02E-03 1.51E+00 2.16E-02 3.64E-06 1.79E-02 1.12E-05 5.99E-02 2.06E-01 2.22E-01 2.279E+00
4.000E-05 1.36E-01 1.04E-01 3.99E-03 1.60E+00 2.34E-02 4.32E-06 1.86E-02 1.34E-05 6.89E-02 2.06E-01 2.20E-01 2.378E+00
3.850E-05 1.40E-01 1.05E-01 5.28E-03 1.67E+00 2.51E-02 5.07E-06 1.93E-02 1.56E-05 7.89E-02 2.05E-01 2.18E-01 2.468E+00
3.656E-05 1.45E-01 1.05E-01 7.74E-03 1.76E+00 2.74E-02 6.32E-06 2.02E-02 1.94E-05 9.58E-02 2.04E-01 2.16E-01 2.586E+00
3.570E-05 1.47E-01 1.05E-01 9.03E-03 1.80E+00 2.86E-02 6.99E-06 2.06E-02 2.14E-05 1.05E-01 2.03E-01 2.16E-01 2.639E+00
3.330E-05 1.52E-01 1.05E-01 1.35E-02 1.91E+00 3.25E-02 9.58E-06 2.19E-02 2.87E-05 1.42E-01 2.02E-01 2.14E-01 2.793E+00
3.130E-05 1.55E-01 1.04E-01 1.79E-02 1.99E+00 3.73E-02 1.29E-05 2.30E-02 3.74E-05 1.90E-01 2.00E-01 2.13E-01 2.929E+00
3.000E-05 1.57E-01 1.04E-01 2.14E-02 2.03E+00 4.17E-02 1.60E-05 2.38E-02 4.48E-05 2.39E-01 1.99E-01 2.12E-01 3.027E+00
2.940E-05 1.58E-01 1.04E-01 2.31E-02 2.04E+00 4.39E-02 1.78E-05 2.42E-02 4.89E-05 2.68E-01 1.99E-01 2.12E-01 3.076E+00
2.780E-05 1.60E-01 1.04E-01 2.83E-02 2.08E+00 5.14E-02 2.44E-05 2.53E-02 6.24E-05 3.81E-01 1.98E-01 2.11E-01 3.235E+00
2.630E-05 1.61E-01 1.03E-01 3.34E-02 2.09E+00 6.28E-02 3.47E-05 2.63E-02 7.99E-05 5.69E-01 1.96E-01 2.11E-01 3.458E+00
2.500E-05 1.62E-01 1.03E-01 3.95E-02 2.10E+00 7.84E-02 5.05E-05 2.71E-02 1.00E-04 8.65E-01 1.95E-01 2.11E-01 3.780E+00
2.380E-05 1.63E-01 1.03E-01 4.71E-02 2.10E+00 1.08E-01 7.72E-05 2.72E-02 1.26E-04 1.34E+00 1.94E-01 2.11E-01 4.289E+00
2.270E-05 1.63E-01 1.03E-01 5.74E-02 2.10E+00 1.56E-01 1.13E-04 2.83E-02 1.58E-04 1.94E+00 1.93E-01 2.11E-01 4.947E+00
2.170E-05 1.63E-01 1.03E-01 7.16E-02 2.10E+00 2.11E-01 1.47E-04 3.18E-02 1.98E-04 2.26E+00 1.92E-01 2.11E-01 5.344E+00
2.080E-05 1.63E-01 1.02E-01 9.67E-02 2.12E+00 2.19E-01 1.36E-04 3.97E-02 2.46E-04 1.98E+00 1.91E-01 2.11E-01 5.120E+00
2.000E-05 1.63E-01 1.02E-01 3.31E-01 1.93E+00 1.90E-01 1.07E-04 5.05E-02 3.01E-04 1.48E+00 1.89E-01 2.11E-01 4.643E+00
1.920E-05 1.62E-01 1.03E-01 6.06E-01 1.68E+00 1.47E-01 7.32E-05 6.94E-02 3.74E-04 1.04E+00 1.88E-01 2.11E-01 4.204E+00
1.850E-05 1.62E-01 1.04E-01 7.63E-01 1.53E+00 1.15E-01 5.18E-05 9.31E-02 4.58E-04 7.65E-01 1.87E-01 2.12E-01 3.934E+00
1.790E-05 1.63E-01 1.05E-01 9.37E-01 1.36E+00 9.37E-02 3.96E-05 1.19E-01 5.49E-04 5.97E-01 1.86E-01 2.12E-01 3.771E+00
1.720E-05 1.63E-01 1.06E-01 1.05E+00 1.24E+00 7.53E-02 3.15E-05 1.65E-01 6.88E-04 4.60E-01 1.84E-01 2.13E-01 3.663E+00
1.670E-05 1.64E-01 1.07E-01 1.10E+00 1.20E+00 6.44E-02 2.86E-05 2.08E-01 8.14E-04 3.90E-01 1.83E-01 2.13E-01 3.626E+00
1.610E-05 1.64E-01 1.08E-01 1.14E+00 1.15E+00 5.43E-02 2.91E-05 2.83E-01 1.00E-03 3.29E-01 1.81E-01 2.14E-01 3.631E+00
1.560E-05 1.65E-01 1.09E-01 1.16E+00 1.13E+00 4.77E-02 3.29E-05 3.70E-01 1.20E-03 2.93E-01 1.80E-01 2.15E-01 3.673E+00
1.520E-05 1.65E-01 1.09E-01 1.18E+00 1.11E+00 4.33E-02 3.82E-05 4.62E-01 1.38E-03 2.71E-01 1.79E-01 2.15E-01 3.737E+00
1.470E-05 1.65E-01 1.10E-01 1.19E+00 1.09E+00 3.85E-02 4.82E-05 5.95E-01 1.64E-03 2.53E-01 1.78E-01 2.16E-01 3.840E+00
1.430E-05 1.66E-01 1.10E-01 1.20E+00 1.08E+00 3.61E-02 6.03E-05 7.09E-01 1.83E-03 2.44E-01 1.77E-01 2.16E-01 3.935E+00
1.390E-05 1.65E-01 1.10E-01 1.20E+00 1.07E+00 3.51E-02 7.66E-05 7.98E-01 2.03E-03 2.41E-01 1.77E-01 2.15E-01 4.009E+00
1.350E-05 1.65E-01 1.10E-01 1.20E+00 1.06E+00 3.50E-02 9.82E-05 8.81E-01 2.27E-03 2.43E-01 1.76E-01 2.15E-01 4.084E+00
1.320E-05 1.65E-01 1.10E-01 1.20E+00 1.05E+00 3.57E-02 1.19E-04 9.47E-01 2.49E-03 2.50E-01 1.76E-01 2.15E-01 4.146E+00
1.280E-05 1.65E-01 1.11E-01 1.19E+00 1.04E+00 3.80E-02 1.56E-04 1.04E+00 2.83E-03 2.65E-01 1.75E-01 2.15E-01 4.245E+00
1.250E-05 1.64E-01 1.11E-01 1.19E+00 1.03E+00 4.13E-02 1.93E-04 1.12E+00 3.14E-03 2.82E-01 1.75E-01 2.15E-01 4.337E+00
1.220E-05 1.64E-01 1.11E-01 1.19E+00 1.03E+00 4.61E-02 2.39E-04 1.21E+00 3.50E-03 3.06E-01 1.74E-01 2.15E-01 4.448E+00
1.190E-05 1.63E-01 1.11E-01 1.19E+00 1.04E+00 5.25E-02 2.97E-04 1.30E+00 3.92E-03 3.38E-01 1.74E-01 2.15E-01 4.590E+00
1.160E-05 1.63E-01 1.11E-01 1.19E+00 1.05E+00 5.98E-02 3.69E-04 1.41E+00 4.42E-03 3.82E-01 1.73E-01 2.15E-01 4.753E+00
1.140E-05 1.62E-01 1.11E-01 1.19E+00 1.05E+00 6.59E-02 4.35E-04 1.49E+00 4.81E-03 4.20E-01 1.73E-01 2.15E-01 4.876E+00
1.110E-05 1.61E-01 1.11E-01 1.19E+00 1.05E+00 7.55E-02 5.68E-04 1.62E+00 5.48E-03 4.92E-01 1.72E-01 2.16E-01 5.090E+00
1.080E-05 1.60E-01 1.10E-01 1.19E+00 1.05E+00 1.02E-01 7.57E-04 1.78E+00 6.32E-03 5.90E-01 1.71E-01 2.16E-01 5.372E+00
1.050E-05 1.58E-01 1.10E-01 1.18E+00 1.06E+00 1.36E-01 9.82E-04 1.97E+00 7.40E-03 7.25E-01 1.70E-01 2.16E-01 5.736E+00
1.030E-05 1.57E-01 1.10E-01 1.18E+00 1.06E+00 1.62E-01 1.12E-03 2.15E+00 8.24E-03 8.40E-01 1.70E-01 2.17E-01 6.060E+00
1.000E-05 1.56E-01 1.09E-01 1.18E+00 1.06E+00 1.99E-01 1.37E-03 2.42E+00 9.45E-03 1.06E+00 1.69E-01 2.17E-01 6.577E+00
9.750E-06 1.54E-01 1.09E-01 1.17E+00 1.06E+00 2.41E-01 1.70E-03 2.63E+00 1.05E-02 1.28E+00 1.68E-01 2.17E-01 7.048E+00
9.500E-06 1.53E-01 1.08E-01 1.17E+00 1.07E+00 2.90E-01 2.02E-03 2.85E+00 1.17E-02 1.50E+00 1.68E-01 2.17E-01 7.546E+00
9.250E-06 1.51E-01 1.08E-01 1.16E+00 1.07E+00 3.27E-01 2.25E-03 3.08E+00 1.29E-02 1.67E+00 1.67E-01 2.16E-01 7.975E+00
9.080E-06 1.50E-01 1.07E-01 1.15E+00 1.07E+00 3.50E-01 2.42E-03 3.22E+00 1.35E-02 1.71E+00 1.67E-01 2.16E-01 8.151E+00
